\begin{tikzpicture}[font=\normalsize,trim axis left, trim axis right,tight background]
\pgfplotsset{every axis/.append style={very thick},compat=1.5},
\definecolor{color0}{rgb}{0.00000, 0.39216, 0.00000}
\definecolor{color1}{rgb}{0.00000, 0.00000, 0.54510}
\definecolor{color2}{rgb}{0.69020, 0.18824, 0.37647}

\begin{axis}[scale only axis,ytick pos=left,
xlabel={$J_{\mathrm{C}} ( \si{\milli\ampere\per\square\micro\meter} )$},
ylabel={$\beta$},
xmode=log,
xmin=0.001,
xmax=50,
restrict x to domain=-3.69897:2.39794,
log basis x=10,
ymin=0,
ymax=1500,
restrict y to domain=-1e-20:7500,
log basis y=10,
xlabel shift = -5 pt,
 ylabel shift = -5 pt,
xmajorgrids,
enlargelimits=false,
scaled ticks=true,
ymajorgrids,
x tick style={color=black},
y tick style={color=black},
x grid style={white!69.01960784313725!black},
y grid style={white!69.01960784313725!black},
/tikz/mark repeat=2,
legend style={at={(0.02,0.98)}, anchor=north west,legend cell align=left, align=left},
]
\addplot [color=color0, solid, mark=x, mark options={solid}, mark phase=0, ]
  table[row sep=crcr, x expr=\thisrowno{0}*1.000000e-09, y expr=\thisrowno{1}*1.000000e+00]{
14.8236 -1.69986\\
14.5652 -1.75798\\
14.3078 -1.82274\\
14.0518 -1.89538\\
13.7978 -1.9775\\
13.5467 -2.07118\\
13.3 -2.17919\\
13.0595 -2.30529\\
12.8282 -2.45469\\
12.6102 -2.63489\\
12.4118 -2.85695\\
12.2418 -3.13784\\
12.1135 -3.50475\\
12.0458 -4.00349\\
12.0667 -4.71658\\
12.2168 -5.80589\\
12.5556 -7.63011\\
13.1697 -11.149\\
14.1856 -19.9794\\
15.7879 -68.6061\\
18.2462 70.0238\\
21.9536 28.7039\\
27.4841 21.3686\\
35.6753 19.5029\\
47.7498 19.8966\\
65.4917 21.7869\\
91.5049 25.0159\\
129.59 29.66\\
185.293 35.9211\\
266.709 44.0835\\
385.651 54.4855\\
559.361 67.489\\
813.003 83.4399\\
1183.3 102.615\\
1723.85 125.164\\
2512.87 151.048\\
3664.51 180.001\\
5345.39 211.525\\
7798.65 244.921\\
11379.1 279.367\\
16604.7 314.017\\
24231.2 348.093\\
35361.6 380.962\\
51605.5 412.169\\
75312.2 441.447\\
109910 468.687\\
160402 493.91\\
234088 517.224\\
341623 538.791\\
498552 558.8\\
727558 577.446\\
1.06173e+06 594.918\\
1.54936e+06 611.392\\
2.26083e+06 627.025\\
3.29883e+06 641.955\\
4.81298e+06 656.3\\
7.02126e+06 670.159\\
1.02409e+07 683.613\\
1.49332e+07 696.724\\
2.17674e+07 709.533\\
3.17123e+07 722.06\\
4.61653e+07 734.297\\
6.71308e+07 746.208\\
9.74627e+07 757.711\\
1.41179e+08 768.673\\
2.03852e+08 778.891\\
2.93035e+08 788.079\\
4.18668e+08 795.856\\
5.93288e+08 801.741\\
8.31851e+08 805.185\\
1.15093e+09 805.618\\
1.56724e+09 802.549\\
2.0957e+09 795.661\\
2.74758e+09 784.897\\
3.52933e+09 770.481\\
4.44245e+09 752.883\\
5.48421e+09 732.729\\
6.64879e+09 710.703\\
7.92851e+09 687.465\\
9.31486e+09 663.601\\
1.07992e+10 639.594\\
1.23731e+10 615.82\\
1.40287e+10 592.555\\
1.57588e+10 569.982\\
};
\addlegendentry{$V_{\mathrm{CE}}=\SI{0.5}{\volt}$}
\addplot [color=color1, solid, mark=+, mark options={solid}, mark phase=0, ]
  table[row sep=crcr, x expr=\thisrowno{0}*1.000000e-09, y expr=\thisrowno{1}*1.000000e+00]{
32.1847 -1.48035\\
31.9264 -1.49847\\
31.669 -1.51741\\
31.413 -1.53725\\
31.159 -1.55808\\
30.908 -1.58004\\
30.6613 -1.60328\\
30.4209 -1.628\\
30.1897 -1.6545\\
29.9719 -1.68316\\
29.7736 -1.71452\\
29.604 -1.74938\\
29.4761 -1.78885\\
29.409 -1.83459\\
29.4307 -1.889\\
29.5821 -1.95569\\
29.9227 -2.04001\\
30.5393 -2.15004\\
31.5588 -2.29795\\
33.1664 -2.50228\\
35.6322 -2.7914\\
39.3505 -3.20906\\
44.8966 -3.82324\\
53.1104 -4.74078\\
65.2174 -6.13175\\
83.0064 -8.27167\\
109.088 -11.6174\\
147.271 -16.9514\\
203.116 -25.6754\\
284.738 -40.4713\\
403.979 -67.0008\\
578.123 -119.236\\
832.392 -242.528\\
1203.6 -709.561\\
1745.47 3667.71\\
2536.41 781.035\\
3690.85 539.012\\
5375.78 463.511\\
7834.93 436.384\\
11424 430.107\\
16662 434.668\\
24306.6 445.409\\
35463.4 459.777\\
51745.7 476.217\\
75508.3 493.721\\
110187 511.615\\
160797 529.453\\
234656 546.949\\
342443 563.935\\
499738 580.325\\
729278 596.096\\
1.06423e+06 611.261\\
1.55299e+06 625.859\\
2.26611e+06 639.946\\
3.30652e+06 653.581\\
4.82417e+06 666.825\\
7.03756e+06 679.734\\
1.02647e+07 692.357\\
1.49677e+07 704.732\\
2.18176e+07 716.884\\
3.17853e+07 728.819\\
4.62712e+07 740.52\\
6.72841e+07 751.94\\
9.76837e+07 762.991\\
1.41496e+08 773.535\\
2.04304e+08 783.361\\
2.93674e+08 792.18\\
4.19558e+08 799.602\\
5.94508e+08 805.146\\
8.33487e+08 808.258\\
1.15307e+09 808.371\\
1.56996e+09 804.998\\
2.09904e+09 797.826\\
2.75154e+09 786.806\\
3.5339e+09 772.168\\
4.44759e+09 754.383\\
5.48984e+09 734.073\\
6.65483e+09 711.92\\
7.9349e+09 688.579\\
9.32153e+09 664.63\\
1.08061e+10 640.552\\
1.23802e+10 616.722\\
1.40361e+10 593.418\\
1.57666e+10 570.839\\
};
\addlegendentry{$V_{\mathrm{CE}}=\SI{1.0}{\volt}$}
\addplot [color=color2, solid, mark=triangle, mark options={solid, rotate=180}, mark phase=0, ]
  table[row sep=crcr, x expr=\thisrowno{0}*1.000000e-09, y expr=\thisrowno{1}*1.000000e+00]{
49.5459 -1.42528\\
49.2876 -1.43583\\
49.0302 -1.44669\\
48.7743 -1.45788\\
48.5204 -1.46945\\
48.2694 -1.48145\\
48.0229 -1.49393\\
47.7827 -1.50699\\
47.5518 -1.52075\\
47.3344 -1.53539\\
47.1367 -1.55117\\
46.9679 -1.56844\\
46.8412 -1.58776\\
46.7758 -1.60988\\
46.7999 -1.63596\\
46.9547 -1.66769\\
47.3 -1.70754\\
47.9235 -1.75919\\
48.9529 -1.82809\\
50.5744 -1.92233\\
53.0599 -2.05395\\
56.8063 -2.24091\\
62.3924 -2.51001\\
70.663 -2.90134\\
82.8508 -3.47503\\
100.755 -4.32133\\
126.999 -5.57608\\
165.415 -7.44411\\
221.591 -10.2349\\
303.683 -14.4168\\
423.592 -20.7\\
598.686 -30.1615\\
854.308 -44.4356\\
1227.44 -65.9977\\
1772.05 -98.5861\\
2566.89 -147.815\\
3726.87 -222.054\\
5419.7 -333.667\\
7890.09 -500.797\\
11495.2 -750.109\\
16756 -1121.77\\
24433.1 -1680.4\\
35636.2 -2543.54\\
51984.6 -3968.21\\
75841.3 -6683.25\\
110655 -13941.4\\
161456 -109694\\
235589 22708\\
343766 10945.4\\
501619 7403.68\\
731955 5667.32\\
1.06805e+06 4624.66\\
1.55843e+06 3924.91\\
2.27389e+06 3421.63\\
3.31762e+06 3042.32\\
4.84005e+06 2746.67\\
7.06025e+06 2510.34\\
1.02971e+07 2317.59\\
1.50142e+07 2157.77\\
2.1884e+07 2023.32\\
3.18803e+07 1908.68\\
4.64069e+07 1809.64\\
6.74778e+07 1722.85\\
9.79597e+07 1645.59\\
1.41888e+08 1575.49\\
2.04857e+08 1510.52\\
2.9445e+08 1448.79\\
4.20637e+08 1388.62\\
5.95986e+08 1328.61\\
8.35474e+08 1267.72\\
1.15568e+09 1205.43\\
1.5733e+09 1141.91\\
2.10318e+09 1077.93\\
2.7565e+09 1014.69\\
3.53965e+09 953.519\\
4.45402e+09 895.597\\
5.49682e+09 841.728\\
6.66221e+09 792.321\\
7.9425e+09 747.43\\
9.32921e+09 706.859\\
1.08137e+10 670.255\\
1.23877e+10 637.197\\
1.40434e+10 607.249\\
1.57737e+10 579.996\\
};
\addlegendentry{$V_{\mathrm{CE}}=\SI{1.5}{\volt}$}
\end{axis}

\end{tikzpicture}
