\begin{tikzpicture}[font=\normalsize,trim axis left, trim axis right,tight background]
\pgfplotsset{every axis/.append style={very thick},compat=1.5},
\definecolor{color0}{rgb}{0.00000, 0.39216, 0.00000}
\definecolor{color1}{rgb}{0.00000, 0.00000, 0.54510}
\definecolor{color2}{rgb}{0.69020, 0.18824, 0.37647}
\definecolor{color3}{rgb}{1.00000, 0.00000, 0.00000}
\definecolor{color4}{rgb}{0.58039, 0.40392, 0.74118}

\begin{axis}[scale only axis,ytick pos=left,
xlabel={$V_{\mathrm{BE}} ( \si{\volt} )$},
ylabel={$J_{\mathrm{C}} ( \si{\milli\ampere} )$},
ymode=log,
xmin=0.4,
xmax=1,
restrict x to domain=0.08:5,
log basis x=10,
ymin=1e-06,
ymax=100,
restrict y to domain=-6.69897:2.69897,
log basis y=10,
xlabel shift = -5 pt,
 ylabel shift = -5 pt,
xmajorgrids,
enlargelimits=false,
scaled ticks=true,
ymajorgrids,
x tick style={color=black},
y tick style={color=black},
x grid style={white!69.01960784313725!black},
y grid style={white!69.01960784313725!black},
/tikz/mark repeat=2,
legend style={at={(0.02,0.98)}, anchor=north west,legend cell align=left, align=left},
]
\addplot [color=color0, solid, mark=x, mark options={solid}, mark phase=0, ]
  table[row sep=crcr, x expr=\thisrowno{0}*1.000000e+00, y expr=\thisrowno{1}*1.000000e-09]{
0.1 12.3334\\
0.11 12.2334\\
0.12 12.1334\\
0.13 12.0334\\
0.14 11.9334\\
0.15 11.8334\\
0.16 11.7334\\
0.17 11.6335\\
0.18 11.5335\\
0.19 11.4335\\
0.2 11.3336\\
0.21 11.2336\\
0.22 11.1338\\
0.23 11.034\\
0.24 10.9343\\
0.25 10.8348\\
0.26 10.7356\\
0.27 10.637\\
0.28 10.5391\\
0.29 10.4424\\
0.3 10.3477\\
0.31 10.2561\\
0.32 10.1695\\
0.33 10.0908\\
0.34 10.0247\\
0.35 9.97864\\
0.36 9.96436\\
0.37 10.0007\\
0.38 10.1175\\
0.39 10.3622\\
0.4 10.8104\\
0.41 11.5822\\
0.42 12.8687\\
0.43 14.9735\\
0.44 18.3797\\
0.45 23.8556\\
0.46 32.6226\\
0.47 46.6236\\
0.48 68.948\\
0.49 104.509\\
0.5 161.118\\
0.51 251.202\\
0.52 394.517\\
0.53 622.484\\
0.54 985.069\\
0.55 1561.73\\
0.56 2478.82\\
0.57 3937.29\\
0.58 6256.66\\
0.59 9945.08\\
0.6 15810.6\\
0.61 25138.1\\
0.62 39971.1\\
0.63 63558.6\\
0.64 101068\\
0.65 160714\\
0.66 255560\\
0.67 406378\\
0.68 646190\\
0.69 1.02749e+06\\
0.7 1.6337e+06\\
0.71 2.59739e+06\\
0.72 4.12906e+06\\
0.73 6.56275e+06\\
0.74 1.04279e+07\\
0.75 1.6562e+07\\
0.76 2.62858e+07\\
0.77 4.16722e+07\\
0.78 6.59502e+07\\
0.79 1.0409e+08\\
0.8 1.63604e+08\\
0.81 2.55528e+08\\
0.82 3.95402e+08\\
0.83 6.03771e+08\\
0.84 9.05468e+08\\
0.85 1.32696e+09\\
0.86 1.89194e+09\\
0.87 2.61674e+09\\
0.88 3.50768e+09\\
0.89 4.56146e+09\\
0.9 5.76783e+09\\
0.91 7.11277e+09\\
0.92 8.58114e+09\\
0.93 1.01583e+10\\
0.94 1.18309e+10\\
0.95 1.35874e+10\\
0.96 1.54175e+10\\
0.97 1.73128e+10\\
0.98 1.92659e+10\\
0.99 2.12705e+10\\
1 2.33212e+10\\
1.01 2.54135e+10\\
1.02 2.75433e+10\\
1.03 2.97073e+10\\
1.04 3.19023e+10\\
1.05 3.41257e+10\\
1.06 3.63752e+10\\
1.07 3.86487e+10\\
1.08 4.09444e+10\\
1.09 4.32605e+10\\
1.1 4.55929e+10\\
};
\addlegendentry{$T=\SI{250.0}{\kelvin}$}
\addplot [color=color1, solid, mark=+, mark options={solid}, mark phase=0, ]
  table[row sep=crcr, x expr=\thisrowno{0}*1.000000e+00, y expr=\thisrowno{1}*1.000000e-09]{
0.1 12.3405\\
0.11 12.2408\\
0.12 12.1412\\
0.13 12.0418\\
0.14 11.9426\\
0.15 11.8439\\
0.16 11.7459\\
0.17 11.6488\\
0.18 11.5532\\
0.19 11.4597\\
0.2 11.3694\\
0.21 11.2839\\
0.22 11.2055\\
0.23 11.1378\\
0.24 11.0861\\
0.25 11.0581\\
0.26 11.0657\\
0.27 11.1263\\
0.28 11.2661\\
0.29 11.5241\\
0.3 11.9587\\
0.31 12.6569\\
0.32 13.7486\\
0.33 15.428\\
0.34 17.9847\\
0.35 21.8515\\
0.36 27.6742\\
0.37 36.4175\\
0.38 49.5212\\
0.39 69.1358\\
0.4 98.4714\\
0.41 142.322\\
0.42 207.844\\
0.43 305.724\\
0.44 451.917\\
0.45 670.248\\
0.46 996.285\\
0.47 1483.14\\
0.48 2210.11\\
0.49 3295.58\\
0.5 4916.34\\
0.51 7336.33\\
0.52 10949.6\\
0.53 16344.6\\
0.54 24399.8\\
0.55 36426.8\\
0.56 54384.1\\
0.57 81195.3\\
0.58 121226\\
0.59 180993\\
0.6 270227\\
0.61 403453\\
0.62 602354\\
0.63 899299\\
0.64 1.34259e+06\\
0.65 2.00432e+06\\
0.66 2.99203e+06\\
0.67 4.46608e+06\\
0.68 6.66552e+06\\
0.69 9.94629e+06\\
0.7 1.48378e+07\\
0.71 2.2126e+07\\
0.72 3.29746e+07\\
0.73 4.9099e+07\\
0.74 7.30135e+07\\
0.75 1.0837e+08\\
0.76 1.60406e+08\\
0.77 2.36485e+08\\
0.78 3.46695e+08\\
0.79 5.0432e+08\\
0.8 7.25954e+08\\
0.81 1.03087e+09\\
0.82 1.43941e+09\\
0.83 1.97047e+09\\
0.84 2.63874e+09\\
0.85 3.4528e+09\\
0.86 4.4145e+09\\
0.87 5.51993e+09\\
0.88 6.76103e+09\\
0.89 8.12742e+09\\
0.9 9.60789e+09\\
0.91 1.11913e+10\\
0.92 1.28672e+10\\
0.93 1.46262e+10\\
0.94 1.64597e+10\\
0.95 1.83603e+10\\
0.96 2.03213e+10\\
0.97 2.23371e+10\\
0.98 2.44026e+10\\
0.99 2.65133e+10\\
1 2.86653e+10\\
1.01 3.08551e+10\\
1.02 3.30796e+10\\
1.03 3.53362e+10\\
1.04 3.76224e+10\\
1.05 3.99358e+10\\
1.06 4.22743e+10\\
1.07 4.46335e+10\\
1.08 4.6991e+10\\
1.09 4.92189e+10\\
1.1 5.10827e+10\\
};
\addlegendentry{$T=\SI{287.5}{\kelvin}$}
\addplot [color=color2, solid, mark=triangle, mark options={solid, rotate=180}, mark phase=0, ]
  table[row sep=crcr, x expr=\thisrowno{0}*1.000000e+00, y expr=\thisrowno{1}*1.000000e-09]{
0.1 12.6672\\
0.11 12.5907\\
0.12 12.524\\
0.13 12.4715\\
0.14 12.439\\
0.15 12.435\\
0.16 12.4715\\
0.17 12.5657\\
0.18 12.7419\\
0.19 13.0348\\
0.2 13.4937\\
0.21 14.1886\\
0.22 15.2193\\
0.23 16.7276\\
0.24 18.9152\\
0.25 22.0692\\
0.26 26.5977\\
0.27 33.0815\\
0.28 42.3463\\
0.29 55.5671\\
0.3 74.4149\\
0.31 101.267\\
0.32 139.504\\
0.33 193.936\\
0.34 271.405\\
0.35 381.641\\
0.36 538.487\\
0.37 761.633\\
0.38 1079.09\\
0.39 1530.69\\
0.4 2173.1\\
0.41 3086.94\\
0.42 4386.87\\
0.43 6235.97\\
0.44 8866.24\\
0.45 12607.7\\
0.46 17929.7\\
0.47 25499.9\\
0.48 36268\\
0.49 51584.8\\
0.5 73371.9\\
0.51 104362\\
0.52 148443\\
0.53 211144\\
0.54 300328\\
0.55 427182\\
0.56 607611\\
0.57 864239\\
0.58 1.22923e+06\\
0.59 1.74833e+06\\
0.6 2.48656e+06\\
0.61 3.53633e+06\\
0.62 5.02895e+06\\
0.63 7.15091e+06\\
0.64 1.01669e+07\\
0.65 1.44521e+07\\
0.66 2.05381e+07\\
0.67 2.9176e+07\\
0.68 4.14252e+07\\
0.69 5.87735e+07\\
0.7 8.33003e+07\\
0.71 1.17891e+08\\
0.72 1.66509e+08\\
0.73 2.34521e+08\\
0.74 3.29059e+08\\
0.75 4.59351e+08\\
0.76 6.36921e+08\\
0.77 8.75507e+08\\
0.78 1.19052e+09\\
0.79 1.59794e+09\\
0.8 2.11281e+09\\
0.81 2.74754e+09\\
0.82 3.51059e+09\\
0.83 4.40587e+09\\
0.84 5.43296e+09\\
0.85 6.58786e+09\\
0.86 7.86412e+09\\
0.87 9.25383e+09\\
0.88 1.07484e+10\\
0.89 1.23394e+10\\
0.9 1.40186e+10\\
0.91 1.57782e+10\\
0.92 1.76114e+10\\
0.93 1.95117e+10\\
0.94 2.14733e+10\\
0.95 2.34912e+10\\
0.96 2.55607e+10\\
0.97 2.76777e+10\\
0.98 2.98384e+10\\
0.99 3.20396e+10\\
1 3.42781e+10\\
1.01 3.65512e+10\\
1.02 3.88563e+10\\
1.03 4.11906e+10\\
1.04 4.3548e+10\\
1.05 4.59049e+10\\
1.06 4.81663e+10\\
1.07 5.0168e+10\\
1.08 5.18929e+10\\
1.09 5.34467e+10\\
1.1 5.49159e+10\\
};
\addlegendentry{$T=\SI{325.0}{\kelvin}$}
\addplot [color=color3, solid, mark=triangle, mark options={solid, rotate=0}, mark phase=0, ]
  table[row sep=crcr, x expr=\thisrowno{0}*1.000000e+00, y expr=\thisrowno{1}*1.000000e-09]{
0.1 25.6099\\
0.11 26.3469\\
0.12 27.3924\\
0.13 28.8604\\
0.14 30.9065\\
0.15 33.7441\\
0.16 37.6648\\
0.17 43.0681\\
0.18 50.5009\\
0.19 60.7115\\
0.2 74.7243\\
0.21 93.9414\\
0.22 120.282\\
0.23 156.374\\
0.24 205.812\\
0.25 273.52\\
0.26 366.234\\
0.27 493.177\\
0.28 666.974\\
0.29 904.902\\
0.3 1230.62\\
0.31 1676.49\\
0.32 2286.84\\
0.33 3122.33\\
0.34 4265.99\\
0.35 5831.47\\
0.36 7974.35\\
0.37 10907.6\\
0.38 14922.7\\
0.39 20418.6\\
0.4 27941.4\\
0.41 38238.8\\
0.42 52334\\
0.43 71627.5\\
0.44 98036.4\\
0.45 134185\\
0.46 183665\\
0.47 251392\\
0.48 344094\\
0.49 470982\\
0.5 644659\\
0.51 882374\\
0.52 1.20773e+06\\
0.53 1.65303e+06\\
0.54 2.26247e+06\\
0.55 3.09649e+06\\
0.56 4.23779e+06\\
0.57 5.79942e+06\\
0.58 7.9359e+06\\
0.59 1.08583e+07\\
0.6 1.48548e+07\\
0.61 2.03183e+07\\
0.62 2.7784e+07\\
0.63 3.79795e+07\\
0.64 5.18911e+07\\
0.65 7.08524e+07\\
0.66 9.66569e+07\\
0.67 1.31703e+08\\
0.68 1.79171e+08\\
0.69 2.43231e+08\\
0.7 3.2927e+08\\
0.71 4.44114e+08\\
0.72 5.96192e+08\\
0.73 7.95579e+08\\
0.74 1.05382e+09\\
0.75 1.38346e+09\\
0.76 1.7973e+09\\
0.77 2.30737e+09\\
0.78 2.9239e+09\\
0.79 3.65444e+09\\
0.8 4.50341e+09\\
0.81 5.47206e+09\\
0.82 6.55885e+09\\
0.83 7.76004e+09\\
0.84 9.07038e+09\\
0.85 1.04837e+10\\
0.86 1.19933e+10\\
0.87 1.35927e+10\\
0.88 1.52752e+10\\
0.89 1.70348e+10\\
0.9 1.88655e+10\\
0.91 2.07621e+10\\
0.92 2.27196e+10\\
0.93 2.47335e+10\\
0.94 2.67996e+10\\
0.95 2.89143e+10\\
0.96 3.10739e+10\\
0.97 3.32754e+10\\
0.98 3.55157e+10\\
0.99 3.7792e+10\\
1 4.01004e+10\\
1.01 4.24323e+10\\
1.02 4.47586e+10\\
1.03 4.6993e+10\\
1.04 4.90165e+10\\
1.05 5.08117e+10\\
1.06 5.24487e+10\\
1.07 5.39957e+10\\
1.08 5.54963e+10\\
1.09 5.69755e+10\\
1.1 5.84468e+10\\
};
\addlegendentry{$T=\SI{362.5}{\kelvin}$}
\addplot [color=color4, solid, mark=asterisk, mark options={solid}, mark phase=0, ]
  table[row sep=crcr, x expr=\thisrowno{0}*1.000000e+00, y expr=\thisrowno{1}*1.000000e-09]{
0.1 410.342\\
0.11 425.703\\
0.12 446.113\\
0.13 473.224\\
0.14 509.224\\
0.15 557.017\\
0.16 620.455\\
0.17 704.651\\
0.18 816.386\\
0.19 964.657\\
0.2 1161.4\\
0.21 1422.46\\
0.22 1768.84\\
0.23 2228.42\\
0.24 2838.18\\
0.25 3647.21\\
0.26 4720.6\\
0.27 6144.74\\
0.28 8034.23\\
0.29 10541.1\\
0.3 13867.1\\
0.31 18279.9\\
0.32 24134.6\\
0.33 31902.3\\
0.34 42208\\
0.35 55881.2\\
0.36 74022\\
0.37 98090.2\\
0.38 130022\\
0.39 172388\\
0.4 228597\\
0.41 303170\\
0.42 402107\\
0.43 533369\\
0.44 707514\\
0.45 938548\\
0.46 1.24505e+06\\
0.47 1.65167e+06\\
0.48 2.19108e+06\\
0.49 2.90663e+06\\
0.5 3.85579e+06\\
0.51 5.11474e+06\\
0.52 6.78444e+06\\
0.53 8.99865e+06\\
0.54 1.19345e+07\\
0.55 1.58265e+07\\
0.56 2.09845e+07\\
0.57 2.78181e+07\\
0.58 3.68674e+07\\
0.59 4.88438e+07\\
0.6 6.46815e+07\\
0.61 8.56038e+07\\
0.62 1.13206e+08\\
0.63 1.49556e+08\\
0.64 1.97317e+08\\
0.65 2.59886e+08\\
0.66 3.41543e+08\\
0.67 4.47601e+08\\
0.68 5.84522e+08\\
0.69 7.59977e+08\\
0.7 9.82795e+08\\
0.71 1.26276e+09\\
0.72 1.61021e+09\\
0.73 2.03552e+09\\
0.74 2.54838e+09\\
0.75 3.15713e+09\\
0.76 3.86824e+09\\
0.77 4.68594e+09\\
0.78 5.61214e+09\\
0.79 6.64665e+09\\
0.8 7.78747e+09\\
0.81 9.03125e+09\\
0.82 1.03737e+10\\
0.83 1.18098e+10\\
0.84 1.33344e+10\\
0.85 1.49423e+10\\
0.86 1.66281e+10\\
0.87 1.8387e+10\\
0.88 2.0214e+10\\
0.89 2.21047e+10\\
0.9 2.40548e+10\\
0.91 2.60605e+10\\
0.92 2.81179e+10\\
0.93 3.02238e+10\\
0.94 3.23749e+10\\
0.95 3.45681e+10\\
0.96 3.68e+10\\
0.97 3.90653e+10\\
0.98 4.13515e+10\\
0.99 4.36229e+10\\
1 4.57982e+10\\
1.01 4.77908e+10\\
1.02 4.95935e+10\\
1.03 5.12573e+10\\
1.04 5.2835e+10\\
1.05 5.43635e+10\\
1.06 5.58656e+10\\
1.07 5.7355e+10\\
1.08 5.88391e+10\\
1.09 6.03214e+10\\
1.1 6.18033e+10\\
};
\addlegendentry{$T=\SI{400.0}{\kelvin}$}
\end{axis}

\end{tikzpicture}
