\begin{tikzpicture}[font=\normalsize,trim axis left, trim axis right,tight background]
\pgfplotsset{every axis/.append style={very thick},compat=1.5},
\definecolor{color0}{rgb}{0.00000, 0.39216, 0.00000}
\definecolor{color1}{rgb}{0.00000, 0.00000, 0.54510}
\definecolor{color2}{rgb}{0.69020, 0.18824, 0.37647}

\begin{axis}[scale only axis,ytick pos=left,
xlabel={$V_{\mathrm{BE}} ( \si{\volt} )$},
ylabel={$J_{\mathrm{C}} ( \si{\milli\ampere\per\square\micro\meter} )$},
ymode=log,
xmin=0.6,
xmax=0.95,
restrict x to domain=0.12:4.75,
log basis x=10,
ymin=0.001,
ymax=50,
restrict y to domain=-3.69897:2.39794,
log basis y=10,
xlabel shift = -5 pt,
 ylabel shift = -5 pt,
xmajorgrids,
enlargelimits=false,
scaled ticks=true,
ymajorgrids,
x tick style={color=black},
y tick style={color=black},
x grid style={white!69.01960784313725!black},
y grid style={white!69.01960784313725!black},
/tikz/mark repeat=2,
legend style={at={(0.02,0.98)}, anchor=north west,legend cell align=left, align=left},
]
\addplot [color=color0, solid, mark=x, mark options={solid}, mark phase=0, ]
  table[row sep=crcr, x expr=\thisrowno{0}*1.000000e+00, y expr=\thisrowno{1}*1.000000e-09]{
0.1 5.69333\\
0.11 5.59466\\
0.12 5.4966\\
0.13 5.39945\\
0.14 5.30363\\
0.15 5.20977\\
0.16 5.11878\\
0.17 5.03199\\
0.18 4.95138\\
0.19 4.87982\\
0.2 4.82156\\
0.21 4.78279\\
0.22 4.77263\\
0.23 4.80446\\
0.24 4.89787\\
0.25 5.08165\\
0.26 5.39801\\
0.27 5.90891\\
0.28 6.70524\\
0.29 7.92034\\
0.3 9.74988\\
0.31 12.4809\\
0.32 16.5347\\
0.33 22.5291\\
0.34 31.371\\
0.35 44.3906\\
0.36 63.5398\\
0.37 91.6825\\
0.38 133.02\\
0.39 193.718\\
0.4 282.822\\
0.41 413.601\\
0.42 605.528\\
0.43 887.17\\
0.44 1300.44\\
0.45 1906.84\\
0.46 2796.59\\
0.47 4102.07\\
0.48 6017.51\\
0.49 8827.87\\
0.5 12951.2\\
0.51 19001\\
0.52 27877.1\\
0.53 40899.9\\
0.54 60006.6\\
0.55 88039.1\\
0.56 129167\\
0.57 189507\\
0.58 278034\\
0.59 407911\\
0.6 598451\\
0.61 877978\\
0.62 1.28804e+06\\
0.63 1.88955e+06\\
0.64 2.77183e+06\\
0.65 4.06579e+06\\
0.66 5.96321e+06\\
0.67 8.74485e+06\\
0.68 1.28213e+07\\
0.69 1.87924e+07\\
0.7 2.75321e+07\\
0.71 4.03104e+07\\
0.72 5.89644e+07\\
0.73 8.61346e+07\\
0.74 1.25581e+08\\
0.75 1.82587e+08\\
0.76 2.64437e+08\\
0.77 3.80905e+08\\
0.78 5.44632e+08\\
0.79 7.71151e+08\\
0.8 1.0783e+09\\
0.81 1.48481e+09\\
0.82 2.0082e+09\\
0.83 2.66247e+09\\
0.84 3.45634e+09\\
0.85 4.39264e+09\\
0.86 5.46891e+09\\
0.87 6.67867e+09\\
0.88 8.01298e+09\\
0.89 9.46175e+09\\
0.9 1.10147e+10\\
0.91 1.2662e+10\\
0.92 1.43943e+10\\
0.93 1.62029e+10\\
};
\addlegendentry{$V_{\mathrm{CE}}=\SI{0.5}{\volt}$}
\addplot [color=color1, solid, mark=+, mark options={solid}, mark phase=0, ]
  table[row sep=crcr, x expr=\thisrowno{0}*1.000000e+00, y expr=\thisrowno{1}*1.000000e-09]{
0.1 12.36\\
0.11 12.2613\\
0.12 12.1633\\
0.13 12.0662\\
0.14 11.9704\\
0.15 11.8765\\
0.16 11.7855\\
0.17 11.6988\\
0.18 11.6183\\
0.19 11.5468\\
0.2 11.4887\\
0.21 11.4501\\
0.22 11.4402\\
0.23 11.4724\\
0.24 11.5664\\
0.25 11.751\\
0.26 12.0686\\
0.27 12.5812\\
0.28 13.3801\\
0.29 14.5988\\
0.3 16.4336\\
0.31 19.1723\\
0.32 23.2372\\
0.33 29.2478\\
0.34 38.1131\\
0.35 51.1668\\
0.36 70.3657\\
0.37 98.5805\\
0.38 140.024\\
0.39 200.875\\
0.4 290.201\\
0.41 421.306\\
0.42 613.707\\
0.43 896.041\\
0.44 1310.32\\
0.45 1918.2\\
0.46 2810.1\\
0.47 4118.73\\
0.48 6038.77\\
0.49 8855.85\\
0.5 12989\\
0.51 19053.2\\
0.52 27950.3\\
0.53 41003.9\\
0.54 60155.6\\
0.55 88254\\
0.56 129478\\
0.57 189960\\
0.58 278694\\
0.59 408874\\
0.6 599857\\
0.61 880035\\
0.62 1.29105e+06\\
0.63 1.89395e+06\\
0.64 2.77828e+06\\
0.65 4.07524e+06\\
0.66 5.97705e+06\\
0.67 8.76511e+06\\
0.68 1.2851e+07\\
0.69 1.88358e+07\\
0.7 2.75955e+07\\
0.71 4.0403e+07\\
0.72 5.90994e+07\\
0.73 8.63308e+07\\
0.74 1.25865e+08\\
0.75 1.82996e+08\\
0.76 2.6502e+08\\
0.77 3.81728e+08\\
0.78 5.45776e+08\\
0.79 7.7271e+08\\
0.8 1.08037e+09\\
0.81 1.48749e+09\\
0.82 2.01156e+09\\
0.83 2.66655e+09\\
0.84 3.46113e+09\\
0.85 4.39811e+09\\
0.86 5.47499e+09\\
0.87 6.68528e+09\\
0.88 8.02006e+09\\
0.89 9.46923e+09\\
0.9 1.10226e+10\\
0.91 1.26702e+10\\
0.92 1.4403e+10\\
0.93 1.62127e+10\\
};
\addlegendentry{$V_{\mathrm{CE}}=\SI{1.0}{\volt}$}
\addplot [color=color2, solid, mark=triangle, mark options={solid, rotate=180}, mark phase=0, ]
  table[row sep=crcr, x expr=\thisrowno{0}*1.000000e+00, y expr=\thisrowno{1}*1.000000e-09]{
0.1 19.0267\\
0.11 18.9281\\
0.12 18.83\\
0.13 18.7329\\
0.14 18.6372\\
0.15 18.5434\\
0.16 18.4525\\
0.17 18.3659\\
0.18 18.2856\\
0.19 18.2144\\
0.2 18.1566\\
0.21 18.1186\\
0.22 18.1095\\
0.23 18.1429\\
0.24 18.2385\\
0.25 18.4255\\
0.26 18.7464\\
0.27 19.2639\\
0.28 20.0696\\
0.29 21.2981\\
0.3 23.147\\
0.31 25.9058\\
0.32 29.9993\\
0.33 36.0509\\
0.34 44.9749\\
0.35 58.1124\\
0.36 77.431\\
0.37 105.817\\
0.38 147.505\\
0.39 208.706\\
0.4 298.533\\
0.41 430.354\\
0.42 623.779\\
0.43 907.578\\
0.44 1323.96\\
0.45 1934.83\\
0.46 2831.02\\
0.47 4145.79\\
0.48 6074.62\\
0.49 8904.28\\
0.5 13055.5\\
0.51 19145.4\\
0.52 28079.5\\
0.53 41186.1\\
0.54 60413.7\\
0.55 88621.1\\
0.56 130002\\
0.57 190708\\
0.58 279763\\
0.59 410405\\
0.6 602052\\
0.61 883183\\
0.62 1.29556e+06\\
0.63 1.90044e+06\\
0.64 2.7876e+06\\
0.65 4.08864e+06\\
0.66 5.99632e+06\\
0.67 8.79283e+06\\
0.68 1.28909e+07\\
0.69 1.88932e+07\\
0.7 2.7678e+07\\
0.71 4.05216e+07\\
0.72 5.92697e+07\\
0.73 8.65751e+07\\
0.74 1.26215e+08\\
0.75 1.83494e+08\\
0.76 2.65725e+08\\
0.77 3.82718e+08\\
0.78 5.47149e+08\\
0.79 7.74583e+08\\
0.8 1.08287e+09\\
0.81 1.49074e+09\\
0.82 2.01566e+09\\
0.83 2.67154e+09\\
0.84 3.467e+09\\
0.85 4.40477e+09\\
0.86 5.4823e+09\\
0.87 6.69307e+09\\
0.88 8.02814e+09\\
0.89 9.47745e+09\\
0.9 1.10308e+10\\
0.91 1.26783e+10\\
0.92 1.44109e+10\\
0.93 1.62205e+10\\
};
\addlegendentry{$V_{\mathrm{CE}}=\SI{1.5}{\volt}$}
\end{axis}

\end{tikzpicture}
