\begin{tikzpicture}[font=\normalsize,trim axis left, trim axis right,tight background]
\pgfplotsset{every axis/.append style={very thick},compat=1.5},
\definecolor{color0}{rgb}{0.00000, 0.39216, 0.00000}
\definecolor{color1}{rgb}{0.00000, 0.00000, 0.54510}
\definecolor{color2}{rgb}{0.69020, 0.18824, 0.37647}

\begin{axis}[scale only axis,ytick pos=left,
xlabel={$J_{\mathrm{C}} ( \si{\milli\ampere\per\square\micro\meter} )$},
ylabel={$\mathrm{MSG} ( \si{\dB} )$},
xmode=log,
xmin=0.001,
xmax=20,
restrict x to domain=-3.69897:2,
log basis x=10,
ymin=0,
ymax=50,
restrict y to domain=-1e-20:250,
log basis y=10,
xlabel shift = -5 pt,
 ylabel shift = -5 pt,
xmajorgrids,
enlargelimits=false,
scaled ticks=true,
ymajorgrids,
x tick style={color=black},
y tick style={color=black},
x grid style={white!69.01960784313725!black},
y grid style={white!69.01960784313725!black},
/tikz/mark repeat=2,
legend style={at={(0.02,0.98)}, anchor=north west,legend cell align=left, align=left},
]
\addplot [color=color0, solid, mark=x, mark options={solid}, mark phase=0, ]
  table[row sep=crcr, x expr=\thisrowno{0}*1.000000e-09, y expr=\thisrowno{1}*1.000000e+00]{
5.69491 -4.65626e-11\\
5.59694 -7.45232e-11\\
5.4999 4.15317e-08\\
5.40423 -1.39801e-10\\
5.31056 -2.14428e-10\\
5.21979 -3.07744e-10\\
5.13329 -4.47757e-10\\
5.05299 -6.62512e-10\\
4.98177 -9.61398e-10\\
4.92381 -1.40987e-09\\
4.8852 -2.04544e-09\\
4.87487 -2.99909e-09\\
4.90584 3.69114e-08\\
4.99712 3.48539e-08\\
5.17649 3.18685e-08\\
5.48453 2.75143e-08\\
5.98049 6.23173e-08\\
6.75091 9.41347e-08\\
7.9222 1.62698e-07\\
9.67895 1.83849e-07\\
12.2908 2.77844e-07\\
16.1515 4.40221e-07\\
21.8363 6.23711e-07\\
30.1852 9.00971e-07\\
42.425 1.34019e-06\\
60.3476 1.92162e-06\\
86.5701 2.77961e-06\\
124.915 4.11628e-06\\
180.964 5.99192e-06\\
262.87 8.76346e-06\\
382.542 1.27862e-05\\
557.371 1.86784e-05\\
812.756 2.7252e-05\\
1185.79 3.97951e-05\\
1730.66 5.80916e-05\\
2526.49 8.47781e-05\\
3688.84 0.000123822\\
5386.49 0.000180785\\
7865.94 0.000264135\\
11487.2 0.000386017\\
16776 0.000564507\\
24500.1 0.000826089\\
35781.1 0.00121044\\
52256.5 0.00177655\\
76318.1 0.00261399\\
111459 0.00385986\\
162779 0.00572844\\
237728 0.00856215\\
347182 0.0129237\\
507024 0.0197671\\
740444 0.0307641\\
1.0813e+06 0.0489378\\
1.57901e+06 0.079905\\
2.30571e+06 0.134299\\
3.36663e+06 0.232364\\
4.91525e+06 0.412085\\
7.17527e+06 0.741302\\
1.04725e+07 1.32872\\
1.52806e+07 2.31498\\
2.22874e+07 3.8189\\
3.24885e+07 5.85991\\
4.73198e+07 8.3401\\
6.88402e+07 11.109\\
9.9978e+07 14.0318\\
1.4485e+08 17.011\\
2.09148e+08 19.978\\
3.00561e+08 22.8752\\
4.2914e+08 25.6569\\
6.07462e+08 28.2854\\
8.50352e+08 30.7144\\
1.17395e+09 32.8951\\
1.59247e+09 34.6628\\
2.06765e+09 33.7615\\
2.47256e+09 31.123\\
2.83249e+09 29.7498\\
3.19008e+09 29.1006\\
3.56663e+09 28.7414\\
3.97399e+09 28.4482\\
4.41913e+09 28.0982\\
4.90563e+09 27.6184\\
5.43411e+09 26.9622\\
6.00229e+09 26.1017\\
6.6049e+09 25.0285\\
7.23369e+09 23.756\\
7.87744e+09 22.3183\\
8.52232e+09 20.7611\\
9.15255e+09 19.1256\\
9.75151e+09 17.4302\\
1.03034e+10 15.6629\\
1.07955e+10 13.794\\
1.12195e+10 11.815\\
1.15734e+10 9.77837\\
1.18607e+10 7.79879\\
1.20889e+10 6.00941\\
1.22678e+10 4.50764\\
1.2407e+10 3.32704\\
1.25153e+10 2.44406\\
1.25999e+10 1.80426\\
1.26665e+10 1.34752\\
1.27195e+10 1.02212\\
1.27621e+10 0.788734\\
};
\addlegendentry{$V_{\mathrm{CE}}=\SI{0.5}{\volt}$}
\addplot [color=color1, solid, mark=+, mark options={solid}, mark phase=0, ]
  table[row sep=crcr, x expr=\thisrowno{0}*1.000000e-09, y expr=\thisrowno{1}*1.000000e+00]{
12.3616 -4.51045e-11\\
12.2636 -6.31625e-11\\
12.1666 -9.92794e-11\\
12.0709 -1.35406e-10\\
11.9773 -1.98645e-10\\
11.8865 -2.98039e-10\\
11.8001 -4.42645e-10\\
11.7198 -6.41549e-10\\
11.6487 -9.30935e-10\\
11.5908 -1.36512e-09\\
11.5523 -1.99848e-09\\
11.5422 -2.91262e-09\\
11.5735 3.83996e-08\\
11.6653 -6.21771e-09\\
11.8453 3.35381e-08\\
12.1543 7.19266e-08\\
12.6517 6.57642e-08\\
13.4242 9.93322e-08\\
14.5985 1.28743e-07\\
16.3596 1.94588e-07\\
18.9778 3.36528e-07\\
22.8479 4.22971e-07\\
28.5463 6.17813e-07\\
36.915 9.54611e-07\\
49.1837 1.33566e-06\\
67.1485 1.99652e-06\\
93.4325 2.90963e-06\\
131.867 4.24659e-06\\
188.047 6.2026e-06\\
270.145 9.03028e-06\\
390.095 1.31962e-05\\
565.331 1.9278e-05\\
821.31 2.81487e-05\\
1195.21 4.1107e-05\\
1741.35 6.00741e-05\\
2539.02 8.77231e-05\\
3704.07 0.000128164\\
5405.65 0.000187324\\
7890.84 0.000273816\\
11520.5 0.000400425\\
16821.5 0.000585931\\
24563.5 0.000858216\\
35870.6 0.00125866\\
52384.1 0.00184938\\
76501.2 0.00272467\\
111723 0.00402987\\
163162 0.00599287\\
238283 0.00898063\\
347990 0.0136008\\
508201 0.0208927\\
742159 0.0326938\\
1.0838e+06 0.0523577\\
1.58266e+06 0.086166\\
2.31103e+06 0.146089\\
3.37439e+06 0.255008\\
4.92658e+06 0.455811\\
7.1918e+06 0.824387\\
1.04966e+07 1.47932\\
1.53157e+07 2.56591\\
2.23386e+07 4.19202\\
3.2563e+07 6.35283\\
4.74281e+07 8.93175\\
6.89972e+07 11.7758\\
1.00205e+08 14.7577\\
1.45177e+08 17.7896\\
2.09615e+08 20.812\\
3.01224e+08 23.7799\\
4.30074e+08 26.6534\\
6.08762e+08 29.3926\\
8.52145e+08 31.9569\\
1.17644e+09 34.3071\\
1.59769e+09 36.4064\\
2.12984e+09 38.2122\\
2.78296e+09 39.5979\\
3.56204e+09 40.6264\\
4.37395e+09 37.5055\\
4.91457e+09 32.9471\\
5.35728e+09 31.0065\\
5.78563e+09 29.8895\\
6.22589e+09 29.0088\\
6.68825e+09 28.1249\\
7.17555e+09 27.1214\\
7.686e+09 25.9421\\
8.21411e+09 24.572\\
8.7513e+09 23.0303\\
9.2865e+09 21.361\\
9.80696e+09 19.6142\\
1.02994e+10 17.824\\
1.07515e+10 15.9928\\
1.11537e+10 14.0971\\
1.15003e+10 12.1211\\
1.17903e+10 10.0982\\
1.20269e+10 8.12389\\
1.22162e+10 6.3208\\
1.23658e+10 4.78728\\
1.24834e+10 3.56479\\
1.25759e+10 2.63843\\
1.26488e+10 1.95947\\
1.27068e+10 1.47008\\
1.27534e+10 1.11854\\
1.27911e+10 0.864613\\
};
\addlegendentry{$V_{\mathrm{CE}}=\SI{1.0}{\volt}$}
\addplot [color=color2, solid, mark=triangle, mark options={solid, rotate=180}, mark phase=0, ]
  table[row sep=crcr, x expr=\thisrowno{0}*1.000000e-09, y expr=\thisrowno{1}*1.000000e+00]{
13.6949 -4.48885e-11\\
13.597 -7.18376e-11\\
13.4999 -9.87944e-11\\
13.4043 -1.34742e-10\\
13.3106 -1.97671e-10\\
13.2199 -3.05561e-10\\
13.1334 -4.31484e-10\\
13.0532 4.23313e-08\\
12.982 -9.26342e-10\\
12.9242 -1.35839e-09\\
12.8858 -1.97962e-09\\
12.8757 -2.89822e-09\\
12.907 3.8624e-08\\
12.9989 3.66579e-08\\
13.179 3.37807e-08\\
13.4882 2.95951e-08\\
13.9859 6.62626e-08\\
14.7588 1.001e-07\\
15.9336 1.29786e-07\\
17.6956 2.38878e-07\\
20.3151 2.96393e-07\\
24.187 4.26402e-07\\
29.888 6.22866e-07\\
38.2605 9.19682e-07\\
50.5349 1.34669e-06\\
68.5078 1.97042e-06\\
94.8038 2.93391e-06\\
133.255 4.28232e-06\\
189.461 6.21271e-06\\
271.596 9.06516e-06\\
391.601 1.32678e-05\\
566.915 1.93611e-05\\
823.009 2.83115e-05\\
1197.08 4.13024e-05\\
1743.46 6.03581e-05\\
2541.49 8.81354e-05\\
3707.06 0.000128784\\
5409.4 0.000188206\\
7895.7 0.00027514\\
11526.9 0.000402376\\
16830.3 0.000588885\\
24575.8 0.000862585\\
35887.9 0.00126509\\
52408.7 0.00185905\\
76536.6 0.00273934\\
111774 0.00405218\\
163235 0.00602736\\
238390 0.00903487\\
348145 0.013688\\
508427 0.0210367\\
742489 0.0329392\\
1.08428e+06 0.0527896\\
1.58336e+06 0.0869511\\
2.31205e+06 0.147556\\
3.37588e+06 0.257798\\
4.92875e+06 0.461138\\
7.19496e+06 0.834362\\
1.05012e+07 1.49706\\
1.53224e+07 2.59475\\
2.23483e+07 4.23372\\
3.25772e+07 6.40636\\
4.74487e+07 8.99426\\
6.9027e+07 11.8444\\
1.00248e+08 14.8304\\
1.45238e+08 17.8653\\
2.09703e+08 20.8901\\
3.01348e+08 23.8603\\
4.30247e+08 26.7364\\
6.08999e+08 29.4787\\
8.52464e+08 32.0475\\
1.17686e+09 34.4046\\
1.59823e+09 36.5169\\
2.13052e+09 38.3555\\
2.78385e+09 39.8645\\
3.56344e+09 40.9084\\
4.45839e+09 40.839\\
5.13402e+09 34.4743\\
5.60567e+09 31.6673\\
6.03722e+09 30.2437\\
6.47074e+09 29.2302\\
6.92103e+09 28.2822\\
7.39287e+09 27.2448\\
7.88549e+09 26.0444\\
8.39413e+09 24.6563\\
8.91084e+09 23.0944\\
9.42515e+09 21.3998\\
9.92495e+09 19.6227\\
1.03976e+10 17.7986\\
1.08314e+10 15.9332\\
1.12173e+10 14.0078\\
1.155e+10 12.0124\\
1.18286e+10 9.98506\\
1.20562e+10 8.02069\\
1.22387e+10 6.23704\\
1.23831e+10 4.7259\\
1.24969e+10 3.52369\\
1.25865e+10 2.6131\\
1.26573e+10 1.9452\\
1.27137e+10 1.46305\\
1.2759e+10 1.11605\\
1.27959e+10 0.864889\\
};
\addlegendentry{$V_{\mathrm{CE}}=\SI{1.1}{\volt}$}
\end{axis}

\end{tikzpicture}
