\begin{tikzpicture}[font=\normalsize,trim axis left, trim axis right,tight background]
\pgfplotsset{every axis/.append style={very thick},compat=1.5},
\definecolor{color0}{rgb}{0.00000, 0.39216, 0.00000}
\definecolor{color1}{rgb}{0.00000, 0.00000, 0.54510}
\definecolor{color2}{rgb}{0.69020, 0.18824, 0.37647}

\begin{axis}[scale only axis,ytick pos=left,
xlabel={$J_{\mathrm{C}} ( \si{\milli\ampere\per\square\micro\meter} )$},
ylabel={$f_{\mathrm{max}} ( \si{\giga\hertz} )$},
xmode=log,
xmin=0.001,
xmax=100,
restrict x to domain=-3.69897:2.69897,
log basis x=10,
ymin=0,
ymax=600,
restrict y to domain=-1e-20:3000,
log basis y=10,
xlabel shift = -5 pt,
 ylabel shift = -5 pt,
xmajorgrids,
enlargelimits=false,
scaled ticks=true,
ymajorgrids,
x tick style={color=black},
y tick style={color=black},
x grid style={white!69.01960784313725!black},
y grid style={white!69.01960784313725!black},
/tikz/mark repeat=2,
legend style={at={(0.02,0.98)}, anchor=north west,legend cell align=left, align=left},
]
\addplot [color=color0, solid, mark=x, mark options={solid}, mark phase=0, ]
  table[row sep=crcr, x expr=\thisrowno{0}*1.000000e-09, y expr=\thisrowno{1}*1.000000e-09]{
4.16852 16.241\\
4.16852 20.2785\\
3.97904 28.3576\\
3.97904 44.5102\\
3.97904 60.624\\
3.97904 88.8083\\
3.97904 129.018\\
3.97904 193.285\\
3.97904 281.516\\
3.78956 413.695\\
3.78956 601.676\\
3.78956 885.279\\
3.78956 1296.1\\
3.97904 1901.49\\
3.97904 2812.8\\
3.97904 4078.89\\
4.358 5987.29\\
4.92643 8765.99\\
5.87382 12834\\
7.20017 18806.6\\
9.09495 27534.6\\
11.7476 40337.2\\
15.9162 59090\\
21.79 86544\\
30.6954 126745\\
43.7694 185628\\
62.9067 271861\\
91.1389 398151\\
132.445 583052\\
193.268 853798\\
282.322 1.25021e+06\\
413.252 1.83055e+06\\
605.193 2.68015e+06\\
886.947 3.9238e+06\\
1300.01 5.74411e+06\\
1906.53 8.40817e+06\\
2796.32 1.23065e+07\\
4101.82 1.80101e+07\\
6017.44 2.63527e+07\\
8827.78 3.85518e+07\\
12951.2 5.63824e+07\\
19000.9 8.24286e+07\\
27877.1 1.20444e+08\\
40899.8 1.75864e+08\\
60006.6 2.56521e+08\\
88039.3 3.73627e+08\\
129167 5.43075e+08\\
189507 7.87087e+08\\
278034 1.13613e+09\\
407911 1.63083e+09\\
598451 2.32335e+09\\
877978 3.2774e+09\\
1.28804e+06 4.56587e+09\\
1.88955e+06 6.26614e+09\\
2.77183e+06 8.45437e+09\\
4.06579e+06 1.12022e+10\\
5.96321e+06 1.45791e+10\\
8.74485e+06 1.86608e+10\\
1.28213e+07 2.35409e+10\\
1.87924e+07 2.93404e+10\\
2.75321e+07 3.62145e+10\\
4.03104e+07 4.43529e+10\\
5.89644e+07 5.39771e+10\\
8.61346e+07 6.53306e+10\\
1.25581e+08 7.8663e+10\\
1.82587e+08 9.42043e+10\\
2.64437e+08 1.12114e+11\\
3.80905e+08 1.32417e+11\\
5.44632e+08 1.54929e+11\\
7.71151e+08 1.7919e+11\\
1.0783e+09 2.04443e+11\\
1.48481e+09 2.2971e+11\\
2.0082e+09 2.53939e+11\\
2.66247e+09 2.76206e+11\\
3.45634e+09 2.95848e+11\\
4.39264e+09 3.12503e+11\\
5.46891e+09 3.26028e+11\\
6.67867e+09 3.36414e+11\\
8.01297e+09 3.44192e+11\\
9.46175e+09 3.49725e+11\\
1.10147e+10 3.53203e+11\\
1.2662e+10 3.54856e+11\\
1.43943e+10 3.54729e+11\\
1.62028e+10 3.51472e+11\\
1.80785e+10 3.39821e+11\\
2.00078e+10 3.04345e+11\\
2.19591e+10 2.26599e+11\\
2.38523e+10 1.34647e+11\\
2.55699e+10 7.52438e+10\\
2.70811e+10 4.66491e+10\\
2.84565e+10 3.27383e+10\\
2.97724e+10 2.50612e+10\\
3.10782e+10 2.02494e+10\\
3.24017e+10 1.69171e+10\\
3.37568e+10 1.4437e+10\\
3.515e+10 1.24954e+10\\
3.65826e+10 1.09193e+10\\
3.80531e+10 9.60371e+09\\
3.95577e+10 8.47813e+09\\
4.1091e+10 7.48949e+09\\
4.26458e+10 6.59416e+09\\
};
\addlegendentry{$V_{\mathrm{CE}}=\SI{0.5}{\volt}$}
\addplot [color=color1, solid, mark=+, mark options={solid}, mark phase=0, ]
  table[row sep=crcr, x expr=\thisrowno{0}*1.000000e-09, y expr=\thisrowno{1}*1.000000e-09]{
9.09495 13.407\\
9.09495 22.3232\\
8.71599 31.2215\\
8.71599 49.0128\\
8.71599 66.7669\\
8.71599 97.8224\\
8.71599 146.577\\
8.71599 212.972\\
8.71599 310.241\\
8.33703 635.537\\
8.33703 667.715\\
8.33703 976.112\\
8.33703 1433.75\\
8.71599 2147.45\\
8.71599 3080.53\\
9.09495 4513.88\\
9.09495 6629.63\\
9.85286 9702.55\\
10.6108 14208.9\\
12.1266 20815.4\\
14.0214 30499.9\\
16.6741 44684.9\\
20.8426 65460\\
26.9059 95900.5\\
36.0008 140499\\
48.8853 205815\\
68.2121 301497\\
96.2549 441626\\
137.561 646878\\
198.573 947474\\
288.007 1.38771e+06\\
419.125 2.0324e+06\\
611.635 2.97644e+06\\
893.957 4.35871e+06\\
1308.16 6.38251e+06\\
1916.38 9.34522e+06\\
2808.06 1.36818e+07\\
4116.6 2.00284e+07\\
6037.15 2.93143e+07\\
8853.93 4.28965e+07\\
12987.2 6.27539e+07\\
19051.3 9.17676e+07\\
27948.4 1.34122e+08\\
41001.9 1.95876e+08\\
60153.6 2.85753e+08\\
88252.4 4.16228e+08\\
129477 6.04963e+08\\
189959 8.76586e+08\\
278692 1.26475e+09\\
408872 1.81412e+09\\
599856 2.58167e+09\\
880033 3.63641e+09\\
1.29104e+06 5.05661e+09\\
1.89395e+06 6.92464e+09\\
2.77828e+06 9.32131e+09\\
4.07524e+06 1.23234e+10\\
5.97705e+06 1.6007e+10\\
8.76511e+06 2.04577e+10\\
1.2851e+07 2.57824e+10\\
1.88358e+07 3.21195e+10\\
2.75955e+07 3.96452e+10\\
4.0403e+07 4.85742e+10\\
5.90993e+07 5.91562e+10\\
8.63307e+07 7.16669e+10\\
1.25865e+08 8.639e+10\\
1.82996e+08 1.0359e+11\\
2.6502e+08 1.23457e+11\\
3.81728e+08 1.46036e+11\\
5.45776e+08 1.71147e+11\\
7.7271e+08 1.9831e+11\\
1.08037e+09 2.26731e+11\\
1.48749e+09 2.55378e+11\\
2.01156e+09 2.83155e+11\\
2.66655e+09 3.09112e+11\\
3.46113e+09 3.32606e+11\\
4.39811e+09 3.53343e+11\\
5.47499e+09 3.7132e+11\\
6.68528e+09 3.86717e+11\\
8.02005e+09 3.99804e+11\\
9.46923e+09 4.10869e+11\\
1.10225e+10 4.20176e+11\\
1.26702e+10 4.2795e+11\\
1.4403e+10 4.3437e+11\\
1.62127e+10 4.39572e+11\\
1.8092e+10 4.43648e+11\\
2.00342e+10 4.46656e+11\\
2.20336e+10 4.48613e+11\\
2.40851e+10 4.49501e+11\\
2.61841e+10 4.49246e+11\\
2.83266e+10 4.47695e+11\\
3.05091e+10 4.44532e+11\\
3.27282e+10 4.3916e+11\\
3.49812e+10 4.32552e+11\\
3.72656e+10 4.25158e+11\\
3.95789e+10 4.1639e+11\\
4.19186e+10 4.02588e+11\\
4.42801e+10 3.62939e+11\\
4.66412e+10 2.43243e+11\\
4.889e+10 1.06015e+11\\
5.08189e+10 4.73108e+10\\
5.24377e+10 2.73396e+10\\
};
\addlegendentry{$V_{\mathrm{CE}}=\SI{1.0}{\volt}$}
\addplot [color=color2, solid, mark=triangle, mark options={solid, rotate=180}, mark phase=0, ]
  table[row sep=crcr, x expr=\thisrowno{0}*1.000000e-09, y expr=\thisrowno{1}*1.000000e-09]{
9.85286 13.6106\\
9.85286 22.6625\\
9.85286 31.6966\\
9.85286 45.236\\
9.85286 67.7855\\
9.85286 99.3165\\
9.09495 144.309\\
9.09495 216.233\\
9.09495 314.997\\
9.09495 462.983\\
9.09495 677.978\\
9.09495 995.618\\
9.09495 1455.84\\
9.09495 2184.96\\
9.09495 3132.59\\
9.85286 4592.65\\
9.85286 6736.8\\
10.6108 9851.93\\
11.3687 14436.2\\
12.8845 21152.6\\
14.4003 31006.2\\
17.432 45422\\
21.9795 66540.5\\
28.0428 97480.9\\
36.3798 142812\\
50.0222 209209\\
68.97 306458\\
97.7707 448910\\
138.698 657543\\
199.331 963126\\
288.765 1.41065e+06\\
419.883 2.066e+06\\
612.393 3.02569e+06\\
895.094 4.43091e+06\\
1309.67 6.48831e+06\\
1918.28 9.50026e+06\\
2811.1 1.39091e+07\\
4120.01 2.03613e+07\\
6041.32 2.9802e+07\\
8859.99 4.36107e+07\\
12995.2 6.37994e+07\\
19063 9.32973e+07\\
27964.7 1.36359e+08\\
41025 1.99141e+08\\
60187.3 2.90511e+08\\
88299.8 4.23145e+08\\
129545 6.14982e+08\\
190057 8.91025e+08\\
278834 1.28541e+09\\
409079 1.84341e+09\\
600155 2.62268e+09\\
880468 3.69295e+09\\
1.29168e+06 5.13313e+09\\
1.89487e+06 7.0261e+09\\
2.77961e+06 9.45307e+09\\
4.07718e+06 1.24911e+10\\
5.97987e+06 1.62172e+10\\
8.76922e+06 2.07179e+10\\
1.2857e+07 2.61016e+10\\
1.88445e+07 3.25088e+10\\
2.76082e+07 4.01177e+10\\
4.04214e+07 4.91455e+10\\
5.9126e+07 5.98442e+10\\
8.63693e+07 7.24915e+10\\
1.25921e+08 8.73722e+10\\
1.83076e+08 1.04751e+11\\
2.65133e+08 1.24815e+11\\
3.81887e+08 1.47607e+11\\
5.45997e+08 1.72938e+11\\
7.73011e+08 2.00324e+11\\
1.08077e+09 2.28965e+11\\
1.48801e+09 2.57833e+11\\
2.01221e+09 2.85842e+11\\
2.66732e+09 3.12064e+11\\
3.46203e+09 3.35872e+11\\
4.39914e+09 3.56982e+11\\
5.47612e+09 3.75391e+11\\
6.6865e+09 3.91264e+11\\
8.02135e+09 4.04848e+11\\
9.47058e+09 4.16409e+11\\
1.10239e+10 4.26195e+11\\
1.26716e+10 4.34426e+11\\
1.44044e+10 4.41288e+11\\
1.62141e+10 4.46931e+11\\
1.80934e+10 4.51472e+11\\
2.00357e+10 4.5499e+11\\
2.20351e+10 4.57534e+11\\
2.40866e+10 4.59123e+11\\
2.61856e+10 4.59745e+11\\
2.83281e+10 4.59358e+11\\
3.05106e+10 4.5787e+11\\
3.27297e+10 4.55118e+11\\
3.49828e+10 4.5078e+11\\
3.72672e+10 4.44159e+11\\
3.95806e+10 4.35845e+11\\
4.1921e+10 4.26754e+11\\
4.42864e+10 4.16214e+11\\
4.66746e+10 3.99456e+11\\
4.90801e+10 3.46371e+11\\
5.14676e+10 1.97856e+11\\
5.3662e+10 7.51221e+10\\
};
\addlegendentry{$V_{\mathrm{CE}}=\SI{1.1}{\volt}$}
\end{axis}

\end{tikzpicture}
