\begin{tikzpicture}[font=\normalsize,trim axis left, trim axis right,tight background]
\pgfplotsset{every axis/.append style={very thick},compat=1.5},
\definecolor{color0}{rgb}{0.00000, 0.39216, 0.00000}
\definecolor{color1}{rgb}{0.00000, 0.00000, 0.54510}
\definecolor{color2}{rgb}{0.69020, 0.18824, 0.37647}

\begin{axis}[scale only axis,ytick pos=left,
xlabel={$V_{\mathrm{BE}} ( \si{\volt} )$},
ylabel={$J_{\mathrm{C}} ( \si{\milli\ampere} )$},
ymode=log,
xmin=0.6,
xmax=0.95,
restrict x to domain=0.12:4.75,
log basis x=10,
ymin=0.001,
ymax=20,
restrict y to domain=-3.69897:2,
log basis y=10,
xlabel shift = -5 pt,
 ylabel shift = -5 pt,
xmajorgrids,
enlargelimits=false,
scaled ticks=true,
ymajorgrids,
x tick style={color=black},
y tick style={color=black},
x grid style={white!69.01960784313725!black},
y grid style={white!69.01960784313725!black},
/tikz/mark repeat=2,
legend style={at={(0.02,0.98)}, anchor=north west,legend cell align=left, align=left},
]
\addplot [color=color0, solid, mark=x, mark options={solid}, mark phase=1, ]
  table[row sep=crcr, x expr=\thisrowno{0}*1.000000e+00, y expr=\thisrowno{1}*1.000000e-09]{
0.1 5.68434\\
0.11 5.68434\\
0.12 6.0633\\
0.13 5.68434\\
0.14 5.68434\\
0.15 5.68434\\
0.16 5.30539\\
0.17 5.68434\\
0.18 5.68434\\
0.19 6.0633\\
0.2 5.68434\\
0.21 6.44225\\
0.22 6.44225\\
0.24 7.20017\\
0.25 7.95808\\
0.26 7.95808\\
0.27 8.71599\\
0.28 10.2318\\
0.29 11.7476\\
0.3 57937.8\\
0.31 18.5689\\
0.32 24.2532\\
0.33 32.9692\\
0.34 45.4747\\
0.35 62.9067\\
0.36 89.4336\\
0.37 127.708\\
0.38 183.036\\
0.39 264.89\\
0.41 557.823\\
0.42 811.724\\
0.44 1723.87\\
0.45 23215.6\\
0.46 3669.43\\
0.47 14525\\
0.48 7816.35\\
0.5 16660.8\\
0.51 24326.3\\
0.52 35519.6\\
0.53 51864.7\\
0.54 75732.9\\
0.55 110585\\
0.56 161477\\
0.57 235791\\
0.58 344304\\
0.59 502754\\
0.6 734115\\
0.61 1.07193e+06\\
0.62 1.56518e+06\\
0.63 2.28533e+06\\
0.64 3.33671e+06\\
0.65 4.87156e+06\\
0.66 7.11192e+06\\
0.67 1.03815e+07\\
0.68 1.51521e+07\\
0.69 2.21102e+07\\
0.7 3.22533e+07\\
0.71 4.70278e+07\\
0.72 6.85239e+07\\
0.73 9.97465e+07\\
0.74 1.44985e+08\\
0.75 2.10296e+08\\
0.76 3.041e+08\\
0.77 4.37851e+08\\
0.78 6.26639e+08\\
0.79 8.89502e+08\\
0.8 1.24909e+09\\
0.81 1.73029e+09\\
0.82 2.35797e+09\\
0.83 3.15392e+09\\
0.84 4.13392e+09\\
0.85 5.30208e+09\\
0.86 6.18082e+09\\
0.87 6.74768e+09\\
0.88 7.26536e+09\\
0.89 7.78489e+09\\
0.9 8.32251e+09\\
0.91 8.88215e+09\\
0.92 9.46073e+09\\
0.93 1.00514e+10\\
};
\addlegendentry{$V_{\mathrm{BC}}=\SI{-0.5}{\volt}$}
\addplot [color=color1, solid, mark=+, mark options={solid}, mark phase=1, ]
  table[row sep=crcr, x expr=\thisrowno{0}*1.000000e+00, y expr=\thisrowno{1}*1.000000e-09]{
0.1 0.331587\\
0.11 0.378956\\
0.12 0.473695\\
0.13 0.473695\\
0.14 0.378956\\
0.15 0.663173\\
0.16 0.568434\\
0.17 0.568434\\
0.18 0.757912\\
0.19 0.852651\\
0.2 0.852651\\
0.21 1.13687\\
0.22 1.23161\\
0.23 1.32635\\
0.24 1.80004\\
0.25 2.179\\
0.26 2.65269\\
0.28 5.11591\\
0.29 7.01069\\
0.3 9.85286\\
0.31 13.2635\\
0.32 19.1373\\
0.33 27.6638\\
0.34 39.9799\\
0.35 57.9803\\
0.36 84.3177\\
0.37 122.403\\
0.38 177.73\\
0.39 259.206\\
0.4 11610.1\\
0.41 551.76\\
0.42 804.903\\
0.43 1174.95\\
0.44 1715.34\\
0.45 56182.3\\
0.46 3655.6\\
0.47 5337.22\\
0.48 7793.42\\
0.49 11379.7\\
0.5 16616.8\\
0.51 24264.9\\
0.52 35432.8\\
0.53 51740\\
0.54 75553.6\\
0.55 110326\\
0.56 161103\\
0.57 235247\\
0.58 343511\\
0.59 501596\\
0.6 732423\\
0.61 1.06945e+06\\
0.62 1.56153e+06\\
0.63 2.27995e+06\\
0.64 3.32873e+06\\
0.65 4.85964e+06\\
0.66 7.09395e+06\\
0.67 1.03541e+07\\
0.68 1.51096e+07\\
0.69 2.20428e+07\\
0.7 3.21442e+07\\
0.71 4.68464e+07\\
0.72 6.82137e+07\\
0.73 9.92018e+07\\
0.74 1.44005e+08\\
0.75 2.08501e+08\\
0.76 3.00774e+08\\
0.77 4.3166e+08\\
0.78 6.15171e+08\\
0.79 8.6856e+08\\
0.8 1.21173e+09\\
0.81 1.66576e+09\\
0.82 2.25065e+09\\
0.83 2.98186e+09\\
0.84 3.74027e+09\\
0.85 4.29027e+09\\
0.86 4.77359e+09\\
0.87 5.25429e+09\\
0.88 5.75582e+09\\
0.89 6.28843e+09\\
0.9 6.85577e+09\\
0.91 7.45662e+09\\
0.92 8.08573e+09\\
0.93 8.73409e+09\\
};
\addlegendentry{$V_{\mathrm{BC}}=\SI{0.0}{\volt}$}
\addplot [color=color2, solid, mark=triangle, mark options={solid, rotate=180}, mark phase=1, ]
  table[row sep=crcr, x expr=\thisrowno{0}*1.000000e+00, y expr=\thisrowno{1}*1.000000e-09]{
0.1 34563.5\\
0.11 30380\\
0.12 27523.2\\
0.13 25568.4\\
0.14 24227\\
0.15 23302.6\\
0.16 22661.4\\
0.17 22213.8\\
0.18 21896.8\\
0.19 21669.7\\
0.2 21503.1\\
0.21 21378.1\\
0.22 21280.7\\
0.23 21202.8\\
0.24 21137.8\\
0.25 21081.8\\
0.27 20985.5\\
0.28 20942.1\\
0.29 20899.6\\
0.3 20857.8\\
0.31 20815.9\\
0.32 20772.6\\
0.34 20678.4\\
0.35 20624.3\\
0.36 20561.9\\
0.37 20487.8\\
0.38 20396.3\\
0.4 20125\\
0.41 19916.4\\
0.42 19628.1\\
0.45 17827.5\\
0.46 16643.5\\
0.47 14930.9\\
0.48 12446.4\\
0.49 8834.76\\
0.5 3577.05\\
0.51 3982.66\\
0.52 15255.6\\
0.53 31552.3\\
0.54 55333.3\\
0.55 90042.8\\
0.56 140710\\
0.57 214679\\
0.58 322672\\
0.59 480343\\
0.6 710545\\
0.61 1.04664e+06\\
0.62 1.53733e+06\\
0.63 2.25366e+06\\
0.64 3.29932e+06\\
0.65 4.82551e+06\\
0.66 7.0526e+06\\
0.67 1.03016e+07\\
0.68 1.50394e+07\\
0.69 2.19441e+07\\
0.7 3.19983e+07\\
0.71 4.66201e+07\\
0.72 6.78469e+07\\
0.73 9.85831e+07\\
0.74 1.42926e+08\\
0.75 2.06566e+08\\
0.76 2.97231e+08\\
0.77 4.25045e+08\\
0.78 6.02301e+08\\
0.79 8.39581e+08\\
0.8 1.12665e+09\\
0.81 1.42883e+09\\
0.82 1.73578e+09\\
0.83 2.056e+09\\
0.84 2.3995e+09\\
0.85 2.77473e+09\\
0.86 3.18853e+09\\
0.87 3.6462e+09\\
0.88 4.1513e+09\\
0.89 4.70537e+09\\
0.9 5.30752e+09\\
0.91 5.95407e+09\\
0.92 6.63826e+09\\
0.93 7.35007e+09\\
};
\addlegendentry{$V_{\mathrm{BC}}=\SI{0.5}{\volt}$}
\end{axis}

\end{tikzpicture}
