\begin{tikzpicture}[font=\normalsize,trim axis left, trim axis right,tight background]
\pgfplotsset{every axis/.append style={very thick},compat=1.5},
\definecolor{color0}{rgb}{0.00000, 0.39216, 0.00000}
\definecolor{color1}{rgb}{0.00000, 0.00000, 0.54510}
\definecolor{color2}{rgb}{0.69020, 0.18824, 0.37647}
\definecolor{color3}{rgb}{1.00000, 0.00000, 0.00000}
\definecolor{color4}{rgb}{0.58039, 0.40392, 0.74118}

\begin{axis}[scale only axis,ytick pos=left,
xlabel={$V_{\mathrm{BE}} ( \si{\volt} )$},
ylabel={$J_{\mathrm{C}} ( \si{\milli\ampere} )$},
ymode=log,
xmin=0.4,
xmax=1,
restrict x to domain=0.08:5,
log basis x=10,
ymin=1e-06,
ymax=100,
restrict y to domain=-6.69897:2.69897,
log basis y=10,
xlabel shift = -5 pt,
 ylabel shift = -5 pt,
xmajorgrids,
enlargelimits=false,
scaled ticks=true,
ymajorgrids,
x tick style={color=black},
y tick style={color=black},
x grid style={white!69.01960784313725!black},
y grid style={white!69.01960784313725!black},
/tikz/mark repeat=2,
legend style={at={(0.02,0.98)}, anchor=north west,legend cell align=left, align=left},
]
\addplot [color=color0, solid, mark=x, mark options={solid}, mark phase=0, ]
  table[row sep=crcr, x expr=\thisrowno{0}*1.000000e+00, y expr=\thisrowno{1}*1.000000e-09]{
0.1 23.6848\\
0.11 23.6848\\
0.12 23.6848\\
0.13 23.6848\\
0.14 23.6848\\
0.15 22.6979\\
0.16 22.6979\\
0.17 22.6979\\
0.18 22.6979\\
0.19 22.6979\\
0.2 21.711\\
0.21 21.711\\
0.22 21.711\\
0.23 21.711\\
0.24 21.711\\
0.25 21.711\\
0.26 20.7242\\
0.27 20.7242\\
0.28 20.7242\\
0.29 20.7242\\
0.3 20.7242\\
0.31 20.7242\\
0.32 20.7242\\
0.33 20.7242\\
0.34 20.7242\\
0.35 20.7242\\
0.36 20.7242\\
0.37 20.7242\\
0.38 20.7242\\
0.39 20.7242\\
0.4 20.7242\\
0.41 21.711\\
0.42 23.6848\\
0.43 25.6585\\
0.44 30.5928\\
0.45 37.5009\\
0.46 49.3432\\
0.47 66.1199\\
0.48 94.739\\
0.49 139.148\\
0.5 209.215\\
0.51 319.744\\
0.52 495.406\\
0.53 771.728\\
0.54 1210.88\\
0.55 1902.68\\
0.56 2996.12\\
0.57 4724.12\\
0.58 7454.78\\
0.59 11770.3\\
0.6 18588.6\\
0.61 29361.2\\
0.62 46383.6\\
0.63 73280.6\\
0.64 115778\\
0.65 182925\\
0.66 289018\\
0.67 456640\\
0.68 721462\\
0.69 1.13983e+06\\
0.7 1.80071e+06\\
0.71 2.84454e+06\\
0.72 4.49287e+06\\
0.73 7.09491e+06\\
0.74 1.12004e+07\\
0.75 1.76727e+07\\
0.76 2.78634e+07\\
0.77 4.38774e+07\\
0.78 6.89651e+07\\
0.79 1.08083e+08\\
0.8 1.6864e+08\\
0.81 2.61388e+08\\
0.82 4.01242e+08\\
0.83 6.07595e+08\\
0.84 9.03445e+08\\
0.85 1.31282e+09\\
0.86 1.85683e+09\\
0.87 2.54977e+09\\
0.88 3.39713e+09\\
0.89 4.39613e+09\\
0.9 5.53799e+09\\
0.91 6.8107e+09\\
0.92 8.20115e+09\\
0.93 9.69653e+09\\
0.94 1.12851e+10\\
0.95 1.29562e+10\\
0.96 1.47009e+10\\
0.97 1.6511e+10\\
0.98 1.83798e+10\\
0.99 2.03012e+10\\
1 2.22701e+10\\
1.01 2.4282e+10\\
1.02 2.6333e+10\\
1.03 2.84196e+10\\
1.04 3.05388e+10\\
1.05 3.26879e+10\\
1.06 3.48646e+10\\
1.07 3.70666e+10\\
1.08 3.92921e+10\\
1.09 4.15395e+10\\
1.1 4.3807e+10\\
};
\addlegendentry{$T=\SI{250.0}{\kelvin}$}
\addplot [color=color1, solid, mark=+, mark options={solid}, mark phase=0, ]
  table[row sep=crcr, x expr=\thisrowno{0}*1.000000e+00, y expr=\thisrowno{1}*1.000000e-09]{
0.1 22.6979\\
0.11 22.6979\\
0.12 22.6979\\
0.13 22.6979\\
0.14 21.711\\
0.15 21.711\\
0.16 21.711\\
0.17 21.711\\
0.18 21.711\\
0.19 20.7242\\
0.2 20.7242\\
0.21 20.7242\\
0.22 20.7242\\
0.23 20.7242\\
0.24 20.7242\\
0.25 20.7242\\
0.26 20.7242\\
0.27 20.7242\\
0.28 20.7242\\
0.29 20.7242\\
0.3 21.711\\
0.31 22.6979\\
0.32 23.6848\\
0.33 26.6454\\
0.34 29.6059\\
0.35 35.5271\\
0.36 43.4221\\
0.37 55.2644\\
0.38 73.028\\
0.39 99.6734\\
0.4 138.161\\
0.41 196.386\\
0.42 282.243\\
0.43 410.536\\
0.44 601.001\\
0.45 884.231\\
0.46 1304.64\\
0.47 1928.33\\
0.48 2855.99\\
0.49 4231.68\\
0.5 6275.47\\
0.51 9311.07\\
0.52 13817.1\\
0.53 20508\\
0.54 30443.8\\
0.55 45195.5\\
0.56 67098.9\\
0.57 99623\\
0.58 147914\\
0.59 219615\\
0.6 326075\\
0.61 484140\\
0.62 718819\\
0.63 1.06723e+06\\
0.64 1.58447e+06\\
0.65 2.35228e+06\\
0.66 3.49191e+06\\
0.67 5.18316e+06\\
0.68 7.69236e+06\\
0.69 1.14138e+07\\
0.7 1.69301e+07\\
0.71 2.51004e+07\\
0.72 3.71876e+07\\
0.73 5.50389e+07\\
0.74 8.13371e+07\\
0.75 1.19939e+08\\
0.76 1.76306e+08\\
0.77 2.58008e+08\\
0.78 3.7522e+08\\
0.79 5.41052e+08\\
0.8 7.71438e+08\\
0.81 1.08431e+09\\
0.82 1.49788e+09\\
0.83 2.0284e+09\\
0.84 2.68789e+09\\
0.85 3.48283e+09\\
0.86 4.41405e+09\\
0.87 5.47772e+09\\
0.88 6.66677e+09\\
0.89 7.97233e+09\\
0.9 9.38488e+09\\
0.91 1.08949e+10\\
0.92 1.24936e+10\\
0.93 1.41726e+10\\
0.94 1.59245e+10\\
0.95 1.77426e+10\\
0.96 1.9621e+10\\
0.97 2.15544e+10\\
0.98 2.35381e+10\\
0.99 2.55678e+10\\
1 2.76398e+10\\
1.01 2.97509e+10\\
1.02 3.18978e+10\\
1.03 3.40781e+10\\
1.04 3.62891e+10\\
1.05 3.85288e+10\\
1.06 4.07951e+10\\
1.07 4.30862e+10\\
1.08 4.54004e+10\\
1.09 4.77357e+10\\
1.1 5.00887e+10\\
};
\addlegendentry{$T=\SI{287.5}{\kelvin}$}
\addplot [color=color2, solid, mark=triangle, mark options={solid, rotate=180}, mark phase=0, ]
  table[row sep=crcr, x expr=\thisrowno{0}*1.000000e+00, y expr=\thisrowno{1}*1.000000e-09]{
0.1 24.6716\\
0.11 24.6716\\
0.12 24.6716\\
0.13 24.6716\\
0.14 24.6716\\
0.15 24.6716\\
0.16 24.6716\\
0.17 24.6716\\
0.18 24.6716\\
0.19 25.6585\\
0.2 25.6585\\
0.21 26.6454\\
0.22 28.6191\\
0.23 30.5928\\
0.24 34.5403\\
0.25 38.4877\\
0.26 45.3958\\
0.27 54.2776\\
0.28 67.1068\\
0.29 86.8441\\
0.3 112.503\\
0.31 150.003\\
0.32 203.294\\
0.33 279.283\\
0.34 386.851\\
0.35 537.841\\
0.36 751.991\\
0.37 1054.96\\
0.38 1485.23\\
0.39 2094.13\\
0.4 2955.66\\
0.41 4174.44\\
0.42 5901.45\\
0.43 8344.93\\
0.44 11804.9\\
0.45 16701.7\\
0.46 23632.5\\
0.47 33445.8\\
0.48 47334\\
0.49 66994.3\\
0.5 94822.9\\
0.51 134216\\
0.52 189974\\
0.53 268900\\
0.54 380617\\
0.55 538744\\
0.56 762560\\
0.57 1.07934e+06\\
0.58 1.52769e+06\\
0.59 2.16221e+06\\
0.6 3.06015e+06\\
0.61 4.33072e+06\\
0.62 6.1283e+06\\
0.63 8.67098e+06\\
0.64 1.22666e+07\\
0.65 1.7349e+07\\
0.66 2.45291e+07\\
0.67 3.46647e+07\\
0.68 4.89563e+07\\
0.69 6.90771e+07\\
0.7 9.73433e+07\\
0.71 1.36934e+08\\
0.72 1.9216e+08\\
0.73 2.68766e+08\\
0.74 3.7424e+08\\
0.75 5.18041e+08\\
0.76 7.1165e+08\\
0.77 9.68283e+08\\
0.78 1.30217e+09\\
0.79 1.72742e+09\\
0.8 2.25658e+09\\
0.81 2.89938e+09\\
0.82 3.6619e+09\\
0.83 4.54638e+09\\
0.84 5.55161e+09\\
0.85 6.67376e+09\\
0.86 7.90718e+09\\
0.87 9.24518e+09\\
0.88 1.06807e+10\\
0.89 1.22065e+10\\
0.9 1.38159e+10\\
0.91 1.55024e+10\\
0.92 1.72598e+10\\
0.93 1.90828e+10\\
0.94 2.09663e+10\\
0.95 2.29056e+10\\
0.96 2.48966e+10\\
0.97 2.69355e+10\\
0.98 2.90188e+10\\
0.99 3.11433e+10\\
1 3.33061e+10\\
1.01 3.55047e+10\\
1.02 3.77366e+10\\
1.03 3.99996e+10\\
1.04 4.22917e+10\\
1.05 4.46108e+10\\
1.06 4.69547e+10\\
1.07 4.93192e+10\\
1.08 5.16929e+10\\
1.09 5.40401e+10\\
1.1 5.6281e+10\\
};
\addlegendentry{$T=\SI{325.0}{\kelvin}$}
\addplot [color=color3, solid, mark=triangle, mark options={solid, rotate=0}, mark phase=0, ]
  table[row sep=crcr, x expr=\thisrowno{0}*1.000000e+00, y expr=\thisrowno{1}*1.000000e-09]{
0.1 54.2776\\
0.11 55.2644\\
0.12 57.2382\\
0.13 59.2119\\
0.14 61.1856\\
0.15 66.1199\\
0.16 72.0411\\
0.17 79.9361\\
0.18 91.7784\\
0.19 105.595\\
0.2 127.306\\
0.21 154.938\\
0.22 193.426\\
0.23 245.729\\
0.24 316.784\\
0.25 414.483\\
0.26 547.71\\
0.27 727.319\\
0.28 974.036\\
0.29 1310.56\\
0.3 1768.46\\
0.31 2394.13\\
0.32 3244.81\\
0.33 4405.36\\
0.34 5986.32\\
0.35 8141.64\\
0.36 11079.5\\
0.37 15082.3\\
0.38 20538.6\\
0.39 27974.7\\
0.4 38108.8\\
0.41 51919.9\\
0.42 70745.4\\
0.43 96399.9\\
0.44 131364\\
0.45 179014\\
0.46 243956\\
0.47 332461\\
0.48 453077\\
0.49 617456\\
0.5 841468\\
0.51 1.14674e+06\\
0.52 1.56275e+06\\
0.53 2.12962e+06\\
0.54 2.90204e+06\\
0.55 3.95446e+06\\
0.56 5.38824e+06\\
0.57 7.34131e+06\\
0.58 1.00013e+07\\
0.59 1.36232e+07\\
0.6 1.85533e+07\\
0.61 2.52611e+07\\
0.62 3.43823e+07\\
0.63 4.67754e+07\\
0.64 6.35959e+07\\
0.65 8.63925e+07\\
0.66 1.17229e+08\\
0.67 1.58833e+08\\
0.68 2.14773e+08\\
0.69 2.89653e+08\\
0.7 3.89303e+08\\
0.71 5.20935e+08\\
0.72 6.93205e+08\\
0.73 9.16102e+08\\
0.74 1.20062e+09\\
0.75 1.55819e+09\\
0.76 1.99983e+09\\
0.77 2.53535e+09\\
0.78 3.1725e+09\\
0.79 3.91653e+09\\
0.8 4.77004e+09\\
0.81 5.73315e+09\\
0.82 6.80396e+09\\
0.83 7.97899e+09\\
0.84 9.25375e+09\\
0.85 1.06231e+10\\
0.86 1.20817e+10\\
0.87 1.36241e+10\\
0.88 1.52449e+10\\
0.89 1.69391e+10\\
0.9 1.87018e+10\\
0.91 2.05283e+10\\
0.92 2.24146e+10\\
0.93 2.43566e+10\\
0.94 2.63505e+10\\
0.95 2.83932e+10\\
0.96 3.04813e+10\\
0.97 3.2612e+10\\
0.98 3.47826e+10\\
0.99 3.69905e+10\\
1 3.92335e+10\\
1.01 4.15093e+10\\
1.02 4.38157e+10\\
1.03 4.61499e+10\\
1.04 4.85069e+10\\
1.05 5.08747e+10\\
1.06 5.32221e+10\\
1.07 5.54894e+10\\
1.08 5.76201e+10\\
1.09 5.96074e+10\\
1.1 6.14836e+10\\
};
\addlegendentry{$T=\SI{362.5}{\kelvin}$}
\addplot [color=color4, solid, mark=asterisk, mark options={solid}, mark phase=0, ]
  table[row sep=crcr, x expr=\thisrowno{0}*1.000000e+00, y expr=\thisrowno{1}*1.000000e-09]{
0.1 981.931\\
0.11 1005.62\\
0.12 1036.21\\
0.13 1076.67\\
0.14 1130.95\\
0.15 1202\\
0.16 1295.75\\
0.17 1420.1\\
0.18 1584.91\\
0.19 1802.02\\
0.2 2090.18\\
0.21 2470.12\\
0.22 2972.44\\
0.23 3636.6\\
0.24 4513.92\\
0.25 5673.49\\
0.26 7206.09\\
0.27 9231.13\\
0.28 11907.5\\
0.29 15445.4\\
0.3 20121.2\\
0.31 26299\\
0.32 34464.3\\
0.33 45254.7\\
0.34 59516.8\\
0.35 78362\\
0.36 103270\\
0.37 136185\\
0.38 179686\\
0.39 237174\\
0.4 313147\\
0.41 413550\\
0.42 546233\\
0.43 721575\\
0.44 953290\\
0.45 1.25949e+06\\
0.46 1.66412e+06\\
0.47 2.1988e+06\\
0.48 2.90529e+06\\
0.49 3.83876e+06\\
0.5 5.07204e+06\\
0.51 6.70128e+06\\
0.52 8.85334e+06\\
0.53 1.16956e+07\\
0.54 1.54485e+07\\
0.55 2.04025e+07\\
0.56 2.69398e+07\\
0.57 3.55622e+07\\
0.58 4.69278e+07\\
0.59 6.18973e+07\\
0.6 8.15925e+07\\
0.61 1.0747e+08\\
0.62 1.41409e+08\\
0.63 1.85819e+08\\
0.64 2.43759e+08\\
0.65 3.19064e+08\\
0.66 4.16474e+08\\
0.67 5.41731e+08\\
0.68 7.01627e+08\\
0.69 9.03956e+08\\
0.7 1.15735e+09\\
0.71 1.47094e+09\\
0.72 1.85395e+09\\
0.73 2.31509e+09\\
0.74 2.86202e+09\\
0.75 3.50092e+09\\
0.76 4.23617e+09\\
0.77 5.07027e+09\\
0.78 6.00396e+09\\
0.79 7.03642e+09\\
0.8 8.16561e+09\\
0.81 9.38859e+09\\
0.82 1.07018e+10\\
0.83 1.21011e+10\\
0.84 1.35826e+10\\
0.85 1.51418e+10\\
0.86 1.67747e+10\\
0.87 1.84771e+10\\
0.88 2.02451e+10\\
0.89 2.20749e+10\\
0.9 2.39629e+10\\
0.91 2.59057e+10\\
0.92 2.79002e+10\\
0.93 2.99433e+10\\
0.94 3.20322e+10\\
0.95 3.41643e+10\\
0.96 3.6337e+10\\
0.97 3.8548e+10\\
0.98 4.07949e+10\\
0.99 4.30752e+10\\
1 4.53856e+10\\
1.01 4.77201e+10\\
1.02 5.00658e+10\\
1.03 5.23937e+10\\
1.04 5.46563e+10\\
1.05 5.68113e+10\\
1.06 5.88503e+10\\
1.07 6.07935e+10\\
1.08 6.26694e+10\\
1.09 6.45034e+10\\
1.1 6.63149e+10\\
};
\addlegendentry{$T=\SI{400.0}{\kelvin}$}
\end{axis}

\end{tikzpicture}
