\begin{tikzpicture}[font=\normalsize,trim axis left, trim axis right,tight background]
\pgfplotsset{every axis/.append style={very thick},compat=1.5},
\definecolor{color0}{rgb}{0.00000, 0.39216, 0.00000}
\definecolor{color1}{rgb}{0.00000, 0.00000, 0.54510}
\definecolor{color2}{rgb}{0.69020, 0.18824, 0.37647}

\begin{axis}[scale only axis,ytick pos=left,
xlabel={$V_{\mathrm{BE}} ( \si{\volt} )$},
ylabel={$J_{\mathrm{C}} ( \si{\milli\ampere\per\square\micro\meter} )$},
ymode=log,
xmin=0.6,
xmax=0.95,
restrict x to domain=0.12:4.75,
log basis x=10,
ymin=0.001,
ymax=50,
restrict y to domain=-3.69897:2.39794,
log basis y=10,
xlabel shift = -5 pt,
 ylabel shift = -5 pt,
xmajorgrids,
enlargelimits=false,
scaled ticks=true,
ymajorgrids,
x tick style={color=black},
y tick style={color=black},
x grid style={white!69.01960784313725!black},
y grid style={white!69.01960784313725!black},
/tikz/mark repeat=2,
legend style={at={(0.02,0.98)}, anchor=north west,legend cell align=left, align=left},
]
\addplot [color=color0, solid, mark=x, mark options={solid}, mark phase=0, ]
  table[row sep=crcr, x expr=\thisrowno{0}*1.000000e+00, y expr=\thisrowno{1}*1.000000e-09]{
0.1 11.3489\\
0.11 10.8555\\
0.12 10.8555\\
0.13 10.8555\\
0.14 10.3621\\
0.15 10.3621\\
0.16 10.3621\\
0.17 10.3621\\
0.18 10.3621\\
0.19 10.3621\\
0.2 10.3621\\
0.21 9.86865\\
0.22 9.86865\\
0.23 9.86865\\
0.24 10.3621\\
0.25 10.3621\\
0.26 10.3621\\
0.27 10.8555\\
0.28 12.3358\\
0.29 13.8161\\
0.3 16.7767\\
0.31 20.2307\\
0.32 26.1519\\
0.33 34.0468\\
0.34 46.3827\\
0.35 64.1462\\
0.36 90.7916\\
0.37 128.786\\
0.38 184.544\\
0.39 265.96\\
0.4 384.877\\
0.41 558.566\\
0.42 812.19\\
0.43 1182.26\\
0.44 1723.07\\
0.45 2512.06\\
0.46 3663.24\\
0.47 5343.38\\
0.48 7796.23\\
0.49 11376.1\\
0.5 16600.1\\
0.51 24224.1\\
0.52 35351.5\\
0.53 51590.3\\
0.54 75289.9\\
0.55 109877\\
0.56 160354\\
0.57 234018\\
0.58 341520\\
0.59 498401\\
0.6 727338\\
0.61 1.06141e+06\\
0.62 1.54889e+06\\
0.63 2.26015e+06\\
0.64 3.29783e+06\\
0.65 4.81152e+06\\
0.66 7.01913e+06\\
0.67 1.02378e+07\\
0.68 1.49287e+07\\
0.69 2.17608e+07\\
0.7 3.17027e+07\\
0.71 4.61514e+07\\
0.72 6.71107e+07\\
0.73 9.74335e+07\\
0.74 1.41137e+08\\
0.75 2.03792e+08\\
0.76 2.9295e+08\\
0.77 4.18549e+08\\
0.78 5.93124e+08\\
0.79 8.31629e+08\\
0.8 1.15064e+09\\
0.81 1.56687e+09\\
0.82 2.09523e+09\\
0.83 2.747e+09\\
0.84 3.52864e+09\\
0.85 4.44166e+09\\
0.86 5.48332e+09\\
0.87 6.6478e+09\\
0.88 7.92743e+09\\
0.89 9.3137e+09\\
0.9 1.07979e+10\\
0.91 1.23718e+10\\
0.92 1.40273e+10\\
0.93 1.57573e+10\\
};
\addlegendentry{$V_{\mathrm{CE}}=\SI{0.5}{\volt}$}
\addplot [color=color1, solid, mark=+, mark options={solid}, mark phase=0, ]
  table[row sep=crcr, x expr=\thisrowno{0}*1.000000e+00, y expr=\thisrowno{1}*1.000000e-09]{
0.1 24.6716\\
0.11 23.6848\\
0.12 23.6848\\
0.13 23.6848\\
0.14 23.6848\\
0.15 23.6848\\
0.16 23.6848\\
0.17 22.6979\\
0.18 22.6979\\
0.19 22.6979\\
0.2 22.6979\\
0.21 22.6979\\
0.22 22.6979\\
0.23 22.6979\\
0.24 22.6979\\
0.25 22.6979\\
0.26 23.6848\\
0.27 23.6848\\
0.28 25.6585\\
0.29 26.6454\\
0.3 29.6059\\
0.31 33.5534\\
0.32 39.4746\\
0.33 47.3695\\
0.34 60.1988\\
0.35 77.9623\\
0.36 103.621\\
0.37 142.109\\
0.38 197.373\\
0.39 279.283\\
0.4 398.693\\
0.41 573.369\\
0.42 827.98\\
0.43 1199.04\\
0.44 1740.83\\
0.45 2530.32\\
0.46 3684.95\\
0.47 5369.53\\
0.48 7828.8\\
0.49 11416.1\\
0.5 16653.3\\
0.51 24294.6\\
0.52 35449.2\\
0.53 51726.5\\
0.54 75481.3\\
0.55 110150\\
0.56 160745\\
0.57 234582\\
0.58 342336\\
0.59 499583\\
0.6 729053\\
0.61 1.0639e+06\\
0.62 1.55251e+06\\
0.63 2.26542e+06\\
0.64 3.30551e+06\\
0.65 4.82271e+06\\
0.66 7.03542e+06\\
0.67 1.02615e+07\\
0.68 1.49632e+07\\
0.69 2.1811e+07\\
0.7 3.17757e+07\\
0.71 4.62572e+07\\
0.72 6.72638e+07\\
0.73 9.76545e+07\\
0.74 1.41454e+08\\
0.75 2.04244e+08\\
0.76 2.93588e+08\\
0.77 4.19439e+08\\
0.78 5.94344e+08\\
0.79 8.33264e+08\\
0.8 1.15278e+09\\
0.81 1.56958e+09\\
0.82 2.09856e+09\\
0.83 2.75097e+09\\
0.84 3.53322e+09\\
0.85 4.4468e+09\\
0.86 5.48895e+09\\
0.87 6.65384e+09\\
0.88 7.93382e+09\\
0.89 9.32036e+09\\
0.9 1.08048e+10\\
0.91 1.23789e+10\\
0.92 1.40347e+10\\
0.93 1.57652e+10\\
};
\addlegendentry{$V_{\mathrm{CE}}=\SI{1.0}{\volt}$}
\addplot [color=color2, solid, mark=triangle, mark options={solid, rotate=180}, mark phase=0, ]
  table[row sep=crcr, x expr=\thisrowno{0}*1.000000e+00, y expr=\thisrowno{1}*1.000000e-09]{
0.1 39.4746\\
0.11 39.4746\\
0.12 39.4746\\
0.13 39.4746\\
0.14 39.4746\\
0.15 39.4746\\
0.16 39.4746\\
0.17 39.4746\\
0.18 37.5009\\
0.19 37.5009\\
0.2 37.5009\\
0.21 37.5009\\
0.22 37.5009\\
0.23 37.5009\\
0.24 37.5009\\
0.25 37.5009\\
0.26 39.4746\\
0.27 39.4746\\
0.28 41.4483\\
0.29 41.4483\\
0.3 43.4221\\
0.31 47.3695\\
0.32 53.2907\\
0.33 61.1856\\
0.34 73.028\\
0.35 92.7653\\
0.36 118.424\\
0.37 155.925\\
0.38 213.163\\
0.39 294.086\\
0.4 414.483\\
0.41 590.145\\
0.42 846.73\\
0.43 1219.77\\
0.44 1764.51\\
0.45 2557.95\\
0.46 3718.51\\
0.47 5409.99\\
0.48 7879.13\\
0.49 11483.2\\
0.5 16743.2\\
0.51 24419\\
0.52 35617.9\\
0.53 51960.4\\
0.54 75811\\
0.55 110614\\
0.56 161400\\
0.57 235509\\
0.58 343654\\
0.59 501458\\
0.6 731725\\
0.61 1.06771e+06\\
0.62 1.55795e+06\\
0.63 2.27319e+06\\
0.64 3.3166e+06\\
0.65 4.83856e+06\\
0.66 7.0581e+06\\
0.67 1.0294e+07\\
0.68 1.50096e+07\\
0.69 2.18774e+07\\
0.7 3.18706e+07\\
0.71 4.63929e+07\\
0.72 6.74574e+07\\
0.73 9.79302e+07\\
0.74 1.41846e+08\\
0.75 2.04797e+08\\
0.76 2.94365e+08\\
0.77 4.20517e+08\\
0.78 5.9582e+08\\
0.79 8.3525e+08\\
0.8 1.15539e+09\\
0.81 1.57292e+09\\
0.82 2.1027e+09\\
0.83 2.75592e+09\\
0.84 3.53896e+09\\
0.85 4.45322e+09\\
0.86 5.49592e+09\\
0.87 6.66121e+09\\
0.88 7.94141e+09\\
0.89 9.32803e+09\\
0.9 1.08125e+10\\
0.91 1.23864e+10\\
0.92 1.4042e+10\\
0.93 1.57722e+10\\
};
\addlegendentry{$V_{\mathrm{CE}}=\SI{1.5}{\volt}$}
\end{axis}

\end{tikzpicture}
