ID(VGS)@VDS=1.5(4 Stat)

* with minimial width=0.6um and length=0.45um
X1_nmos node_d node_g node_s node_b sg13_hv_nmos w=0.6u l=0.45u m=5 ng=1

Vg node_g 0 dc 2 
Vd node_d 0 dc 2
Vs node_s 0 dc 0
Vb node_b 0 dc 0

* .option noinit acct
* .dc Vg 0 1.5 0.01

* for non-statistical library with tt case
* .lib ../model_files/ngspice/MOSHV/cornerMOShv_psp.lib mos_tt
* for non-statistical library with ss case
* .lib ../model_files/ngspice/MOSHV/cornerMOShv_psp.lib mos_ss
* for non-statistical library with ff case
* .lib ../model_files/ngspice/MOSHV/cornerMOShv_psp.lib mos_ff
* for non-statistical library with sf case
* .lib ../model_files/ngspice/MOSHV/cornerMOShv_psp.lib mos_sf
* for non-statistical library with fs case
* .lib ../model_files/ngspice/MOSHV/cornerMOShv_psp.lib mos_fs

* for statistical library with tt case
* .lib ../model_files/ngspice/MOSHV/cornerMOShv_psp.lib mos_tt_stat
* for statistical library with ss case
* .lib ../model_files/ngspice/MOSHV/cornerMOShv_psp.lib mos_ss_stat
* for statistical library with ff case
* .lib ../model_files/ngspice/MOSHV/cornerMOShv_psp.lib mos_ff_stat
* for statistical library with sf case
* .lib ../model_files/ngspice/MOSHV/cornerMOShv_psp.lib mos_sf_stat
* for statistical library with fs case
.lib ../model_files/ngspice/MOSHV/cornerMOShv_psp.lib mos_fs_stat

.control
pre_osdi ../va_code_psp103p6/psp103_nqs.osdi
* pre_set strict_errorhandling
* unset ngdebug

* make vg sweep from 0 to 1.5V for single VDS=1.5V
dc Vg 0 2 0.01
reset 
dc Vg 0 2 0.01
reset 
dc Vg 0 2 0.01
reset 
dc Vg 0 2 0.01

* plot ID(=-IS) vs Vg in linear format
plot dc1.i(Vs) dc2.i(Vs) dc3.i(Vs) dc4.i(Vs)
* plot dc1.i(Vs)
.endc
.END
