\begin{tikzpicture}[font=\normalsize,trim axis left, trim axis right,tight background]
\pgfplotsset{every axis/.append style={very thick},compat=1.5},
\definecolor{color0}{rgb}{0.00000, 0.39216, 0.00000}
\definecolor{color1}{rgb}{0.00000, 0.00000, 0.54510}
\definecolor{color2}{rgb}{0.69020, 0.18824, 0.37647}

\begin{axis}[scale only axis,ytick pos=left,
xlabel={$J_{\mathrm{D}} ( \si{\milli\ampere\per\micro\meter} )$},
ylabel={$f_{\mathrm{T}} ( \si{\giga\hertz} )$},
xmode=log,
xmin=1e-05,
xmax=1,
restrict x to domain=-5.69897:0.69897,
log basis x=10,
% ymin=0,
% ymax=0,
% restrict y to domain=0:1,
log basis y=10,
xlabel shift = -5 pt,
 ylabel shift = -5 pt,
xmajorgrids,
enlargelimits=false,
scaled ticks=true,
ymajorgrids,
x tick style={color=black},
y tick style={color=black},
x grid style={white!69.01960784313725!black},
y grid style={white!69.01960784313725!black},
/tikz/mark repeat=2,
legend style={at={(0.02,0.98)}, anchor=north west,legend cell align=left, align=left},
]
\addplot [color=color0, solid, mark=x, mark options={solid}, mark phase=1, ]
  table[row sep=crcr, x expr=\thisrowno{0}*1.000000e-03, y expr=\thisrowno{1}*1.000000e-09]{
4.87229e-07 7.20652e+11\\
6.49639e-07 5.50071e+11\\
6.49639e-07 4.25414e+11\\
8.12049e-07 3.29457e+11\\
9.74459e-07 2.5523e+11\\
1.13687e-06 1.98215e+11\\
1.6241e-06 1.53315e+11\\
1.94892e-06 1.18498e+11\\
2.59856e-06 9.15059e+10\\
3.08579e-06 7.06629e+10\\
3.89783e-06 5.4446e+10\\
5.0347e-06 4.18851e+10\\
6.6588e-06 3.22129e+10\\
8.93254e-06 2.47573e+10\\
1.12063e-05 1.9e+10\\
1.49417e-05 1.45674e+10\\
1.94892e-05 1.11565e+10\\
2.53359e-05 8.53888e+09\\
3.31316e-05 6.5279e+09\\
4.35258e-05 4.98702e+09\\
5.70058e-05 3.80624e+09\\
7.47085e-05 2.90263e+09\\
9.80955e-05 2.21178e+09\\
0.000128466 1.68414e+09\\
0.000168906 1.28142e+09\\
0.000222014 9.7441e+08\\
0.000292662 7.40612e+08\\
0.000385561 5.62733e+08\\
0.00050818 4.27583e+08\\
0.000670428 3.25066e+08\\
0.000884808 2.4748e+08\\
0.00116903 1.88965e+08\\
0.00154533 1.45077e+08\\
0.00204425 1.12464e+08\\
0.00270493 8.86268e+07\\
0.00358146 7.17304e+07\\
0.00474366 6.04686e+07\\
0.0062851 5.39655e+07\\
0.00832951 5.17085e+07\\
0.0110395 5.3503e+07\\
0.01463 5.94483e+07\\
0.0193833 6.99254e+07\\
0.025665 8.55922e+07\\
0.0339506 1.07378e+08\\
0.0448473 1.36465e+08\\
0.0591232 1.74243e+08\\
0.0777329 2.22229e+08\\
0.101838 2.81937e+08\\
0.132816 3.54713e+08\\
0.172253 4.41549e+08\\
0.221913 5.42936e+08\\
0.283687 6.58779e+08\\
0.359528 7.88413e+08\\
0.451374 9.30711e+08\\
0.561085 1.08424e+09\\
0.690386 1.24745e+09\\
0.840835 1.41879e+09\\
1.01381 1.59682e+09\\
1.21048 1.78024e+09\\
1.43188 1.96794e+09\\
1.67884 2.15894e+09\\
1.95205 2.35241e+09\\
2.2521 2.54761e+09\\
2.57942 2.74391e+09\\
2.93436 2.94073e+09\\
3.31717 3.13755e+09\\
3.72804 3.3339e+09\\
4.16705 3.52935e+09\\
4.63423 3.72347e+09\\
5.12956 3.9159e+09\\
5.65294 4.10628e+09\\
6.20423 4.2943e+09\\
6.78325 4.47964e+09\\
7.38976 4.66203e+09\\
8.02348 4.84124e+09\\
8.6841 5.01702e+09\\
9.37128 5.18919e+09\\
10.0846 5.35756e+09\\
10.8238 5.52199e+09\\
11.5883 5.68235e+09\\
12.3777 5.83854e+09\\
13.1915 5.99046e+09\\
14.0293 6.13804e+09\\
14.8905 6.28125e+09\\
15.7746 6.42004e+09\\
16.6812 6.5544e+09\\
17.6096 6.68432e+09\\
18.5593 6.80982e+09\\
19.5298 6.9309e+09\\
20.5206 7.0476e+09\\
21.531 7.15997e+09\\
22.5606 7.26804e+09\\
23.6087 7.37187e+09\\
24.6749 7.47151e+09\\
25.7585 7.56704e+09\\
26.8591 7.65853e+09\\
27.976 7.74604e+09\\
29.1088 7.82965e+09\\
30.2569 7.90946e+09\\
31.4198 7.98553e+09\\
32.5969 8.05796e+09\\
33.7879 8.12683e+09\\
34.992 8.19223e+09\\
36.2089 8.25425e+09\\
37.4381 8.31298e+09\\
38.6791 8.3685e+09\\
39.9313 8.42091e+09\\
41.1944 8.47029e+09\\
42.4679 8.51674e+09\\
43.7514 8.56035e+09\\
45.0443 8.60118e+09\\
46.3464 8.63935e+09\\
47.6571 8.67492e+09\\
48.976 8.70798e+09\\
50.3029 8.73862e+09\\
51.6372 8.76691e+09\\
52.9786 8.79292e+09\\
54.3267 8.81675e+09\\
55.6812 8.83846e+09\\
57.0417 8.85813e+09\\
58.4079 8.87582e+09\\
59.7795 8.89162e+09\\
61.156 8.90557e+09\\
62.5373 8.91776e+09\\
63.923 8.92824e+09\\
65.3128 8.93708e+09\\
66.7064 8.94433e+09\\
68.1036 8.95005e+09\\
69.504 8.95431e+09\\
70.9074 8.95716e+09\\
72.3136 8.95864e+09\\
73.7223 8.95881e+09\\
75.1332 8.95773e+09\\
76.5462 8.95543e+09\\
77.9609 8.95197e+09\\
79.3773 8.94738e+09\\
80.795 8.94172e+09\\
82.2138 8.93502e+09\\
83.6337 8.92732e+09\\
85.0542 8.91867e+09\\
86.4754 8.9091e+09\\
};
\addlegendentry{$V_{\mathrm{DS}}=\SI{0.5}{\volt}$}
\addplot [color=color1, solid, mark=+, mark options={solid}, mark phase=1, ]
  table[row sep=crcr, x expr=\thisrowno{0}*1.000000e-03, y expr=\thisrowno{1}*1.000000e-09]{
9.74459e-07 4.87314e+11\\
9.74459e-07 3.76635e+11\\
9.74459e-07 2.91521e+11\\
9.74459e-07 2.25001e+11\\
9.74459e-07 1.74762e+11\\
1.94892e-06 1.35219e+11\\
1.94892e-06 1.04697e+11\\
2.92338e-06 8.07432e+10\\
3.2482e-06 6.23571e+10\\
4.22265e-06 4.80542e+10\\
6.17157e-06 3.69946e+10\\
6.82121e-06 2.84399e+10\\
9.41977e-06 2.18593e+10\\
1.23431e-05 1.67778e+10\\
1.55913e-05 1.28674e+10\\
2.04636e-05 9.85534e+09\\
2.696e-05 7.54271e+09\\
3.47557e-05 5.76752e+09\\
4.64492e-05 4.40652e+09\\
6.07413e-05 3.36339e+09\\
7.86063e-05 2.56525e+09\\
0.000103942 1.95502e+09\\
0.000136099 1.48881e+09\\
0.0001793 1.13299e+09\\
0.000235819 8.61717e+08\\
0.000309878 6.5511e+08\\
0.000408623 4.97922e+08\\
0.0005392 3.78504e+08\\
0.00071103 2.87947e+08\\
0.000939053 2.19455e+08\\
0.00124016 1.67858e+08\\
0.00163969 1.29245e+08\\
0.00216947 1.00673e+08\\
0.0028714 7.99557e+07\\
0.00380201 6.55019e+07\\
0.00503763 5.61989e+07\\
0.00667667 5.13278e+07\\
0.00885166 5.05086e+07\\
0.0117377 5.36663e+07\\
0.015565 6.10166e+07\\
0.0206374 7.30636e+07\\
0.0273521 9.06055e+07\\
0.0362255 1.14739e+08\\
0.0479226 1.46852e+08\\
0.0632904 1.88582e+08\\
0.0833867 2.41733e+08\\
0.10951 3.08134e+08\\
0.14321 3.89431e+08\\
0.186277 4.86862e+08\\
0.240708 6.01048e+08\\
0.308647 7.31865e+08\\
0.392292 8.78459e+08\\
0.493811 1.03937e+09\\
0.615256 1.21275e+09\\
0.7585 1.39662e+09\\
0.925202 1.58903e+09\\
1.11679 1.78822e+09\\
1.33447 1.99267e+09\\
1.57924 2.20113e+09\\
1.85191 2.41256e+09\\
2.15315 2.62613e+09\\
2.48348 2.84115e+09\\
2.84332 3.05708e+09\\
3.23297 3.27342e+09\\
3.65268 3.48977e+09\\
4.1026 3.70577e+09\\
4.58284 3.92109e+09\\
5.09344 4.13543e+09\\
5.63439 4.34852e+09\\
6.20564 4.56009e+09\\
6.80711 4.76992e+09\\
7.43866 4.97778e+09\\
8.10013 5.18347e+09\\
8.79134 5.38679e+09\\
9.51205 5.58758e+09\\
10.262 5.78566e+09\\
11.041 5.98091e+09\\
11.8486 6.17318e+09\\
12.6847 6.36236e+09\\
13.5487 6.54836e+09\\
14.4405 6.73109e+09\\
15.3596 6.91046e+09\\
16.3057 7.08642e+09\\
17.2784 7.25893e+09\\
18.2772 7.42795e+09\\
19.3018 7.59344e+09\\
20.3518 7.75539e+09\\
21.4267 7.91379e+09\\
22.5261 8.06864e+09\\
23.6497 8.21995e+09\\
24.7969 8.36774e+09\\
25.9673 8.51202e+09\\
27.1605 8.65282e+09\\
28.3761 8.79017e+09\\
29.6137 8.92412e+09\\
30.8728 9.05469e+09\\
32.153 9.18193e+09\\
33.4538 9.30588e+09\\
34.7749 9.42661e+09\\
36.1158 9.54414e+09\\
37.4761 9.65854e+09\\
38.8554 9.76985e+09\\
40.2533 9.87814e+09\\
41.6694 9.98344e+09\\
43.1033 1.00858e+10\\
44.5545 1.01854e+10\\
46.0228 1.02821e+10\\
47.5078 1.0376e+10\\
49.0089 1.04673e+10\\
50.526 1.05559e+10\\
52.0585 1.06419e+10\\
53.6062 1.07253e+10\\
55.1687 1.08063e+10\\
56.7456 1.08849e+10\\
58.3367 1.0961e+10\\
59.9415 1.10348e+10\\
61.5597 1.11064e+10\\
63.191 1.11756e+10\\
64.8351 1.12427e+10\\
66.4916 1.13077e+10\\
68.1602 1.13705e+10\\
69.8407 1.14313e+10\\
71.5327 1.14901e+10\\
73.236 1.1547e+10\\
74.9501 1.16018e+10\\
76.675 1.16549e+10\\
78.4102 1.1706e+10\\
80.1554 1.17554e+10\\
81.9105 1.1803e+10\\
83.6752 1.18488e+10\\
85.4491 1.1893e+10\\
87.232 1.19355e+10\\
89.0237 1.19765e+10\\
90.824 1.20158e+10\\
92.6325 1.20535e+10\\
94.449 1.20898e+10\\
96.2733 1.21246e+10\\
98.1052 1.21579e+10\\
99.9444 1.21898e+10\\
101.791 1.22203e+10\\
103.644 1.22494e+10\\
};
\addlegendentry{$V_{\mathrm{DS}}=\SI{1.0}{\volt}$}
\addplot [color=color2, solid, mark=triangle, mark options={solid, rotate=180}, mark phase=1, ]
  table[row sep=crcr, x expr=\thisrowno{0}*1.000000e-03, y expr=\thisrowno{1}*1.000000e-09]{
1.29928e-06 3.34041e+11\\
1.29928e-06 2.59707e+11\\
1.29928e-06 2.00384e+11\\
1.29928e-06 1.5553e+11\\
1.94892e-06 1.2007e+11\\
1.94892e-06 9.29603e+10\\
2.59856e-06 7.16995e+10\\
2.59856e-06 5.53669e+10\\
4.54747e-06 4.26654e+10\\
6.49639e-06 3.28279e+10\\
7.14603e-06 2.52576e+10\\
9.74459e-06 1.94038e+10\\
1.29928e-05 1.48952e+10\\
1.68906e-05 1.14179e+10\\
2.14381e-05 8.74597e+09\\
2.85841e-05 6.69309e+09\\
3.76791e-05 5.11743e+09\\
4.80733e-05 3.90928e+09\\
6.36646e-05 2.98396e+09\\
8.25042e-05 2.27567e+09\\
0.000109139 1.73417e+09\\
0.00014357 1.32056e+09\\
0.000188395 1.00494e+09\\
0.000247512 7.64323e+08\\
0.000325469 5.81102e+08\\
0.000429411 4.41737e+08\\
0.000565836 3.35896e+08\\
0.000746435 2.55678e+08\\
0.000986802 1.95061e+08\\
0.00130318 1.4947e+08\\
0.00172349 1.15447e+08\\
0.00228088 9.03982e+07\\
0.00301887 7.24094e+07\\
0.00399853 6.01006e+07\\
0.00529781 5.25261e+07\\
0.00702455 4.91036e+07\\
0.00931582 4.95688e+07\\
0.0123568 5.39515e+07\\
0.016393 6.25684e+07\\
0.021746 7.60297e+07\\
0.0288394 9.52522e+07\\
0.0382235 1.21471e+08\\
0.0506101 1.56235e+08\\
0.0669115 2.01375e+08\\
0.0882658 2.58905e+08\\
0.116078 3.3087e+08\\
0.152025 4.1911e+08\\
0.198046 5.24994e+08\\
0.256309 6.49173e+08\\
0.32912 7.91437e+08\\
0.418842 9.50724e+08\\
0.52778 1.12528e+09\\
0.658095 1.31293e+09\\
0.811731 1.51135e+09\\
0.990381 1.71831e+09\\
1.19547 1.93181e+09\\
1.4282 2.15019e+09\\
1.6895 2.37209e+09\\
1.98015 2.59643e+09\\
2.30074 2.82236e+09\\
2.65174 3.04924e+09\\
3.0335 3.27654e+09\\
3.44627 3.50381e+09\\
3.89024 3.73071e+09\\
4.36552 3.95692e+09\\
4.87216 4.18216e+09\\
5.41018 4.40618e+09\\
5.97953 4.62873e+09\\
6.58013 4.84961e+09\\
7.21187 5.06859e+09\\
7.87461 5.2855e+09\\
8.56817 5.50013e+09\\
9.29234 5.71234e+09\\
10.0469 5.92195e+09\\
10.8315 6.12883e+09\\
11.6461 6.33284e+09\\
12.4901 6.53386e+09\\
13.3634 6.73179e+09\\
14.2656 6.92654e+09\\
15.1963 7.11801e+09\\
16.1553 7.30615e+09\\
17.142 7.4909e+09\\
18.1562 7.6722e+09\\
19.1974 7.85003e+09\\
20.2653 8.02436e+09\\
21.3594 8.19518e+09\\
22.4794 8.36246e+09\\
23.6248 8.52623e+09\\
24.7951 8.68649e+09\\
25.9901 8.84325e+09\\
27.2092 8.99654e+09\\
28.452 9.14639e+09\\
29.7182 9.29282e+09\\
31.0072 9.43588e+09\\
32.3187 9.57562e+09\\
33.6523 9.71206e+09\\
35.0076 9.84527e+09\\
36.384 9.97529e+09\\
37.7814 1.01022e+10\\
39.1991 1.0226e+10\\
40.6369 1.03468e+10\\
42.0943 1.04646e+10\\
43.571 1.05796e+10\\
45.0666 1.06916e+10\\
46.5807 1.08009e+10\\
48.1129 1.09075e+10\\
49.6628 1.10114e+10\\
51.2302 1.11127e+10\\
52.8146 1.12114e+10\\
54.4157 1.13076e+10\\
56.0332 1.14014e+10\\
57.6667 1.14928e+10\\
59.3158 1.15818e+10\\
60.9804 1.16686e+10\\
62.66 1.17532e+10\\
64.3543 1.18356e+10\\
66.063 1.19158e+10\\
67.7858 1.1994e+10\\
69.5225 1.20702e+10\\
71.2727 1.21444e+10\\
73.0361 1.22166e+10\\
74.8125 1.2287e+10\\
76.6015 1.23555e+10\\
78.403 1.24222e+10\\
80.2166 1.24871e+10\\
82.0421 1.25504e+10\\
83.8793 1.26119e+10\\
85.7278 1.26718e+10\\
87.5874 1.27301e+10\\
89.458 1.27868e+10\\
91.3391 1.2842e+10\\
93.2307 1.28956e+10\\
95.1325 1.29478e+10\\
97.0442 1.29986e+10\\
98.9657 1.3048e+10\\
100.897 1.30959e+10\\
102.837 1.31426e+10\\
104.786 1.31879e+10\\
106.745 1.32319e+10\\
108.712 1.32747e+10\\
110.687 1.33162e+10\\
};
\addlegendentry{$V_{\mathrm{DS}}=\SI{1.5}{\volt}$}
\end{axis}

\end{tikzpicture}
