\begin{tikzpicture}[font=\normalsize,trim axis left, trim axis right,tight background]
\pgfplotsset{every axis/.append style={very thick},compat=1.5},
\definecolor{color0}{rgb}{0.00000, 0.39216, 0.00000}
\definecolor{color1}{rgb}{0.00000, 0.00000, 0.54510}
\definecolor{color2}{rgb}{0.69020, 0.18824, 0.37647}

\begin{axis}[scale only axis,ytick pos=left,
xlabel={$J_{\mathrm{D}} ( \si{\milli\ampere\per\micro\meter} )$},
ylabel={$f_{\mathrm{max}} ( \si{\giga\hertz} )$},
xmode=log,
xmin=1e-05,
xmax=1,
restrict x to domain=-5.69897:0.69897,
log basis x=10,
% ymin=0,
% ymax=0,
% restrict y to domain=0:1,
log basis y=10,
xlabel shift = -5 pt,
 ylabel shift = -5 pt,
xmajorgrids,
enlargelimits=false,
scaled ticks=true,
ymajorgrids,
x tick style={color=black},
y tick style={color=black},
x grid style={white!69.01960784313725!black},
y grid style={white!69.01960784313725!black},
/tikz/mark repeat=2,
legend style={at={(0.02,0.98)}, anchor=north west,legend cell align=left, align=left},
]
\addplot [color=color0, solid, mark=x, mark options={solid}, mark phase=1, ]
  table[row sep=crcr, x expr=\thisrowno{0}*1.000000e-03, y expr=\thisrowno{1}*1.000000e-09]{
0.000156888 5.65483e+08\\
0.000205611 6.4701e+08\\
0.000269438 7.40904e+08\\
0.000353404 8.47986e+08\\
0.000463517 9.71058e+08\\
0.0006079 1.11182e+09\\
0.000798082 1.27349e+09\\
0.00104803 1.4585e+09\\
0.00137642 1.67134e+09\\
0.00180843 1.91458e+09\\
0.00237638 2.19392e+09\\
0.0031233 2.51423e+09\\
0.00410604 2.88144e+09\\
0.00539948 3.30164e+09\\
0.0071012 3.78474e+09\\
0.00934019 4.33637e+09\\
0.0122856 4.9689e+09\\
0.0161596 5.69262e+09\\
0.0212528 6.51839e+09\\
0.027945 7.46244e+09\\
0.0367312 8.53815e+09\\
0.048251 9.75897e+09\\
0.0633307 1.11424e+10\\
0.0830286 1.27042e+10\\
0.108686 1.44588e+10\\
0.141983 1.64178e+10\\
0.184999 1.85889e+10\\
0.240253 2.09688e+10\\
0.310742 2.35599e+10\\
0.399935 2.63251e+10\\
0.511749 2.92614e+10\\
0.650473 3.23334e+10\\
0.820681 3.54999e+10\\
1.02713 3.87269e+10\\
1.27469 4.19956e+10\\
1.56828 4.52871e+10\\
1.91286 4.86014e+10\\
2.31347 5.18875e+10\\
2.77519 5.51876e+10\\
3.30319 5.85025e+10\\
3.90269 6.18184e+10\\
4.57892 6.51156e+10\\
5.3371 6.8419e+10\\
6.18236 7.17083e+10\\
7.11975 7.49762e+10\\
8.15413 7.82324e+10\\
9.29017 8.14354e+10\\
10.5324 8.46131e+10\\
11.8849 8.77415e+10\\
13.3517 9.07942e+10\\
14.9366 9.38253e+10\\
16.6429 9.67699e+10\\
18.4737 9.96212e+10\\
20.4319 1.02441e+11\\
22.5199 1.05183e+11\\
24.74 1.0782e+11\\
27.0941 1.10397e+11\\
29.5838 1.12862e+11\\
32.2104 1.15263e+11\\
34.9748 1.17546e+11\\
37.8778 1.19736e+11\\
40.9195 1.21859e+11\\
44.1002 1.23858e+11\\
47.4195 1.25789e+11\\
50.8768 1.27592e+11\\
54.4712 1.29296e+11\\
58.2017 1.30964e+11\\
62.0667 1.32437e+11\\
66.0645 1.33841e+11\\
70.1932 1.35212e+11\\
74.4504 1.36382e+11\\
78.8339 1.37486e+11\\
83.3408 1.3849e+11\\
87.9684 1.39396e+11\\
92.7135 1.40278e+11\\
97.573 1.40953e+11\\
102.543 1.41569e+11\\
107.622 1.42092e+11\\
112.804 1.42563e+11\\
118.086 1.42824e+11\\
123.465 1.43158e+11\\
128.936 1.43243e+11\\
134.497 1.43367e+11\\
140.142 1.43368e+11\\
145.869 1.43248e+11\\
151.674 1.4305e+11\\
157.552 1.42821e+11\\
163.5 1.42521e+11\\
169.514 1.42107e+11\\
175.59 1.41626e+11\\
181.725 1.4108e+11\\
187.916 1.40473e+11\\
194.158 1.39761e+11\\
200.448 1.39039e+11\\
206.784 1.38263e+11\\
213.161 1.37388e+11\\
219.576 1.36465e+11\\
226.027 1.35496e+11\\
232.51 1.34484e+11\\
239.023 1.33382e+11\\
245.562 1.3229e+11\\
252.125 1.31113e+11\\
258.709 1.29856e+11\\
265.312 1.28615e+11\\
271.93 1.27345e+11\\
278.562 1.25954e+11\\
285.206 1.24587e+11\\
291.859 1.23199e+11\\
298.518 1.21744e+11\\
305.182 1.20227e+11\\
311.849 1.18696e+11\\
318.517 1.17154e+11\\
325.184 1.15648e+11\\
331.847 1.14001e+11\\
338.507 1.12394e+11\\
345.16 1.10784e+11\\
351.805 1.09089e+11\\
358.44 1.07439e+11\\
365.065 1.05752e+11\\
371.678 1.04032e+11\\
378.277 1.02361e+11\\
384.861 1.00584e+11\\
391.43 9.88227e+10\\
397.98 9.71523e+10\\
404.513 9.53881e+10\\
411.026 9.36095e+10\\
417.518 9.18545e+10\\
423.989 9.00902e+10\\
430.437 8.83525e+10\\
436.862 8.66104e+10\\
443.262 8.4867e+10\\
449.638 8.31253e+10\\
455.987 8.14169e+10\\
462.31 7.96863e+10\\
468.606 7.79924e+10\\
474.874 7.6309e+10\\
481.113 7.46385e+10\\
487.323 7.2983e+10\\
493.503 7.13444e+10\\
499.653 6.97246e+10\\
505.772 6.81253e+10\\
};
\addlegendentry{$V_{\mathrm{DS}}=\SI{0.5}{\volt}$}
\addplot [color=color1, solid, mark=+, mark options={solid}, mark phase=1, ]
  table[row sep=crcr, x expr=\thisrowno{0}*1.000000e-03, y expr=\thisrowno{1}*1.000000e-09]{
0.000243939 7.36442e+08\\
0.000320272 8.44242e+08\\
0.000419992 9.68198e+08\\
0.000551544 1.11026e+09\\
0.000724997 1.27347e+09\\
0.000953021 1.46072e+09\\
0.0012525 1.67569e+09\\
0.00164813 1.9225e+09\\
0.00216817 2.20582e+09\\
0.00285289 2.53069e+09\\
0.00375524 2.90398e+09\\
0.0049444 3.33242e+09\\
0.00651003 3.8241e+09\\
0.00857394 4.38821e+09\\
0.011293 5.03522e+09\\
0.0148751 5.77694e+09\\
0.0195941 6.62667e+09\\
0.0258076 7.59824e+09\\
0.0339846 8.70999e+09\\
0.0447371 9.97894e+09\\
0.0588596 1.14243e+10\\
0.0773811 1.30643e+10\\
0.101622 1.49203e+10\\
0.133265 1.70135e+10\\
0.174427 1.93556e+10\\
0.227735 2.19598e+10\\
0.296387 2.48297e+10\\
0.3842 2.79545e+10\\
0.495592 3.13177e+10\\
0.635532 3.48864e+10\\
0.809397 3.86153e+10\\
1.0228 4.24389e+10\\
1.28137 4.63194e+10\\
1.59058 5.02034e+10\\
1.95566 5.40395e+10\\
2.38159 5.78323e+10\\
2.87316 6.15615e+10\\
3.43516 6.5244e+10\\
4.07247 6.8894e+10\\
4.79017 7.25261e+10\\
5.59353 7.61644e+10\\
6.48802 7.97917e+10\\
7.47923 8.3408e+10\\
8.57278 8.70657e+10\\
9.77426 9.06912e+10\\
11.0891 9.43348e+10\\
12.5226 9.7928e+10\\
14.0799 1.01524e+11\\
15.7655 1.05067e+11\\
17.5841 1.08581e+11\\
19.5396 1.12042e+11\\
21.6357 1.15425e+11\\
23.876 1.18779e+11\\
26.2633 1.22022e+11\\
28.8001 1.25227e+11\\
31.4889 1.28309e+11\\
34.3312 1.31347e+11\\
37.3286 1.34252e+11\\
40.482 1.3711e+11\\
43.7923 1.39827e+11\\
47.2596 1.42496e+11\\
50.884 1.45018e+11\\
54.665 1.47492e+11\\
58.602 1.49816e+11\\
62.694 1.52094e+11\\
66.9397 1.54219e+11\\
71.3375 1.56273e+11\\
75.8856 1.58201e+11\\
80.5819 1.60062e+11\\
85.4241 1.61827e+11\\
90.4098 1.6347e+11\\
95.5363 1.65081e+11\\
100.801 1.66541e+11\\
106.2 1.67913e+11\\
111.731 1.69231e+11\\
117.391 1.70432e+11\\
123.176 1.71584e+11\\
129.083 1.72591e+11\\
135.109 1.73552e+11\\
141.249 1.74472e+11\\
147.5 1.7532e+11\\
153.858 1.76028e+11\\
160.321 1.76702e+11\\
166.884 1.77309e+11\\
173.543 1.77851e+11\\
180.295 1.78332e+11\\
187.136 1.78715e+11\\
194.063 1.79077e+11\\
201.071 1.79383e+11\\
208.159 1.7956e+11\\
215.321 1.79759e+11\\
222.555 1.79867e+11\\
229.858 1.79965e+11\\
237.225 1.79939e+11\\
244.655 1.79907e+11\\
252.143 1.79831e+11\\
259.687 1.79635e+11\\
267.284 1.79476e+11\\
274.931 1.7924e+11\\
282.625 1.79005e+11\\
290.363 1.78655e+11\\
298.143 1.7827e+11\\
305.962 1.77891e+11\\
313.818 1.77439e+11\\
321.708 1.76997e+11\\
329.63 1.76444e+11\\
337.582 1.75862e+11\\
345.561 1.75252e+11\\
353.566 1.74615e+11\\
361.595 1.73953e+11\\
369.645 1.73184e+11\\
377.714 1.72473e+11\\
385.802 1.71658e+11\\
393.906 1.70821e+11\\
402.024 1.69963e+11\\
410.154 1.69084e+11\\
418.296 1.68106e+11\\
426.448 1.6715e+11\\
434.608 1.66137e+11\\
442.775 1.65107e+11\\
450.947 1.64021e+11\\
459.124 1.62921e+11\\
467.303 1.61768e+11\\
475.485 1.60602e+11\\
483.667 1.59386e+11\\
491.848 1.5812e+11\\
500.028 1.56845e+11\\
508.205 1.55561e+11\\
516.378 1.5427e+11\\
524.547 1.52896e+11\\
532.711 1.5148e+11\\
540.868 1.5006e+11\\
549.017 1.48602e+11\\
557.159 1.47105e+11\\
565.292 1.45609e+11\\
573.415 1.44044e+11\\
581.528 1.42481e+11\\
589.629 1.40923e+11\\
597.719 1.39302e+11\\
605.797 1.37656e+11\\
613.861 1.3605e+11\\
};
\addlegendentry{$V_{\mathrm{DS}}=\SI{1.0}{\volt}$}
\addplot [color=color2, solid, mark=triangle, mark options={solid, rotate=180}, mark phase=1, ]
  table[row sep=crcr, x expr=\thisrowno{0}*1.000000e-03, y expr=\thisrowno{1}*1.000000e-09]{
0.000322221 8.12606e+08\\
0.000422265 9.3398e+08\\
0.000554142 1.07352e+09\\
0.000727596 1.234e+09\\
0.000957568 1.41856e+09\\
0.001259 1.63094e+09\\
0.00165658 1.87495e+09\\
0.00217889 2.15593e+09\\
0.00286881 2.47894e+09\\
0.00377765 2.85072e+09\\
0.00497494 3.27778e+09\\
0.00655551 3.76945e+09\\
0.0086389 4.33439e+09\\
0.0113843 4.98418e+09\\
0.015006 5.73029e+09\\
0.0197789 6.58646e+09\\
0.0260694 7.57014e+09\\
0.0343562 8.69706e+09\\
0.0452669 9.98811e+09\\
0.0596174 1.14617e+10\\
0.0784699 1.31441e+10\\
0.103195 1.50543e+10\\
0.135548 1.72192e+10\\
0.177761 1.96572e+10\\
0.232625 2.23896e+10\\
0.303595 2.54239e+10\\
0.394833 2.87662e+10\\
0.511261 3.23966e+10\\
0.658502 3.62923e+10\\
0.842756 4.0413e+10\\
1.07059 4.46919e+10\\
1.34862 4.90592e+10\\
1.68327 5.34444e+10\\
2.08046 5.78055e+10\\
2.54554 6.20775e+10\\
3.08337 6.62529e+10\\
3.69847 7.03334e+10\\
4.39527 7.43358e+10\\
5.17837 7.82841e+10\\
6.05264 8.2193e+10\\
7.02332 8.61022e+10\\
8.09596 9.00158e+10\\
9.27637 9.39402e+10\\
10.5704 9.78758e+10\\
11.9841 1.01831e+11\\
13.5232 1.05774e+11\\
15.1934 1.09734e+11\\
17 1.13648e+11\\
18.9481 1.17546e+11\\
21.0423 1.21403e+11\\
23.287 1.25211e+11\\
25.6858 1.28977e+11\\
28.2423 1.32658e+11\\
30.9593 1.36283e+11\\
33.8394 1.3979e+11\\
36.8845 1.43246e+11\\
40.0961 1.4659e+11\\
43.4753 1.49856e+11\\
47.0228 1.5298e+11\\
50.7388 1.56041e+11\\
54.6231 1.58974e+11\\
58.6749 1.61797e+11\\
62.8935 1.64532e+11\\
67.2773 1.67133e+11\\
71.8248 1.69623e+11\\
76.5339 1.72026e+11\\
81.4023 1.7432e+11\\
86.4277 1.76453e+11\\
91.6071 1.78504e+11\\
96.9376 1.80449e+11\\
102.416 1.82262e+11\\
108.039 1.84001e+11\\
113.804 1.85641e+11\\
119.706 1.87156e+11\\
125.742 1.88606e+11\\
131.908 1.89965e+11\\
138.201 1.91237e+11\\
144.616 1.92425e+11\\
151.151 1.935e+11\\
157.8 1.94496e+11\\
164.56 1.95415e+11\\
171.427 1.96262e+11\\
178.398 1.97069e+11\\
185.467 1.97778e+11\\
192.633 1.98388e+11\\
199.89 1.99002e+11\\
207.236 1.99457e+11\\
214.665 1.9992e+11\\
222.176 2.00329e+11\\
229.765 2.00651e+11\\
237.427 2.00956e+11\\
245.159 2.0118e+11\\
252.96 2.01356e+11\\
260.824 2.01489e+11\\
268.749 2.01544e+11\\
276.732 2.01559e+11\\
284.77 2.01605e+11\\
292.861 2.01544e+11\\
301.001 2.01448e+11\\
309.187 2.01318e+11\\
317.418 2.01156e+11\\
325.69 2.00928e+11\\
334.002 2.0067e+11\\
342.351 2.00421e+11\\
350.734 2.00109e+11\\
359.15 1.99736e+11\\
367.596 1.99339e+11\\
376.071 1.98955e+11\\
384.572 1.98514e+11\\
393.098 1.98016e+11\\
401.646 1.97499e+11\\
410.216 1.96927e+11\\
418.805 1.96373e+11\\
427.412 1.95767e+11\\
436.035 1.95146e+11\\
444.673 1.94473e+11\\
453.325 1.93823e+11\\
461.989 1.93087e+11\\
470.663 1.92303e+11\\
479.347 1.91544e+11\\
488.04 1.90738e+11\\
496.739 1.89886e+11\\
505.445 1.89062e+11\\
514.155 1.88192e+11\\
522.87 1.87209e+11\\
531.588 1.86325e+11\\
540.307 1.85329e+11\\
549.028 1.84363e+11\\
557.75 1.83322e+11\\
566.47 1.82277e+11\\
575.19 1.8123e+11\\
583.907 1.80111e+11\\
592.621 1.78991e+11\\
601.332 1.77837e+11\\
610.039 1.76649e+11\\
618.741 1.75462e+11\\
627.437 1.74211e+11\\
636.128 1.72963e+11\\
644.811 1.71686e+11\\
653.488 1.70413e+11\\
662.156 1.6905e+11\\
};
\addlegendentry{$V_{\mathrm{DS}}=\SI{1.5}{\volt}$}
\end{axis}

\end{tikzpicture}
