\begin{tikzpicture}[font=\normalsize,trim axis left, trim axis right,tight background]
\pgfplotsset{every axis/.append style={very thick},compat=1.5},
\definecolor{color0}{rgb}{0.00000, 0.39216, 0.00000}
\definecolor{color1}{rgb}{0.00000, 0.00000, 0.54510}
\definecolor{color2}{rgb}{0.69020, 0.18824, 0.37647}

\begin{axis}[scale only axis,ytick pos=left,
xlabel={$J_{\mathrm{D}} ( \si{\milli\ampere\per\micro\meter} )$},
ylabel={$f_{\mathrm{T}} ( \si{\giga\hertz} )$},
xmode=log,
xmin=1e-05,
xmax=1,
restrict x to domain=-5.69897:0.69897,
log basis x=10,
% ymin=0,
% ymax=0,
% restrict y to domain=0:1,
log basis y=10,
xlabel shift = -5 pt,
 ylabel shift = -5 pt,
xmajorgrids,
enlargelimits=false,
scaled ticks=true,
ymajorgrids,
x tick style={color=black},
y tick style={color=black},
x grid style={white!69.01960784313725!black},
y grid style={white!69.01960784313725!black},
/tikz/mark repeat=2,
legend style={at={(0.02,0.98)}, anchor=north west,legend cell align=left, align=left},
]
\addplot [color=color0, solid, mark=x, mark options={solid}, mark phase=1, ]
  table[row sep=crcr, x expr=\thisrowno{0}*1.000000e-03, y expr=\thisrowno{1}*1.000000e-09]{
0.000156888 3.89013e+09\\
0.000205611 2.9708e+09\\
0.000269438 2.26817e+09\\
0.000353404 1.7313e+09\\
0.000463517 1.32139e+09\\
0.0006079 1.00858e+09\\
0.000798082 7.7008e+08\\
0.00104803 5.88429e+08\\
0.00137642 4.50325e+08\\
0.00180843 3.4561e+08\\
0.00237638 2.66578e+08\\
0.0031233 2.07395e+08\\
0.00410604 1.63682e+08\\
0.00539948 1.32201e+08\\
0.0071012 1.10615e+08\\
0.00934019 9.73167e+07\\
0.0122856 9.13102e+07\\
0.0161596 9.21351e+07\\
0.0212528 9.98245e+07\\
0.027945 1.14896e+08\\
0.0367312 1.38364e+08\\
0.048251 1.71778e+08\\
0.0633307 2.17268e+08\\
0.0830286 2.77588e+08\\
0.108686 3.5614e+08\\
0.141983 4.56956e+08\\
0.184999 5.84586e+08\\
0.240253 7.43891e+08\\
0.310742 9.3969e+08\\
0.399935 1.17632e+09\\
0.511749 1.45716e+09\\
0.650473 1.7843e+09\\
0.820681 2.1584e+09\\
1.02713 2.57899e+09\\
1.27469 3.0449e+09\\
1.56828 3.55492e+09\\
1.91286 4.10817e+09\\
2.31347 4.70429e+09\\
2.77519 5.34339e+09\\
3.30319 6.02577e+09\\
3.90269 6.75163e+09\\
4.57892 7.52091e+09\\
5.3371 8.33311e+09\\
6.18236 9.18727e+09\\
7.11975 1.0082e+10\\
8.15413 1.10155e+10\\
9.29017 1.19856e+10\\
10.5324 1.29901e+10\\
11.8849 1.40261e+10\\
13.3517 1.50911e+10\\
14.9366 1.61822e+10\\
16.6429 1.72963e+10\\
18.4737 1.84305e+10\\
20.4319 1.95817e+10\\
22.5199 2.07467e+10\\
24.74 2.19227e+10\\
27.0941 2.31064e+10\\
29.5838 2.42949e+10\\
32.2104 2.54851e+10\\
34.9748 2.66743e+10\\
37.8778 2.78595e+10\\
40.9195 2.90379e+10\\
44.1002 3.02069e+10\\
47.4195 3.13639e+10\\
50.8768 3.25063e+10\\
54.4712 3.3632e+10\\
58.2017 3.47386e+10\\
62.0667 3.5824e+10\\
66.0645 3.68864e+10\\
70.1932 3.79239e+10\\
74.4504 3.89348e+10\\
78.8339 3.99179e+10\\
83.3408 4.08716e+10\\
87.9684 4.1795e+10\\
92.7135 4.2687e+10\\
97.573 4.35469e+10\\
102.543 4.4374e+10\\
107.622 4.51678e+10\\
112.804 4.59281e+10\\
118.086 4.66545e+10\\
123.465 4.73472e+10\\
128.936 4.8006e+10\\
134.497 4.86312e+10\\
140.142 4.92231e+10\\
145.869 4.9782e+10\\
151.674 5.03084e+10\\
157.552 5.08027e+10\\
163.5 5.12656e+10\\
169.514 5.16977e+10\\
175.59 5.20996e+10\\
181.725 5.24721e+10\\
187.916 5.28158e+10\\
194.158 5.31315e+10\\
200.448 5.34201e+10\\
206.784 5.36823e+10\\
213.161 5.39188e+10\\
219.576 5.41306e+10\\
226.027 5.43183e+10\\
232.51 5.44828e+10\\
239.023 5.46249e+10\\
245.562 5.47453e+10\\
252.125 5.48448e+10\\
258.709 5.49242e+10\\
265.312 5.49843e+10\\
271.93 5.50257e+10\\
278.562 5.50491e+10\\
285.206 5.50553e+10\\
291.859 5.5045e+10\\
298.518 5.50187e+10\\
305.182 5.49772e+10\\
311.849 5.49211e+10\\
318.517 5.4851e+10\\
325.184 5.47675e+10\\
331.847 5.46711e+10\\
338.507 5.45625e+10\\
345.16 5.44421e+10\\
351.805 5.43104e+10\\
358.44 5.41681e+10\\
365.065 5.40155e+10\\
371.678 5.38531e+10\\
378.277 5.36815e+10\\
384.861 5.35009e+10\\
391.43 5.33119e+10\\
397.98 5.31149e+10\\
404.513 5.29102e+10\\
411.026 5.26982e+10\\
417.518 5.24793e+10\\
423.989 5.22539e+10\\
430.437 5.20222e+10\\
436.862 5.17847e+10\\
443.262 5.15416e+10\\
449.638 5.12932e+10\\
455.987 5.10398e+10\\
462.31 5.07817e+10\\
468.606 5.05192e+10\\
474.874 5.02525e+10\\
481.113 4.99819e+10\\
487.323 4.97076e+10\\
493.503 4.94298e+10\\
499.653 4.91488e+10\\
505.772 4.88648e+10\\
};
\addlegendentry{$V_{\mathrm{DS}}=\SI{0.5}{\volt}$}
\addplot [color=color1, solid, mark=+, mark options={solid}, mark phase=1, ]
  table[row sep=crcr, x expr=\thisrowno{0}*1.000000e-03, y expr=\thisrowno{1}*1.000000e-09]{
0.000243939 2.2591e+09\\
0.000320272 1.72247e+09\\
0.000419992 1.31318e+09\\
0.000551544 1.00119e+09\\
0.000724997 7.63557e+08\\
0.000953021 5.82753e+08\\
0.0012525 4.45413e+08\\
0.00164813 3.41365e+08\\
0.00216817 2.62882e+08\\
0.00285289 2.04126e+08\\
0.00375524 1.60719e+08\\
0.0049444 1.2942e+08\\
0.00651003 1.0789e+08\\
0.00857394 9.45173e+07\\
0.011293 8.82999e+07\\
0.0148751 8.87684e+07\\
0.0195941 9.59483e+07\\
0.0258076 1.10354e+08\\
0.0339846 1.33013e+08\\
0.0447371 1.65514e+08\\
0.0588596 2.10085e+08\\
0.0773811 2.6967e+08\\
0.101622 3.4802e+08\\
0.133265 4.49756e+08\\
0.174427 5.80359e+08\\
0.227735 7.46064e+08\\
0.296387 9.53574e+08\\
0.3842 1.20955e+09\\
0.495592 1.51991e+09\\
0.635532 1.88894e+09\\
0.809397 2.31855e+09\\
1.0228 2.80784e+09\\
1.28137 3.35335e+09\\
1.59058 3.94999e+09\\
1.95566 4.59239e+09\\
2.38159 5.27636e+09\\
2.87316 5.99965e+09\\
3.43516 6.76215e+09\\
4.07247 7.56541e+09\\
4.79017 8.4118e+09\\
5.59353 9.3038e+09\\
6.48802 1.02433e+10\\
7.47923 1.12315e+10\\
8.57278 1.22684e+10\\
9.77426 1.33532e+10\\
11.0891 1.44844e+10\\
12.5226 1.56597e+10\\
14.0799 1.68763e+10\\
15.7655 1.81309e+10\\
17.5841 1.942e+10\\
19.5396 2.07399e+10\\
21.6357 2.20867e+10\\
23.876 2.34564e+10\\
26.2633 2.48448e+10\\
28.8001 2.6248e+10\\
31.4889 2.76617e+10\\
34.3312 2.90821e+10\\
37.3286 3.05051e+10\\
40.482 3.1927e+10\\
43.7923 3.3344e+10\\
47.2596 3.47526e+10\\
50.884 3.61495e+10\\
54.665 3.75315e+10\\
58.602 3.88958e+10\\
62.694 4.02395e+10\\
66.9397 4.15602e+10\\
71.3375 4.28557e+10\\
75.8856 4.41239e+10\\
80.5819 4.53631e+10\\
85.4241 4.65718e+10\\
90.4098 4.77485e+10\\
95.5363 4.88923e+10\\
100.801 5.00021e+10\\
106.2 5.10773e+10\\
111.731 5.21173e+10\\
117.391 5.31217e+10\\
123.176 5.40903e+10\\
129.083 5.50229e+10\\
135.109 5.59197e+10\\
141.249 5.67808e+10\\
147.5 5.76064e+10\\
153.858 5.83967e+10\\
160.321 5.91524e+10\\
166.884 5.98738e+10\\
173.543 6.05615e+10\\
180.295 6.12162e+10\\
187.136 6.18384e+10\\
194.063 6.24289e+10\\
201.071 6.29884e+10\\
208.159 6.35178e+10\\
215.321 6.40177e+10\\
222.555 6.4489e+10\\
229.858 6.49325e+10\\
237.225 6.5349e+10\\
244.655 6.57394e+10\\
252.143 6.61044e+10\\
259.687 6.6445e+10\\
267.284 6.67619e+10\\
274.931 6.70559e+10\\
282.625 6.73278e+10\\
290.363 6.75784e+10\\
298.143 6.78085e+10\\
305.962 6.80189e+10\\
313.818 6.82101e+10\\
321.708 6.83831e+10\\
329.63 6.85385e+10\\
337.582 6.86768e+10\\
345.561 6.87989e+10\\
353.566 6.89053e+10\\
361.595 6.89967e+10\\
369.645 6.90736e+10\\
377.714 6.91367e+10\\
385.802 6.91864e+10\\
393.906 6.92234e+10\\
402.024 6.92481e+10\\
410.154 6.9261e+10\\
418.296 6.92626e+10\\
426.448 6.92535e+10\\
434.608 6.92339e+10\\
442.775 6.92043e+10\\
450.947 6.91652e+10\\
459.124 6.9117e+10\\
467.303 6.90599e+10\\
475.485 6.89945e+10\\
483.667 6.89209e+10\\
491.848 6.88396e+10\\
500.028 6.87509e+10\\
508.205 6.86551e+10\\
516.378 6.85524e+10\\
524.547 6.84432e+10\\
532.711 6.83277e+10\\
540.868 6.82062e+10\\
549.017 6.80789e+10\\
557.159 6.79461e+10\\
565.292 6.7808e+10\\
573.415 6.76647e+10\\
581.528 6.75167e+10\\
589.629 6.73639e+10\\
597.719 6.72066e+10\\
605.797 6.7045e+10\\
613.861 6.68794e+10\\
};
\addlegendentry{$V_{\mathrm{DS}}=\SI{1.0}{\volt}$}
\addplot [color=color2, solid, mark=triangle, mark options={solid, rotate=180}, mark phase=1, ]
  table[row sep=crcr, x expr=\thisrowno{0}*1.000000e-03, y expr=\thisrowno{1}*1.000000e-09]{
0.000322221 1.56399e+09\\
0.000422265 1.19136e+09\\
0.000554142 9.07644e+08\\
0.000727596 6.91787e+08\\
0.000957568 5.27735e+08\\
0.001259 4.03284e+08\\
0.00165658 3.09149e+08\\
0.00217889 2.38302e+08\\
0.00286881 1.85439e+08\\
0.00377765 1.46597e+08\\
0.00497494 1.18861e+08\\
0.00655551 1.0015e+08\\
0.0086389 8.90548e+07\\
0.0113843 8.47436e+07\\
0.015006 8.68918e+07\\
0.0197789 9.56579e+07\\
0.0260694 1.11689e+08\\
0.0343562 1.36156e+08\\
0.0452669 1.70823e+08\\
0.0596174 2.18135e+08\\
0.0784699 2.81332e+08\\
0.103195 3.64577e+08\\
0.135548 4.7306e+08\\
0.177761 6.13067e+08\\
0.232625 7.91938e+08\\
0.303595 1.01786e+09\\
0.394833 1.2994e+09\\
0.511261 1.64469e+09\\
0.658502 2.0604e+09\\
0.842756 2.55048e+09\\
1.07059 3.11511e+09\\
1.34862 3.75034e+09\\
1.68327 4.44864e+09\\
2.08046 5.20059e+09\\
2.54554 5.99704e+09\\
3.08337 6.8312e+09\\
3.69847 7.69982e+09\\
4.39527 8.6032e+09\\
5.17837 9.54431e+09\\
6.05264 1.05275e+10\\
7.02332 1.15573e+10\\
8.09596 1.26372e+10\\
9.27637 1.37699e+10\\
10.5704 1.49561e+10\\
11.9841 1.61956e+10\\
13.5232 1.74867e+10\\
15.1934 1.8827e+10\\
17 2.0213e+10\\
18.9481 2.1641e+10\\
21.0423 2.31066e+10\\
23.287 2.46052e+10\\
25.6858 2.61319e+10\\
28.2423 2.76817e+10\\
30.9593 2.92496e+10\\
33.8394 3.08305e+10\\
36.8845 3.24193e+10\\
40.0961 3.40112e+10\\
43.4753 3.56013e+10\\
47.0228 3.7185e+10\\
50.7388 3.87577e+10\\
54.6231 4.03154e+10\\
58.6749 4.1854e+10\\
62.8935 4.337e+10\\
67.2773 4.48599e+10\\
71.8248 4.63208e+10\\
76.5339 4.77499e+10\\
81.4023 4.91449e+10\\
86.4277 5.05038e+10\\
91.6071 5.18249e+10\\
96.9376 5.31067e+10\\
102.416 5.43483e+10\\
108.039 5.55487e+10\\
113.804 5.67075e+10\\
119.706 5.78242e+10\\
125.742 5.88989e+10\\
131.908 5.99316e+10\\
138.201 6.09225e+10\\
144.616 6.18721e+10\\
151.151 6.27809e+10\\
157.8 6.36495e+10\\
164.56 6.44786e+10\\
171.427 6.5269e+10\\
178.398 6.60217e+10\\
185.467 6.67375e+10\\
192.633 6.74173e+10\\
199.89 6.80621e+10\\
207.236 6.8673e+10\\
214.665 6.92509e+10\\
222.176 6.97969e+10\\
229.765 7.03119e+10\\
237.427 7.0797e+10\\
245.159 7.12533e+10\\
252.96 7.16816e+10\\
260.824 7.20831e+10\\
268.749 7.24586e+10\\
276.732 7.28092e+10\\
284.77 7.31358e+10\\
292.861 7.34394e+10\\
301.001 7.37207e+10\\
309.187 7.39807e+10\\
317.418 7.42202e+10\\
325.69 7.44402e+10\\
334.002 7.46413e+10\\
342.351 7.48244e+10\\
350.734 7.49902e+10\\
359.15 7.51394e+10\\
367.596 7.52728e+10\\
376.071 7.5391e+10\\
384.572 7.54948e+10\\
393.098 7.55846e+10\\
401.646 7.56611e+10\\
410.216 7.5725e+10\\
418.805 7.57767e+10\\
427.412 7.58168e+10\\
436.035 7.58459e+10\\
444.673 7.58643e+10\\
453.325 7.58727e+10\\
461.989 7.58714e+10\\
470.663 7.58608e+10\\
479.347 7.58415e+10\\
488.04 7.58138e+10\\
496.739 7.5778e+10\\
505.445 7.57345e+10\\
514.155 7.56838e+10\\
522.87 7.5626e+10\\
531.588 7.55616e+10\\
540.307 7.54909e+10\\
549.028 7.54141e+10\\
557.75 7.53314e+10\\
566.47 7.52433e+10\\
575.19 7.51499e+10\\
583.907 7.50515e+10\\
592.621 7.49482e+10\\
601.332 7.48404e+10\\
610.039 7.47282e+10\\
618.741 7.46119e+10\\
627.437 7.44915e+10\\
636.128 7.43674e+10\\
644.811 7.42397e+10\\
653.488 7.41085e+10\\
662.156 7.3974e+10\\
};
\addlegendentry{$V_{\mathrm{DS}}=\SI{1.5}{\volt}$}
\end{axis}

\end{tikzpicture}
