\begin{tikzpicture}[font=\normalsize,trim axis left, trim axis right,tight background]
\pgfplotsset{every axis/.append style={very thick},compat=1.5},
\definecolor{color0}{rgb}{0.00000, 0.39216, 0.00000}
\definecolor{color1}{rgb}{0.00000, 0.00000, 0.54510}
\definecolor{color2}{rgb}{0.69020, 0.18824, 0.37647}

\begin{axis}[scale only axis,ytick pos=left,
xlabel={$-J_{\mathrm{D}} ( \si{\milli\ampere\per\micro\meter} )$},
ylabel={$f_{\mathrm{T}} ( \si{\giga\hertz} )$},
xmode=log,
xmin=1e-05,
xmax=1,
restrict x to domain=-5.69897:0.69897,
log basis x=10,
% ymin=0,
% ymax=0,
% restrict y to domain=0:1,
log basis y=10,
xlabel shift = -5 pt,
 ylabel shift = -5 pt,
xmajorgrids,
enlargelimits=false,
scaled ticks=true,
ymajorgrids,
x tick style={color=black},
y tick style={color=black},
x grid style={white!69.01960784313725!black},
y grid style={white!69.01960784313725!black},
/tikz/mark repeat=2,
legend style={at={(0.02,0.98)}, anchor=north west,legend cell align=left, align=left},
]
\addplot [color=color0, solid, mark=x, mark options={solid}, mark phase=1, ]
  table[row sep=crcr, x expr=\thisrowno{0}*1.000000e-03, y expr=\thisrowno{1}*1.000000e-09]{
0 1.3607e+11\\
6.49639e-07 1.07914e+11\\
6.49639e-07 8.52154e+10\\
6.49639e-07 6.72588e+10\\
6.49639e-07 5.31402e+10\\
1.29928e-06 4.18403e+10\\
1.29928e-06 3.3008e+10\\
1.94892e-06 2.59799e+10\\
1.94892e-06 2.0458e+10\\
2.59856e-06 1.61026e+10\\
3.2482e-06 1.2669e+10\\
5.84675e-06 9.96602e+09\\
7.14603e-06 7.83209e+09\\
8.44531e-06 6.15326e+09\\
1.03942e-05 4.83407e+09\\
1.29928e-05 3.79603e+09\\
1.49417e-05 2.97896e+09\\
2.01388e-05 2.33779e+09\\
2.46863e-05 1.83359e+09\\
3.18323e-05 1.43802e+09\\
4.02776e-05 1.12754e+09\\
5.19711e-05 8.83897e+08\\
6.69128e-05 6.92904e+08\\
8.44531e-05 5.4326e+08\\
0.00010784 4.26008e+08\\
0.000137723 3.34208e+08\\
0.000176702 2.62383e+08\\
0.000227374 2.06224e+08\\
0.000290389 1.62353e+08\\
0.000371594 1.28122e+08\\
0.000476185 1.01461e+08\\
0.000610661 8.07479e+07\\
0.000783465 6.47192e+07\\
0.00100499 5.23939e+07\\
0.00128629 4.30132e+07\\
0.00164878 3.59952e+07\\
0.00211263 3.08989e+07\\
0.0027051 2.73959e+07\\
0.00346128 2.52476e+07\\
0.00442339 2.4287e+07\\
0.00564536 2.44028e+07\\
0.0071915 2.55254e+07\\
0.00913847 2.76141e+07\\
0.0115824 3.06446e+07\\
0.0146292 3.45986e+07\\
0.0184023 3.94551e+07\\
0.0230394 4.51851e+07\\
0.0286926 5.17499e+07\\
0.0355216 5.91024e+07\\
0.043696 6.71905e+07\\
0.0533873 7.59613e+07\\
0.0647671 8.5364e+07\\
0.0780087 9.53521e+07\\
0.0932752 1.05884e+08\\
0.110721 1.16922e+08\\
0.130499 1.28433e+08\\
0.152744 1.40387e+08\\
0.177589 1.52756e+08\\
0.205155 1.65513e+08\\
0.235551 1.78633e+08\\
0.268877 1.92094e+08\\
0.30523 2.05871e+08\\
0.344696 2.19944e+08\\
0.38735 2.34292e+08\\
0.433267 2.48895e+08\\
0.48251 2.63734e+08\\
0.535141 2.78791e+08\\
0.591212 2.94051e+08\\
0.650776 3.09496e+08\\
0.713877 3.25112e+08\\
0.780555 3.40884e+08\\
0.850849 3.568e+08\\
0.924792 3.72846e+08\\
1.00241 3.89011e+08\\
1.08375 4.05284e+08\\
1.16881 4.21654e+08\\
1.25763 4.3811e+08\\
1.35022 4.54645e+08\\
1.44661 4.71249e+08\\
1.5468 4.87914e+08\\
1.65082 5.04632e+08\\
1.75867 5.21396e+08\\
1.87036 5.38198e+08\\
1.98591 5.55032e+08\\
2.10531 5.71893e+08\\
2.22858 5.88774e+08\\
2.35572 6.0567e+08\\
2.48674 6.22575e+08\\
2.62163 6.39485e+08\\
2.76039 6.56395e+08\\
2.90303 6.73301e+08\\
3.04954 6.90198e+08\\
3.19993 7.07083e+08\\
3.35418 7.23951e+08\\
3.5123 7.40799e+08\\
3.67428 7.57625e+08\\
3.84011 7.74423e+08\\
4.0098 7.91193e+08\\
4.18332 8.07931e+08\\
4.36068 8.24633e+08\\
4.54187 8.41298e+08\\
4.72687 8.57922e+08\\
4.91569 8.74505e+08\\
5.1083 8.91043e+08\\
5.30471 9.07533e+08\\
5.50489 9.23975e+08\\
5.70885 9.40366e+08\\
5.91656 9.56705e+08\\
6.12802 9.72989e+08\\
6.34321 9.89216e+08\\
6.56212 1.00539e+09\\
6.78474 1.0215e+09\\
7.01105 1.03755e+09\\
7.24105 1.05354e+09\\
7.47472 1.06946e+09\\
7.71204 1.08532e+09\\
7.953 1.10111e+09\\
8.19758 1.11684e+09\\
8.44578 1.13249e+09\\
8.69758 1.14808e+09\\
8.95295 1.1636e+09\\
9.21189 1.17904e+09\\
9.47438 1.19441e+09\\
9.74041 1.20971e+09\\
10.01 1.22493e+09\\
10.283 1.24008e+09\\
10.5595 1.25515e+09\\
10.8395 1.27014e+09\\
11.123 1.28505e+09\\
11.4099 1.29989e+09\\
11.7002 1.31464e+09\\
11.9939 1.32931e+09\\
12.291 1.3439e+09\\
12.5915 1.35841e+09\\
12.8953 1.37283e+09\\
13.2025 1.38717e+09\\
13.5129 1.40143e+09\\
13.8267 1.4156e+09\\
14.1438 1.42968e+09\\
14.4641 1.44367e+09\\
14.7876 1.45758e+09\\
};
\addlegendentry{$V_{\mathrm{DS}}=\SI{-1.5}{\volt}$}
\addplot [color=color1, solid, mark=+, mark options={solid}, mark phase=1, ]
  table[row sep=crcr, x expr=\thisrowno{0}*1.000000e-03, y expr=\thisrowno{1}*1.000000e-09]{
3.2482e-07 1.41314e+11\\
3.2482e-07 1.10425e+11\\
6.49639e-07 8.72588e+10\\
6.49639e-07 6.87768e+10\\
9.74459e-07 5.44711e+10\\
9.74459e-07 4.2954e+10\\
1.29928e-06 3.38564e+10\\
1.6241e-06 2.66734e+10\\
2.27374e-06 2.10173e+10\\
2.59856e-06 1.65336e+10\\
4.22265e-06 1.30038e+10\\
4.87229e-06 1.02336e+10\\
6.17157e-06 8.04255e+09\\
7.47085e-06 6.31765e+09\\
9.41977e-06 4.96427e+09\\
1.16935e-05 3.89797e+09\\
1.49417e-05 3.05988e+09\\
1.94892e-05 2.40095e+09\\
2.43615e-05 1.88326e+09\\
3.08579e-05 1.47692e+09\\
3.9628e-05 1.15802e+09\\
5.06718e-05 9.0785e+08\\
6.46391e-05 7.11704e+08\\
8.25042e-05 5.57933e+08\\
0.000105242 4.37518e+08\\
0.00013545 3.43224e+08\\
0.000172804 2.69441e+08\\
0.000221852 2.11745e+08\\
0.000283892 1.66672e+08\\
0.000363473 1.315e+08\\
0.000466116 1.04097e+08\\
0.000597343 8.28025e+07\\
0.000765275 6.63158e+07\\
0.000980955 5.36287e+07\\
0.0012577 4.396e+07\\
0.0016111 3.67108e+07\\
0.00206423 3.14262e+07\\
0.00264273 2.77666e+07\\
0.00338202 2.54847e+07\\
0.00432237 2.44065e+07\\
0.00551706 2.44151e+07\\
0.00702974 2.54369e+07\\
0.00893708 2.74281e+07\\
0.0113287 3.03628e+07\\
0.0143125 3.42218e+07\\
0.0180106 3.89841e+07\\
0.022559 4.4621e+07\\
0.028107 5.10942e+07\\
0.0348145 5.83569e+07\\
0.0428499 6.63571e+07\\
0.0523846 7.5042e+07\\
0.0635909 8.43603e+07\\
0.0766379 9.42651e+07\\
0.0916914 1.04714e+08\\
0.108908 1.15671e+08\\
0.128437 1.27101e+08\\
0.150418 1.38974e+08\\
0.174982 1.51261e+08\\
0.202248 1.63938e+08\\
0.232329 1.76978e+08\\
0.265327 1.90357e+08\\
0.301335 2.04054e+08\\
0.340439 2.18046e+08\\
0.38272 2.32312e+08\\
0.428247 2.46833e+08\\
0.477087 2.6159e+08\\
0.529301 2.76565e+08\\
0.584942 2.91741e+08\\
0.644061 3.07101e+08\\
0.706702 3.22632e+08\\
0.772907 3.38317e+08\\
0.842714 3.54145e+08\\
0.916156 3.70101e+08\\
0.993264 3.86175e+08\\
1.07407 4.02353e+08\\
1.15858 4.18627e+08\\
1.24684 4.34986e+08\\
1.33886 4.51419e+08\\
1.43466 4.67919e+08\\
1.53425 4.84476e+08\\
1.63765 5.01082e+08\\
1.74486 5.1773e+08\\
1.8559 5.34413e+08\\
1.97077 5.51123e+08\\
2.08949 5.67855e+08\\
2.21205 5.84601e+08\\
2.33847 6.01356e+08\\
2.46873 6.18115e+08\\
2.60285 6.34872e+08\\
2.74083 6.51621e+08\\
2.88265 6.68359e+08\\
3.02833 6.8508e+08\\
3.17785 7.01779e+08\\
3.33122 7.18453e+08\\
3.48842 7.35098e+08\\
3.64946 7.51708e+08\\
3.81432 7.68281e+08\\
3.983 7.84814e+08\\
4.15549 8.01301e+08\\
4.33178 8.1774e+08\\
4.51186 8.34126e+08\\
4.69572 8.50459e+08\\
4.88335 8.66733e+08\\
5.07474 8.82945e+08\\
5.26987 8.99093e+08\\
5.46873 9.15174e+08\\
5.67132 9.31184e+08\\
5.87761 9.47122e+08\\
6.08759 9.62983e+08\\
6.30124 9.78765e+08\\
6.51856 9.94465e+08\\
6.73952 1.01008e+09\\
6.96411 1.02561e+09\\
7.19231 1.04105e+09\\
7.4241 1.0564e+09\\
7.65946 1.07165e+09\\
7.89838 1.0868e+09\\
8.14084 1.10185e+09\\
8.38682 1.1168e+09\\
8.6363 1.13165e+09\\
8.88925 1.14638e+09\\
9.14566 1.16101e+09\\
9.40551 1.17552e+09\\
9.66877 1.18991e+09\\
9.93542 1.20418e+09\\
10.2054 1.21834e+09\\
10.4788 1.23236e+09\\
10.7555 1.24626e+09\\
11.0355 1.26003e+09\\
11.3188 1.27367e+09\\
11.6053 1.28717e+09\\
11.895 1.30053e+09\\
12.188 1.31375e+09\\
12.4841 1.32683e+09\\
12.7833 1.33976e+09\\
13.0857 1.35254e+09\\
13.3912 1.36516e+09\\
13.6997 1.37763e+09\\
14.0113 1.38995e+09\\
14.3259 1.4021e+09\\
14.6434 1.41408e+09\\
};
\addlegendentry{$V_{\mathrm{DS}}=\SI{-1.0}{\volt}$}
\addplot [color=color2, solid, mark=triangle, mark options={solid, rotate=180}, mark phase=1, ]
  table[row sep=crcr, x expr=\thisrowno{0}*1.000000e-03, y expr=\thisrowno{1}*1.000000e-09]{
3.2482e-07 1.43493e+11\\
3.2482e-07 1.14197e+11\\
4.87229e-07 8.98962e+10\\
6.49639e-07 7.11003e+10\\
8.12049e-07 5.58964e+10\\
9.74459e-07 4.41489e+10\\
1.29928e-06 3.47994e+10\\
1.6241e-06 2.73963e+10\\
2.11133e-06 2.15915e+10\\
2.59856e-06 1.6996e+10\\
3.57301e-06 1.33677e+10\\
4.54747e-06 1.05143e+10\\
5.68434e-06 8.26636e+09\\
7.14603e-06 6.49866e+09\\
9.09495e-06 5.10392e+09\\
1.13687e-05 4.00773e+09\\
1.44545e-05 3.14614e+09\\
1.86771e-05 2.46835e+09\\
2.37118e-05 1.93655e+09\\
3.0533e-05 1.51872e+09\\
3.84911e-05 1.19076e+09\\
4.93726e-05 9.335e+08\\
6.3015e-05 7.31834e+08\\
8.05552e-05 5.73737e+08\\
0.00010313 4.4988e+08\\
0.000131877 3.52909e+08\\
0.000168744 2.77026e+08\\
0.000216005 2.17687e+08\\
0.000277071 1.71322e+08\\
0.000354703 1.35137e+08\\
0.000454585 1.06942e+08\\
0.000582401 8.50246e+07\\
0.000746923 6.80476e+07\\
0.000957081 5.49728e+07\\
0.00122668 4.49963e+07\\
0.00157213 3.75001e+07\\
0.00201372 3.20145e+07\\
0.00257907 2.81881e+07\\
0.00329984 2.57642e+07\\
0.00421843 2.45609e+07\\
0.0053847 2.44556e+07\\
0.0068623 2.537e+07\\
0.0087253 2.72569e+07\\
0.0110635 3.00884e+07\\
0.0139823 3.38439e+07\\
0.0176013 3.85019e+07\\
0.0220548 4.40336e+07\\
0.0274911 5.04012e+07\\
0.0340689 5.75577e+07\\
0.041955 6.54514e+07\\
0.0513195 7.40287e+07\\
0.0623345 8.32383e+07\\
0.0751686 9.30328e+07\\
0.0899865 1.03369e+08\\
0.106945 1.14211e+08\\
0.126194 1.25522e+08\\
0.147872 1.37273e+08\\
0.17211 1.49435e+08\\
0.199028 1.61981e+08\\
0.228737 1.74886e+08\\
0.261339 1.88126e+08\\
0.296928 2.01676e+08\\
0.335588 2.15515e+08\\
0.377399 2.2962e+08\\
0.422431 2.43971e+08\\
0.470749 2.58548e+08\\
0.522411 2.73332e+08\\
0.577472 2.88305e+08\\
0.635978 3.03448e+08\\
0.697974 3.18745e+08\\
0.763499 3.3418e+08\\
0.832588 3.49737e+08\\
0.905272 3.65402e+08\\
0.981579 3.81159e+08\\
1.06153 3.96994e+08\\
1.14516 4.12895e+08\\
1.23246 4.28848e+08\\
1.32348 4.4484e+08\\
1.4182 4.60859e+08\\
1.51665 4.76891e+08\\
1.61883 4.92926e+08\\
1.72475 5.08951e+08\\
1.83441 5.24953e+08\\
1.94781 5.40922e+08\\
2.06494 5.56845e+08\\
2.18581 5.7271e+08\\
2.31041 5.88505e+08\\
2.43872 6.04218e+08\\
2.57075 6.19838e+08\\
2.70647 6.35351e+08\\
2.84587 6.50745e+08\\
2.98893 6.66008e+08\\
3.13563 6.81127e+08\\
3.28596 6.96089e+08\\
3.43989 7.10881e+08\\
3.59738 7.25489e+08\\
3.75842 7.39902e+08\\
3.92297 7.54104e+08\\
4.09101 7.68083e+08\\
4.26248 7.81825e+08\\
4.43736 7.95317e+08\\
4.61561 8.08545e+08\\
4.79717 8.21496e+08\\
4.98202 8.34158e+08\\
5.17009 8.46517e+08\\
5.36134 8.5856e+08\\
5.55572 8.70277e+08\\
5.75317 8.81656e+08\\
5.95363 8.92684e+08\\
6.15704 9.03353e+08\\
6.36334 9.13653e+08\\
6.57248 9.23575e+08\\
6.78437 9.33111e+08\\
6.99895 9.42254e+08\\
7.21615 9.50997e+08\\
7.4359 9.59336e+08\\
7.65813 9.67266e+08\\
7.88276 9.74784e+08\\
8.1097 9.81889e+08\\
8.33889 9.88578e+08\\
8.57024 9.94853e+08\\
8.80368 1.00071e+09\\
9.03911 1.00616e+09\\
9.27647 1.0112e+09\\
9.51566 1.01584e+09\\
9.75661 1.02008e+09\\
9.99923 1.02392e+09\\
10.2434 1.02737e+09\\
10.4891 1.03045e+09\\
10.7363 1.03315e+09\\
10.9847 1.03549e+09\\
11.2345 1.03747e+09\\
11.4854 1.03911e+09\\
11.7374 1.04041e+09\\
11.9904 1.04139e+09\\
12.2444 1.04206e+09\\
12.4992 1.04242e+09\\
12.7549 1.04249e+09\\
13.0112 1.04228e+09\\
13.2682 1.0418e+09\\
13.5258 1.04106e+09\\
};
\addlegendentry{$V_{\mathrm{DS}}=\SI{-0.5}{\volt}$}
\end{axis}

\end{tikzpicture}
