\begin{tikzpicture}[font=\normalsize,trim axis left, trim axis right,tight background]
\pgfplotsset{every axis/.append style={very thick},compat=1.5},
\definecolor{color0}{rgb}{0.00000, 0.39216, 0.00000}
\definecolor{color1}{rgb}{0.00000, 0.00000, 0.54510}
\definecolor{color2}{rgb}{0.69020, 0.18824, 0.37647}

\begin{axis}[scale only axis,ytick pos=left,
xlabel={$J_{\mathrm{D}} ( \si{\milli\ampere\per\micro\meter} )$},
ylabel={$J_{\mathrm{D}} ( \si{\milli\ampere\per\micro\meter} )$},
xmode=log,
xmin=1e-05,
xmax=1,
restrict x to domain=-5.69897:0.69897,
log basis x=10,
ymin=0,
ymax=30,
restrict y to domain=0:150,
log basis y=10,
xlabel shift = -5 pt,
 ylabel shift = -5 pt,
xmajorgrids,
enlargelimits=false,
scaled ticks=true,
ymajorgrids,
x tick style={color=black},
y tick style={color=black},
x grid style={white!69.01960784313725!black},
y grid style={white!69.01960784313725!black},
/tikz/mark repeat=2,
legend style={at={(0.02,0.98)}, anchor=north west,legend cell align=left, align=left},
]
\addplot [color=color0, solid, mark=x, mark options={solid}, mark phase=1, ]
  table[row sep=crcr, x expr=\thisrowno{0}*1.000000e-03, y expr=\thisrowno{1}*1.000000e-09]{
0.00023322 1.13492e+08\\
0.000308579 1.0968e+08\\
0.000407324 1.05007e+08\\
0.000538551 9.9426e+07\\
0.000713953 9.29619e+07\\
0.000945874 8.57441e+07\\
0.0012551 7.80206e+07\\
0.00166438 7.01604e+07\\
0.00220942 6.26293e+07\\
0.00293312 5.59466e+07\\
0.00389589 5.06399e+07\\
0.00517502 4.72136e+07\\
0.00687253 4.6143e+07\\
0.00912808 4.78959e+07\\
0.0121229 5.29727e+07\\
0.0160935 6.19525e+07\\
0.0213543 7.55341e+07\\
0.0283113 9.45601e+07\\
0.0374907 1.20016e+08\\
0.0495649 1.52994e+08\\
0.0653758 1.94624e+08\\
0.0859667 2.45957e+08\\
0.112592 3.07841e+08\\
0.146718 3.80791e+08\\
0.190002 4.64908e+08\\
0.244249 5.59861e+08\\
0.311353 6.64952e+08\\
0.393227 7.79232e+08\\
0.491736 9.01639e+08\\
0.608645 1.03113e+09\\
0.745589 1.16675e+09\\
0.904053 1.3077e+09\\
1.08537 1.45333e+09\\
1.29074 1.60312e+09\\
1.52123 1.75666e+09\\
1.77778 1.91364e+09\\
2.06127 2.07378e+09\\
2.37247 2.23685e+09\\
2.71207 2.40267e+09\\
3.0807 2.57102e+09\\
3.47895 2.74172e+09\\
3.90733 2.9146e+09\\
4.36632 3.08948e+09\\
4.85633 3.26616e+09\\
5.37776 3.44447e+09\\
5.93093 3.62423e+09\\
6.51616 3.80526e+09\\
7.1337 3.98739e+09\\
7.78377 4.17043e+09\\
8.46657 4.35423e+09\\
9.18227 4.53861e+09\\
9.93097 4.72341e+09\\
10.7128 4.90849e+09\\
11.5278 5.0937e+09\\
12.376 5.27888e+09\\
13.2574 5.46391e+09\\
14.1721 5.64866e+09\\
15.12 5.83299e+09\\
16.1009 6.0168e+09\\
17.115 6.19998e+09\\
18.1619 6.38242e+09\\
19.2418 6.56401e+09\\
20.3543 6.74468e+09\\
21.4993 6.92432e+09\\
22.6768 7.10286e+09\\
23.8864 7.28022e+09\\
25.1281 7.45633e+09\\
26.4015 7.63113e+09\\
27.7065 7.80455e+09\\
29.0429 7.97652e+09\\
30.4104 8.147e+09\\
31.8087 8.31595e+09\\
33.2376 8.48329e+09\\
34.6969 8.64901e+09\\
36.1862 8.81305e+09\\
37.7052 8.97539e+09\\
39.2537 9.13598e+09\\
40.8315 9.2948e+09\\
42.4381 9.45181e+09\\
44.0733 9.60699e+09\\
45.7367 9.76032e+09\\
47.4281 9.91178e+09\\
49.1472 1.00613e+10\\
50.8936 1.0209e+10\\
52.6669 1.03547e+10\\
54.467 1.04985e+10\\
56.2934 1.06403e+10\\
58.1457 1.07801e+10\\
60.0238 1.0918e+10\\
61.9272 1.10539e+10\\
63.8556 1.11878e+10\\
65.8087 1.13196e+10\\
67.7861 1.14495e+10\\
69.7875 1.15773e+10\\
71.8126 1.17032e+10\\
73.861 1.1827e+10\\
75.9323 1.19487e+10\\
78.0263 1.20685e+10\\
80.1426 1.21862e+10\\
82.2808 1.23018e+10\\
84.4406 1.24155e+10\\
86.6217 1.2527e+10\\
88.8236 1.26366e+10\\
91.0462 1.27441e+10\\
93.289 1.28496e+10\\
95.5518 1.2953e+10\\
97.834 1.30544e+10\\
100.136 1.31538e+10\\
102.456 1.32511e+10\\
104.795 1.33464e+10\\
107.152 1.34397e+10\\
109.527 1.3531e+10\\
111.919 1.36202e+10\\
114.329 1.37074e+10\\
116.755 1.37926e+10\\
119.199 1.38758e+10\\
121.658 1.3957e+10\\
124.133 1.40362e+10\\
126.623 1.41134e+10\\
129.129 1.41886e+10\\
131.65 1.42618e+10\\
134.185 1.4333e+10\\
136.734 1.44022e+10\\
139.297 1.44695e+10\\
141.874 1.45348e+10\\
144.464 1.45982e+10\\
147.066 1.46596e+10\\
149.682 1.4719e+10\\
152.309 1.47765e+10\\
154.949 1.48321e+10\\
157.6 1.48857e+10\\
160.262 1.49375e+10\\
162.935 1.49873e+10\\
165.619 1.50352e+10\\
168.313 1.50813e+10\\
171.017 1.51254e+10\\
173.731 1.51677e+10\\
176.454 1.52082e+10\\
179.186 1.52468e+10\\
181.927 1.52835e+10\\
184.676 1.53184e+10\\
};
\addlegendentry{$V_{\mathrm{DS}}=\SI{-1.5}{\volt}$}
\addplot [color=color1, solid, mark=+, mark options={solid}, mark phase=1, ]
  table[row sep=crcr, x expr=\thisrowno{0}*1.000000e-03, y expr=\thisrowno{1}*1.000000e-09]{
0.000218604 1.25108e+08\\
0.000289414 1.21357e+08\\
0.000383287 1.16699e+08\\
0.000507368 1.11058e+08\\
0.000674001 1.04423e+08\\
0.000893579 9.68813e+07\\
0.00118527 8.86431e+07\\
0.0015731 8.00521e+07\\
0.00208859 7.15705e+07\\
0.00277298 6.37378e+07\\
0.00368215 5.71206e+07\\
0.00488983 5.22675e+07\\
0.00649444 4.96901e+07\\
0.00862428 4.98715e+07\\
0.0114509 5.33008e+07\\
0.0151973 6.05175e+07\\
0.0201583 7.2156e+07\\
0.0267148 8.89741e+07\\
0.0353599 1.11859e+08\\
0.0467207 1.41798e+08\\
0.0615861 1.7982e+08\\
0.0809278 2.26893e+08\\
0.105918 2.83812e+08\\
0.13793 3.51084e+08\\
0.178519 4.28854e+08\\
0.229391 5.16885e+08\\
0.292347 6.14614e+08\\
0.369223 7.21247e+08\\
0.461827 8.35878e+08\\
0.571894 9.57598e+08\\
0.701047 1.08557e+09\\
0.850777 1.21906e+09\\
1.02245 1.35747e+09\\
1.21728 1.50031e+09\\
1.43639 1.64716e+09\\
1.68078 1.79769e+09\\
1.95135 1.95162e+09\\
2.24891 2.10869e+09\\
2.57421 2.26867e+09\\
2.92793 2.43134e+09\\
3.31066 2.59651e+09\\
3.72297 2.76395e+09\\
4.16535 2.93348e+09\\
4.63826 3.10488e+09\\
5.14211 3.27796e+09\\
5.67724 3.45252e+09\\
6.24398 3.62838e+09\\
6.84261 3.80534e+09\\
7.47337 3.98322e+09\\
8.13646 4.16183e+09\\
8.83205 4.34101e+09\\
9.56026 4.52058e+09\\
10.3212 4.70037e+09\\
11.115 4.88023e+09\\
11.9416 5.06001e+09\\
12.801 5.23955e+09\\
13.6933 5.41873e+09\\
14.6184 5.59739e+09\\
15.5763 5.77542e+09\\
16.5668 5.95269e+09\\
17.5899 6.12908e+09\\
18.6454 6.30449e+09\\
19.7331 6.47879e+09\\
20.853 6.6519e+09\\
22.0048 6.82371e+09\\
23.1882 6.99412e+09\\
24.4032 7.16306e+09\\
25.6495 7.33044e+09\\
26.9268 7.49616e+09\\
28.2348 7.66017e+09\\
29.5733 7.82237e+09\\
30.942 7.98271e+09\\
32.3406 8.14111e+09\\
33.7687 8.29751e+09\\
35.2261 8.45185e+09\\
36.7124 8.60406e+09\\
38.2273 8.7541e+09\\
39.7704 8.90189e+09\\
41.3414 9.0474e+09\\
42.9398 9.19057e+09\\
44.5654 9.33134e+09\\
46.2177 9.46968e+09\\
47.8963 9.60554e+09\\
49.6008 9.73887e+09\\
51.3308 9.86964e+09\\
53.086 9.9978e+09\\
54.8658 1.01233e+10\\
56.6698 1.02461e+10\\
58.4976 1.03663e+10\\
60.3489 1.04836e+10\\
62.223 1.05982e+10\\
64.1196 1.071e+10\\
66.0382 1.08189e+10\\
67.9783 1.09249e+10\\
69.9395 1.10281e+10\\
71.9213 1.11283e+10\\
73.9233 1.12256e+10\\
75.9448 1.132e+10\\
77.9856 1.14113e+10\\
80.045 1.14997e+10\\
82.1226 1.15851e+10\\
84.2179 1.16674e+10\\
86.3304 1.17467e+10\\
88.4596 1.1823e+10\\
90.605 1.18963e+10\\
92.7661 1.19665e+10\\
94.9424 1.20336e+10\\
97.1333 1.20977e+10\\
99.3384 1.21588e+10\\
101.557 1.22168e+10\\
103.789 1.22718e+10\\
106.034 1.23237e+10\\
108.291 1.23727e+10\\
110.559 1.24187e+10\\
112.839 1.24616e+10\\
115.129 1.25017e+10\\
117.429 1.25388e+10\\
119.739 1.25729e+10\\
122.058 1.26042e+10\\
124.386 1.26326e+10\\
126.721 1.26582e+10\\
129.065 1.2681e+10\\
131.415 1.2701e+10\\
133.773 1.27182e+10\\
136.136 1.27328e+10\\
138.505 1.27447e+10\\
140.879 1.27539e+10\\
143.258 1.27606e+10\\
145.642 1.27647e+10\\
148.029 1.27664e+10\\
150.419 1.27655e+10\\
152.813 1.27623e+10\\
155.209 1.27567e+10\\
157.607 1.27488e+10\\
160.006 1.27386e+10\\
162.407 1.27262e+10\\
164.809 1.27117e+10\\
167.211 1.2695e+10\\
169.613 1.26763e+10\\
172.014 1.26556e+10\\
174.415 1.26329e+10\\
};
\addlegendentry{$V_{\mathrm{DS}}=\SI{-1.0}{\volt}$}
\addplot [color=color2, solid, mark=triangle, mark options={solid, rotate=180}, mark phase=1, ]
  table[row sep=crcr, x expr=\thisrowno{0}*1.000000e-03, y expr=\thisrowno{1}*1.000000e-09]{
0.000205936 1.39418e+08\\
0.000273173 1.35695e+08\\
0.000361687 1.3102e+08\\
0.000479434 1.25287e+08\\
0.000635509 1.18447e+08\\
0.000843069 1.10539e+08\\
0.00111868 1.01731e+08\\
0.00148459 9.23309e+07\\
0.00197036 8.2789e+07\\
0.00261577 7.366e+07\\
0.00347281 6.555e+07\\
0.00461146 5.90603e+07\\
0.00612204 5.47509e+07\\
0.00812796 5.31338e+07\\
0.0107868 5.46967e+07\\
0.0143094 5.99443e+07\\
0.0189686 6.94435e+07\\
0.0251185 8.38557e+07\\
0.0332156 1.03948e+08\\
0.043837 1.30571e+08\\
0.0577068 1.64607e+08\\
0.0757146 2.06887e+08\\
0.098927 2.5809e+08\\
0.128593 3.18651e+08\\
0.166131 3.88708e+08\\
0.213097 4.6809e+08\\
0.271147 5.56369e+08\\
0.341982 6.52937e+08\\
0.4273 7.571e+08\\
0.528752 8.68151e+08\\
0.647908 9.85429e+08\\
0.786236 1.10834e+09\\
0.945095 1.23637e+09\\
1.12573 1.36908e+09\\
1.32929 1.50606e+09\\
1.5568 1.64699e+09\\
1.8092 1.79154e+09\\
2.08737 1.93942e+09\\
2.39208 2.09035e+09\\
2.72404 2.24406e+09\\
3.08389 2.4003e+09\\
3.47221 2.55879e+09\\
3.88951 2.71927e+09\\
4.33627 2.8815e+09\\
4.81289 3.04521e+09\\
5.31972 3.21013e+09\\
5.85708 3.37603e+09\\
6.42522 3.54262e+09\\
7.02437 3.70967e+09\\
7.65467 3.87691e+09\\
8.31627 4.04409e+09\\
9.00923 4.21093e+09\\
9.7336 4.3772e+09\\
10.4894 4.54263e+09\\
11.2765 4.70696e+09\\
12.0948 4.86994e+09\\
12.9443 5.03131e+09\\
13.8247 5.19081e+09\\
14.7358 5.34819e+09\\
15.6774 5.50319e+09\\
16.6491 5.65557e+09\\
17.6506 5.80508e+09\\
18.6816 5.95147e+09\\
19.7416 6.09451e+09\\
20.8302 6.23398e+09\\
21.9468 6.36965e+09\\
23.0909 6.5013e+09\\
24.2619 6.62876e+09\\
25.4592 6.75181e+09\\
26.6822 6.87029e+09\\
27.9302 6.98404e+09\\
29.2024 7.09291e+09\\
30.4982 7.19678e+09\\
31.8167 7.29554e+09\\
33.1572 7.38909e+09\\
34.5188 7.47736e+09\\
35.9006 7.56029e+09\\
37.3019 7.63784e+09\\
38.7217 7.71e+09\\
40.1592 7.77676e+09\\
41.6133 7.83813e+09\\
43.0833 7.89415e+09\\
44.5682 7.94487e+09\\
46.067 7.99034e+09\\
47.5789 8.03065e+09\\
49.1028 8.06588e+09\\
50.638 8.09614e+09\\
52.1835 8.12153e+09\\
53.7383 8.14219e+09\\
55.3016 8.15824e+09\\
56.8725 8.16982e+09\\
58.4501 8.17708e+09\\
60.0336 8.18016e+09\\
61.6221 8.17923e+09\\
63.2149 8.17443e+09\\
64.8111 8.16592e+09\\
66.4099 8.15388e+09\\
68.0107 8.13847e+09\\
69.6126 8.11983e+09\\
71.215 8.09814e+09\\
72.8172 8.07356e+09\\
74.4185 8.04624e+09\\
76.0184 8.01633e+09\\
77.6161 7.984e+09\\
79.2112 7.94938e+09\\
80.8031 7.91263e+09\\
82.3912 7.87389e+09\\
83.975 7.83328e+09\\
85.5541 7.79095e+09\\
87.1281 7.74702e+09\\
88.6964 7.70161e+09\\
90.2587 7.65485e+09\\
91.8146 7.60685e+09\\
93.3637 7.55772e+09\\
94.9057 7.50756e+09\\
96.4403 7.45646e+09\\
97.9671 7.40454e+09\\
99.486 7.35187e+09\\
100.997 7.29855e+09\\
102.499 7.24465e+09\\
103.992 7.19026e+09\\
105.477 7.13544e+09\\
106.952 7.08026e+09\\
108.418 7.0248e+09\\
109.875 6.9691e+09\\
111.322 6.91324e+09\\
112.76 6.85726e+09\\
114.187 6.80121e+09\\
115.605 6.74515e+09\\
117.013 6.68912e+09\\
118.411 6.63315e+09\\
119.798 6.57729e+09\\
121.176 6.52158e+09\\
122.543 6.46604e+09\\
123.9 6.41071e+09\\
125.247 6.35562e+09\\
126.583 6.3008e+09\\
127.909 6.24626e+09\\
129.225 6.19204e+09\\
130.53 6.13815e+09\\
131.825 6.08461e+09\\
};
\addlegendentry{$V_{\mathrm{DS}}=\SI{-0.5}{\volt}$}
\end{axis}

\end{tikzpicture}
