\begin{tikzpicture}[font=\normalsize,trim axis left, trim axis right,tight background]
\pgfplotsset{every axis/.append style={very thick},compat=1.5},
\definecolor{color0}{rgb}{0.00000, 0.39216, 0.00000}
\definecolor{color1}{rgb}{0.00000, 0.00000, 0.54510}
\definecolor{color2}{rgb}{0.69020, 0.18824, 0.37647}

\begin{axis}[scale only axis,ytick pos=left,
xlabel={$-J_{\mathrm{D}} ( \si{\milli\ampere\per\micro\meter} )$},
ylabel={$f_{\mathrm{max}} ( \si{\giga\hertz} )$},
xmode=log,
xmin=1e-05,
xmax=1,
restrict x to domain=-5.69897:0.69897,
log basis x=10,
% ymin=0,
% ymax=0,
% restrict y to domain=0:1,
log basis y=10,
xlabel shift = -5 pt,
 ylabel shift = -5 pt,
xmajorgrids,
enlargelimits=false,
scaled ticks=true,
ymajorgrids,
x tick style={color=black},
y tick style={color=black},
x grid style={white!69.01960784313725!black},
y grid style={white!69.01960784313725!black},
/tikz/mark repeat=2,
legend style={at={(0.02,0.98)}, anchor=north west,legend cell align=left, align=left},
]
\addplot [color=color0, solid, mark=x, mark options={solid}, mark phase=1, ]
  table[row sep=crcr, x expr=\thisrowno{0}*1.000000e-03, y expr=\thisrowno{1}*1.000000e-09]{
0 nan\\
6.49639e-07 nan\\
6.49639e-07 nan\\
6.49639e-07 nan\\
6.49639e-07 nan\\
1.29928e-06 nan\\
1.29928e-06 nan\\
1.94892e-06 nan\\
1.94892e-06 nan\\
2.59856e-06 nan\\
3.2482e-06 nan\\
5.84675e-06 nan\\
7.14603e-06 nan\\
8.44531e-06 nan\\
1.03942e-05 nan\\
1.29928e-05 nan\\
1.49417e-05 1.89714e+11\\
2.01388e-05 nan\\
2.46863e-05 2.02135e+11\\
3.18323e-05 nan\\
4.02776e-05 nan\\
5.19711e-05 1.3282e+11\\
6.69128e-05 9.84107e+10\\
8.44531e-05 nan\\
0.00010784 nan\\
0.000137723 nan\\
0.000176702 nan\\
0.000227374 nan\\
0.000290389 nan\\
0.000371594 1.52143e+11\\
0.000476185 nan\\
0.000610661 nan\\
0.000783465 2.96566e+11\\
0.00100499 3.37369e+11\\
0.00128629 3.81317e+11\\
0.00164878 4.28904e+11\\
0.00211263 nan\\
0.0027051 5.46681e+11\\
0.00346128 nan\\
0.00442339 nan\\
0.00564536 nan\\
0.0071915 nan\\
0.00913847 nan\\
0.0115824 1.08982e+12\\
0.0146292 1.2106e+12\\
0.0184023 1.34165e+12\\
0.0230394 nan\\
0.0286926 1.26949e+13\\
0.0355216 1.26248e+13\\
0.043696 nan\\
0.0533873 nan\\
0.0647671 nan\\
0.0780087 2.39569e+12\\
0.0932752 1.33522e+13\\
0.110721 nan\\
0.130499 nan\\
0.152744 3.01702e+12\\
0.177589 3.16683e+12\\
0.205155 nan\\
0.235551 3.45745e+12\\
0.268877 3.59808e+12\\
0.30523 1.58969e+13\\
0.344696 1.62452e+13\\
0.38735 nan\\
0.433267 1.69437e+13\\
0.48251 1.72921e+13\\
0.535141 4.36957e+12\\
0.591212 4.48618e+12\\
0.650776 1.83101e+13\\
0.713877 4.70974e+12\\
0.780555 1.89655e+13\\
0.850849 4.92041e+12\\
0.924792 nan\\
1.00241 1.99164e+13\\
1.08375 2.02239e+13\\
1.16881 nan\\
1.25763 2.0811e+13\\
1.35022 2.10975e+13\\
1.44661 2.13779e+13\\
1.5468 5.64486e+12\\
1.65082 nan\\
1.75867 nan\\
1.87036 nan\\
1.98591 2.2688e+13\\
2.10531 4.32506e+12\\
2.22858 nan\\
2.35572 nan\\
2.48674 nan\\
2.62163 6.25965e+12\\
2.76039 2.40548e+13\\
2.90303 nan\\
3.04954 nan\\
3.19993 2.46564e+13\\
3.35418 nan\\
3.5123 2.50296e+13\\
3.67428 nan\\
3.84011 nan\\
4.0098 2.55424e+13\\
4.18332 2.57023e+13\\
4.36068 2.58599e+13\\
4.54187 2.60089e+13\\
4.72687 2.61509e+13\\
4.91569 2.62873e+13\\
5.1083 2.64206e+13\\
5.30471 6.90709e+12\\
5.50489 2.6667e+13\\
5.70885 2.67815e+13\\
5.91656 6.97021e+12\\
6.12802 2.69921e+13\\
6.34321 7.00253e+12\\
6.56212 2.7186e+13\\
6.78474 nan\\
7.01105 2.73539e+13\\
7.24105 nan\\
7.47472 2.74934e+13\\
7.71204 nan\\
7.953 7.05432e+12\\
8.19758 7.0541e+12\\
8.44578 nan\\
8.69758 2.77541e+13\\
8.95295 nan\\
9.21189 nan\\
9.47438 2.78382e+13\\
9.74041 2.78545e+13\\
10.01 2.78644e+13\\
10.283 nan\\
10.5595 2.78661e+13\\
10.8395 6.9499e+12\\
11.123 2.78482e+13\\
11.4099 4.96157e+12\\
11.7002 6.88421e+12\\
11.9939 2.77721e+13\\
12.291 2.7731e+13\\
12.5915 2.76858e+13\\
12.8953 2.76361e+13\\
13.2025 2.75798e+13\\
13.5129 2.75162e+13\\
13.8267 6.67477e+12\\
14.1438 2.73697e+13\\
14.4641 6.6018e+12\\
14.7876 6.56326e+12\\
};
\addlegendentry{$V_{\mathrm{DS}}=\SI{-1.5}{\volt}$}
\addplot [color=color1, solid, mark=+, mark options={solid}, mark phase=1, ]
  table[row sep=crcr, x expr=\thisrowno{0}*1.000000e-03, y expr=\thisrowno{1}*1.000000e-09]{
3.2482e-07 nan\\
3.2482e-07 nan\\
6.49639e-07 2.58496e+11\\
6.49639e-07 nan\\
9.74459e-07 nan\\
9.74459e-07 nan\\
1.29928e-06 nan\\
1.6241e-06 nan\\
2.27374e-06 nan\\
2.59856e-06 nan\\
4.22265e-06 2.55586e+11\\
4.87229e-06 nan\\
6.17157e-06 nan\\
7.47085e-06 1.28614e+11\\
9.41977e-06 nan\\
1.16935e-05 nan\\
1.49417e-05 nan\\
1.94892e-05 nan\\
2.43615e-05 nan\\
3.08579e-05 nan\\
3.9628e-05 nan\\
5.06718e-05 nan\\
6.46391e-05 nan\\
8.25042e-05 8.76155e+10\\
0.000105242 nan\\
0.00013545 nan\\
0.000172804 nan\\
0.000221852 1.69474e+11\\
0.000283892 1.82778e+11\\
0.000363473 nan\\
0.000466116 nan\\
0.000597343 nan\\
0.000765275 2.92025e+11\\
0.000980955 nan\\
0.0012577 nan\\
0.0016111 4.18577e+11\\
0.00206423 nan\\
0.00264273 nan\\
0.00338202 nan\\
0.00432237 6.75288e+11\\
0.00551706 nan\\
0.00702974 nan\\
0.00893708 9.50933e+11\\
0.0113287 1.06136e+12\\
0.0143125 2.22616e+13\\
0.0180106 nan\\
0.022559 1.43905e+12\\
0.028107 1.46332e+13\\
0.0348145 nan\\
0.0428499 1.37805e+13\\
0.0523846 1.36528e+13\\
0.0635909 2.17477e+12\\
0.0766379 1.37321e+13\\
0.0916914 2.47837e+12\\
0.108908 nan\\
0.128437 nan\\
0.150418 1.45525e+13\\
0.174982 nan\\
0.202248 nan\\
0.232329 nan\\
0.265327 1.57595e+13\\
0.301335 nan\\
0.340439 nan\\
0.38272 1.67381e+13\\
0.428247 1.70697e+13\\
0.477087 1.73958e+13\\
0.529301 1.77215e+13\\
0.584942 1.80407e+13\\
0.644061 nan\\
0.706702 4.4692e+12\\
0.772907 1.89843e+13\\
0.842714 nan\\
0.916156 1.95832e+13\\
0.993264 nan\\
1.07407 2.01571e+13\\
1.15858 4.96776e+12\\
1.24684 3.61661e+12\\
1.33886 5.10565e+12\\
1.43466 nan\\
1.53425 2.14728e+13\\
1.63765 nan\\
1.74486 2.19427e+13\\
1.8559 5.39099e+12\\
1.97077 nan\\
2.08949 5.48189e+12\\
2.21205 nan\\
2.33847 2.2988e+13\\
2.46873 2.31732e+13\\
2.60285 5.62452e+12\\
2.74083 nan\\
2.88265 2.36706e+13\\
3.02833 5.69772e+12\\
3.17785 5.71571e+12\\
3.33122 nan\\
3.48842 2.42158e+13\\
3.64946 2.433e+13\\
3.81432 2.44323e+13\\
3.983 nan\\
4.15549 nan\\
4.33178 2.46837e+13\\
4.51186 4.11989e+12\\
4.69572 nan\\
4.88335 5.72483e+12\\
5.07474 2.48882e+13\\
5.26987 2.49106e+13\\
5.46873 5.66961e+12\\
5.67132 nan\\
5.87761 5.61903e+12\\
6.08759 2.48961e+13\\
6.30124 3.98017e+12\\
6.51856 5.5239e+12\\
6.73952 nan\\
6.96411 2.47075e+13\\
7.19231 2.46358e+13\\
7.4241 2.45504e+13\\
7.65946 2.44548e+13\\
7.89838 nan\\
8.14084 5.22329e+12\\
8.38682 2.41095e+13\\
8.6363 2.39704e+13\\
8.88925 nan\\
9.14566 nan\\
9.40551 nan\\
9.66877 2.33233e+13\\
9.93542 nan\\
10.2054 4.78041e+12\\
10.4788 nan\\
10.7555 2.25368e+13\\
11.0355 2.23169e+13\\
11.3188 2.20925e+13\\
11.6053 2.18535e+13\\
11.895 2.16251e+13\\
12.188 4.34644e+12\\
12.4841 4.28302e+12\\
12.7833 3.01461e+12\\
13.0857 nan\\
13.3912 2.03547e+13\\
13.6997 2.00861e+13\\
14.0113 3.96627e+12\\
14.3259 3.90349e+12\\
14.6434 nan\\
};
\addlegendentry{$V_{\mathrm{DS}}=\SI{-1.0}{\volt}$}
\addplot [color=color2, solid, mark=triangle, mark options={solid, rotate=180}, mark phase=1, ]
  table[row sep=crcr, x expr=\thisrowno{0}*1.000000e-03, y expr=\thisrowno{1}*1.000000e-09]{
3.2482e-07 2.56044e+11\\
3.2482e-07 nan\\
4.87229e-07 nan\\
6.49639e-07 nan\\
8.12049e-07 nan\\
9.74459e-07 nan\\
1.29928e-06 nan\\
1.6241e-06 nan\\
2.11133e-06 nan\\
2.59856e-06 nan\\
3.57301e-06 2.5211e+11\\
4.54747e-06 nan\\
5.68434e-06 nan\\
7.14603e-06 nan\\
9.09495e-06 nan\\
1.13687e-05 nan\\
1.44545e-05 nan\\
1.86771e-05 1.92343e+11\\
2.37118e-05 nan\\
3.0533e-05 nan\\
3.84911e-05 nan\\
4.93726e-05 1.29902e+11\\
6.3015e-05 nan\\
8.05552e-05 nan\\
0.00010313 nan\\
0.000131877 nan\\
0.000168744 nan\\
0.000216005 nan\\
0.000277071 nan\\
0.000354703 nan\\
0.000454585 nan\\
0.000582401 nan\\
0.000746923 nan\\
0.000957081 3.08953e+11\\
0.00122668 nan\\
0.00157213 nan\\
0.00201372 nan\\
0.00257907 nan\\
0.00329984 nan\\
0.00421843 nan\\
0.0053847 nan\\
0.0068623 nan\\
0.0087253 8.94631e+11\\
0.0110635 9.96886e+11\\
0.0139823 nan\\
0.0176013 nan\\
0.0220548 1.34878e+12\\
0.0274911 nan\\
0.0340689 nan\\
0.041955 1.74539e+12\\
0.0513195 1.55129e+13\\
0.0623345 1.50811e+13\\
0.0751686 1.48671e+13\\
0.0899865 nan\\
0.106945 nan\\
0.126194 nan\\
0.147872 1.50934e+13\\
0.17211 2.77525e+12\\
0.199028 1.55097e+13\\
0.228737 2.98919e+12\\
0.261339 1.60068e+13\\
0.296928 1.6271e+13\\
0.335588 1.65389e+13\\
0.377399 1.6815e+13\\
0.422431 nan\\
0.470749 3.481e+12\\
0.522411 nan\\
0.577472 1.78654e+13\\
0.635978 nan\\
0.697974 1.83388e+13\\
0.763499 1.85642e+13\\
0.832588 nan\\
0.905272 1.89645e+13\\
0.981579 nan\\
1.06153 1.92919e+13\\
1.14516 nan\\
1.23246 1.95542e+13\\
1.32348 3.73445e+12\\
1.4182 nan\\
1.51665 1.97837e+13\\
1.61883 3.65604e+12\\
1.72475 1.98225e+13\\
1.83441 3.57835e+12\\
1.94781 1.97573e+13\\
2.06494 1.96808e+13\\
2.18581 1.95893e+13\\
2.31041 nan\\
2.43872 3.31537e+12\\
2.57075 nan\\
2.70647 3.19023e+12\\
2.84587 1.87269e+13\\
2.98893 nan\\
3.13563 2.9899e+12\\
3.28596 1.79328e+13\\
3.43989 1.76342e+13\\
3.59738 nan\\
3.75842 1.69846e+13\\
3.92297 nan\\
4.09101 2.57404e+12\\
4.26248 2.50565e+12\\
4.43736 1.55659e+13\\
4.61561 1.51936e+13\\
4.79717 1.48172e+13\\
4.98202 1.44446e+13\\
5.17009 nan\\
5.36134 1.50565e+12\\
5.55572 1.33365e+13\\
5.75317 nan\\
5.95363 1.94017e+12\\
6.15704 1.88446e+12\\
6.36334 1.19224e+13\\
6.57248 nan\\
6.78437 nan\\
6.99895 1.67751e+12\\
7.21615 1.06389e+13\\
7.4359 nan\\
7.65813 1.5389e+12\\
7.88276 1.06389e+12\\
8.1097 9.51054e+12\\
8.33889 1.00562e+12\\
8.57024 nan\\
8.80368 8.76328e+12\\
9.03911 8.53556e+12\\
9.27647 1.26665e+12\\
9.51566 1.23307e+12\\
9.75661 1.20072e+12\\
9.99923 8.31789e+11\\
10.2434 nan\\
10.4891 7.33972e+12\\
10.7363 7.16747e+12\\
10.9847 nan\\
11.2345 6.84629e+12\\
11.4854 1.0047e+12\\
11.7374 6.55162e+12\\
11.9904 6.41395e+12\\
12.2444 6.28147e+12\\
12.4992 9.13257e+11\\
12.7549 nan\\
13.0112 nan\\
13.2682 nan\\
13.5258 nan\\
};
\addlegendentry{$V_{\mathrm{DS}}=\SI{-0.5}{\volt}$}
\end{axis}

\end{tikzpicture}
