\begin{tikzpicture}[font=\normalsize,trim axis left, trim axis right,tight background]
\pgfplotsset{every axis/.append style={very thick},compat=1.5},
\definecolor{color0}{rgb}{0.00000, 0.39216, 0.00000}
\definecolor{color1}{rgb}{0.00000, 0.00000, 0.54510}
\definecolor{color2}{rgb}{0.69020, 0.18824, 0.37647}

\begin{axis}[scale only axis,ytick pos=left,
xlabel={$J_{\mathrm{D}} ( \si{\milli\ampere\per\micro\meter} )$},
ylabel={$f_{\mathrm{max}} ( \si{\giga\hertz} )$},
xmode=log,
xmin=1e-05,
xmax=1,
restrict x to domain=-5.69897:0.69897,
log basis x=10,
ymin=0,
ymax=160,
restrict y to domain=0:800,
log basis y=10,
xlabel shift = -5 pt,
 ylabel shift = -5 pt,
xmajorgrids,
enlargelimits=false,
scaled ticks=true,
ymajorgrids,
x tick style={color=black},
y tick style={color=black},
x grid style={white!69.01960784313725!black},
y grid style={white!69.01960784313725!black},
/tikz/mark repeat=2,
legend style={at={(0.02,0.98)}, anchor=north west,legend cell align=left, align=left},
]
\addplot [color=color0, solid, mark=x, mark options={solid}, mark phase=1, ]
  table[row sep=crcr, x expr=\thisrowno{0}*1.000000e-03, y expr=\thisrowno{1}*1.000000e-09]{
0.00222283 3.26308e+09\\
0.00301668 3.80126e+09\\
0.00409462 4.4272e+09\\
0.00555796 5.15534e+09\\
0.00754445 6.0008e+09\\
0.01024 6.9832e+09\\
0.0138954 8.11952e+09\\
0.0188484 9.43461e+09\\
0.0255516 1.09507e+10\\
0.0346076 1.26896e+10\\
0.0468139 1.4671e+10\\
0.0632139 1.6917e+10\\
0.0851562 1.94316e+10\\
0.114353 2.22196e+10\\
0.152932 2.52631e+10\\
0.203469 2.85129e+10\\
0.268978 3.19384e+10\\
0.352866 3.5442e+10\\
0.458826 3.89604e+10\\
0.59071 4.24245e+10\\
0.752392 4.57694e+10\\
0.947664 4.89818e+10\\
1.18018 5.2048e+10\\
1.45346 5.49828e+10\\
1.77086 5.78164e+10\\
2.13565 6.05677e+10\\
2.55099 6.32723e+10\\
3.01993 6.59345e+10\\
3.54541 6.85598e+10\\
4.13021 7.11565e+10\\
4.77699 7.37234e+10\\
5.48821 7.62575e+10\\
6.26616 7.87477e+10\\
7.11297 8.12105e+10\\
8.03055 8.36207e+10\\
9.02065 8.59739e+10\\
10.0848 8.82805e+10\\
11.2245 9.05152e+10\\
12.4407 9.26892e+10\\
13.7347 9.47847e+10\\
15.1072 9.68063e+10\\
16.5589 9.87491e+10\\
18.0904 1.00613e+11\\
19.702 1.02397e+11\\
21.394 1.04074e+11\\
23.1665 1.05667e+11\\
25.0195 1.07174e+11\\
26.9527 1.08584e+11\\
28.9658 1.09898e+11\\
31.0585 1.11103e+11\\
33.2301 1.12217e+11\\
35.48 1.13221e+11\\
37.8074 1.14132e+11\\
40.2114 1.14921e+11\\
42.691 1.15606e+11\\
45.245 1.16177e+11\\
47.8724 1.16661e+11\\
50.5718 1.17012e+11\\
53.3418 1.17267e+11\\
56.181 1.17399e+11\\
59.0877 1.17426e+11\\
62.0605 1.17341e+11\\
65.0975 1.17144e+11\\
68.1971 1.16846e+11\\
71.3574 1.16439e+11\\
74.5765 1.15927e+11\\
77.8525 1.15301e+11\\
81.1834 1.14594e+11\\
84.5672 1.13779e+11\\
88.0019 1.12871e+11\\
91.4853 1.11873e+11\\
95.0153 1.1079e+11\\
98.5899 1.09616e+11\\
102.207 1.08366e+11\\
105.864 1.07054e+11\\
109.559 1.05657e+11\\
113.29 1.04191e+11\\
117.055 1.02679e+11\\
120.851 1.01116e+11\\
124.677 9.94921e+10\\
128.53 9.78291e+10\\
132.409 9.61243e+10\\
136.31 9.43833e+10\\
140.233 9.26036e+10\\
144.175 9.08227e+10\\
148.134 8.89898e+10\\
152.108 8.71655e+10\\
156.095 8.5323e+10\\
160.093 8.34675e+10\\
164.102 8.16039e+10\\
168.118 7.97368e+10\\
172.139 7.7884e+10\\
176.166 7.60289e+10\\
180.195 7.41885e+10\\
184.225 7.23597e+10\\
188.254 7.05341e+10\\
192.282 6.87328e+10\\
196.306 6.69526e+10\\
200.325 6.51906e+10\\
204.338 6.34495e+10\\
208.344 6.1732e+10\\
212.34 6.00402e+10\\
216.327 5.83761e+10\\
220.303 5.67415e+10\\
224.266 5.51338e+10\\
228.216 5.35586e+10\\
232.151 5.20096e+10\\
236.071 5.04957e+10\\
239.975 4.90142e+10\\
243.861 4.75626e+10\\
247.729 4.61453e+10\\
251.579 4.47598e+10\\
255.408 4.34042e+10\\
259.218 4.20873e+10\\
263.006 4.07988e+10\\
266.772 3.9542e+10\\
270.516 3.83197e+10\\
274.236 3.71296e+10\\
277.933 3.597e+10\\
281.606 3.48449e+10\\
285.254 3.37468e+10\\
288.878 3.26849e+10\\
292.475 3.16501e+10\\
296.047 3.06459e+10\\
299.592 2.96707e+10\\
303.111 2.87256e+10\\
306.602 2.78064e+10\\
310.066 2.69169e+10\\
313.503 2.60553e+10\\
316.912 2.52179e+10\\
320.292 2.44079e+10\\
323.645 2.36227e+10\\
326.968 2.28621e+10\\
330.264 2.21266e+10\\
333.53 2.14148e+10\\
336.767 2.07248e+10\\
339.975 2.0057e+10\\
343.154 1.94111e+10\\
346.304 1.87865e+10\\
349.425 1.81822e+10\\
352.516 1.75984e+10\\
};
\addlegendentry{$V_{\mathrm{DS}}=\SI{0.5}{\volt}$}
\addplot [color=color1, solid, mark=+, mark options={solid}, mark phase=1, ]
  table[row sep=crcr, x expr=\thisrowno{0}*1.000000e-03, y expr=\thisrowno{1}*1.000000e-09]{
0.0033141 4.06365e+09\\
0.00450478 4.74394e+09\\
0.0061238 5.53726e+09\\
0.00832516 6.46167e+09\\
0.0113171 7.53842e+09\\
0.0153816 8.78888e+09\\
0.0208994 1.02406e+10\\
0.0283823 1.19209e+10\\
0.0385148 1.38569e+10\\
0.0522075 1.60796e+10\\
0.0706589 1.86146e+10\\
0.0954286 2.14841e+10\\
0.128515 2.4691e+10\\
0.172425 2.82358e+10\\
0.230222 3.20802e+10\\
0.305521 3.61718e+10\\
0.402425 4.04204e+10\\
0.525362 4.47233e+10\\
0.678858 4.89517e+10\\
0.867282 5.3018e+10\\
1.09463 5.68406e+10\\
1.36441 6.03896e+10\\
1.67966 6.36791e+10\\
2.04307 6.67371e+10\\
2.45712 6.96101e+10\\
2.92424 7.23675e+10\\
3.44686 7.50512e+10\\
4.02749 7.76916e+10\\
4.66866 8.03084e+10\\
5.3729 8.29234e+10\\
6.14271 8.5523e+10\\
6.9805 8.81298e+10\\
7.88857 9.07165e+10\\
8.86908 9.33021e+10\\
9.92402 9.5857e+10\\
11.0552 9.8394e+10\\
12.2643 1.00896e+11\\
13.5528 1.03351e+11\\
14.922 1.05774e+11\\
16.373 1.08149e+11\\
17.9069 1.10466e+11\\
19.5243 1.1273e+11\\
21.2259 1.14937e+11\\
23.0123 1.17087e+11\\
24.8837 1.19171e+11\\
26.8404 1.2118e+11\\
28.8825 1.23134e+11\\
31.0099 1.25013e+11\\
33.2224 1.26829e+11\\
35.5197 1.28576e+11\\
37.9014 1.30253e+11\\
40.367 1.31852e+11\\
42.9159 1.3339e+11\\
45.5474 1.34851e+11\\
48.2608 1.36243e+11\\
51.0551 1.37568e+11\\
53.9294 1.38824e+11\\
56.8827 1.40007e+11\\
59.914 1.41107e+11\\
63.0221 1.42159e+11\\
66.2058 1.43138e+11\\
69.4639 1.44054e+11\\
72.7951 1.44892e+11\\
76.1981 1.45676e+11\\
79.6716 1.46376e+11\\
83.2141 1.47033e+11\\
86.8243 1.47615e+11\\
90.5007 1.48132e+11\\
94.2419 1.48593e+11\\
98.0463 1.48991e+11\\
101.913 1.49317e+11\\
105.839 1.49591e+11\\
109.825 1.49805e+11\\
113.867 1.4995e+11\\
117.966 1.50046e+11\\
122.119 1.50085e+11\\
126.324 1.50067e+11\\
130.581 1.49977e+11\\
134.888 1.49842e+11\\
139.243 1.49644e+11\\
143.644 1.49395e+11\\
148.092 1.49094e+11\\
152.583 1.48726e+11\\
157.116 1.48317e+11\\
161.691 1.47843e+11\\
166.305 1.47313e+11\\
170.957 1.46738e+11\\
175.646 1.46109e+11\\
180.371 1.45427e+11\\
185.13 1.44695e+11\\
189.921 1.43904e+11\\
194.744 1.4307e+11\\
199.597 1.4218e+11\\
204.479 1.41237e+11\\
209.389 1.40248e+11\\
214.325 1.39209e+11\\
219.286 1.38119e+11\\
224.272 1.36989e+11\\
229.28 1.35805e+11\\
234.309 1.34583e+11\\
239.359 1.33303e+11\\
244.429 1.3199e+11\\
249.517 1.3063e+11\\
254.621 1.29225e+11\\
259.742 1.27785e+11\\
264.879 1.26313e+11\\
270.029 1.24795e+11\\
275.192 1.23243e+11\\
280.367 1.21651e+11\\
285.553 1.20043e+11\\
290.749 1.18388e+11\\
295.955 1.16709e+11\\
301.168 1.15001e+11\\
306.389 1.13269e+11\\
311.616 1.11515e+11\\
316.849 1.09748e+11\\
322.086 1.07953e+11\\
327.328 1.06146e+11\\
332.572 1.04318e+11\\
337.818 1.02484e+11\\
343.066 1.0064e+11\\
348.314 9.87867e+10\\
353.562 9.69259e+10\\
358.81 9.50656e+10\\
364.055 9.32087e+10\\
369.298 9.13535e+10\\
374.538 8.94907e+10\\
379.774 8.76438e+10\\
385.006 8.58032e+10\\
390.232 8.39718e+10\\
395.453 8.21521e+10\\
400.667 8.03433e+10\\
405.874 7.85511e+10\\
411.073 7.67777e+10\\
416.264 7.50191e+10\\
421.445 7.3286e+10\\
426.618 7.15688e+10\\
431.78 6.98751e+10\\
436.931 6.82039e+10\\
442.071 6.65568e+10\\
447.2 6.49374e+10\\
};
\addlegendentry{$V_{\mathrm{DS}}=\SI{1.0}{\volt}$}
\addplot [color=color2, solid, mark=triangle, mark options={solid, rotate=180}, mark phase=1, ]
  table[row sep=crcr, x expr=\thisrowno{0}*1.000000e-03, y expr=\thisrowno{1}*1.000000e-09]{
0.00421172 4.10746e+09\\
0.00572906 4.81025e+09\\
0.00779386 5.63242e+09\\
0.0106019 6.59327e+09\\
0.0144218 7.71538e+09\\
0.0196143 9.02407e+09\\
0.0266671 1.05471e+10\\
0.0362348 1.23156e+10\\
0.0491956 1.43616e+10\\
0.0667109 1.67186e+10\\
0.0903116 1.94168e+10\\
0.121983 2.2481e+10\\
0.164259 2.59237e+10\\
0.220297 2.97407e+10\\
0.293927 3.39028e+10\\
0.389613 3.83486e+10\\
0.512333 4.2986e+10\\
0.66733 4.76917e+10\\
0.859771 5.23337e+10\\
1.09439 5.6795e+10\\
1.3752 6.09816e+10\\
1.70539 6.48393e+10\\
2.08737 6.83798e+10\\
2.52305 7.1639e+10\\
3.01407 7.46727e+10\\
3.56208 7.75534e+10\\
4.16884 8.03317e+10\\
4.83634 8.30498e+10\\
5.56672 8.57456e+10\\
6.36226 8.84368e+10\\
7.22531 9.11319e+10\\
8.15818 9.38331e+10\\
9.16314 9.65336e+10\\
10.2424 9.92433e+10\\
11.3978 1.01937e+11\\
12.6315 1.04614e+11\\
13.9449 1.07278e+11\\
15.3397 1.09907e+11\\
16.8172 1.12513e+11\\
18.3786 1.15069e+11\\
20.0248 1.17588e+11\\
21.7567 1.20061e+11\\
23.575 1.22472e+11\\
25.48 1.24838e+11\\
27.4723 1.27143e+11\\
29.552 1.29387e+11\\
31.7191 1.31573e+11\\
33.9737 1.33689e+11\\
36.3155 1.35739e+11\\
38.7441 1.37735e+11\\
41.2593 1.39653e+11\\
43.8604 1.41509e+11\\
46.5469 1.43293e+11\\
49.3179 1.45016e+11\\
52.1728 1.46673e+11\\
55.1106 1.48257e+11\\
58.1304 1.49769e+11\\
61.231 1.51215e+11\\
64.4116 1.52597e+11\\
67.6708 1.53909e+11\\
71.0075 1.55158e+11\\
74.4204 1.56339e+11\\
77.9083 1.57465e+11\\
81.4698 1.58511e+11\\
85.1035 1.59512e+11\\
88.8081 1.60435e+11\\
92.5822 1.61293e+11\\
96.4242 1.62104e+11\\
100.333 1.6286e+11\\
104.306 1.63542e+11\\
108.344 1.64172e+11\\
112.443 1.64745e+11\\
116.603 1.65261e+11\\
120.822 1.65714e+11\\
125.099 1.66128e+11\\
129.433 1.66474e+11\\
133.82 1.66775e+11\\
138.261 1.67019e+11\\
142.754 1.67213e+11\\
147.298 1.67351e+11\\
151.89 1.67442e+11\\
156.529 1.67487e+11\\
161.215 1.67472e+11\\
165.946 1.67429e+11\\
170.72 1.6732e+11\\
175.536 1.67162e+11\\
180.392 1.66971e+11\\
185.288 1.66726e+11\\
190.223 1.66435e+11\\
195.194 1.66107e+11\\
200.2 1.65728e+11\\
205.241 1.65306e+11\\
210.316 1.64828e+11\\
215.422 1.64318e+11\\
220.559 1.63761e+11\\
225.726 1.63158e+11\\
230.922 1.62519e+11\\
236.145 1.61836e+11\\
241.394 1.61105e+11\\
246.669 1.60341e+11\\
251.969 1.59537e+11\\
257.292 1.58688e+11\\
262.637 1.57796e+11\\
268.004 1.56875e+11\\
273.391 1.55914e+11\\
278.799 1.54906e+11\\
284.224 1.53861e+11\\
289.668 1.52786e+11\\
295.129 1.51677e+11\\
300.606 1.50528e+11\\
306.098 1.49342e+11\\
311.605 1.48119e+11\\
317.126 1.46869e+11\\
322.66 1.45586e+11\\
328.206 1.44273e+11\\
333.764 1.42919e+11\\
339.333 1.41551e+11\\
344.911 1.40146e+11\\
350.5 1.38713e+11\\
356.097 1.37259e+11\\
361.702 1.35775e+11\\
367.315 1.3427e+11\\
372.934 1.32739e+11\\
378.561 1.31186e+11\\
384.192 1.29618e+11\\
389.829 1.28031e+11\\
395.471 1.26424e+11\\
401.116 1.24803e+11\\
406.765 1.23162e+11\\
412.417 1.21516e+11\\
418.072 1.19855e+11\\
423.728 1.18185e+11\\
429.386 1.16504e+11\\
435.044 1.14815e+11\\
440.704 1.13129e+11\\
446.363 1.11434e+11\\
452.021 1.09734e+11\\
457.679 1.08034e+11\\
463.336 1.06334e+11\\
468.99 1.04638e+11\\
474.643 1.02939e+11\\
};
\addlegendentry{$V_{\mathrm{DS}}=\SI{1.5}{\volt}$}
\end{axis}

\end{tikzpicture}
