\begin{tikzpicture}[font=\normalsize,trim axis left, trim axis right,tight background]
\pgfplotsset{every axis/.append style={very thick},compat=1.5},
\definecolor{color0}{rgb}{0.00000, 0.39216, 0.00000}
\definecolor{color1}{rgb}{0.00000, 0.00000, 0.54510}
\definecolor{color2}{rgb}{0.69020, 0.18824, 0.37647}

\begin{axis}[scale only axis,ytick pos=left,
xlabel={$V_{\mathrm{GS}} ( \si{\volt} )$},
ylabel={$J_{\mathrm{D}} ( \si{\milli\ampere\per\micro\meter} )$},
ymode=log,
xmin=0.1,
xmax=1,
restrict x to domain=0.02:5,
log basis x=10,
ymin=1e-06,
ymax=0.5,
restrict y to domain=-6.69897:0.39794,
log basis y=10,
xlabel shift = -5 pt,
 ylabel shift = -5 pt,
xmajorgrids,
enlargelimits=false,
scaled ticks=true,
ymajorgrids,
x tick style={color=black},
y tick style={color=black},
x grid style={white!69.01960784313725!black},
y grid style={white!69.01960784313725!black},
/tikz/mark repeat=2,
legend style={at={(0.02,0.98)}, anchor=north west,legend cell align=left, align=left},
]
\addplot [color=color0, solid, mark=x, mark options={solid}, mark phase=1, ]
  table[row sep=crcr, x expr=\thisrowno{0}*1.000000e+00, y expr=\thisrowno{1}*1.000000e-03]{
0.1 0.000175078\\
0.11 0.000231921\\
0.12 0.000307279\\
0.13 0.000407324\\
0.14 0.00053985\\
0.15 0.000716227\\
0.16 0.000950097\\
0.17 0.00126062\\
0.18 0.00167315\\
0.19 0.00222112\\
0.2 0.00294936\\
0.21 0.00391732\\
0.22 0.00520231\\
0.23 0.00691086\\
0.24 0.00918102\\
0.25 0.012197\\
0.26 0.0162033\\
0.27 0.0215238\\
0.28 0.0285835\\
0.29 0.0379461\\
0.3 0.0503467\\
0.31 0.0667488\\
0.32 0.0884003\\
0.33 0.116905\\
0.34 0.154306\\
0.35 0.203166\\
0.36 0.266651\\
0.37 0.34858\\
0.38 0.453454\\
0.39 0.586407\\
0.4 0.753111\\
0.41 0.959598\\
0.42 1.21206\\
0.43 1.51664\\
0.44 1.87932\\
0.45 2.30587\\
0.46 2.80189\\
0.47 3.37296\\
0.48 4.02471\\
0.49 4.7629\\
0.5 5.59353\\
0.51 6.52274\\
0.52 7.55682\\
0.53 8.70211\\
0.54 9.96493\\
0.55 11.3515\\
0.56 12.8679\\
0.57 14.52\\
0.58 16.3134\\
0.59 18.2533\\
0.6 20.3446\\
0.61 22.592\\
0.62 24.9996\\
0.63 27.5711\\
0.64 30.31\\
0.65 33.2191\\
0.66 36.3009\\
0.67 39.5574\\
0.68 42.9902\\
0.69 46.6004\\
0.7 50.3889\\
0.71 54.3558\\
0.72 58.501\\
0.73 62.8241\\
0.74 67.324\\
0.75 71.9996\\
0.76 76.8493\\
0.77 81.871\\
0.78 87.0626\\
0.79 92.4215\\
0.8 97.9451\\
0.81 103.63\\
0.82 109.474\\
0.83 115.472\\
0.84 121.622\\
0.85 127.92\\
0.86 134.362\\
0.87 140.944\\
0.88 147.662\\
0.89 154.513\\
0.9 161.491\\
0.91 168.593\\
0.92 175.816\\
0.93 183.154\\
0.94 190.604\\
0.95 198.161\\
0.96 205.823\\
0.97 213.584\\
0.98 221.441\\
0.99 229.389\\
1 237.427\\
};
\addlegendentry{$V_{\mathrm{GD}}=\SI{-0.5}{\volt}$}
\addplot [color=color1, solid, mark=+, mark options={solid}, mark phase=1, ]
  table[row sep=crcr, x expr=\thisrowno{0}*1.000000e+00, y expr=\thisrowno{1}*1.000000e-03]{
0.1 8.07177e-05\\
0.11 0.000108327\\
0.12 0.000145194\\
0.13 0.000194242\\
0.14 0.000259856\\
0.15 0.000347394\\
0.16 0.000464573\\
0.17 0.000621055\\
0.18 0.000830401\\
0.19 0.0011104\\
0.2 0.00148491\\
0.21 0.00198611\\
0.22 0.00265662\\
0.23 0.00355409\\
0.24 0.0047552\\
0.25 0.00636192\\
0.26 0.00851157\\
0.27 0.0113869\\
0.28 0.0152306\\
0.29 0.0203662\\
0.3 0.0272209\\
0.31 0.0363603\\
0.32 0.0485264\\
0.33 0.0646873\\
0.34 0.0860963\\
0.35 0.114358\\
0.36 0.151498\\
0.37 0.200037\\
0.38 0.26304\\
0.39 0.344157\\
0.4 0.447616\\
0.41 0.578177\\
0.42 0.741047\\
0.43 0.941764\\
0.44 1.1861\\
0.45 1.47994\\
0.46 1.82927\\
0.47 2.24011\\
0.48 2.71853\\
0.49 3.27067\\
0.5 3.90269\\
0.51 4.62078\\
0.52 5.43112\\
0.53 6.33987\\
0.54 7.3531\\
0.55 8.47676\\
0.56 9.71667\\
0.57 11.0784\\
0.58 12.5675\\
0.59 14.189\\
0.6 15.948\\
0.61 17.8489\\
0.62 19.8962\\
0.63 22.0939\\
0.64 24.4457\\
0.65 26.955\\
0.66 29.6248\\
0.67 32.4576\\
0.68 35.4559\\
0.69 38.6214\\
0.7 41.9558\\
0.71 45.4603\\
0.72 49.1355\\
0.73 52.9821\\
0.74 56.9999\\
0.75 61.1888\\
0.76 65.5482\\
0.77 70.0771\\
0.78 74.7742\\
0.79 79.6381\\
0.8 84.6668\\
0.81 89.8582\\
0.82 95.2101\\
0.83 100.72\\
0.84 106.385\\
0.85 112.201\\
0.86 118.167\\
0.87 124.279\\
0.88 130.532\\
0.89 136.925\\
0.9 143.452\\
0.91 150.111\\
0.92 156.897\\
0.93 163.807\\
0.94 170.837\\
0.95 177.983\\
0.96 185.242\\
0.97 192.608\\
0.98 200.08\\
0.99 207.652\\
1 215.321\\
};
\addlegendentry{$V_{\mathrm{GD}}=\SI{0.0}{\volt}$}
\addplot [color=color2, solid, mark=triangle, mark options={solid, rotate=180}, mark phase=1, ]
  table[row sep=crcr, x expr=\thisrowno{0}*1.000000e+00, y expr=\thisrowno{1}*1.000000e-03]{
0.1 8.95025\\
0.11 8.66022\\
0.12 8.37868\\
0.13 8.1053\\
0.14 7.83978\\
0.15 7.58184\\
0.16 7.33121\\
0.17 7.08761\\
0.18 6.85081\\
0.19 6.62057\\
0.2 6.39665\\
0.21 6.17884\\
0.22 5.96692\\
0.23 5.76069\\
0.24 5.55993\\
0.25 5.36444\\
0.26 5.17402\\
0.27 4.98845\\
0.28 4.80753\\
0.29 4.631\\
0.3 4.45863\\
0.31 4.29012\\
0.32 4.12517\\
0.33 3.96338\\
0.34 3.80431\\
0.35 3.6474\\
0.36 3.49194\\
0.37 3.33705\\
0.38 3.18158\\
0.39 3.02402\\
0.4 2.86242\\
0.41 2.69421\\
0.42 2.51603\\
0.43 2.32359\\
0.44 2.11144\\
0.45 1.8729\\
0.46 1.60016\\
0.47 1.28456\\
0.48 0.917379\\
0.49 0.490935\\
0.5 4.0527e-08\\
0.51 0.55706\\
0.52 1.18066\\
0.53 1.87304\\
0.54 2.63824\\
0.55 3.48157\\
0.56 4.40913\\
0.57 5.42738\\
0.58 6.54282\\
0.59 7.76183\\
0.6 9.09053\\
0.61 10.5347\\
0.62 12.0999\\
0.63 13.7912\\
0.64 15.6133\\
0.65 17.5706\\
0.66 19.6673\\
0.67 21.907\\
0.68 24.2931\\
0.69 26.8286\\
0.7 29.5161\\
0.71 32.3581\\
0.72 35.3566\\
0.73 38.5131\\
0.74 41.8291\\
0.75 45.3055\\
0.76 48.943\\
0.77 52.7421\\
0.78 56.7027\\
0.79 60.8246\\
0.8 65.1073\\
0.81 69.5501\\
0.82 74.1518\\
0.83 78.9111\\
0.84 83.8264\\
0.85 88.8961\\
0.86 94.118\\
0.87 99.4899\\
0.88 105.01\\
0.89 110.675\\
0.9 116.482\\
0.91 122.429\\
0.92 128.513\\
0.93 134.73\\
0.94 141.078\\
0.95 147.554\\
0.96 154.153\\
0.97 160.873\\
0.98 167.711\\
0.99 174.663\\
1 181.725\\
};
\addlegendentry{$V_{\mathrm{GD}}=\SI{0.5}{\volt}$}
\end{axis}

\end{tikzpicture}
