\begin{tikzpicture}[font=\normalsize,trim axis left, trim axis right,tight background]
\pgfplotsset{every axis/.append style={very thick},compat=1.5},
\definecolor{color0}{rgb}{0.00000, 0.39216, 0.00000}
\definecolor{color1}{rgb}{0.00000, 0.00000, 0.54510}
\definecolor{color2}{rgb}{0.69020, 0.18824, 0.37647}

\begin{axis}[scale only axis,ytick pos=left,
xlabel={$V_{\mathrm{GS}} ( \si{\volt} )$},
ylabel={$J_{\mathrm{D}} ( \si{\milli\ampere\per\micro\meter} )$},
ymode=log,
xmin=0.1,
xmax=1,
restrict x to domain=0.02:5,
log basis x=10,
ymin=1e-06,
ymax=0.5,
restrict y to domain=-6.69897:0.39794,
log basis y=10,
xlabel shift = -5 pt,
 ylabel shift = -5 pt,
xmajorgrids,
enlargelimits=false,
scaled ticks=true,
ymajorgrids,
x tick style={color=black},
y tick style={color=black},
x grid style={white!69.01960784313725!black},
y grid style={white!69.01960784313725!black},
/tikz/mark repeat=2,
legend style={at={(0.02,0.98)}, anchor=north west,legend cell align=left, align=left},
]
\addplot [color=color0, solid, mark=x, mark options={solid}, mark phase=1, ]
  table[row sep=crcr, x expr=\thisrowno{0}*1.000000e+00, y expr=\thisrowno{1}*1.000000e-03]{
0.1 0.00228348\\
0.11 0.00313516\\
0.12 0.00430581\\
0.13 0.00591139\\
0.14 0.00811594\\
0.15 0.0111416\\
0.16 0.0152889\\
0.17 0.020969\\
0.18 0.0287358\\
0.19 0.0393347\\
0.2 0.053755\\
0.21 0.0732994\\
0.22 0.0996546\\
0.23 0.134961\\
0.24 0.181866\\
0.25 0.243552\\
0.26 0.3237\\
0.27 0.426407\\
0.28 0.55604\\
0.29 0.717074\\
0.3 0.913924\\
0.31 1.15084\\
0.32 1.43187\\
0.33 1.7608\\
0.34 2.14124\\
0.35 2.57662\\
0.36 3.07021\\
0.37 3.62513\\
0.38 4.24435\\
0.39 4.9307\\
0.4 5.68684\\
0.41 6.51527\\
0.42 7.41833\\
0.43 8.39817\\
0.44 9.45678\\
0.45 10.596\\
0.46 11.8174\\
0.47 13.1224\\
0.48 14.5124\\
0.49 15.9885\\
0.5 17.5516\\
0.51 19.2024\\
0.52 20.9417\\
0.53 22.7698\\
0.54 24.6871\\
0.55 26.6938\\
0.56 28.7898\\
0.57 30.975\\
0.58 33.2493\\
0.59 35.6122\\
0.6 38.0633\\
0.61 40.602\\
0.62 43.2276\\
0.63 45.9392\\
0.64 48.7361\\
0.65 51.6171\\
0.66 54.5814\\
0.67 57.6277\\
0.68 60.7548\\
0.69 63.9615\\
0.7 67.2465\\
0.71 70.6085\\
0.72 74.046\\
0.73 77.5576\\
0.74 81.1418\\
0.75 84.7971\\
0.76 88.5221\\
0.77 92.3151\\
0.78 96.1747\\
0.79 100.099\\
0.8 104.087\\
0.81 108.137\\
0.82 112.247\\
0.83 116.416\\
0.84 120.642\\
0.85 124.923\\
0.86 129.259\\
0.87 133.647\\
0.88 138.086\\
0.89 142.574\\
0.9 147.111\\
0.91 151.695\\
0.92 156.323\\
0.93 160.996\\
0.94 165.711\\
0.95 170.467\\
0.96 175.263\\
0.97 180.097\\
0.98 184.968\\
0.99 189.876\\
1 194.818\\
};
\addlegendentry{$V_{\mathrm{GD}}=\SI{-0.5}{\volt}$}
\addplot [color=color1, solid, mark=+, mark options={solid}, mark phase=1, ]
  table[row sep=crcr, x expr=\thisrowno{0}*1.000000e+00, y expr=\thisrowno{1}*1.000000e-03]{
0.1 0.00126875\\
0.11 0.00175837\\
0.12 0.00243343\\
0.13 0.0033644\\
0.14 0.00464882\\
0.15 0.00642055\\
0.16 0.00886335\\
0.17 0.0122294\\
0.18 0.0168628\\
0.19 0.0232304\\
0.2 0.0319622\\
0.21 0.0439007\\
0.22 0.0601578\\
0.23 0.0821802\\
0.24 0.111812\\
0.25 0.151351\\
0.26 0.203576\\
0.27 0.271741\\
0.28 0.359532\\
0.29 0.47097\\
0.3 0.610299\\
0.31 0.781863\\
0.32 0.990002\\
0.33 1.23896\\
0.34 1.53284\\
0.35 1.87555\\
0.36 2.27081\\
0.37 2.72212\\
0.38 3.23276\\
0.39 3.80581\\
0.4 4.44415\\
0.41 5.15044\\
0.42 5.92715\\
0.43 6.77657\\
0.44 7.70079\\
0.45 8.70173\\
0.46 9.78111\\
0.47 10.9405\\
0.48 12.1813\\
0.49 13.5047\\
0.5 14.9119\\
0.51 16.4036\\
0.52 17.9808\\
0.53 19.6439\\
0.54 21.3934\\
0.55 23.2297\\
0.56 25.153\\
0.57 27.1633\\
0.58 29.2605\\
0.59 31.4445\\
0.6 33.7149\\
0.61 36.0714\\
0.62 38.5135\\
0.63 41.0404\\
0.64 43.6515\\
0.65 46.3461\\
0.66 49.1232\\
0.67 51.9818\\
0.68 54.921\\
0.69 57.9397\\
0.7 61.0367\\
0.71 64.2107\\
0.72 67.4607\\
0.73 70.7852\\
0.74 74.183\\
0.75 77.6526\\
0.76 81.1927\\
0.77 84.8018\\
0.78 88.4786\\
0.79 92.2215\\
0.8 96.0291\\
0.81 99.9\\
0.82 103.833\\
0.83 107.825\\
0.84 111.877\\
0.85 115.986\\
0.86 120.151\\
0.87 124.37\\
0.88 128.641\\
0.89 132.965\\
0.9 137.338\\
0.91 141.76\\
0.92 146.229\\
0.93 150.745\\
0.94 155.304\\
0.95 159.907\\
0.96 164.551\\
0.97 169.236\\
0.98 173.961\\
0.99 178.723\\
1 183.522\\
};
\addlegendentry{$V_{\mathrm{GD}}=\SI{0.0}{\volt}$}
\addplot [color=color2, solid, mark=triangle, mark options={solid, rotate=180}, mark phase=1, ]
  table[row sep=crcr, x expr=\thisrowno{0}*1.000000e+00, y expr=\thisrowno{1}*1.000000e-03]{
0.1 24.3614\\
0.11 23.9214\\
0.12 23.4875\\
0.13 23.0597\\
0.14 22.6375\\
0.15 22.2208\\
0.16 21.8093\\
0.17 21.4027\\
0.18 21.0007\\
0.19 20.603\\
0.2 20.2091\\
0.21 19.8187\\
0.22 19.4312\\
0.23 19.0459\\
0.24 18.6623\\
0.25 18.2795\\
0.26 17.8964\\
0.27 17.5119\\
0.28 17.1245\\
0.29 16.7323\\
0.3 16.3333\\
0.31 15.925\\
0.32 15.5041\\
0.33 15.067\\
0.34 14.6096\\
0.35 14.1269\\
0.36 13.6134\\
0.37 13.0629\\
0.38 12.469\\
0.39 11.8248\\
0.4 11.1235\\
0.41 10.3588\\
0.42 9.52478\\
0.43 8.61647\\
0.44 7.6301\\
0.45 6.56311\\
0.46 5.41412\\
0.47 4.18282\\
0.48 2.8696\\
0.49 1.47517\\
0.5 9.80087e-07\\
0.51 1.55616\\
0.52 3.19341\\
0.53 4.9108\\
0.54 6.70682\\
0.55 8.5797\\
0.56 10.5277\\
0.57 12.5493\\
0.58 14.6433\\
0.59 16.8085\\
0.6 19.0442\\
0.61 21.35\\
0.62 23.7255\\
0.63 26.1705\\
0.64 28.6849\\
0.65 31.2687\\
0.66 33.9219\\
0.67 36.6444\\
0.68 39.4361\\
0.69 42.297\\
0.7 45.2268\\
0.71 48.2253\\
0.72 51.2921\\
0.73 54.4268\\
0.74 57.6289\\
0.75 60.8978\\
0.76 64.2329\\
0.77 67.6334\\
0.78 71.0985\\
0.79 74.6275\\
0.8 78.2193\\
0.81 81.8731\\
0.82 85.5877\\
0.83 89.3623\\
0.84 93.1956\\
0.85 97.0867\\
0.86 101.034\\
0.87 105.037\\
0.88 109.095\\
0.89 113.205\\
0.9 117.367\\
0.91 121.58\\
0.92 125.842\\
0.93 130.153\\
0.94 134.511\\
0.95 138.914\\
0.96 143.362\\
0.97 147.854\\
0.98 152.388\\
0.99 156.963\\
1 161.578\\
};
\addlegendentry{$V_{\mathrm{GD}}=\SI{0.5}{\volt}$}
\end{axis}

\end{tikzpicture}
