\begin{tikzpicture}[font=\normalsize,trim axis left, trim axis right,tight background]
\pgfplotsset{every axis/.append style={very thick},compat=1.5},
\definecolor{color0}{rgb}{0.00000, 0.39216, 0.00000}
\definecolor{color1}{rgb}{0.00000, 0.00000, 0.54510}
\definecolor{color2}{rgb}{0.69020, 0.18824, 0.37647}
\definecolor{color3}{rgb}{1.00000, 0.00000, 0.00000}
\definecolor{color4}{rgb}{0.58039, 0.40392, 0.74118}
\definecolor{color5}{rgb}{0.87059, 0.72157, 0.52941}
\definecolor{color6}{rgb}{0.00000, 1.00000, 0.00000}
\definecolor{color7}{rgb}{0.00000, 1.00000, 1.00000}
\definecolor{color8}{rgb}{1.00000, 0.00000, 1.00000}
\definecolor{color9}{rgb}{0.39216, 0.58431, 0.92941}

\begin{axis}[scale only axis,ytick pos=left,
xlabel={$V_{\mathrm{DS}} ( \si{\volt} )$},
ylabel={$J_{\mathrm{D}} ( \si{\milli\ampere\per\micro\meter} )$},
% xmin=0,
% xmax=0,
% restrict x to domain=0:1,
log basis x=10,
% ymin=0,
% ymax=0,
% restrict y to domain=0:1,
log basis y=10,
xlabel shift = -5 pt,
 ylabel shift = -5 pt,
xmajorgrids,
enlargelimits=false,
scaled ticks=true,
ymajorgrids,
x tick style={color=black},
y tick style={color=black},
x grid style={white!69.01960784313725!black},
y grid style={white!69.01960784313725!black},
/tikz/mark repeat=2,
legend style={at={(1.02,1.00)}, anchor=north west,legend cell align=left, align=left},
]
\addplot [color=color0, solid, mark=x, mark options={solid}, mark phase=1, ]
  table[row sep=crcr, x expr=\thisrowno{0}*1.000000e+00, y expr=\thisrowno{1}*1.000000e-03]{
0 0\\
0.05 1.01974\\
0.1 1.38085\\
0.15 1.51707\\
0.2 1.59197\\
0.25 1.64747\\
0.3 1.69527\\
0.35 1.73937\\
0.4 1.78144\\
0.45 1.8223\\
0.5 1.8624\\
0.55 1.90202\\
0.6 1.94134\\
0.65 1.98048\\
0.7 2.01955\\
0.75 2.05861\\
0.8 2.09771\\
0.85 2.1369\\
0.9 2.17622\\
0.95 2.21568\\
1 2.25533\\
1.05 2.29517\\
1.1 2.33523\\
1.15 2.37552\\
1.2 2.41605\\
1.25 2.45683\\
1.3 2.49788\\
1.35 2.5392\\
1.4 2.5808\\
1.45 2.62269\\
1.5 2.66488\\
1.55 2.70737\\
1.6 2.75016\\
1.65 2.79327\\
1.7 2.8367\\
1.75 2.88045\\
1.8 2.92454\\
1.85 2.96896\\
1.9 3.01373\\
1.95 3.05885\\
2 3.10433\\
};
\addlegendentry{$V_{\mathrm{BE}}=\SI{0.70}{\volt}$}
\addplot [color=color1, solid, mark=+, mark options={solid}, mark phase=1, ]
  table[row sep=crcr, x expr=\thisrowno{0}*1.000000e+00, y expr=\thisrowno{1}*1.000000e-03]{
0 0\\
0.05 1.44182\\
0.1 2.04016\\
0.15 2.28219\\
0.2 2.40942\\
0.25 2.49741\\
0.3 2.56941\\
0.35 2.63366\\
0.4 2.6936\\
0.45 2.7509\\
0.5 2.80648\\
0.55 2.86087\\
0.6 2.91445\\
0.65 2.96744\\
0.7 3.02001\\
0.75 3.07231\\
0.8 3.12442\\
0.85 3.17643\\
0.9 3.2284\\
0.95 3.28038\\
1 3.3324\\
1.05 3.38452\\
1.1 3.43674\\
1.15 3.48912\\
1.2 3.54165\\
1.25 3.59437\\
1.3 3.64729\\
1.35 3.70042\\
1.4 3.75378\\
1.45 3.80737\\
1.5 3.86122\\
1.55 3.91533\\
1.6 3.96971\\
1.65 4.02437\\
1.7 4.07931\\
1.75 4.13455\\
1.8 4.1901\\
1.85 4.24596\\
1.9 4.30215\\
1.95 4.35867\\
2 4.41554\\
};
\addlegendentry{$V_{\mathrm{BE}}=\SI{0.73}{\volt}$}
\addplot [color=color2, solid, mark=triangle, mark options={solid, rotate=180}, mark phase=1, ]
  table[row sep=crcr, x expr=\thisrowno{0}*1.000000e+00, y expr=\thisrowno{1}*1.000000e-03]{
0 0\\
0.05 1.91648\\
0.1 2.82535\\
0.15 3.22597\\
0.2 3.43399\\
0.25 3.56978\\
0.3 3.67505\\
0.35 3.76541\\
0.4 3.84752\\
0.45 3.92458\\
0.5 3.99832\\
0.55 4.06975\\
0.6 4.13953\\
0.65 4.20807\\
0.7 4.27569\\
0.75 4.34262\\
0.8 4.40901\\
0.85 4.47501\\
0.9 4.54071\\
0.95 4.60621\\
1 4.67156\\
1.05 4.73684\\
1.1 4.80208\\
1.15 4.86732\\
1.2 4.93261\\
1.25 4.99798\\
1.3 5.06344\\
1.35 5.12902\\
1.4 5.19475\\
1.45 5.26064\\
1.5 5.32671\\
1.55 5.39297\\
1.6 5.45944\\
1.65 5.52613\\
1.7 5.59306\\
1.75 5.66023\\
1.8 5.72766\\
1.85 5.79537\\
1.9 5.86337\\
1.95 5.93166\\
2 6.00028\\
};
\addlegendentry{$V_{\mathrm{BE}}=\SI{0.76}{\volt}$}
\addplot [color=color3, solid, mark=triangle, mark options={solid, rotate=0}, mark phase=1, ]
  table[row sep=crcr, x expr=\thisrowno{0}*1.000000e+00, y expr=\thisrowno{1}*1.000000e-03]{
0 0\\
0.05 2.42927\\
0.1 3.71368\\
0.15 4.33141\\
0.2 4.65706\\
0.25 4.86174\\
0.3 5.01275\\
0.35 5.13718\\
0.4 5.2469\\
0.45 5.3477\\
0.5 5.44265\\
0.55 5.53356\\
0.6 5.62155\\
0.65 5.70736\\
0.7 5.7915\\
0.75 5.87434\\
0.8 5.95616\\
0.85 6.03717\\
0.9 6.11754\\
0.95 6.1974\\
1 6.27685\\
1.05 6.356\\
1.1 6.43491\\
1.15 6.51364\\
1.2 6.59225\\
1.25 6.67078\\
1.3 6.74928\\
1.35 6.82777\\
1.4 6.9063\\
1.45 6.98488\\
1.5 7.06355\\
1.55 7.14231\\
1.6 7.22121\\
1.65 7.30024\\
1.7 7.37944\\
1.75 7.45881\\
1.8 7.53838\\
1.85 7.61817\\
1.9 7.6982\\
1.95 7.77848\\
2 7.85904\\
};
\addlegendentry{$V_{\mathrm{BE}}=\SI{0.79}{\volt}$}
\addplot [color=color4, solid, mark=asterisk, mark options={solid}, mark phase=1, ]
  table[row sep=crcr, x expr=\thisrowno{0}*1.000000e+00, y expr=\thisrowno{1}*1.000000e-03]{
0 0\\
0.05 2.96884\\
0.1 4.68251\\
0.15 5.57583\\
0.2 6.06199\\
0.25 6.36245\\
0.3 6.57574\\
0.35 6.74476\\
0.4 6.88915\\
0.45 7.01867\\
0.5 7.13853\\
0.55 7.25176\\
0.6 7.36023\\
0.65 7.46514\\
0.7 7.56733\\
0.75 7.66739\\
0.8 7.76576\\
0.85 7.86276\\
0.9 7.95865\\
0.95 8.05363\\
1 8.14786\\
1.05 8.24148\\
1.1 8.3346\\
1.15 8.4273\\
1.2 8.51967\\
1.25 8.61178\\
1.3 8.70367\\
1.35 8.79541\\
1.4 8.88703\\
1.45 8.97858\\
1.5 9.07009\\
1.55 9.16158\\
1.6 9.2531\\
1.65 9.34465\\
1.7 9.43628\\
1.75 9.52801\\
1.8 9.61985\\
1.85 9.71183\\
1.9 9.80399\\
1.95 9.89633\\
2 9.9889\\
};
\addlegendentry{$V_{\mathrm{BE}}=\SI{0.82}{\volt}$}
\addplot [color=color5, solid, mark=triangle, mark options={solid, rotate=270}, mark phase=1, ]
  table[row sep=crcr, x expr=\thisrowno{0}*1.000000e+00, y expr=\thisrowno{1}*1.000000e-03]{
0 0\\
0.05 3.52662\\
0.1 5.71203\\
0.15 6.93515\\
0.2 7.62757\\
0.25 8.0555\\
0.3 8.35164\\
0.35 8.57865\\
0.4 8.76674\\
0.45 8.93128\\
0.5 9.08063\\
0.55 9.21962\\
0.6 9.35123\\
0.65 9.47736\\
0.7 9.59931\\
0.75 9.718\\
0.8 9.83409\\
0.85 9.94808\\
0.9 10.0603\\
0.95 10.1712\\
1 10.2808\\
1.05 10.3894\\
1.1 10.4973\\
1.15 10.6043\\
1.2 10.7108\\
1.25 10.8168\\
1.3 10.9224\\
1.35 11.0276\\
1.4 11.1326\\
1.45 11.2373\\
1.5 11.3418\\
1.55 11.4461\\
1.6 11.5504\\
1.65 11.6545\\
1.7 11.7587\\
1.75 11.8628\\
1.8 11.9669\\
1.85 12.0711\\
1.9 12.1754\\
1.95 12.2798\\
2 12.3844\\
};
\addlegendentry{$V_{\mathrm{BE}}=\SI{0.85}{\volt}$}
\addplot [color=color6, solid, mark=triangle, mark options={solid, rotate=90}, mark phase=1, ]
  table[row sep=crcr, x expr=\thisrowno{0}*1.000000e+00, y expr=\thisrowno{1}*1.000000e-03]{
0 0\\
0.05 4.09628\\
0.1 6.78588\\
0.15 8.38656\\
0.2 9.33089\\
0.25 9.92107\\
0.3 10.3242\\
0.35 10.6255\\
0.4 10.8684\\
0.45 11.0758\\
0.5 11.2602\\
0.55 11.4292\\
0.6 11.5871\\
0.65 11.737\\
0.7 11.8806\\
0.75 12.0196\\
0.8 12.1547\\
0.85 12.2867\\
0.9 12.4162\\
0.95 12.5437\\
1 12.6694\\
1.05 12.7936\\
1.1 12.9165\\
1.15 13.0384\\
1.2 13.1593\\
1.25 13.2795\\
1.3 13.399\\
1.35 13.5179\\
1.4 13.6363\\
1.45 13.7542\\
1.5 13.8718\\
1.55 13.9891\\
1.6 14.1061\\
1.65 14.2229\\
1.7 14.3396\\
1.75 14.4561\\
1.8 14.5725\\
1.85 14.6889\\
1.9 14.8052\\
1.95 14.9216\\
2 15.0381\\
};
\addlegendentry{$V_{\mathrm{BE}}=\SI{0.88}{\volt}$}
\addplot [color=color7, solid, mark=*, mark options={solid, fill}, mark phase=1, ]
  table[row sep=crcr, x expr=\thisrowno{0}*1.000000e+00, y expr=\thisrowno{1}*1.000000e-03]{
0 0\\
0.05 4.67314\\
0.1 7.891\\
0.15 9.90978\\
0.2 11.1494\\
0.25 11.9379\\
0.3 12.4747\\
0.35 12.8692\\
0.4 13.1802\\
0.45 13.4398\\
0.5 13.6662\\
0.55 13.8701\\
0.6 14.0581\\
0.65 14.2346\\
0.7 14.4023\\
0.75 14.5633\\
0.8 14.7189\\
0.85 14.8703\\
0.9 15.018\\
0.95 15.1629\\
1 15.3053\\
1.05 15.4456\\
1.1 15.5842\\
1.15 15.7212\\
1.2 15.8569\\
1.25 15.9915\\
1.3 16.1251\\
1.35 16.2578\\
1.4 16.3898\\
1.45 16.5211\\
1.5 16.6518\\
1.55 16.7821\\
1.6 16.9119\\
1.65 17.0413\\
1.7 17.1704\\
1.75 17.2992\\
1.8 17.4279\\
1.85 17.5563\\
1.9 17.6846\\
1.95 17.8129\\
2 17.9411\\
};
\addlegendentry{$V_{\mathrm{BE}}=\SI{0.91}{\volt}$}
\addplot [color=color8, solid, mark=square, mark options={solid}, mark phase=1, ]
  table[row sep=crcr, x expr=\thisrowno{0}*1.000000e+00, y expr=\thisrowno{1}*1.000000e-03]{
0 0\\
0.05 5.25369\\
0.1 9.01711\\
0.15 11.4874\\
0.2 13.0619\\
0.25 14.0848\\
0.3 14.7836\\
0.35 15.2921\\
0.4 15.6863\\
0.45 16.009\\
0.5 16.2853\\
0.55 16.5301\\
0.6 16.7528\\
0.65 16.9594\\
0.7 17.1539\\
0.75 17.339\\
0.8 17.5168\\
0.85 17.6888\\
0.9 17.8559\\
0.95 18.0191\\
1 18.179\\
1.05 18.336\\
1.1 18.4907\\
1.15 18.6433\\
1.2 18.7941\\
1.25 18.9434\\
1.3 19.0913\\
1.35 19.238\\
1.4 19.3836\\
1.45 19.5284\\
1.5 19.6723\\
1.55 19.8155\\
1.6 19.958\\
1.65 20.1\\
1.7 20.2415\\
1.75 20.3826\\
1.8 20.5233\\
1.85 20.6637\\
1.9 20.8038\\
1.95 20.9438\\
2 21.0836\\
};
\addlegendentry{$V_{\mathrm{BE}}=\SI{0.94}{\volt}$}
\addplot [color=color9, solid, mark=o, mark options={solid, fill}, mark phase=1, ]
  table[row sep=crcr, x expr=\thisrowno{0}*1.000000e+00, y expr=\thisrowno{1}*1.000000e-03]{
0 0\\
0.05 5.83533\\
0.1 10.1562\\
0.15 13.1049\\
0.2 15.0494\\
0.25 16.3412\\
0.3 17.231\\
0.35 17.876\\
0.4 18.37\\
0.45 18.7682\\
0.5 19.1035\\
0.55 19.3961\\
0.6 19.6586\\
0.65 19.8992\\
0.7 20.1235\\
0.75 20.3353\\
0.8 20.5373\\
0.85 20.7314\\
0.9 20.9192\\
0.95 21.1018\\
1 21.2799\\
1.05 21.4544\\
1.1 21.6257\\
1.15 21.7943\\
1.2 21.9605\\
1.25 22.1247\\
1.3 22.2871\\
1.35 22.448\\
1.4 22.6074\\
1.45 22.7656\\
1.5 22.9228\\
1.55 23.0789\\
1.6 23.2342\\
1.65 23.3887\\
1.7 23.5425\\
1.75 23.6957\\
1.8 23.8484\\
1.85 24.0006\\
1.9 24.1524\\
1.95 24.3039\\
2 24.4551\\
};
\addlegendentry{$V_{\mathrm{BE}}=\SI{0.97}{\volt}$}
\addplot [color=color0, solid, mark=x, mark options={solid}, mark phase=1, ]
  table[row sep=crcr, x expr=\thisrowno{0}*1.000000e+00, y expr=\thisrowno{1}*1.000000e-03]{
0 0\\
0.05 6.4161\\
0.1 11.3021\\
0.15 14.7502\\
0.2 17.0954\\
0.25 18.6883\\
0.3 19.7977\\
0.35 20.6023\\
0.4 21.2141\\
0.45 21.7013\\
0.5 22.1058\\
0.55 22.4539\\
0.6 22.762\\
0.65 23.0413\\
0.7 23.299\\
0.75 23.5402\\
0.8 23.7685\\
0.85 23.9867\\
0.9 24.1965\\
0.95 24.3995\\
1 24.5969\\
1.05 24.7895\\
1.1 24.9781\\
1.15 25.1632\\
1.2 25.3453\\
1.25 25.5247\\
1.3 25.7019\\
1.35 25.877\\
1.4 26.0504\\
1.45 26.2222\\
1.5 26.3925\\
1.55 26.5616\\
1.6 26.7296\\
1.65 26.8965\\
1.7 27.0625\\
1.75 27.2278\\
1.8 27.3923\\
1.85 27.5561\\
1.9 27.7194\\
1.95 27.8823\\
2 28.0447\\
};
\addlegendentry{$V_{\mathrm{BE}}=\SI{1.00}{\volt}$}
\end{axis}

\end{tikzpicture}
