\begin{tikzpicture}[font=\normalsize,trim axis left, trim axis right,tight background]
\pgfplotsset{every axis/.append style={very thick},compat=1.5},
\definecolor{color0}{rgb}{0.00000, 0.39216, 0.00000}
\definecolor{color1}{rgb}{0.00000, 0.00000, 0.54510}
\definecolor{color2}{rgb}{0.69020, 0.18824, 0.37647}
\definecolor{color3}{rgb}{1.00000, 0.00000, 0.00000}

\begin{axis}[scale only axis,ytick pos=left,
xlabel={$V_{\mathrm{GS}} ( \si{\volt} )$},
ylabel={$J_{\mathrm{D}} ( \si{\milli\ampere \per\micro\meter} )$},
ymode=log,
% xmin=0,
% xmax=0,
% restrict x to domain=0:1,
log basis x=10,
% ymin=0,
% ymax=0,
% restrict y to domain=0:1,
log basis y=10,
xlabel shift = -5 pt,
 ylabel shift = -5 pt,
xmajorgrids,
enlargelimits=false,
scaled ticks=true,
ymajorgrids,
x tick style={color=black},
y tick style={color=black},
x grid style={white!69.01960784313725!black},
y grid style={white!69.01960784313725!black},
/tikz/mark repeat=2,
legend style={at={(0.02,0.98)}, anchor=north west,legend cell align=left, align=left},
]
\addplot [color=color0, solid, mark=x, mark options={solid}, mark phase=1, ]
  table[row sep=crcr, x expr=\thisrowno{0}*1.000000e+00, y expr=\thisrowno{1}*1.000000e-03]{
0.1 9.74459e-07\\
0.11 9.74459e-07\\
0.12 9.74459e-07\\
0.13 9.74459e-07\\
0.14 9.74459e-07\\
0.15 1.94892e-06\\
0.16 1.94892e-06\\
0.17 2.92338e-06\\
0.18 3.2482e-06\\
0.19 4.22265e-06\\
0.2 6.17157e-06\\
0.21 6.82121e-06\\
0.22 9.41977e-06\\
0.23 1.23431e-05\\
0.24 1.55913e-05\\
0.25 2.04636e-05\\
0.26 2.696e-05\\
0.27 3.47557e-05\\
0.28 4.64492e-05\\
0.29 6.07413e-05\\
0.3 7.86063e-05\\
0.31 0.000103942\\
0.32 0.000136099\\
0.33 0.0001793\\
0.34 0.000235819\\
0.35 0.000309878\\
0.36 0.000408623\\
0.37 0.0005392\\
0.38 0.00071103\\
0.39 0.000939053\\
0.4 0.00124016\\
0.41 0.00163969\\
0.42 0.00216947\\
0.43 0.0028714\\
0.44 0.00380201\\
0.45 0.00503763\\
0.46 0.00667667\\
0.47 0.00885166\\
0.48 0.0117377\\
0.49 0.015565\\
0.5 0.0206374\\
0.51 0.0273521\\
0.52 0.0362255\\
0.53 0.0479226\\
0.54 0.0632904\\
0.55 0.0833867\\
0.56 0.10951\\
0.57 0.14321\\
0.58 0.186277\\
0.59 0.240708\\
0.6 0.308647\\
0.61 0.392292\\
0.62 0.493811\\
0.63 0.615256\\
0.64 0.7585\\
0.65 0.925202\\
0.66 1.11679\\
0.67 1.33447\\
0.68 1.57924\\
0.69 1.85191\\
0.7 2.15315\\
0.71 2.48348\\
0.72 2.84332\\
0.73 3.23297\\
0.74 3.65268\\
0.75 4.1026\\
0.76 4.58284\\
0.77 5.09344\\
0.78 5.63439\\
0.79 6.20564\\
0.8 6.80711\\
0.81 7.43866\\
0.82 8.10013\\
0.83 8.79134\\
0.84 9.51205\\
0.85 10.262\\
0.86 11.041\\
0.87 11.8486\\
0.88 12.6847\\
0.89 13.5487\\
0.9 14.4405\\
0.91 15.3596\\
0.92 16.3057\\
0.93 17.2784\\
0.94 18.2772\\
0.95 19.3018\\
0.96 20.3518\\
0.97 21.4267\\
0.98 22.5261\\
0.99 23.6497\\
1 24.7969\\
1.01 25.9673\\
1.02 27.1605\\
1.03 28.3761\\
1.04 29.6137\\
1.05 30.8728\\
1.06 32.153\\
1.07 33.4538\\
1.08 34.7749\\
1.09 36.1158\\
1.1 37.4761\\
1.11 38.8554\\
1.12 40.2533\\
1.13 41.6694\\
1.14 43.1033\\
1.15 44.5545\\
1.16 46.0228\\
1.17 47.5078\\
1.18 49.0089\\
1.19 50.526\\
1.2 52.0585\\
1.21 53.6062\\
1.22 55.1687\\
1.23 56.7456\\
1.24 58.3367\\
1.25 59.9415\\
1.26 61.5597\\
1.27 63.191\\
1.28 64.8351\\
1.29 66.4916\\
1.3 68.1602\\
1.31 69.8407\\
1.32 71.5327\\
1.33 73.236\\
1.34 74.9501\\
1.35 76.675\\
1.36 78.4102\\
1.37 80.1554\\
1.38 81.9105\\
1.39 83.6752\\
1.4 85.4491\\
1.41 87.232\\
1.42 89.0237\\
1.43 90.824\\
1.44 92.6325\\
1.45 94.449\\
1.46 96.2733\\
1.47 98.1052\\
1.48 99.9444\\
1.49 101.791\\
1.5 103.644\\
};
\addlegendentry{$\SI{350.0}{\nano\meter}$}
\addplot [color=color1, solid, mark=+, mark options={solid}, mark phase=1, ]
  table[row sep=crcr, x expr=\thisrowno{0}*1.000000e+00, y expr=\thisrowno{1}*1.000000e-03]{
0.1 5.68434e-07\\
0.11 5.68434e-07\\
0.12 7.57912e-07\\
0.13 1.13687e-06\\
0.14 1.32635e-06\\
0.15 1.89478e-06\\
0.16 2.08426e-06\\
0.17 2.65269e-06\\
0.18 3.78956e-06\\
0.19 4.16852e-06\\
0.2 5.87382e-06\\
0.21 7.7686e-06\\
0.22 1.04213e-05\\
0.23 1.32635e-05\\
0.24 1.7432e-05\\
0.25 2.29268e-05\\
0.26 2.99375e-05\\
0.27 3.96009e-05\\
0.28 5.1538e-05\\
0.29 6.76437e-05\\
0.3 8.94336e-05\\
0.31 0.000117287\\
0.32 0.000154425\\
0.33 0.000203499\\
0.34 0.000268111\\
0.35 0.000353756\\
0.36 0.000467253\\
0.37 0.000616751\\
0.38 0.000815135\\
0.39 0.00107775\\
0.4 0.00142544\\
0.41 0.00188644\\
0.42 0.00249827\\
0.43 0.00330923\\
0.44 0.00438509\\
0.45 0.00581205\\
0.46 0.00770531\\
0.47 0.0102153\\
0.48 0.0135424\\
0.49 0.0179477\\
0.5 0.0237731\\
0.51 0.0314615\\
0.52 0.0415834\\
0.53 0.0548615\\
0.54 0.0721999\\
0.55 0.0947076\\
0.56 0.123711\\
0.57 0.160755\\
0.58 0.207577\\
0.59 0.266065\\
0.6 0.33819\\
0.61 0.42594\\
0.62 0.531239\\
0.63 0.655901\\
0.64 0.801574\\
0.65 0.969731\\
0.66 1.16166\\
0.67 1.37846\\
0.68 1.62107\\
0.69 1.89029\\
0.7 2.18676\\
0.71 2.51104\\
0.72 2.86355\\
0.73 3.24466\\
0.74 3.65461\\
0.75 4.09361\\
0.76 4.5618\\
0.77 5.05925\\
0.78 5.58599\\
0.79 6.14199\\
0.8 6.72719\\
0.81 7.34148\\
0.82 7.98472\\
0.83 8.65675\\
0.84 9.35735\\
0.85 10.0863\\
0.86 10.8433\\
0.87 11.6282\\
0.88 12.4406\\
0.89 13.2801\\
0.9 14.1466\\
0.91 15.0395\\
0.92 15.9587\\
0.93 16.9035\\
0.94 17.8739\\
0.95 18.8692\\
0.96 19.8891\\
0.97 20.9332\\
0.98 22.0012\\
0.99 23.0925\\
1 24.2068\\
1.01 25.3437\\
1.02 26.5027\\
1.03 27.6835\\
1.04 28.8855\\
1.05 30.1085\\
1.06 31.3519\\
1.07 32.6154\\
1.08 33.8985\\
1.09 35.2009\\
1.1 36.5221\\
1.11 37.8618\\
1.12 39.2195\\
1.13 40.5949\\
1.14 41.9876\\
1.15 43.3971\\
1.16 44.8231\\
1.17 46.2653\\
1.18 47.7233\\
1.19 49.1966\\
1.2 50.685\\
1.21 52.188\\
1.22 53.7054\\
1.23 55.2368\\
1.24 56.7819\\
1.25 58.3403\\
1.26 59.9116\\
1.27 61.4957\\
1.28 63.0921\\
1.29 64.7005\\
1.3 66.3207\\
1.31 67.9524\\
1.32 69.5951\\
1.33 71.2487\\
1.34 72.9129\\
1.35 74.5873\\
1.36 76.2718\\
1.37 77.966\\
1.38 79.6696\\
1.39 81.3824\\
1.4 83.1042\\
1.41 84.8346\\
1.42 86.5735\\
1.43 88.3205\\
1.44 90.0756\\
1.45 91.8383\\
1.46 93.6084\\
1.47 95.3859\\
1.48 97.1703\\
1.49 98.9616\\
1.5 100.759\\
};
\addlegendentry{$\SI{600.0}{\nano\meter}$}
\addplot [color=color2, solid, mark=triangle, mark options={solid, rotate=180}, mark phase=1, ]
  table[row sep=crcr, x expr=\thisrowno{0}*1.000000e+00, y expr=\thisrowno{1}*1.000000e-03]{
0.1 5.05275e-07\\
0.11 7.57912e-07\\
0.12 8.84231e-07\\
0.13 1.01055e-06\\
0.14 1.38951e-06\\
0.15 1.76846e-06\\
0.16 2.27374e-06\\
0.17 2.77901e-06\\
0.18 3.66324e-06\\
0.19 4.92643e-06\\
0.2 6.31594e-06\\
0.21 8.33703e-06\\
0.22 1.09897e-05\\
0.23 1.41477e-05\\
0.24 1.86952e-05\\
0.25 2.45058e-05\\
0.26 3.23376e-05\\
0.27 4.25694e-05\\
0.28 5.55802e-05\\
0.29 7.31385e-05\\
0.3 9.65075e-05\\
0.31 0.00012695\\
0.32 0.000167499\\
0.33 0.000220552\\
0.34 0.000290912\\
0.35 0.000383883\\
0.36 0.000507043\\
0.37 0.000669615\\
0.38 0.000885242\\
0.39 0.00117097\\
0.4 0.00154905\\
0.41 0.00205066\\
0.42 0.00271547\\
0.43 0.0035973\\
0.44 0.00476651\\
0.45 0.0063172\\
0.46 0.00837329\\
0.47 0.0110981\\
0.48 0.0147067\\
0.49 0.0194806\\
0.5 0.0257853\\
0.51 0.0340942\\
0.52 0.0450114\\
0.53 0.0593003\\
0.54 0.0779067\\
0.55 0.101981\\
0.56 0.132889\\
0.57 0.172202\\
0.58 0.221672\\
0.59 0.283183\\
0.6 0.358692\\
0.61 0.450155\\
0.62 0.559464\\
0.63 0.688395\\
0.64 0.838573\\
0.65 1.01145\\
0.66 1.2083\\
0.67 1.43024\\
0.68 1.67821\\
0.69 1.95302\\
0.7 2.25533\\
0.71 2.58571\\
0.72 2.94461\\
0.73 3.3324\\
0.74 3.74936\\
0.75 4.1957\\
0.76 4.67156\\
0.77 5.17703\\
0.78 5.71214\\
0.79 6.27685\\
0.8 6.87113\\
0.81 7.49484\\
0.82 8.14786\\
0.83 8.83001\\
0.84 9.54107\\
0.85 10.2808\\
0.86 11.049\\
0.87 11.8453\\
0.88 12.6694\\
0.89 13.521\\
0.9 14.3997\\
0.91 15.3053\\
0.92 16.2373\\
0.93 17.1953\\
0.94 18.179\\
0.95 19.1879\\
0.96 20.2217\\
0.97 21.2799\\
0.98 22.3621\\
0.99 23.4679\\
1 24.5969\\
1.01 25.7486\\
1.02 26.9227\\
1.03 28.1186\\
1.04 29.336\\
1.05 30.5744\\
1.06 31.8334\\
1.07 33.1127\\
1.08 34.4117\\
1.09 35.73\\
1.1 37.0673\\
1.11 38.4232\\
1.12 39.7972\\
1.13 41.1889\\
1.14 42.598\\
1.15 44.024\\
1.16 45.4666\\
1.17 46.9254\\
1.18 48.4\\
1.19 49.89\\
1.2 51.3952\\
1.21 52.915\\
1.22 54.4493\\
1.23 55.9975\\
1.24 57.5594\\
1.25 59.1347\\
1.26 60.7229\\
1.27 62.3239\\
1.28 63.9372\\
1.29 65.5625\\
1.3 67.1996\\
1.31 68.8481\\
1.32 70.5077\\
1.33 72.1782\\
1.34 73.8592\\
1.35 75.5504\\
1.36 77.2516\\
1.37 78.9625\\
1.38 80.6828\\
1.39 82.4123\\
1.4 84.1507\\
1.41 85.8977\\
1.42 87.6531\\
1.43 89.4166\\
1.44 91.188\\
1.45 92.9671\\
1.46 94.7535\\
1.47 96.5472\\
1.48 98.3478\\
1.49 100.155\\
1.5 101.969\\
};
\addlegendentry{$\SI{900.0}{\nano\meter}$}
\addplot [color=color3, solid, mark=triangle, mark options={solid, rotate=0}, mark phase=1, ]
  table[row sep=crcr, x expr=\thisrowno{0}*1.000000e+00, y expr=\thisrowno{1}*1.000000e-03]{
0.1 5.68434e-07\\
0.11 6.63173e-07\\
0.12 9.4739e-07\\
0.13 1.04213e-06\\
0.14 1.42109e-06\\
0.15 1.80004e-06\\
0.16 2.179e-06\\
0.17 3.03165e-06\\
0.18 3.8843e-06\\
0.19 5.11591e-06\\
0.2 6.72647e-06\\
0.21 8.71599e-06\\
0.22 1.14634e-05\\
0.23 1.49688e-05\\
0.24 1.9611e-05\\
0.25 2.56743e-05\\
0.26 3.39166e-05\\
0.27 4.44326e-05\\
0.28 5.83592e-05\\
0.29 7.67386e-05\\
0.3 0.000101181\\
0.31 0.000133108\\
0.32 0.000175457\\
0.33 0.000231258\\
0.34 0.00030506\\
0.35 0.000402451\\
0.36 0.000531581\\
0.37 0.0007023\\
0.38 0.000928443\\
0.39 0.0012281\\
0.4 0.00162496\\
0.41 0.00215095\\
0.42 0.00284842\\
0.43 0.00377327\\
0.44 0.00499919\\
0.45 0.00662491\\
0.46 0.00878013\\
0.47 0.0116351\\
0.48 0.0154144\\
0.49 0.0204118\\
0.5 0.0270077\\
0.51 0.0356935\\
0.52 0.0470956\\
0.53 0.062002\\
0.54 0.0813867\\
0.55 0.10643\\
0.56 0.138526\\
0.57 0.179273\\
0.58 0.230444\\
0.59 0.293941\\
0.6 0.371731\\
0.61 0.465777\\
0.62 0.577977\\
0.63 0.710111\\
0.64 0.86381\\
0.65 1.04054\\
0.66 1.24158\\
0.67 1.46805\\
0.68 1.72093\\
0.69 2.00101\\
0.7 2.30901\\
0.71 2.64547\\
0.72 3.01088\\
0.73 3.4056\\
0.74 3.82992\\
0.75 4.28406\\
0.76 4.76817\\
0.77 5.28232\\
0.78 5.82655\\
0.79 6.40083\\
0.8 7.0051\\
0.81 7.63924\\
0.82 8.3031\\
0.83 8.9965\\
0.84 9.71922\\
0.85 10.471\\
0.86 11.2516\\
0.87 12.0607\\
0.88 12.898\\
0.89 13.7631\\
0.9 14.6557\\
0.91 15.5755\\
0.92 16.522\\
0.93 17.4948\\
0.94 18.4936\\
0.95 19.5179\\
0.96 20.5674\\
0.97 21.6415\\
0.98 22.7398\\
0.99 23.862\\
1 25.0076\\
1.01 26.1762\\
1.02 27.3673\\
1.03 28.5804\\
1.04 29.8152\\
1.05 31.0712\\
1.06 32.348\\
1.07 33.6451\\
1.08 34.9622\\
1.09 36.2987\\
1.1 37.6544\\
1.11 39.0287\\
1.12 40.4212\\
1.13 41.8316\\
1.14 43.2595\\
1.15 44.7044\\
1.16 46.166\\
1.17 47.6438\\
1.18 49.1375\\
1.19 50.6468\\
1.2 52.1712\\
1.21 53.7103\\
1.22 55.2639\\
1.23 56.8316\\
1.24 58.413\\
1.25 60.0077\\
1.26 61.6156\\
1.27 63.2361\\
1.28 64.869\\
1.29 66.514\\
1.3 68.1707\\
1.31 69.8388\\
1.32 71.5181\\
1.33 73.2083\\
1.34 74.9089\\
1.35 76.6199\\
1.36 78.3408\\
1.37 80.0713\\
1.38 81.8113\\
1.39 83.5605\\
1.4 85.3185\\
1.41 87.0851\\
1.42 88.8602\\
1.43 90.6433\\
1.44 92.4343\\
1.45 94.2329\\
1.46 96.0389\\
1.47 97.852\\
1.48 99.6721\\
1.49 101.499\\
1.5 103.332\\
};
\addlegendentry{$\SI{1200.0}{\nano\meter}$}
\end{axis}

\end{tikzpicture}
