\begin{tikzpicture}[font=\normalsize,trim axis left, trim axis right,tight background]
\pgfplotsset{every axis/.append style={very thick},compat=1.5},
\definecolor{color0}{rgb}{0.00000, 0.39216, 0.00000}
\definecolor{color1}{rgb}{0.00000, 0.00000, 0.54510}
\definecolor{color2}{rgb}{0.69020, 0.18824, 0.37647}

\begin{axis}[scale only axis,ytick pos=left,
xlabel={$V_{\mathrm{GS}} ( \si{\volt} )$},
ylabel={$J_{\mathrm{D}} ( \si{\milli\ampere \per\micro\meter} )$},
ymode=log,
% xmin=0,
% xmax=0,
% restrict x to domain=0:1,
log basis x=10,
% ymin=0,
% ymax=0,
% restrict y to domain=0:1,
log basis y=10,
xlabel shift = -5 pt,
 ylabel shift = -5 pt,
xmajorgrids,
enlargelimits=false,
scaled ticks=true,
ymajorgrids,
x tick style={color=black},
y tick style={color=black},
x grid style={white!69.01960784313725!black},
y grid style={white!69.01960784313725!black},
/tikz/mark repeat=2,
legend style={at={(0.02,0.98)}, anchor=north west,legend cell align=left, align=left},
]
\addplot [color=color0, solid, mark=x, mark options={solid}, mark phase=1, ]
  table[row sep=crcr, x expr=\thisrowno{0}*1.000000e+00, y expr=\thisrowno{1}*1.000000e-03]{
0.1 9.74459e-07\\
0.11 9.74459e-07\\
0.12 9.74459e-07\\
0.13 9.74459e-07\\
0.14 9.74459e-07\\
0.15 1.94892e-06\\
0.16 1.94892e-06\\
0.17 2.92338e-06\\
0.18 3.2482e-06\\
0.19 4.22265e-06\\
0.2 6.17157e-06\\
0.21 6.82121e-06\\
0.22 9.41977e-06\\
0.23 1.23431e-05\\
0.24 1.55913e-05\\
0.25 2.04636e-05\\
0.26 2.696e-05\\
0.27 3.47557e-05\\
0.28 4.64492e-05\\
0.29 6.07413e-05\\
0.3 7.86063e-05\\
0.31 0.000103942\\
0.32 0.000136099\\
0.33 0.0001793\\
0.34 0.000235819\\
0.35 0.000309878\\
0.36 0.000408623\\
0.37 0.0005392\\
0.38 0.00071103\\
0.39 0.000939053\\
0.4 0.00124016\\
0.41 0.00163969\\
0.42 0.00216947\\
0.43 0.0028714\\
0.44 0.00380201\\
0.45 0.00503763\\
0.46 0.00667667\\
0.47 0.00885166\\
0.48 0.0117377\\
0.49 0.015565\\
0.5 0.0206374\\
0.51 0.0273521\\
0.52 0.0362255\\
0.53 0.0479226\\
0.54 0.0632904\\
0.55 0.0833867\\
0.56 0.10951\\
0.57 0.14321\\
0.58 0.186277\\
0.59 0.240708\\
0.6 0.308647\\
0.61 0.392292\\
0.62 0.493811\\
0.63 0.615256\\
0.64 0.7585\\
0.65 0.925202\\
0.66 1.11679\\
0.67 1.33447\\
0.68 1.57924\\
0.69 1.85191\\
0.7 2.15315\\
0.71 2.48348\\
0.72 2.84332\\
0.73 3.23297\\
0.74 3.65268\\
0.75 4.1026\\
0.76 4.58284\\
0.77 5.09344\\
0.78 5.63439\\
0.79 6.20564\\
0.8 6.80711\\
0.81 7.43866\\
0.82 8.10013\\
0.83 8.79134\\
0.84 9.51205\\
0.85 10.262\\
0.86 11.041\\
0.87 11.8486\\
0.88 12.6847\\
0.89 13.5487\\
0.9 14.4405\\
0.91 15.3596\\
0.92 16.3057\\
0.93 17.2784\\
0.94 18.2772\\
0.95 19.3018\\
0.96 20.3518\\
0.97 21.4267\\
0.98 22.5261\\
0.99 23.6497\\
1 24.7969\\
1.01 25.9673\\
1.02 27.1605\\
1.03 28.3761\\
1.04 29.6137\\
1.05 30.8728\\
1.06 32.153\\
1.07 33.4538\\
1.08 34.7749\\
1.09 36.1158\\
1.1 37.4761\\
1.11 38.8554\\
1.12 40.2533\\
1.13 41.6694\\
1.14 43.1033\\
1.15 44.5545\\
1.16 46.0228\\
1.17 47.5078\\
1.18 49.0089\\
1.19 50.526\\
1.2 52.0585\\
1.21 53.6062\\
1.22 55.1687\\
1.23 56.7456\\
1.24 58.3367\\
1.25 59.9415\\
1.26 61.5597\\
1.27 63.191\\
1.28 64.8351\\
1.29 66.4916\\
1.3 68.1602\\
1.31 69.8407\\
1.32 71.5327\\
1.33 73.236\\
1.34 74.9501\\
1.35 76.675\\
1.36 78.4102\\
1.37 80.1554\\
1.38 81.9105\\
1.39 83.6752\\
1.4 85.4491\\
1.41 87.232\\
1.42 89.0237\\
1.43 90.824\\
1.44 92.6325\\
1.45 94.449\\
1.46 96.2733\\
1.47 98.1052\\
1.48 99.9444\\
1.49 101.791\\
1.5 103.644\\
};
\addlegendentry{mos\_tt}
\addplot [color=color1, solid, mark=+, mark options={solid}, mark phase=1, ]
  table[row sep=crcr, x expr=\thisrowno{0}*1.000000e+00, y expr=\thisrowno{1}*1.000000e-03]{
0.1 4.22265e-06\\
0.11 5.19711e-06\\
0.12 6.49639e-06\\
0.13 7.79567e-06\\
0.14 1.0719e-05\\
0.15 1.39672e-05\\
0.16 1.78651e-05\\
0.17 2.30622e-05\\
0.18 3.02082e-05\\
0.19 3.86535e-05\\
0.2 5.00222e-05\\
0.21 6.6588e-05\\
0.22 8.60772e-05\\
0.23 0.000112712\\
0.24 0.000147143\\
0.25 0.000191968\\
0.26 0.00025206\\
0.27 0.000330666\\
0.28 0.000433634\\
0.29 0.000569409\\
0.3 0.000749034\\
0.31 0.000985178\\
0.32 0.00129668\\
0.33 0.00170953\\
0.34 0.00225392\\
0.35 0.00297437\\
0.36 0.00392772\\
0.37 0.00518997\\
0.38 0.00686019\\
0.39 0.00907253\\
0.4 0.0120011\\
0.41 0.0158778\\
0.42 0.0210058\\
0.43 0.0277831\\
0.44 0.0367247\\
0.45 0.0484965\\
0.46 0.0639423\\
0.47 0.0841221\\
0.48 0.110337\\
0.49 0.144144\\
0.5 0.18735\\
0.51 0.241982\\
0.52 0.310223\\
0.53 0.394334\\
0.54 0.496557\\
0.55 0.619032\\
0.56 0.763726\\
0.57 0.932394\\
0.58 1.12656\\
0.59 1.34752\\
0.6 1.59636\\
0.61 1.87398\\
0.62 2.1811\\
0.63 2.51832\\
0.64 2.88613\\
0.65 3.2849\\
0.66 3.71492\\
0.67 4.17641\\
0.68 4.66954\\
0.69 5.1944\\
0.7 5.75104\\
0.71 6.33947\\
0.72 6.95966\\
0.73 7.61153\\
0.74 8.29497\\
0.75 9.00985\\
0.76 9.75599\\
0.77 10.5332\\
0.78 11.3413\\
0.79 12.1799\\
0.8 13.0489\\
0.81 13.948\\
0.82 14.8767\\
0.83 15.8349\\
0.84 16.8222\\
0.85 17.8382\\
0.86 18.8825\\
0.87 19.9549\\
0.88 21.0548\\
0.89 22.182\\
0.9 23.3359\\
0.91 24.5163\\
0.92 25.7226\\
0.93 26.9545\\
0.94 28.2115\\
0.95 29.4933\\
0.96 30.7994\\
0.97 32.1293\\
0.98 33.4827\\
0.99 34.8591\\
1 36.2581\\
1.01 37.6792\\
1.02 39.1221\\
1.03 40.5863\\
1.04 42.0713\\
1.05 43.5769\\
1.06 45.1025\\
1.07 46.6478\\
1.08 48.2123\\
1.09 49.7956\\
1.1 51.3974\\
1.11 53.0172\\
1.12 54.6547\\
1.13 56.3094\\
1.14 57.981\\
1.15 59.6691\\
1.16 61.3733\\
1.17 63.0933\\
1.18 64.8287\\
1.19 66.5791\\
1.2 68.3442\\
1.21 70.1236\\
1.22 71.917\\
1.23 73.7241\\
1.24 75.5444\\
1.25 77.3778\\
1.26 79.2238\\
1.27 81.0821\\
1.28 82.9524\\
1.29 84.8345\\
1.3 86.7279\\
1.31 88.6325\\
1.32 90.5479\\
1.33 92.4738\\
1.34 94.4099\\
1.35 96.356\\
1.36 98.3117\\
1.37 100.277\\
1.38 102.251\\
1.39 104.234\\
1.4 106.226\\
1.41 108.226\\
1.42 110.234\\
1.43 112.25\\
1.44 114.274\\
1.45 116.305\\
1.46 118.343\\
1.47 120.388\\
1.48 122.44\\
1.49 124.498\\
1.5 126.562\\
};
\addlegendentry{mos\_ff}
\addplot [color=color2, solid, mark=triangle, mark options={solid, rotate=180}, mark phase=1, ]
  table[row sep=crcr, x expr=\thisrowno{0}*1.000000e+00, y expr=\thisrowno{1}*1.000000e-03]{
0.1 0\\
0.11 0\\
0.12 0\\
0.13 6.49639e-07\\
0.14 6.49639e-07\\
0.15 9.74459e-07\\
0.16 9.74459e-07\\
0.17 9.74459e-07\\
0.18 9.74459e-07\\
0.19 1.94892e-06\\
0.2 1.94892e-06\\
0.21 2.92338e-06\\
0.22 3.2482e-06\\
0.23 4.22265e-06\\
0.24 5.19711e-06\\
0.25 6.82121e-06\\
0.26 8.44531e-06\\
0.27 1.13687e-05\\
0.28 1.52665e-05\\
0.29 2.01388e-05\\
0.3 2.59856e-05\\
0.31 3.37812e-05\\
0.32 4.48251e-05\\
0.33 5.84675e-05\\
0.34 7.66574e-05\\
0.35 0.000100694\\
0.36 0.000132202\\
0.37 0.000174428\\
0.38 0.000229647\\
0.39 0.000303706\\
0.4 0.000400178\\
0.41 0.000528157\\
0.42 0.000698687\\
0.43 0.000924112\\
0.44 0.0012223\\
0.45 0.00161728\\
0.46 0.00214251\\
0.47 0.00283925\\
0.48 0.00376401\\
0.49 0.00499183\\
0.5 0.00662437\\
0.51 0.00879092\\
0.52 0.0116682\\
0.53 0.0154867\\
0.54 0.020552\\
0.55 0.0272615\\
0.56 0.0361326\\
0.57 0.0478336\\
0.58 0.0632109\\
0.59 0.0833263\\
0.6 0.109476\\
0.61 0.143208\\
0.62 0.186304\\
0.63 0.24075\\
0.64 0.308662\\
0.65 0.392209\\
0.66 0.493518\\
0.67 0.614596\\
0.68 0.757267\\
0.69 0.923137\\
0.7 1.11358\\
0.71 1.32977\\
0.72 1.57264\\
0.73 1.84296\\
0.74 2.14137\\
0.75 2.46835\\
0.76 2.82427\\
0.77 3.2094\\
0.78 3.62395\\
0.79 4.06804\\
0.8 4.54174\\
0.81 5.04504\\
0.82 5.57792\\
0.83 6.14027\\
0.84 6.73198\\
0.85 7.35287\\
0.86 8.00276\\
0.87 8.68141\\
0.88 9.38856\\
0.89 10.1239\\
0.9 10.8872\\
0.91 11.6781\\
0.92 12.4962\\
0.93 13.3412\\
0.94 14.2127\\
0.95 15.1104\\
0.96 16.0337\\
0.97 16.9824\\
0.98 17.9559\\
0.99 18.9539\\
1 19.9759\\
1.01 21.0216\\
1.02 22.0904\\
1.03 23.182\\
1.04 24.2958\\
1.05 25.4315\\
1.06 26.5887\\
1.07 27.7668\\
1.08 28.9655\\
1.09 30.1843\\
1.1 31.4228\\
1.11 32.6806\\
1.12 33.9573\\
1.13 35.2525\\
1.14 36.5656\\
1.15 37.8965\\
1.16 39.2446\\
1.17 40.6095\\
1.18 41.9909\\
1.19 43.3884\\
1.2 44.8017\\
1.21 46.2303\\
1.22 47.6738\\
1.23 49.1321\\
1.24 50.6046\\
1.25 52.091\\
1.26 53.591\\
1.27 55.1044\\
1.28 56.6306\\
1.29 58.1695\\
1.3 59.7207\\
1.31 61.2839\\
1.32 62.8587\\
1.33 64.445\\
1.34 66.0424\\
1.35 67.6506\\
1.36 69.2693\\
1.37 70.8982\\
1.38 72.5372\\
1.39 74.1858\\
1.4 75.8439\\
1.41 77.5112\\
1.42 79.1875\\
1.43 80.8724\\
1.44 82.5657\\
1.45 84.2673\\
1.46 85.9769\\
1.47 87.6942\\
1.48 89.419\\
1.49 91.1511\\
1.5 92.8902\\
};
\addlegendentry{mos\_sf}
\end{axis}

\end{tikzpicture}
