\begin{tikzpicture}[font=\normalsize,trim axis left, trim axis right,tight background]
\pgfplotsset{every axis/.append style={very thick},compat=1.5},
\definecolor{color0}{rgb}{0.00000, 0.39216, 0.00000}
\definecolor{color1}{rgb}{0.00000, 0.00000, 0.54510}
\definecolor{color2}{rgb}{0.69020, 0.18824, 0.37647}

\begin{axis}[scale only axis,ytick pos=left,
xlabel={$-V_{\mathrm{GS}} ( \si{\volt} )$},
ylabel={$-J_{\mathrm{D}} ( \si{\milli\ampere\per\micro\meter} )$},
ymode=log,
xmin=0.1,
xmax=1,
restrict x to domain=0.02:5,
log basis x=10,
ymin=1e-06,
ymax=0.5,
restrict y to domain=-6.69897:0.39794,
log basis y=10,
xlabel shift = -5 pt,
 ylabel shift = -5 pt,
xmajorgrids,
enlargelimits=false,
scaled ticks=true,
ymajorgrids,
x tick style={color=black},
y tick style={color=black},
x grid style={white!69.01960784313725!black},
y grid style={white!69.01960784313725!black},
/tikz/mark repeat=2,
legend style={at={(0.02,0.98)}, anchor=north west,legend cell align=left, align=left},
]
\addplot [color=color0, solid, mark=x, mark options={solid}, mark phase=1, ]
  table[row sep=crcr, x expr=\thisrowno{0}*1.000000e+00, y expr=\thisrowno{1}*1.000000e-03]{
0.1 0.000135125\\
0.11 0.0001793\\
0.12 0.000239067\\
0.13 0.000318323\\
0.14 0.000425514\\
0.15 0.000567785\\
0.16 0.000758778\\
0.17 0.00101539\\
0.18 0.00135969\\
0.19 0.00181899\\
0.2 0.00243615\\
0.21 0.00326249\\
0.22 0.00436882\\
0.23 0.0058513\\
0.24 0.00783595\\
0.25 0.0104917\\
0.26 0.0140406\\
0.27 0.0187759\\
0.28 0.0250819\\
0.29 0.0334512\\
0.3 0.0445211\\
0.31 0.0590801\\
0.32 0.0781022\\
0.33 0.102739\\
0.34 0.134327\\
0.35 0.174343\\
0.36 0.224366\\
0.37 0.286012\\
0.38 0.360878\\
0.39 0.450489\\
0.4 0.556263\\
0.41 0.679487\\
0.42 0.821323\\
0.43 0.982802\\
0.44 1.16484\\
0.45 1.36825\\
0.46 1.59376\\
0.47 1.84202\\
0.48 2.1136\\
0.49 2.40904\\
0.5 2.72878\\
0.51 3.07327\\
0.52 3.44287\\
0.53 3.83791\\
0.54 4.2587\\
0.55 4.7055\\
0.56 5.17853\\
0.57 5.67798\\
0.58 6.20404\\
0.59 6.75682\\
0.6 7.33645\\
0.61 7.943\\
0.62 8.57653\\
0.63 9.23709\\
0.64 9.92468\\
0.65 10.6393\\
0.66 11.3809\\
0.67 12.1495\\
0.68 12.9449\\
0.69 13.7672\\
0.7 14.6162\\
0.71 15.4918\\
0.72 16.3939\\
0.73 17.3224\\
0.74 18.2771\\
0.75 19.2578\\
0.76 20.2644\\
0.77 21.2967\\
0.78 22.3546\\
0.79 23.4378\\
0.8 24.5461\\
0.81 25.6794\\
0.82 26.8374\\
0.83 28.0198\\
0.84 29.2266\\
0.85 30.4574\\
0.86 31.712\\
0.87 32.9902\\
0.88 34.2917\\
0.89 35.6163\\
0.9 36.9638\\
0.91 38.3339\\
0.92 39.7263\\
0.93 41.1408\\
0.94 42.5772\\
0.95 44.0351\\
0.96 45.5144\\
0.97 47.0147\\
0.98 48.5359\\
0.99 50.0776\\
1 51.6396\\
};
\addlegendentry{$V_{\mathrm{DS}}=\SI{-1.5}{\volt}$}
\addplot [color=color1, solid, mark=+, mark options={solid}, mark phase=1, ]
  table[row sep=crcr, x expr=\thisrowno{0}*1.000000e+00, y expr=\thisrowno{1}*1.000000e-03]{
0.1 0.000128953\\
0.11 0.00017183\\
0.12 0.000229647\\
0.13 0.00030663\\
0.14 0.000410897\\
0.15 0.00054862\\
0.16 0.000734742\\
0.17 0.000982254\\
0.18 0.00131584\\
0.19 0.00176085\\
0.2 0.00235884\\
0.21 0.00315887\\
0.22 0.0042298\\
0.23 0.00566518\\
0.24 0.00758551\\
0.25 0.0101535\\
0.26 0.0135843\\
0.27 0.0181587\\
0.28 0.0242462\\
0.29 0.0323202\\
0.3 0.042985\\
0.31 0.0569967\\
0.32 0.0752795\\
0.33 0.0989339\\
0.34 0.129227\\
0.35 0.167569\\
0.36 0.215468\\
0.37 0.274481\\
0.38 0.346153\\
0.39 0.431975\\
0.4 0.533346\\
0.41 0.651551\\
0.42 0.787758\\
0.43 0.943017\\
0.44 1.11827\\
0.45 1.31436\\
0.46 1.53205\\
0.47 1.77201\\
0.48 2.03485\\
0.49 2.32112\\
0.5 2.63132\\
0.51 2.96588\\
0.52 3.32521\\
0.53 3.70965\\
0.54 4.11951\\
0.55 4.55509\\
0.56 5.0166\\
0.57 5.50427\\
0.58 6.01826\\
0.59 6.55871\\
0.6 7.12575\\
0.61 7.71946\\
0.62 8.3399\\
0.63 8.9871\\
0.64 9.6611\\
0.65 10.3619\\
0.66 11.0894\\
0.67 11.8436\\
0.68 12.6245\\
0.69 13.4319\\
0.7 14.2657\\
0.71 15.1259\\
0.72 16.0123\\
0.73 16.9248\\
0.74 17.8631\\
0.75 18.8272\\
0.76 19.8169\\
0.77 20.8318\\
0.78 21.872\\
0.79 22.9371\\
0.8 24.0269\\
0.81 25.1412\\
0.82 26.2798\\
0.83 27.4423\\
0.84 28.6286\\
0.85 29.8384\\
0.86 31.0714\\
0.87 32.3274\\
0.88 33.606\\
0.89 34.907\\
0.9 36.2301\\
0.91 37.575\\
0.92 38.9414\\
0.93 40.329\\
0.94 41.7374\\
0.95 43.1664\\
0.96 44.6156\\
0.97 46.0847\\
0.98 47.5734\\
0.99 49.0813\\
1 50.6081\\
};
\addlegendentry{$V_{\mathrm{DS}}=\SI{-1.0}{\volt}$}
\addplot [color=color2, solid, mark=triangle, mark options={solid, rotate=180}, mark phase=1, ]
  table[row sep=crcr, x expr=\thisrowno{0}*1.000000e+00, y expr=\thisrowno{1}*1.000000e-03]{
0.1 0.000124568\\
0.11 0.000165983\\
0.12 0.000222014\\
0.13 0.000296885\\
0.14 0.000396767\\
0.15 0.000530593\\
0.16 0.000709893\\
0.17 0.000950422\\
0.18 0.00127167\\
0.19 0.00170238\\
0.2 0.00227926\\
0.21 0.00305233\\
0.22 0.00408753\\
0.23 0.00547272\\
0.24 0.00732533\\
0.25 0.00980175\\
0.26 0.0131066\\
0.27 0.0175086\\
0.28 0.0233573\\
0.29 0.0311018\\
0.3 0.041311\\
0.31 0.054693\\
0.32 0.0721099\\
0.33 0.0945832\\
0.34 0.123287\\
0.35 0.159527\\
0.36 0.204705\\
0.37 0.260271\\
0.38 0.327683\\
0.39 0.408357\\
0.4 0.503643\\
0.41 0.614801\\
0.42 0.74299\\
0.43 0.889269\\
0.44 1.0546\\
0.45 1.23985\\
0.46 1.44581\\
0.47 1.67318\\
0.48 1.9226\\
0.49 2.19464\\
0.5 2.48983\\
0.51 2.80862\\
0.52 3.15142\\
0.53 3.51859\\
0.54 3.91045\\
0.55 4.32726\\
0.56 4.76927\\
0.57 5.23666\\
0.58 5.72959\\
0.59 6.24819\\
0.6 6.79252\\
0.61 7.36265\\
0.62 7.95858\\
0.63 8.58031\\
0.64 9.22777\\
0.65 9.90091\\
0.66 10.5996\\
0.67 11.3237\\
0.68 12.073\\
0.69 12.8473\\
0.7 13.6465\\
0.71 14.4702\\
0.72 15.3181\\
0.73 16.1899\\
0.74 17.0852\\
0.75 18.0037\\
0.76 18.9449\\
0.77 19.9085\\
0.78 20.8938\\
0.79 21.9004\\
0.8 22.9277\\
0.81 23.9753\\
0.82 25.0424\\
0.83 26.1285\\
0.84 27.2329\\
0.85 28.355\\
0.86 29.494\\
0.87 30.6493\\
0.88 31.8202\\
0.89 33.0058\\
0.9 34.2054\\
0.91 35.4183\\
0.92 36.6436\\
0.93 37.8807\\
0.94 39.1287\\
0.95 40.3867\\
0.96 41.6541\\
0.97 42.9301\\
0.98 44.2137\\
0.99 45.5044\\
1 46.8013\\
};
\addlegendentry{$V_{\mathrm{DS}}=\SI{-0.5}{\volt}$}
\end{axis}

\end{tikzpicture}
