\begin{tikzpicture}[font=\normalsize,trim axis left, trim axis right,tight background]
\pgfplotsset{every axis/.append style={very thick},compat=1.5},
\definecolor{color0}{rgb}{0.00000, 0.39216, 0.00000}
\definecolor{color1}{rgb}{0.00000, 0.00000, 0.54510}
\definecolor{color2}{rgb}{0.69020, 0.18824, 0.37647}
\definecolor{color3}{rgb}{1.00000, 0.00000, 0.00000}
\definecolor{color4}{rgb}{0.58039, 0.40392, 0.74118}

\begin{axis}[scale only axis,ytick pos=left,
xlabel={$V_{\mathrm{GS}} ( \si{\volt} )$},
ylabel={$J_{\mathrm{D}} ( \si{\milli\ampere\per\micro\meter} )$},
ymode=log,
xmin=0.1,
xmax=1.5,
restrict x to domain=0.02:7.5,
log basis x=10,
ymin=1e-06,
ymax=1,
restrict y to domain=-6.69897:0.69897,
log basis y=10,
xlabel shift = -5 pt,
 ylabel shift = -5 pt,
xmajorgrids,
enlargelimits=false,
scaled ticks=true,
ymajorgrids,
x tick style={color=black},
y tick style={color=black},
x grid style={white!69.01960784313725!black},
y grid style={white!69.01960784313725!black},
/tikz/mark repeat=2,
legend style={at={(0.98,0.02)}, anchor=south east,legend cell align=left, align=left},
]
\addplot [color=color0, solid, mark=x, mark options={solid}, mark phase=1, ]
  table[row sep=crcr, x expr=\thisrowno{0}*1.000000e+00, y expr=\thisrowno{1}*1.000000e-03]{
0.1 0.000155913\\
0.11 0.000222826\\
0.12 0.000318973\\
0.13 0.000456047\\
0.14 0.000654187\\
0.15 0.00093613\\
0.16 0.0013428\\
0.17 0.00192683\\
0.18 0.00276356\\
0.19 0.0039654\\
0.2 0.00569019\\
0.21 0.00816466\\
0.22 0.0117149\\
0.23 0.0168036\\
0.24 0.0240919\\
0.25 0.0345114\\
0.26 0.0493739\\
0.27 0.0705008\\
0.28 0.100395\\
0.29 0.142413\\
0.3 0.200948\\
0.31 0.281544\\
0.32 0.390871\\
0.33 0.536507\\
0.34 0.726489\\
0.35 0.968728\\
0.36 1.27046\\
0.37 1.63795\\
0.38 2.0765\\
0.39 2.59065\\
0.4 3.18456\\
0.41 3.86222\\
0.42 4.62761\\
0.43 5.48473\\
0.44 6.4376\\
0.45 7.49018\\
0.46 8.64629\\
0.47 9.9096\\
0.48 11.2835\\
0.49 12.7713\\
0.5 14.3757\\
0.51 16.0995\\
0.52 17.9448\\
0.53 19.9137\\
0.54 22.0077\\
0.55 24.2283\\
0.56 26.5764\\
0.57 29.0526\\
0.58 31.6575\\
0.59 34.3912\\
0.6 37.2533\\
0.61 40.2436\\
0.62 43.3612\\
0.63 46.6053\\
0.64 49.9746\\
0.65 53.4679\\
0.66 57.0834\\
0.67 60.8195\\
0.68 64.6742\\
0.69 68.6454\\
0.7 72.7309\\
0.71 76.9284\\
0.72 81.2354\\
0.73 85.6494\\
0.74 90.1678\\
0.75 94.788\\
0.76 99.5071\\
0.77 104.322\\
0.78 109.231\\
0.79 114.231\\
0.8 119.318\\
0.81 124.49\\
0.82 129.744\\
0.83 135.078\\
0.84 140.488\\
0.85 145.972\\
0.86 151.527\\
0.87 157.15\\
0.88 162.839\\
0.89 168.591\\
0.9 174.403\\
0.91 180.273\\
0.92 186.199\\
0.93 192.178\\
0.94 198.208\\
0.95 204.286\\
0.96 210.41\\
0.97 216.578\\
0.98 222.787\\
0.99 229.037\\
1 235.324\\
1.01 241.648\\
1.02 248.005\\
1.03 254.394\\
1.04 260.813\\
1.05 267.261\\
1.06 273.735\\
1.07 280.235\\
1.08 286.759\\
1.09 293.305\\
1.1 299.871\\
1.11 306.457\\
1.12 313.061\\
1.13 319.681\\
1.14 326.317\\
1.15 332.967\\
1.16 339.63\\
1.17 346.305\\
1.18 352.99\\
1.19 359.685\\
1.2 366.388\\
1.21 373.1\\
1.22 379.818\\
1.23 386.541\\
1.24 393.27\\
1.25 400.002\\
1.26 406.738\\
1.27 413.476\\
1.28 420.216\\
1.29 426.956\\
1.3 433.697\\
1.31 440.437\\
1.32 447.176\\
1.33 453.914\\
1.34 460.649\\
1.35 467.38\\
1.36 474.109\\
1.37 480.833\\
1.38 487.552\\
1.39 494.266\\
1.4 500.975\\
1.41 507.677\\
1.42 514.373\\
1.43 521.062\\
1.44 527.743\\
1.45 534.416\\
1.46 541.081\\
1.47 547.737\\
1.48 554.384\\
1.49 561.021\\
1.5 567.649\\
};
\addlegendentry{$T=\SI{250.0}{\kelvin}$}
\addplot [color=color1, solid, mark=+, mark options={solid}, mark phase=1, ]
  table[row sep=crcr, x expr=\thisrowno{0}*1.000000e+00, y expr=\thisrowno{1}*1.000000e-03]{
0.1 0.00116675\\
0.11 0.00160071\\
0.12 0.00219643\\
0.13 0.00301562\\
0.14 0.00414015\\
0.15 0.00568369\\
0.16 0.00780541\\
0.17 0.010719\\
0.18 0.0147195\\
0.19 0.0202077\\
0.2 0.0277337\\
0.21 0.0380403\\
0.22 0.0521283\\
0.23 0.0713414\\
0.24 0.0974595\\
0.25 0.132802\\
0.26 0.180357\\
0.27 0.243854\\
0.28 0.327835\\
0.29 0.437598\\
0.3 0.579061\\
0.31 0.758486\\
0.32 0.982118\\
0.33 1.25584\\
0.34 1.58493\\
0.35 1.97401\\
0.36 2.42712\\
0.37 2.9479\\
0.38 3.53983\\
0.39 4.20634\\
0.4 4.95086\\
0.41 5.77687\\
0.42 6.68786\\
0.43 7.68723\\
0.44 8.77831\\
0.45 9.96425\\
0.46 11.248\\
0.47 12.6324\\
0.48 14.1198\\
0.49 15.7126\\
0.5 17.4127\\
0.51 19.2219\\
0.52 21.1415\\
0.53 23.1728\\
0.54 25.3167\\
0.55 27.5739\\
0.56 29.9447\\
0.57 32.4293\\
0.58 35.0277\\
0.59 37.7396\\
0.6 40.5645\\
0.61 43.5016\\
0.62 46.5502\\
0.63 49.709\\
0.64 52.977\\
0.65 56.3526\\
0.66 59.8344\\
0.67 63.4208\\
0.68 67.1098\\
0.69 70.8997\\
0.7 74.7886\\
0.71 78.7742\\
0.72 82.8546\\
0.73 87.0275\\
0.74 91.2908\\
0.75 95.6421\\
0.76 100.079\\
0.77 104.6\\
0.78 109.201\\
0.79 113.881\\
0.8 118.638\\
0.81 123.469\\
0.82 128.371\\
0.83 133.343\\
0.84 138.381\\
0.85 143.485\\
0.86 148.651\\
0.87 153.877\\
0.88 159.162\\
0.89 164.502\\
0.9 169.897\\
0.91 175.343\\
0.92 180.838\\
0.93 186.382\\
0.94 191.971\\
0.95 197.604\\
0.96 203.28\\
0.97 208.995\\
0.98 214.749\\
0.99 220.539\\
1 226.364\\
1.01 232.223\\
1.02 238.114\\
1.03 244.035\\
1.04 249.984\\
1.05 255.961\\
1.06 261.963\\
1.07 267.99\\
1.08 274.04\\
1.09 280.112\\
1.1 286.205\\
1.11 292.316\\
1.12 298.446\\
1.13 304.593\\
1.14 310.756\\
1.15 316.933\\
1.16 323.125\\
1.17 329.329\\
1.18 335.545\\
1.19 341.771\\
1.2 348.008\\
1.21 354.253\\
1.22 360.507\\
1.23 366.768\\
1.24 373.036\\
1.25 379.309\\
1.26 385.587\\
1.27 391.869\\
1.28 398.155\\
1.29 404.444\\
1.3 410.735\\
1.31 417.027\\
1.32 423.321\\
1.33 429.614\\
1.34 435.907\\
1.35 442.2\\
1.36 448.491\\
1.37 454.78\\
1.38 461.066\\
1.39 467.35\\
1.4 473.63\\
1.41 479.906\\
1.42 486.178\\
1.43 492.444\\
1.44 498.706\\
1.45 504.962\\
1.46 511.212\\
1.47 517.455\\
1.48 523.691\\
1.49 529.92\\
1.5 536.142\\
};
\addlegendentry{$T=\SI{287.5}{\kelvin}$}
\addplot [color=color2, solid, mark=triangle, mark options={solid, rotate=180}, mark phase=1, ]
  table[row sep=crcr, x expr=\thisrowno{0}*1.000000e+00, y expr=\thisrowno{1}*1.000000e-03]{
0.1 0.00608907\\
0.11 0.00807371\\
0.12 0.0107048\\
0.13 0.0141959\\
0.14 0.0188226\\
0.15 0.0249526\\
0.16 0.0330705\\
0.17 0.0438084\\
0.18 0.0579933\\
0.19 0.0766931\\
0.2 0.101285\\
0.21 0.133515\\
0.22 0.175581\\
0.23 0.230178\\
0.24 0.300564\\
0.25 0.390545\\
0.26 0.504441\\
0.27 0.646955\\
0.28 0.822993\\
0.29 1.03743\\
0.3 1.2949\\
0.31 1.59964\\
0.32 1.95542\\
0.33 2.3656\\
0.34 2.83321\\
0.35 3.36113\\
0.36 3.95218\\
0.37 4.60918\\
0.38 5.33499\\
0.39 6.1325\\
0.4 7.0046\\
0.41 7.95411\\
0.42 8.9838\\
0.43 10.0963\\
0.44 11.294\\
0.45 12.5793\\
0.46 13.9542\\
0.47 15.4207\\
0.48 16.9804\\
0.49 18.6348\\
0.5 20.3851\\
0.51 22.2323\\
0.52 24.1774\\
0.53 26.2209\\
0.54 28.3632\\
0.55 30.6047\\
0.56 32.9452\\
0.57 35.3848\\
0.58 37.9231\\
0.59 40.5596\\
0.6 43.2938\\
0.61 46.1249\\
0.62 49.0519\\
0.63 52.074\\
0.64 55.1899\\
0.65 58.3985\\
0.66 61.6984\\
0.67 65.0881\\
0.68 68.5662\\
0.69 72.1312\\
0.7 75.7813\\
0.71 79.5149\\
0.72 83.3303\\
0.73 87.2256\\
0.74 91.1991\\
0.75 95.2489\\
0.76 99.3732\\
0.77 103.57\\
0.78 107.838\\
0.79 112.174\\
0.8 116.577\\
0.81 121.046\\
0.82 125.577\\
0.83 130.17\\
0.84 134.822\\
0.85 139.532\\
0.86 144.297\\
0.87 149.116\\
0.88 153.988\\
0.89 158.91\\
0.9 163.881\\
0.91 168.898\\
0.92 173.961\\
0.93 179.068\\
0.94 184.217\\
0.95 189.406\\
0.96 194.635\\
0.97 199.901\\
0.98 205.202\\
0.99 210.539\\
1 215.908\\
1.01 221.31\\
1.02 226.741\\
1.03 232.202\\
1.04 237.691\\
1.05 243.206\\
1.06 248.747\\
1.07 254.311\\
1.08 259.899\\
1.09 265.509\\
1.1 271.14\\
1.11 276.79\\
1.12 282.459\\
1.13 288.146\\
1.14 293.849\\
1.15 299.568\\
1.16 305.302\\
1.17 311.05\\
1.18 316.811\\
1.19 322.584\\
1.2 328.368\\
1.21 334.163\\
1.22 339.968\\
1.23 345.782\\
1.24 351.604\\
1.25 357.433\\
1.26 363.27\\
1.27 369.112\\
1.28 374.96\\
1.29 380.812\\
1.3 386.669\\
1.31 392.53\\
1.32 398.393\\
1.33 404.259\\
1.34 410.126\\
1.35 415.995\\
1.36 421.864\\
1.37 427.734\\
1.38 433.603\\
1.39 439.472\\
1.4 445.339\\
1.41 451.205\\
1.42 457.068\\
1.43 462.929\\
1.44 468.786\\
1.45 474.641\\
1.46 480.491\\
1.47 486.337\\
1.48 492.178\\
1.49 498.014\\
1.5 503.845\\
};
\addlegendentry{$T=\SI{325.0}{\kelvin}$}
\addplot [color=color3, solid, mark=triangle, mark options={solid, rotate=0}, mark phase=1, ]
  table[row sep=crcr, x expr=\thisrowno{0}*1.000000e+00, y expr=\thisrowno{1}*1.000000e-03]{
0.1 0.0242705\\
0.11 0.0312678\\
0.12 0.0402685\\
0.13 0.0518405\\
0.14 0.0666984\\
0.15 0.0857426\\
0.16 0.110103\\
0.17 0.141177\\
0.18 0.180678\\
0.19 0.230675\\
0.2 0.293626\\
0.21 0.372383\\
0.22 0.470172\\
0.23 0.590539\\
0.24 0.737244\\
0.25 0.914134\\
0.26 1.12499\\
0.27 1.37341\\
0.28 1.66267\\
0.29 1.99576\\
0.3 2.37536\\
0.31 2.80392\\
0.32 3.28376\\
0.33 3.81714\\
0.34 4.40632\\
0.35 5.0536\\
0.36 5.76131\\
0.37 6.53178\\
0.38 7.36735\\
0.39 8.2703\\
0.4 9.24285\\
0.41 10.2871\\
0.42 11.4051\\
0.43 12.5986\\
0.44 13.8694\\
0.45 15.2191\\
0.46 16.6489\\
0.47 18.1601\\
0.48 19.7538\\
0.49 21.4309\\
0.5 23.1921\\
0.51 25.0379\\
0.52 26.9688\\
0.53 28.9851\\
0.54 31.0869\\
0.55 33.2742\\
0.56 35.5469\\
0.57 37.9046\\
0.58 40.3471\\
0.59 42.8738\\
0.6 45.4842\\
0.61 48.1775\\
0.62 50.953\\
0.63 53.8098\\
0.64 56.747\\
0.65 59.7634\\
0.66 62.8581\\
0.67 66.0299\\
0.68 69.2776\\
0.69 72.5999\\
0.7 75.9955\\
0.71 79.463\\
0.72 83.0012\\
0.73 86.6086\\
0.74 90.2838\\
0.75 94.0253\\
0.76 97.8316\\
0.77 101.701\\
0.78 105.633\\
0.79 109.625\\
0.8 113.676\\
0.81 117.784\\
0.82 121.949\\
0.83 126.168\\
0.84 130.439\\
0.85 134.763\\
0.86 139.136\\
0.87 143.558\\
0.88 148.027\\
0.89 152.542\\
0.9 157.101\\
0.91 161.703\\
0.92 166.347\\
0.93 171.032\\
0.94 175.755\\
0.95 180.516\\
0.96 185.313\\
0.97 190.146\\
0.98 195.013\\
0.99 199.912\\
1 204.843\\
1.01 209.805\\
1.02 214.795\\
1.03 219.814\\
1.04 224.86\\
1.05 229.932\\
1.06 235.029\\
1.07 240.151\\
1.08 245.295\\
1.09 250.461\\
1.1 255.648\\
1.11 260.855\\
1.12 266.081\\
1.13 271.326\\
1.14 276.588\\
1.15 281.867\\
1.16 287.162\\
1.17 292.471\\
1.18 297.795\\
1.19 303.132\\
1.2 308.481\\
1.21 313.843\\
1.22 319.216\\
1.23 324.599\\
1.24 329.992\\
1.25 335.394\\
1.26 340.804\\
1.27 346.223\\
1.28 351.648\\
1.29 357.08\\
1.3 362.518\\
1.31 367.961\\
1.32 373.41\\
1.33 378.862\\
1.34 384.318\\
1.35 389.778\\
1.36 395.24\\
1.37 400.704\\
1.38 406.17\\
1.39 411.637\\
1.4 417.105\\
1.41 422.573\\
1.42 428.041\\
1.43 433.508\\
1.44 438.975\\
1.45 444.439\\
1.46 449.902\\
1.47 455.363\\
1.48 460.821\\
1.49 466.276\\
1.5 471.727\\
};
\addlegendentry{$T=\SI{362.5}{\kelvin}$}
\addplot [color=color4, solid, mark=asterisk, mark options={solid}, mark phase=1, ]
  table[row sep=crcr, x expr=\thisrowno{0}*1.000000e+00, y expr=\thisrowno{1}*1.000000e-03]{
0.1 0.0784439\\
0.11 0.0984612\\
0.12 0.123467\\
0.13 0.154629\\
0.14 0.193348\\
0.15 0.241282\\
0.16 0.300368\\
0.17 0.372819\\
0.18 0.461124\\
0.19 0.568004\\
0.2 0.696357\\
0.21 0.849182\\
0.22 1.02947\\
0.23 1.24014\\
0.24 1.48392\\
0.25 1.76335\\
0.26 2.08071\\
0.27 2.43811\\
0.28 2.83748\\
0.29 3.28067\\
0.3 3.76948\\
0.31 4.30571\\
0.32 4.89119\\
0.33 5.52776\\
0.34 6.21729\\
0.35 6.96166\\
0.36 7.76272\\
0.37 8.62228\\
0.38 9.5421\\
0.39 10.5239\\
0.4 11.5691\\
0.41 12.6793\\
0.42 13.8559\\
0.43 15.1001\\
0.44 16.4129\\
0.45 17.7955\\
0.46 19.2486\\
0.47 20.773\\
0.48 22.3694\\
0.49 24.0383\\
0.5 25.78\\
0.51 27.5948\\
0.52 29.483\\
0.53 31.4445\\
0.54 33.4795\\
0.55 35.5877\\
0.56 37.7689\\
0.57 40.0229\\
0.58 42.3493\\
0.59 44.7477\\
0.6 47.2175\\
0.61 49.7581\\
0.62 52.3689\\
0.63 55.0491\\
0.64 57.7981\\
0.65 60.615\\
0.66 63.4988\\
0.67 66.4489\\
0.68 69.4641\\
0.69 72.5435\\
0.7 75.686\\
0.71 78.8908\\
0.72 82.1566\\
0.73 85.4824\\
0.74 88.8671\\
0.75 92.3096\\
0.76 95.8087\\
0.77 99.3633\\
0.78 102.972\\
0.79 106.634\\
0.8 110.349\\
0.81 114.113\\
0.82 117.928\\
0.83 121.791\\
0.84 125.702\\
0.85 129.659\\
0.86 133.66\\
0.87 137.706\\
0.88 141.794\\
0.89 145.924\\
0.9 150.095\\
0.91 154.305\\
0.92 158.553\\
0.93 162.838\\
0.94 167.16\\
0.95 171.517\\
0.96 175.907\\
0.97 180.331\\
0.98 184.787\\
0.99 189.274\\
1 193.79\\
1.01 198.336\\
1.02 202.91\\
1.03 207.511\\
1.04 212.139\\
1.05 216.791\\
1.06 221.469\\
1.07 226.169\\
1.08 230.893\\
1.09 235.638\\
1.1 240.404\\
1.11 245.191\\
1.12 249.997\\
1.13 254.822\\
1.14 259.664\\
1.15 264.524\\
1.16 269.4\\
1.17 274.291\\
1.18 279.198\\
1.19 284.119\\
1.2 289.053\\
1.21 294.001\\
1.22 298.96\\
1.23 303.932\\
1.24 308.914\\
1.25 313.906\\
1.26 318.909\\
1.27 323.92\\
1.28 328.94\\
1.29 333.968\\
1.3 339.004\\
1.31 344.046\\
1.32 349.095\\
1.33 354.149\\
1.34 359.209\\
1.35 364.274\\
1.36 369.343\\
1.37 374.416\\
1.38 379.492\\
1.39 384.571\\
1.4 389.653\\
1.41 394.736\\
1.42 399.821\\
1.43 404.908\\
1.44 409.995\\
1.45 415.082\\
1.46 420.169\\
1.47 425.256\\
1.48 430.342\\
1.49 435.426\\
1.5 440.509\\
};
\addlegendentry{$T=\SI{400.0}{\kelvin}$}
\end{axis}

\end{tikzpicture}
