\begin{tikzpicture}[font=\normalsize,trim axis left, trim axis right,tight background]
\pgfplotsset{every axis/.append style={very thick},compat=1.5},
\definecolor{color0}{rgb}{0.00000, 0.39216, 0.00000}
\definecolor{color1}{rgb}{0.00000, 0.00000, 0.54510}
\definecolor{color2}{rgb}{0.69020, 0.18824, 0.37647}
\definecolor{color3}{rgb}{1.00000, 0.00000, 0.00000}
\definecolor{color4}{rgb}{0.58039, 0.40392, 0.74118}
\definecolor{color5}{rgb}{0.87059, 0.72157, 0.52941}
\definecolor{color6}{rgb}{0.00000, 1.00000, 0.00000}
\definecolor{color7}{rgb}{0.00000, 1.00000, 1.00000}
\definecolor{color8}{rgb}{1.00000, 0.00000, 1.00000}
\definecolor{color9}{rgb}{0.39216, 0.58431, 0.92941}

\begin{axis}[scale only axis,ytick pos=left,
xlabel={$V_{\mathrm{DS}} ( \si{\volt} )$},
ylabel={$J_{\mathrm{D}} ( \si{\milli\ampere\per\micro\meter} )$},
% xmin=0,
% xmax=0,
% restrict x to domain=0:1,
log basis x=10,
% ymin=0,
% ymax=0,
% restrict y to domain=0:1,
log basis y=10,
xlabel shift = -5 pt,
 ylabel shift = -5 pt,
xmajorgrids,
enlargelimits=false,
scaled ticks=true,
ymajorgrids,
x tick style={color=black},
y tick style={color=black},
x grid style={white!69.01960784313725!black},
y grid style={white!69.01960784313725!black},
/tikz/mark repeat=2,
legend style={at={(1.02,1.00)}, anchor=north west,legend cell align=left, align=left},
]
\addplot [color=color0, solid, mark=x, mark options={solid}, mark phase=1, ]
  table[row sep=crcr, x expr=\thisrowno{0}*1.000000e+00, y expr=\thisrowno{1}*1.000000e-03]{
0 -2.87849e-06\\
0.05 18.0285\\
0.1 31.3877\\
0.15 40.4856\\
0.2 46.4431\\
0.25 50.3949\\
0.3 53.1617\\
0.35 55.2453\\
0.4 56.9281\\
0.45 58.365\\
0.5 59.6411\\
0.55 60.805\\
0.6 61.8851\\
0.65 62.8994\\
0.7 63.8596\\
0.75 64.7738\\
0.8 65.6479\\
0.85 66.4865\\
0.9 67.2931\\
0.95 68.0707\\
1 68.8217\\
1.05 69.5481\\
1.1 70.2518\\
1.15 70.9344\\
1.2 71.5973\\
1.25 72.2416\\
1.3 72.8686\\
1.35 73.4794\\
1.4 74.0748\\
1.45 74.6558\\
1.5 75.2233\\
1.55 75.7782\\
1.6 76.3212\\
1.65 76.8532\\
1.7 77.3751\\
1.75 77.8877\\
1.8 78.3921\\
1.85 78.8891\\
1.9 79.3799\\
1.95 79.8655\\
2 80.3472\\
};
\addlegendentry{$V_{\mathrm{BE}}=\SI{0.70}{\volt}$}
\addplot [color=color1, solid, mark=+, mark options={solid}, mark phase=1, ]
  table[row sep=crcr, x expr=\thisrowno{0}*1.000000e+00, y expr=\thisrowno{1}*1.000000e-03]{
0 -3.58816e-06\\
0.05 20.0494\\
0.1 35.3271\\
0.15 46.0884\\
0.2 53.3553\\
0.25 58.2694\\
0.3 61.7233\\
0.35 64.3006\\
0.4 66.3495\\
0.45 68.0696\\
0.5 69.5749\\
0.55 70.9317\\
0.6 72.1797\\
0.65 73.3437\\
0.7 74.4399\\
0.75 75.4793\\
0.8 76.4701\\
0.85 77.4182\\
0.9 78.3281\\
0.95 79.2038\\
1 80.0481\\
1.05 80.8637\\
1.1 81.6529\\
1.15 82.4175\\
1.2 83.1593\\
1.25 83.8797\\
1.3 84.5802\\
1.35 85.2619\\
1.4 85.926\\
1.45 86.5736\\
1.5 87.2057\\
1.55 87.8233\\
1.6 88.4273\\
1.65 89.0188\\
1.7 89.5987\\
1.75 90.168\\
1.8 90.7278\\
1.85 91.2793\\
1.9 91.8235\\
1.95 92.3618\\
2 92.8956\\
};
\addlegendentry{$V_{\mathrm{BE}}=\SI{0.73}{\volt}$}
\addplot [color=color2, solid, mark=triangle, mark options={solid, rotate=180}, mark phase=1, ]
  table[row sep=crcr, x expr=\thisrowno{0}*1.000000e+00, y expr=\thisrowno{1}*1.000000e-03]{
0 -4.44188e-06\\
0.05 22.0705\\
0.1 39.2986\\
0.15 51.7963\\
0.2 60.4766\\
0.25 66.4649\\
0.3 70.7062\\
0.35 73.8582\\
0.4 76.3346\\
0.45 78.3836\\
0.5 80.1518\\
0.55 81.7267\\
0.6 83.1615\\
0.65 84.4898\\
0.7 85.7335\\
0.75 86.9076\\
0.8 88.0227\\
0.85 89.0866\\
0.9 90.1054\\
0.95 91.0837\\
1 92.0255\\
1.05 92.934\\
1.1 93.8118\\
1.15 94.6613\\
1.2 95.4846\\
1.25 96.2833\\
1.3 97.0593\\
1.35 97.8139\\
1.4 98.5484\\
1.45 99.2641\\
1.5 99.9623\\
1.55 100.644\\
1.6 101.31\\
1.65 101.962\\
1.7 102.601\\
1.75 103.228\\
1.8 103.844\\
1.85 104.451\\
1.9 105.049\\
1.95 105.641\\
2 106.227\\
};
\addlegendentry{$V_{\mathrm{BE}}=\SI{0.76}{\volt}$}
\addplot [color=color3, solid, mark=triangle, mark options={solid, rotate=0}, mark phase=1, ]
  table[row sep=crcr, x expr=\thisrowno{0}*1.000000e+00, y expr=\thisrowno{1}*1.000000e-03]{
0 -5.46466e-06\\
0.05 24.0812\\
0.1 43.2765\\
0.15 57.5652\\
0.2 67.7464\\
0.25 74.91\\
0.3 80.0354\\
0.35 83.8439\\
0.4 86.8126\\
0.45 89.2397\\
0.5 91.3079\\
0.55 93.1287\\
0.6 94.7714\\
0.65 96.2803\\
0.7 97.6842\\
0.75 99.0029\\
0.8 100.25\\
0.85 101.437\\
0.9 102.57\\
0.95 103.656\\
1 104.699\\
1.05 105.704\\
1.1 106.673\\
1.15 107.61\\
1.2 108.517\\
1.25 109.396\\
1.3 110.249\\
1.35 111.078\\
1.4 111.885\\
1.45 112.67\\
1.5 113.435\\
1.55 114.182\\
1.6 114.911\\
1.65 115.625\\
1.7 116.323\\
1.75 117.008\\
1.8 117.681\\
1.85 118.344\\
1.9 118.997\\
1.95 119.642\\
2 120.281\\
};
\addlegendentry{$V_{\mathrm{BE}}=\SI{0.79}{\volt}$}
\addplot [color=color4, solid, mark=asterisk, mark options={solid}, mark phase=1, ]
  table[row sep=crcr, x expr=\thisrowno{0}*1.000000e+00, y expr=\thisrowno{1}*1.000000e-03]{
0 -6.68523e-06\\
0.05 26.0724\\
0.1 47.2389\\
0.15 63.3569\\
0.2 75.1101\\
0.25 83.5385\\
0.3 89.6384\\
0.35 94.184\\
0.4 97.711\\
0.45 100.568\\
0.5 102.976\\
0.55 105.073\\
0.6 106.947\\
0.65 108.655\\
0.7 110.233\\
0.75 111.707\\
0.8 113.096\\
0.85 114.412\\
0.9 115.665\\
0.95 116.863\\
1 118.011\\
1.05 119.116\\
1.1 120.179\\
1.15 121.206\\
1.2 122.199\\
1.25 123.16\\
1.3 124.093\\
1.35 124.997\\
1.4 125.877\\
1.45 126.732\\
1.5 127.565\\
1.55 128.378\\
1.6 129.171\\
1.65 129.946\\
1.7 130.705\\
1.75 131.449\\
1.8 132.179\\
1.85 132.897\\
1.9 133.605\\
1.95 134.304\\
2 134.996\\
};
\addlegendentry{$V_{\mathrm{BE}}=\SI{0.82}{\volt}$}
\addplot [color=color5, solid, mark=triangle, mark options={solid, rotate=270}, mark phase=1, ]
  table[row sep=crcr, x expr=\thisrowno{0}*1.000000e+00, y expr=\thisrowno{1}*1.000000e-03]{
0 -8.13642e-06\\
0.05 28.0366\\
0.1 51.1674\\
0.15 69.1387\\
0.2 82.5198\\
0.25 92.2899\\
0.3 99.4474\\
0.35 104.807\\
0.4 108.959\\
0.45 112.3\\
0.5 115.09\\
0.55 117.496\\
0.6 119.626\\
0.65 121.551\\
0.7 123.318\\
0.75 124.96\\
0.8 126.499\\
0.85 127.953\\
0.9 129.332\\
0.95 130.647\\
1 131.905\\
1.05 133.112\\
1.1 134.273\\
1.15 135.393\\
1.2 136.473\\
1.25 137.518\\
1.3 138.531\\
1.35 139.512\\
1.4 140.466\\
1.45 141.392\\
1.5 142.294\\
1.55 143.173\\
1.6 144.03\\
1.65 144.868\\
1.7 145.687\\
1.75 146.489\\
1.8 147.276\\
1.85 148.05\\
1.9 148.813\\
1.95 149.565\\
2 150.31\\
};
\addlegendentry{$V_{\mathrm{BE}}=\SI{0.85}{\volt}$}
\addplot [color=color6, solid, mark=triangle, mark options={solid, rotate=90}, mark phase=1, ]
  table[row sep=crcr, x expr=\thisrowno{0}*1.000000e+00, y expr=\thisrowno{1}*1.000000e-03]{
0 -9.85565e-06\\
0.05 29.9675\\
0.1 55.0466\\
0.15 74.8824\\
0.2 89.9334\\
0.25 101.11\\
0.3 109.4\\
0.35 115.647\\
0.4 120.488\\
0.45 124.366\\
0.5 127.582\\
0.55 130.331\\
0.6 132.744\\
0.65 134.908\\
0.7 136.881\\
0.75 138.703\\
0.8 140.403\\
0.85 142.002\\
0.9 143.514\\
0.95 144.951\\
1 146.323\\
1.05 147.637\\
1.1 148.898\\
1.15 150.112\\
1.2 151.282\\
1.25 152.413\\
1.3 153.507\\
1.35 154.566\\
1.4 155.594\\
1.45 156.593\\
1.5 157.564\\
1.55 158.51\\
1.6 159.432\\
1.65 160.331\\
1.7 161.211\\
1.75 162.072\\
1.8 162.916\\
1.85 163.746\\
1.9 164.563\\
1.95 165.369\\
2 166.166\\
};
\addlegendentry{$V_{\mathrm{BE}}=\SI{0.88}{\volt}$}
\addplot [color=color7, solid, mark=*, mark options={solid, fill}, mark phase=1, ]
  table[row sep=crcr, x expr=\thisrowno{0}*1.000000e+00, y expr=\thisrowno{1}*1.000000e-03]{
0 -1.18854e-05\\
0.05 31.86\\
0.1 58.8636\\
0.15 80.5648\\
0.2 97.3151\\
0.25 109.951\\
0.3 119.438\\
0.35 126.641\\
0.4 132.233\\
0.45 136.702\\
0.5 140.387\\
0.55 143.515\\
0.6 146.24\\
0.65 148.665\\
0.7 150.862\\
0.75 152.878\\
0.8 154.75\\
0.85 156.503\\
0.9 158.154\\
0.95 159.72\\
1 161.21\\
1.05 162.634\\
1.1 163.999\\
1.15 165.309\\
1.2 166.572\\
1.25 167.789\\
1.3 168.966\\
1.35 170.105\\
1.4 171.208\\
1.45 172.279\\
1.5 173.32\\
1.55 174.333\\
1.6 175.319\\
1.65 176.282\\
1.7 177.222\\
1.75 178.141\\
1.8 179.042\\
1.85 179.927\\
1.9 180.798\\
1.95 181.657\\
2 182.507\\
};
\addlegendentry{$V_{\mathrm{BE}}=\SI{0.91}{\volt}$}
\addplot [color=color8, solid, mark=square, mark options={solid}, mark phase=1, ]
  table[row sep=crcr, x expr=\thisrowno{0}*1.000000e+00, y expr=\thisrowno{1}*1.000000e-03]{
0 -1.42737e-05\\
0.05 33.71\\
0.1 62.6081\\
0.15 86.1661\\
0.2 104.634\\
0.25 118.772\\
0.3 129.513\\
0.35 137.731\\
0.4 144.133\\
0.45 149.247\\
0.5 153.445\\
0.55 156.989\\
0.6 160.054\\
0.65 162.764\\
0.7 165.202\\
0.75 167.428\\
0.8 169.484\\
0.85 171.4\\
0.9 173.199\\
0.95 174.899\\
1 176.513\\
1.05 178.051\\
1.1 179.522\\
1.15 180.932\\
1.2 182.288\\
1.25 183.595\\
1.3 184.855\\
1.35 186.074\\
1.4 187.255\\
1.45 188.399\\
1.5 189.51\\
1.55 190.59\\
1.6 191.641\\
1.65 192.666\\
1.7 193.666\\
1.75 194.644\\
1.8 195.602\\
1.85 196.543\\
1.9 197.467\\
1.95 198.379\\
2 199.28\\
};
\addlegendentry{$V_{\mathrm{BE}}=\SI{0.94}{\volt}$}
\addplot [color=color9, solid, mark=o, mark options={solid, fill}, mark phase=1, ]
  table[row sep=crcr, x expr=\thisrowno{0}*1.000000e+00, y expr=\thisrowno{1}*1.000000e-03]{
0 -1.70747e-05\\
0.05 35.5142\\
0.1 66.2717\\
0.15 91.6702\\
0.2 111.864\\
0.25 127.535\\
0.3 139.578\\
0.35 148.868\\
0.4 156.135\\
0.45 161.942\\
0.5 166.698\\
0.55 170.694\\
0.6 174.13\\
0.65 177.149\\
0.7 179.849\\
0.75 182.3\\
0.8 184.552\\
0.85 186.642\\
0.9 188.597\\
0.95 190.438\\
1 192.18\\
1.05 193.837\\
1.1 195.417\\
1.15 196.93\\
1.2 198.383\\
1.25 199.78\\
1.3 201.126\\
1.35 202.426\\
1.4 203.684\\
1.45 204.902\\
1.5 206.084\\
1.55 207.231\\
1.6 208.348\\
1.65 209.435\\
1.7 210.496\\
1.75 211.532\\
1.8 212.547\\
1.85 213.542\\
1.9 214.52\\
1.95 215.484\\
2 216.436\\
};
\addlegendentry{$V_{\mathrm{BE}}=\SI{0.97}{\volt}$}
\addplot [color=color0, solid, mark=x, mark options={solid}, mark phase=1, ]
  table[row sep=crcr, x expr=\thisrowno{0}*1.000000e+00, y expr=\thisrowno{1}*1.000000e-03]{
0 -2.03493e-05\\
0.05 37.2702\\
0.1 69.8476\\
0.15 97.064\\
0.2 118.984\\
0.25 136.21\\
0.3 149.595\\
0.35 160.004\\
0.4 168.187\\
0.45 174.736\\
0.5 180.092\\
0.55 184.576\\
0.6 188.414\\
0.65 191.767\\
0.7 194.749\\
0.75 197.442\\
0.8 199.904\\
0.85 202.178\\
0.9 204.298\\
0.95 206.287\\
1 208.163\\
1.05 209.943\\
1.1 211.638\\
1.15 213.257\\
1.2 214.808\\
1.25 216.297\\
1.3 217.731\\
1.35 219.114\\
1.4 220.45\\
1.45 221.743\\
1.5 222.995\\
1.55 224.211\\
1.6 225.393\\
1.65 226.543\\
1.7 227.664\\
1.75 228.759\\
1.8 229.83\\
1.85 230.879\\
1.9 231.911\\
1.95 232.926\\
2 233.929\\
};
\addlegendentry{$V_{\mathrm{BE}}=\SI{1.00}{\volt}$}
\end{axis}

\end{tikzpicture}
