\begin{tikzpicture}[font=\normalsize,trim axis left, trim axis right,tight background]
\pgfplotsset{every axis/.append style={very thick},compat=1.5},
\definecolor{color0}{rgb}{0.00000, 0.39216, 0.00000}
\definecolor{color1}{rgb}{0.00000, 0.00000, 0.54510}
\definecolor{color2}{rgb}{0.69020, 0.18824, 0.37647}
\definecolor{color3}{rgb}{1.00000, 0.00000, 0.00000}
\definecolor{color4}{rgb}{0.58039, 0.40392, 0.74118}
\definecolor{color5}{rgb}{0.87059, 0.72157, 0.52941}
\definecolor{color6}{rgb}{0.00000, 1.00000, 0.00000}
\definecolor{color7}{rgb}{0.00000, 1.00000, 1.00000}
\definecolor{color8}{rgb}{1.00000, 0.00000, 1.00000}
\definecolor{color9}{rgb}{0.39216, 0.58431, 0.92941}

\begin{axis}[scale only axis,ytick pos=left,
xlabel={$-V_{\mathrm{DS}} ( \si{\volt} )$},
ylabel={$-J_{\mathrm{D}} ( \si{\milli\ampere\per\micro\meter} )$},
% xmin=0,
% xmax=0,
% restrict x to domain=0:1,
log basis x=10,
% ymin=0,
% ymax=0,
% restrict y to domain=0:1,
log basis y=10,
xlabel shift = -5 pt,
 ylabel shift = -5 pt,
xmajorgrids,
enlargelimits=false,
scaled ticks=true,
ymajorgrids,
x tick style={color=black},
y tick style={color=black},
x grid style={white!69.01960784313725!black},
y grid style={white!69.01960784313725!black},
/tikz/mark repeat=2,
legend style={at={(1.02,1.00)}, anchor=north west,legend cell align=left, align=left},
]
\addplot [color=color0, solid, mark=x, mark options={solid}, mark phase=1, ]
  table[row sep=crcr, x expr=\thisrowno{0}*1.000000e+00, y expr=\thisrowno{1}*1.000000e-03]{
-0 0\\
0.05 2.15398\\
0.1 3.74875\\
0.15 4.8348\\
0.2 5.53743\\
0.25 5.98405\\
0.3 6.27087\\
0.35 6.46065\\
0.4 6.59158\\
0.45 6.68626\\
0.5 6.75806\\
0.55 6.81501\\
0.6 6.86202\\
0.65 6.90219\\
0.7 6.93751\\
0.75 6.96931\\
0.8 6.9985\\
0.85 7.0257\\
0.9 7.05137\\
0.95 7.07583\\
1 7.09933\\
1.05 7.12204\\
1.1 7.14412\\
1.15 7.16567\\
1.2 7.18677\\
1.25 7.2075\\
1.3 7.22791\\
1.35 7.24805\\
1.4 7.26795\\
1.45 7.28765\\
1.5 7.30717\\
1.55 7.32653\\
1.6 7.34576\\
1.65 7.36487\\
1.7 7.38387\\
1.75 7.40278\\
1.8 7.4216\\
1.85 7.44035\\
1.9 7.45902\\
1.95 7.47765\\
2 7.49621\\
};
\addlegendentry{$V_{\mathrm{BE}}=\SI{-1.00}{\volt}$}
\addplot [color=color1, solid, mark=+, mark options={solid}, mark phase=1, ]
  table[row sep=crcr, x expr=\thisrowno{0}*1.000000e+00, y expr=\thisrowno{1}*1.000000e-03]{
-0 0\\
0.05 1.96744\\
0.1 3.38412\\
0.15 4.31557\\
0.2 4.89713\\
0.25 5.25582\\
0.3 5.48131\\
0.35 5.62882\\
0.4 5.73038\\
0.45 5.80422\\
0.5 5.86084\\
0.55 5.90637\\
0.6 5.94453\\
0.65 5.97762\\
0.7 6.00712\\
0.75 6.03403\\
0.8 6.05899\\
0.85 6.08247\\
0.9 6.10481\\
0.95 6.12625\\
1 6.14697\\
1.05 6.1671\\
1.1 6.18674\\
1.15 6.20599\\
1.2 6.2249\\
1.25 6.24353\\
1.3 6.26192\\
1.35 6.2801\\
1.4 6.2981\\
1.45 6.31595\\
1.5 6.33366\\
1.55 6.35125\\
1.6 6.36874\\
1.65 6.38614\\
1.7 6.40346\\
1.75 6.42071\\
1.8 6.4379\\
1.85 6.45503\\
1.9 6.47211\\
1.95 6.48915\\
2 6.50615\\
};
\addlegendentry{$V_{\mathrm{BE}}=\SI{-0.97}{\volt}$}
\addplot [color=color2, solid, mark=triangle, mark options={solid, rotate=180}, mark phase=1, ]
  table[row sep=crcr, x expr=\thisrowno{0}*1.000000e+00, y expr=\thisrowno{1}*1.000000e-03]{
-0 0\\
0.05 1.78219\\
0.1 3.0251\\
0.15 3.81033\\
0.2 4.28177\\
0.25 4.56352\\
0.3 4.7371\\
0.35 4.84973\\
0.4 4.92744\\
0.45 4.98453\\
0.5 5.02894\\
0.55 5.06526\\
0.6 5.09622\\
0.65 5.1235\\
0.7 5.14817\\
0.75 5.17094\\
0.8 5.1923\\
0.85 5.21257\\
0.9 5.232\\
0.95 5.25076\\
1 5.26899\\
1.05 5.28678\\
1.1 5.30422\\
1.15 5.32135\\
1.2 5.33824\\
1.25 5.35492\\
1.3 5.37141\\
1.35 5.38775\\
1.4 5.40396\\
1.45 5.42005\\
1.5 5.43605\\
1.55 5.45195\\
1.6 5.46778\\
1.65 5.48355\\
1.7 5.49925\\
1.75 5.5149\\
1.8 5.53051\\
1.85 5.54608\\
1.9 5.56161\\
1.95 5.57712\\
2 5.59259\\
};
\addlegendentry{$V_{\mathrm{BE}}=\SI{-0.94}{\volt}$}
\addplot [color=color3, solid, mark=triangle, mark options={solid, rotate=0}, mark phase=1, ]
  table[row sep=crcr, x expr=\thisrowno{0}*1.000000e+00, y expr=\thisrowno{1}*1.000000e-03]{
-0 0\\
0.05 1.59901\\
0.1 2.67369\\
0.15 3.32246\\
0.2 3.6956\\
0.25 3.91152\\
0.3 4.0422\\
0.35 4.12669\\
0.4 4.18543\\
0.45 4.22923\\
0.5 4.26395\\
0.55 4.2929\\
0.6 4.31803\\
0.65 4.34053\\
0.7 4.36117\\
0.75 4.38044\\
0.8 4.3987\\
0.85 4.41617\\
0.9 4.43304\\
0.95 4.44942\\
1 4.4654\\
1.05 4.48108\\
1.1 4.49648\\
1.15 4.51168\\
1.2 4.52668\\
1.25 4.54154\\
1.3 4.55626\\
1.35 4.57086\\
1.4 4.58538\\
1.45 4.5998\\
1.5 4.61416\\
1.55 4.62845\\
1.6 4.64269\\
1.65 4.65688\\
1.7 4.67103\\
1.75 4.68515\\
1.8 4.69923\\
1.85 4.71329\\
1.9 4.72732\\
1.95 4.74134\\
2 4.75534\\
};
\addlegendentry{$V_{\mathrm{BE}}=\SI{-0.91}{\volt}$}
\addplot [color=color4, solid, mark=asterisk, mark options={solid}, mark phase=1, ]
  table[row sep=crcr, x expr=\thisrowno{0}*1.000000e+00, y expr=\thisrowno{1}*1.000000e-03]{
-0 0\\
0.05 1.41878\\
0.1 2.33215\\
0.15 2.85565\\
0.2 3.14298\\
0.25 3.30403\\
0.3 3.40018\\
0.35 3.46249\\
0.4 3.50643\\
0.45 3.53986\\
0.5 3.56695\\
0.55 3.59002\\
0.6 3.61042\\
0.65 3.62899\\
0.7 3.64625\\
0.75 3.66254\\
0.8 3.67812\\
0.85 3.69314\\
0.9 3.70772\\
0.95 3.72196\\
1 3.73592\\
1.05 3.74965\\
1.1 3.76319\\
1.15 3.77658\\
1.2 3.78984\\
1.25 3.80298\\
1.3 3.81603\\
1.35 3.829\\
1.4 3.84191\\
1.45 3.85475\\
1.5 3.86755\\
1.55 3.8803\\
1.6 3.89301\\
1.65 3.9057\\
1.7 3.91835\\
1.75 3.93098\\
1.8 3.9436\\
1.85 3.95619\\
1.9 3.96878\\
1.95 3.98135\\
2 3.99392\\
};
\addlegendentry{$V_{\mathrm{BE}}=\SI{-0.88}{\volt}$}
\addplot [color=color5, solid, mark=triangle, mark options={solid, rotate=270}, mark phase=1, ]
  table[row sep=crcr, x expr=\thisrowno{0}*1.000000e+00, y expr=\thisrowno{1}*1.000000e-03]{
-0 0\\
0.05 1.24253\\
0.1 2.00305\\
0.15 2.41383\\
0.2 2.62825\\
0.25 2.74492\\
0.3 2.81404\\
0.35 2.85932\\
0.4 2.89191\\
0.45 2.91734\\
0.5 2.93846\\
0.55 2.95684\\
0.6 2.9734\\
0.65 2.9887\\
0.7 3.00311\\
0.75 3.01685\\
0.8 3.03008\\
0.85 3.04294\\
0.9 3.05548\\
0.95 3.06779\\
1 3.0799\\
1.05 3.09185\\
1.1 3.10367\\
1.15 3.11538\\
1.2 3.12699\\
1.25 3.13854\\
1.3 3.15001\\
1.35 3.16144\\
1.4 3.17281\\
1.45 3.18415\\
1.5 3.19546\\
1.55 3.20673\\
1.6 3.21799\\
1.65 3.22922\\
1.7 3.24044\\
1.75 3.25165\\
1.8 3.26285\\
1.85 3.27403\\
1.9 3.28522\\
1.95 3.2964\\
2 3.30757\\
};
\addlegendentry{$V_{\mathrm{BE}}=\SI{-0.85}{\volt}$}
\addplot [color=color6, solid, mark=triangle, mark options={solid, rotate=90}, mark phase=1, ]
  table[row sep=crcr, x expr=\thisrowno{0}*1.000000e+00, y expr=\thisrowno{1}*1.000000e-03]{
-0 0\\
0.05 1.07145\\
0.1 1.68928\\
0.15 2.00112\\
0.2 2.15556\\
0.25 2.23751\\
0.3 2.28615\\
0.35 2.31862\\
0.4 2.34266\\
0.45 2.36196\\
0.5 2.37841\\
0.55 2.39305\\
0.6 2.40647\\
0.65 2.41905\\
0.7 2.43103\\
0.75 2.44255\\
0.8 2.45373\\
0.85 2.46466\\
0.9 2.47537\\
0.95 2.48592\\
1 2.49634\\
1.05 2.50664\\
1.1 2.51686\\
1.15 2.52701\\
1.2 2.53709\\
1.25 2.54713\\
1.3 2.55712\\
1.35 2.56708\\
1.4 2.57701\\
1.45 2.58692\\
1.5 2.59681\\
1.55 2.60667\\
1.6 2.61654\\
1.65 2.62638\\
1.7 2.63623\\
1.75 2.64606\\
1.8 2.6559\\
1.85 2.66573\\
1.9 2.67556\\
1.95 2.6854\\
2 2.69523\\
};
\addlegendentry{$V_{\mathrm{BE}}=\SI{-0.82}{\volt}$}
\addplot [color=color7, solid, mark=*, mark options={solid, fill}, mark phase=1, ]
  table[row sep=crcr, x expr=\thisrowno{0}*1.000000e+00, y expr=\thisrowno{1}*1.000000e-03]{
-0 0\\
0.05 0.906889\\
0.1 1.39403\\
0.15 1.62168\\
0.2 1.72864\\
0.25 1.78445\\
0.3 1.81801\\
0.35 1.84109\\
0.4 1.85875\\
0.45 1.87338\\
0.5 1.88617\\
0.55 1.89779\\
0.6 1.90863\\
0.65 1.91891\\
0.7 1.9288\\
0.75 1.93839\\
0.8 1.94776\\
0.85 1.95695\\
0.9 1.96601\\
0.95 1.97496\\
1 1.98382\\
1.05 1.99261\\
1.1 2.00135\\
1.15 2.01004\\
1.2 2.01869\\
1.25 2.02731\\
1.3 2.03591\\
1.35 2.04448\\
1.4 2.05304\\
1.45 2.06159\\
1.5 2.07013\\
1.55 2.07866\\
1.6 2.08719\\
1.65 2.09572\\
1.7 2.10424\\
1.75 2.11277\\
1.8 2.1213\\
1.85 2.12983\\
1.9 2.13836\\
1.95 2.14691\\
2 2.15546\\
};
\addlegendentry{$V_{\mathrm{BE}}=\SI{-0.79}{\volt}$}
\addplot [color=color8, solid, mark=square, mark options={solid}, mark phase=1, ]
  table[row sep=crcr, x expr=\thisrowno{0}*1.000000e+00, y expr=\thisrowno{1}*1.000000e-03]{
-0 0\\
0.05 0.750445\\
0.1 1.12077\\
0.15 1.27953\\
0.2 1.35054\\
0.25 1.38746\\
0.3 1.41026\\
0.35 1.42654\\
0.4 1.43948\\
0.45 1.45053\\
0.5 1.46045\\
0.55 1.46963\\
0.6 1.47831\\
0.65 1.48665\\
0.7 1.49473\\
0.75 1.50262\\
0.8 1.51037\\
0.85 1.51802\\
0.9 1.52557\\
0.95 1.53306\\
1 1.5405\\
1.05 1.54789\\
1.1 1.55525\\
1.15 1.56258\\
1.2 1.56989\\
1.25 1.57719\\
1.3 1.58447\\
1.35 1.59175\\
1.4 1.59902\\
1.45 1.60628\\
1.5 1.61354\\
1.55 1.62081\\
1.6 1.62807\\
1.65 1.63534\\
1.7 1.64261\\
1.75 1.64989\\
1.8 1.65717\\
1.85 1.66447\\
1.9 1.67177\\
1.95 1.67907\\
2 1.68639\\
};
\addlegendentry{$V_{\mathrm{BE}}=\SI{-0.76}{\volt}$}
\addplot [color=color9, solid, mark=o, mark options={solid, fill}, mark phase=1, ]
  table[row sep=crcr, x expr=\thisrowno{0}*1.000000e+00, y expr=\thisrowno{1}*1.000000e-03]{
-0 0\\
0.05 0.603951\\
0.1 0.873188\\
0.15 0.978241\\
0.2 1.02341\\
0.25 1.04721\\
0.3 1.06251\\
0.35 1.07394\\
0.4 1.08338\\
0.45 1.09169\\
0.5 1.09931\\
0.55 1.10649\\
0.6 1.11337\\
0.65 1.12004\\
0.7 1.12655\\
0.75 1.13295\\
0.8 1.13926\\
0.85 1.14551\\
0.9 1.1517\\
0.95 1.15786\\
1 1.16399\\
1.05 1.17009\\
1.1 1.17618\\
1.15 1.18226\\
1.2 1.18832\\
1.25 1.19438\\
1.3 1.20044\\
1.35 1.2065\\
1.4 1.21255\\
1.45 1.21861\\
1.5 1.22468\\
1.55 1.23074\\
1.6 1.23682\\
1.65 1.2429\\
1.7 1.24899\\
1.75 1.25508\\
1.8 1.26119\\
1.85 1.26731\\
1.9 1.27343\\
1.95 1.27957\\
2 1.28572\\
};
\addlegendentry{$V_{\mathrm{BE}}=\SI{-0.73}{\volt}$}
\addplot [color=color0, solid, mark=x, mark options={solid}, mark phase=1, ]
  table[row sep=crcr, x expr=\thisrowno{0}*1.000000e+00, y expr=\thisrowno{1}*1.000000e-03]{
-0 0\\
0.05 0.469521\\
0.1 0.654927\\
0.15 0.720539\\
0.2 0.748126\\
0.25 0.763159\\
0.3 0.773333\\
0.35 0.781304\\
0.4 0.788137\\
0.45 0.794322\\
0.5 0.80011\\
0.55 0.80564\\
0.6 0.810995\\
0.65 0.816227\\
0.7 0.821371\\
0.75 0.826449\\
0.8 0.831481\\
0.85 0.836476\\
0.9 0.841445\\
0.95 0.846395\\
1 0.851332\\
1.05 0.856257\\
1.1 0.861178\\
1.15 0.866096\\
1.2 0.871013\\
1.25 0.87593\\
1.3 0.880851\\
1.35 0.885776\\
1.4 0.890707\\
1.45 0.895644\\
1.5 0.900587\\
1.55 0.90554\\
1.6 0.9105\\
1.65 0.915472\\
1.7 0.920451\\
1.75 0.925442\\
1.8 0.930444\\
1.85 0.935456\\
1.9 0.940482\\
1.95 0.945518\\
2 0.950569\\
};
\addlegendentry{$V_{\mathrm{BE}}=\SI{-0.70}{\volt}$}
\end{axis}

\end{tikzpicture}
