\begin{tikzpicture}[font=\normalsize,trim axis left, trim axis right,tight background]
\pgfplotsset{every axis/.append style={very thick},compat=1.5},
\definecolor{color0}{rgb}{0.00000, 0.39216, 0.00000}
\definecolor{color1}{rgb}{0.00000, 0.00000, 0.54510}
\definecolor{color2}{rgb}{0.69020, 0.18824, 0.37647}
\definecolor{color3}{rgb}{1.00000, 0.00000, 0.00000}
\definecolor{color4}{rgb}{0.58039, 0.40392, 0.74118}
\definecolor{color5}{rgb}{0.87059, 0.72157, 0.52941}
\definecolor{color6}{rgb}{0.00000, 1.00000, 0.00000}
\definecolor{color7}{rgb}{0.00000, 1.00000, 1.00000}
\definecolor{color8}{rgb}{1.00000, 0.00000, 1.00000}
\definecolor{color9}{rgb}{0.39216, 0.58431, 0.92941}

\begin{axis}[scale only axis,ytick pos=left,
xlabel={$V_{\mathrm{DS}} ( \si{\volt} )$},
ylabel={$J_{\mathrm{D}} ( \si{\milli\ampere\per\micro\meter} )$},
% xmin=0,
% xmax=0,
% restrict x to domain=0:1,
log basis x=10,
% ymin=0,
% ymax=0,
% restrict y to domain=0:1,
log basis y=10,
xlabel shift = -5 pt,
 ylabel shift = -5 pt,
xmajorgrids,
enlargelimits=false,
scaled ticks=true,
ymajorgrids,
x tick style={color=black},
y tick style={color=black},
x grid style={white!69.01960784313725!black},
y grid style={white!69.01960784313725!black},
/tikz/mark repeat=2,
legend style={at={(1.02,1.00)}, anchor=north west,legend cell align=left, align=left},
]
\addplot [color=color0, solid, mark=x, mark options={solid}, mark phase=1, ]
  table[row sep=crcr, x expr=\thisrowno{0}*1.000000e+00, y expr=\thisrowno{1}*1.000000e-03]{
0 -5.04542e-06\\
0.05 16.3167\\
0.1 29.2852\\
0.15 38.7958\\
0.2 45.2268\\
0.25 49.3698\\
0.3 52.0675\\
0.35 53.9471\\
0.4 55.383\\
0.45 56.5725\\
0.5 57.615\\
0.55 58.5609\\
0.6 59.4373\\
0.65 60.2593\\
0.7 61.0367\\
0.75 61.7758\\
0.8 62.4814\\
0.85 63.1572\\
0.9 63.806\\
0.95 64.4302\\
1 65.032\\
1.05 65.6131\\
1.1 66.1749\\
1.15 66.719\\
1.2 67.2465\\
1.25 67.7586\\
1.3 68.2561\\
1.35 68.74\\
1.4 69.2112\\
1.45 69.6705\\
1.5 70.1185\\
1.55 70.556\\
1.6 70.9837\\
1.65 71.4024\\
1.7 71.8126\\
1.75 72.2152\\
1.8 72.611\\
1.85 73.0006\\
1.9 73.3851\\
1.95 73.7652\\
2 74.142\\
};
\addlegendentry{$V_{\mathrm{BE}}=\SI{0.70}{\volt}$}
\addplot [color=color1, solid, mark=+, mark options={solid}, mark phase=1, ]
  table[row sep=crcr, x expr=\thisrowno{0}*1.000000e+00, y expr=\thisrowno{1}*1.000000e-03]{
0 -6.22996e-06\\
0.05 17.8849\\
0.1 32.4075\\
0.15 43.3887\\
0.2 51.0937\\
0.25 56.2255\\
0.3 59.6229\\
0.35 61.9758\\
0.4 63.7349\\
0.45 65.1567\\
0.5 66.3776\\
0.55 67.4693\\
0.6 68.4705\\
0.65 69.4033\\
0.7 70.2811\\
0.75 71.1128\\
0.8 71.9047\\
0.85 72.6613\\
0.9 73.3865\\
0.95 74.0831\\
1 74.7538\\
1.05 75.4005\\
1.1 76.0252\\
1.15 76.6295\\
1.2 77.2149\\
1.25 77.7826\\
1.3 78.3338\\
1.35 78.8695\\
1.4 79.3907\\
1.45 79.8983\\
1.5 80.3932\\
1.55 80.8763\\
1.6 81.3482\\
1.65 81.8098\\
1.7 82.2619\\
1.75 82.7054\\
1.8 83.141\\
1.85 83.5698\\
1.9 83.9926\\
1.95 84.4105\\
2 84.8246\\
};
\addlegendentry{$V_{\mathrm{BE}}=\SI{0.73}{\volt}$}
\addplot [color=color2, solid, mark=triangle, mark options={solid, rotate=180}, mark phase=1, ]
  table[row sep=crcr, x expr=\thisrowno{0}*1.000000e+00, y expr=\thisrowno{1}*1.000000e-03]{
0 -7.64645e-06\\
0.05 19.4394\\
0.1 35.5181\\
0.15 47.9978\\
0.2 57.0418\\
0.25 63.2577\\
0.3 67.4564\\
0.35 70.3693\\
0.4 72.516\\
0.45 74.2143\\
0.5 75.6434\\
0.55 76.9011\\
0.6 78.0415\\
0.65 79.0955\\
0.7 80.0818\\
0.75 81.0124\\
0.8 81.8957\\
0.85 82.7377\\
0.9 83.543\\
0.95 84.3153\\
1 85.0576\\
1.05 85.7727\\
1.1 86.4625\\
1.15 87.1292\\
1.2 87.7743\\
1.25 88.3993\\
1.3 89.0057\\
1.35 89.5946\\
1.4 90.1672\\
1.45 90.7245\\
1.5 91.2674\\
1.55 91.797\\
1.6 92.3141\\
1.65 92.8196\\
1.7 93.3144\\
1.75 93.7994\\
1.8 94.2757\\
1.85 94.7442\\
1.9 95.206\\
1.95 95.6622\\
2 96.114\\
};
\addlegendentry{$V_{\mathrm{BE}}=\SI{0.76}{\volt}$}
\addplot [color=color3, solid, mark=triangle, mark options={solid, rotate=0}, mark phase=1, ]
  table[row sep=crcr, x expr=\thisrowno{0}*1.000000e+00, y expr=\thisrowno{1}*1.000000e-03]{
0 -9.33393e-06\\
0.05 20.9741\\
0.1 38.6022\\
0.15 52.5957\\
0.2 63.0271\\
0.25 70.4073\\
0.3 75.5015\\
0.35 79.0616\\
0.4 81.6649\\
0.45 83.6898\\
0.5 85.3616\\
0.55 86.8092\\
0.6 88.1056\\
0.65 89.2929\\
0.7 90.3967\\
0.75 91.4332\\
0.8 92.4135\\
0.85 93.3453\\
0.9 94.2345\\
0.95 95.0857\\
1 95.9027\\
1.05 96.6884\\
1.1 97.4456\\
1.15 98.1765\\
1.2 98.8831\\
1.25 99.5672\\
1.3 100.23\\
1.35 100.874\\
1.4 101.499\\
1.45 102.107\\
1.5 102.699\\
1.55 103.276\\
1.6 103.839\\
1.65 104.389\\
1.7 104.927\\
1.75 105.454\\
1.8 105.971\\
1.85 106.48\\
1.9 106.981\\
1.95 107.476\\
2 107.966\\
};
\addlegendentry{$V_{\mathrm{BE}}=\SI{0.79}{\volt}$}
\addplot [color=color4, solid, mark=asterisk, mark options={solid}, mark phase=1, ]
  table[row sep=crcr, x expr=\thisrowno{0}*1.000000e+00, y expr=\thisrowno{1}*1.000000e-03]{
0 -1.1337e-05\\
0.05 22.4841\\
0.1 41.6477\\
0.15 57.1596\\
0.2 69.012\\
0.25 77.6219\\
0.3 83.696\\
0.35 87.988\\
0.4 91.1196\\
0.45 93.5254\\
0.5 95.4793\\
0.55 97.1443\\
0.6 98.616\\
0.65 99.9505\\
0.7 101.182\\
0.75 102.332\\
0.8 103.416\\
0.85 104.442\\
0.9 105.419\\
0.95 106.353\\
1 107.247\\
1.05 108.106\\
1.1 108.933\\
1.15 109.73\\
1.2 110.499\\
1.25 111.244\\
1.3 111.965\\
1.35 112.664\\
1.4 113.342\\
1.45 114.002\\
1.5 114.644\\
1.55 115.269\\
1.6 115.879\\
1.65 116.474\\
1.7 117.056\\
1.75 117.626\\
1.8 118.185\\
1.85 118.734\\
1.9 119.275\\
1.95 119.808\\
2 120.337\\
};
\addlegendentry{$V_{\mathrm{BE}}=\SI{0.82}{\volt}$}
\addplot [color=color5, solid, mark=triangle, mark options={solid, rotate=270}, mark phase=1, ]
  table[row sep=crcr, x expr=\thisrowno{0}*1.000000e+00, y expr=\thisrowno{1}*1.000000e-03]{
0 -1.37065e-05\\
0.05 23.9652\\
0.1 44.6444\\
0.15 61.6704\\
0.2 74.9649\\
0.25 84.8556\\
0.3 91.9831\\
0.35 97.0867\\
0.4 100.819\\
0.45 103.663\\
0.5 105.942\\
0.55 107.856\\
0.6 109.525\\
0.65 111.022\\
0.7 112.394\\
0.75 113.666\\
0.8 114.859\\
0.85 115.986\\
0.9 117.055\\
0.95 118.074\\
1 119.049\\
1.05 119.984\\
1.1 120.882\\
1.15 121.747\\
1.2 122.581\\
1.25 123.387\\
1.3 124.167\\
1.35 124.923\\
1.4 125.656\\
1.45 126.368\\
1.5 127.06\\
1.55 127.734\\
1.6 128.391\\
1.65 129.032\\
1.7 129.658\\
1.75 130.271\\
1.8 130.872\\
1.85 131.462\\
1.9 132.042\\
1.95 132.615\\
2 133.182\\
};
\addlegendentry{$V_{\mathrm{BE}}=\SI{0.85}{\volt}$}
\addplot [color=color6, solid, mark=triangle, mark options={solid, rotate=90}, mark phase=1, ]
  table[row sep=crcr, x expr=\thisrowno{0}*1.000000e+00, y expr=\thisrowno{1}*1.000000e-03]{
0 -1.64999e-05\\
0.05 25.414\\
0.1 47.5843\\
0.15 66.1127\\
0.2 80.8596\\
0.25 92.0693\\
0.3 100.312\\
0.35 106.3\\
0.4 110.703\\
0.45 114.045\\
0.5 116.695\\
0.55 118.892\\
0.6 120.784\\
0.65 122.463\\
0.7 123.987\\
0.75 125.392\\
0.8 126.702\\
0.85 127.934\\
0.9 129.101\\
0.95 130.209\\
1 131.267\\
1.05 132.28\\
1.1 133.252\\
1.15 134.186\\
1.2 135.087\\
1.25 135.956\\
1.3 136.796\\
1.35 137.61\\
1.4 138.398\\
1.45 139.163\\
1.5 139.907\\
1.55 140.63\\
1.6 141.334\\
1.65 142.021\\
1.7 142.692\\
1.75 143.348\\
1.8 143.991\\
1.85 144.622\\
1.9 145.242\\
1.95 145.854\\
2 146.459\\
};
\addlegendentry{$V_{\mathrm{BE}}=\SI{0.88}{\volt}$}
\addplot [color=color7, solid, mark=*, mark options={solid, fill}, mark phase=1, ]
  table[row sep=crcr, x expr=\thisrowno{0}*1.000000e+00, y expr=\thisrowno{1}*1.000000e-03]{
0 -1.97823e-05\\
0.05 26.828\\
0.1 50.4607\\
0.15 70.4738\\
0.2 86.6742\\
0.25 99.2294\\
0.3 108.639\\
0.35 115.576\\
0.4 120.716\\
0.45 124.616\\
0.5 127.686\\
0.55 130.203\\
0.6 132.345\\
0.65 134.225\\
0.7 135.917\\
0.75 137.466\\
0.8 138.902\\
0.85 140.247\\
0.9 141.515\\
0.95 142.717\\
1 143.862\\
1.05 144.955\\
1.1 146.003\\
1.15 147.009\\
1.2 147.977\\
1.25 148.911\\
1.3 149.813\\
1.35 150.684\\
1.4 151.529\\
1.45 152.348\\
1.5 153.143\\
1.55 153.916\\
1.6 154.668\\
1.65 155.402\\
1.7 156.117\\
1.75 156.817\\
1.8 157.502\\
1.85 158.173\\
1.9 158.834\\
1.95 159.485\\
2 160.128\\
};
\addlegendentry{$V_{\mathrm{BE}}=\SI{0.91}{\volt}$}
\addplot [color=color8, solid, mark=square, mark options={solid}, mark phase=1, ]
  table[row sep=crcr, x expr=\thisrowno{0}*1.000000e+00, y expr=\thisrowno{1}*1.000000e-03]{
0 -2.36269e-05\\
0.05 28.205\\
0.1 53.2684\\
0.15 74.7437\\
0.2 92.391\\
0.25 106.308\\
0.3 116.924\\
0.35 124.868\\
0.4 130.807\\
0.45 135.324\\
0.5 138.863\\
0.55 141.738\\
0.6 144.16\\
0.65 146.266\\
0.7 148.142\\
0.75 149.847\\
0.8 151.418\\
0.85 152.883\\
0.9 154.258\\
0.95 155.559\\
1 156.793\\
1.05 157.971\\
1.1 159.096\\
1.15 160.176\\
1.2 161.214\\
1.25 162.213\\
1.3 163.177\\
1.35 164.109\\
1.4 165.01\\
1.45 165.883\\
1.5 166.731\\
1.55 167.554\\
1.6 168.355\\
1.65 169.134\\
1.7 169.895\\
1.75 170.638\\
1.8 171.365\\
1.85 172.078\\
1.9 172.778\\
1.95 173.468\\
2 174.149\\
};
\addlegendentry{$V_{\mathrm{BE}}=\SI{0.94}{\volt}$}
\addplot [color=color9, solid, mark=o, mark options={solid, fill}, mark phase=1, ]
  table[row sep=crcr, x expr=\thisrowno{0}*1.000000e+00, y expr=\thisrowno{1}*1.000000e-03]{
0 -2.81161e-05\\
0.05 29.5437\\
0.1 56.0034\\
0.15 78.9141\\
0.2 97.9956\\
0.25 113.282\\
0.3 125.134\\
0.35 134.133\\
0.4 140.929\\
0.45 146.117\\
0.5 150.175\\
0.55 153.451\\
0.6 156.185\\
0.65 158.539\\
0.7 160.619\\
0.75 162.494\\
0.8 164.212\\
0.85 165.804\\
0.9 167.293\\
0.95 168.696\\
1 170.025\\
1.05 171.289\\
1.1 172.496\\
1.15 173.651\\
1.2 174.76\\
1.25 175.826\\
1.3 176.854\\
1.35 177.846\\
1.4 178.805\\
1.45 179.734\\
1.5 180.634\\
1.55 181.507\\
1.6 182.357\\
1.65 183.184\\
1.7 183.989\\
1.75 184.776\\
1.8 185.546\\
1.85 186.299\\
1.9 187.04\\
1.95 187.768\\
2 188.487\\
};
\addlegendentry{$V_{\mathrm{BE}}=\SI{0.97}{\volt}$}
\addplot [color=color0, solid, mark=x, mark options={solid}, mark phase=1, ]
  table[row sep=crcr, x expr=\thisrowno{0}*1.000000e+00, y expr=\thisrowno{1}*1.000000e-03]{
0 -3.33417e-05\\
0.05 30.8428\\
0.1 58.6627\\
0.15 82.979\\
0.2 103.477\\
0.25 120.133\\
0.3 133.243\\
0.35 143.336\\
0.4 151.039\\
0.45 156.952\\
0.5 161.578\\
0.55 165.295\\
0.6 168.376\\
0.65 171.005\\
0.7 173.307\\
0.75 175.368\\
0.8 177.243\\
0.85 178.973\\
0.9 180.583\\
0.95 182.095\\
1 183.522\\
1.05 184.876\\
1.1 186.167\\
1.15 187.4\\
1.2 188.581\\
1.25 189.716\\
1.3 190.809\\
1.35 191.862\\
1.4 192.88\\
1.45 193.864\\
1.5 194.818\\
1.55 195.743\\
1.6 196.641\\
1.65 197.515\\
1.7 198.366\\
1.75 199.197\\
1.8 200.009\\
1.85 200.803\\
1.9 201.583\\
1.95 202.351\\
2 203.108\\
};
\addlegendentry{$V_{\mathrm{BE}}=\SI{1.00}{\volt}$}
\end{axis}

\end{tikzpicture}
