\begin{tikzpicture}[font=\normalsize,trim axis left, trim axis right,tight background]
\pgfplotsset{every axis/.append style={very thick},compat=1.5},
\definecolor{color0}{rgb}{0.00000, 0.39216, 0.00000}
\definecolor{color1}{rgb}{0.00000, 0.00000, 0.54510}
\definecolor{color2}{rgb}{0.69020, 0.18824, 0.37647}

\begin{axis}[scale only axis,ytick pos=left,
xlabel={$V_{\mathrm{GS}} ( \si{\volt} )$},
ylabel={$J_{\mathrm{D}} ( \si{\milli\ampere\per\micro\meter} )$},
ymode=log,
xmin=0.1,
xmax=1,
restrict x to domain=0.02:5,
log basis x=10,
ymin=1e-06,
ymax=0.5,
restrict y to domain=-6.69897:0.39794,
log basis y=10,
xlabel shift = -5 pt,
 ylabel shift = -5 pt,
xmajorgrids,
enlargelimits=false,
scaled ticks=true,
ymajorgrids,
x tick style={color=black},
y tick style={color=black},
x grid style={white!69.01960784313725!black},
y grid style={white!69.01960784313725!black},
/tikz/mark repeat=2,
legend style={at={(0.02,0.98)}, anchor=north west,legend cell align=left, align=left},
]
\addplot [color=color0, solid, mark=x, mark options={solid}, mark phase=1, ]
  table[row sep=crcr, x expr=\thisrowno{0}*1.000000e+00, y expr=\thisrowno{1}*1.000000e-03]{
0.1 0.00209622\\
0.11 0.00285451\\
0.12 0.00388695\\
0.13 0.00529293\\
0.14 0.00720791\\
0.15 0.00981394\\
0.16 0.0133592\\
0.17 0.0181766\\
0.18 0.0247147\\
0.19 0.0335703\\
0.2 0.0455343\\
0.21 0.0616423\\
0.22 0.0832295\\
0.23 0.111988\\
0.24 0.150014\\
0.25 0.199835\\
0.26 0.264401\\
0.27 0.347038\\
0.28 0.451358\\
0.29 0.581153\\
0.3 0.740276\\
0.31 0.932556\\
0.32 1.16173\\
0.33 1.4314\\
0.34 1.74504\\
0.35 2.10596\\
0.36 2.5173\\
0.37 2.98206\\
0.38 3.50303\\
0.39 4.08285\\
0.4 4.72395\\
0.41 5.42859\\
0.42 6.19886\\
0.43 7.03662\\
0.44 7.94359\\
0.45 8.92128\\
0.46 9.97106\\
0.47 11.0941\\
0.48 12.2914\\
0.49 13.5637\\
0.5 14.9119\\
0.51 16.3363\\
0.52 17.8375\\
0.53 19.4155\\
0.54 21.0705\\
0.55 22.8025\\
0.56 24.6113\\
0.57 26.4965\\
0.58 28.4577\\
0.59 30.4944\\
0.6 32.6058\\
0.61 34.7913\\
0.62 37.05\\
0.63 39.3808\\
0.64 41.7827\\
0.65 44.2544\\
0.66 46.7949\\
0.67 49.4026\\
0.68 52.0762\\
0.69 54.8142\\
0.7 57.615\\
0.71 60.4769\\
0.72 63.3984\\
0.73 66.3776\\
0.74 69.4127\\
0.75 72.5019\\
0.76 75.6434\\
0.77 78.8351\\
0.78 82.0752\\
0.79 85.3616\\
0.8 88.6925\\
0.81 92.0657\\
0.82 95.4793\\
0.83 98.9312\\
0.84 102.419\\
0.85 105.942\\
0.86 109.497\\
0.87 113.082\\
0.88 116.695\\
0.89 120.335\\
0.9 124\\
0.91 127.686\\
0.92 131.394\\
0.93 135.12\\
0.94 138.863\\
0.95 142.621\\
0.96 146.392\\
0.97 150.175\\
0.98 153.968\\
0.99 157.77\\
1 161.578\\
};
\addlegendentry{$V_{\mathrm{DS}}=\SI{0.5}{\volt}$}
\addplot [color=color1, solid, mark=+, mark options={solid}, mark phase=1, ]
  table[row sep=crcr, x expr=\thisrowno{0}*1.000000e+00, y expr=\thisrowno{1}*1.000000e-03]{
0.1 0.00295228\\
0.11 0.00402549\\
0.12 0.0054888\\
0.13 0.00748417\\
0.14 0.0102039\\
0.15 0.0139101\\
0.16 0.0189548\\
0.17 0.0258147\\
0.18 0.0351279\\
0.19 0.0477439\\
0.2 0.0647814\\
0.21 0.0876951\\
0.22 0.11835\\
0.23 0.159077\\
0.24 0.212719\\
0.25 0.282628\\
0.26 0.372606\\
0.27 0.486779\\
0.28 0.62943\\
0.29 0.804812\\
0.3 1.017\\
0.31 1.2698\\
0.32 1.56675\\
0.33 1.91115\\
0.34 2.30612\\
0.35 2.75463\\
0.36 3.25954\\
0.37 3.82361\\
0.38 4.44951\\
0.39 5.13975\\
0.4 5.89675\\
0.41 6.72276\\
0.42 7.61986\\
0.43 8.58999\\
0.44 9.63491\\
0.45 10.7562\\
0.46 11.9553\\
0.47 13.2334\\
0.48 14.5915\\
0.49 16.0307\\
0.5 17.5516\\
0.51 19.1548\\
0.52 20.8407\\
0.53 22.6096\\
0.54 24.4616\\
0.55 26.3967\\
0.56 28.4147\\
0.57 30.5154\\
0.58 32.6984\\
0.59 34.9632\\
0.6 37.3092\\
0.61 39.7355\\
0.62 42.2415\\
0.63 44.8263\\
0.64 47.4887\\
0.65 50.2279\\
0.66 53.0425\\
0.67 55.9316\\
0.68 58.8937\\
0.69 61.9276\\
0.7 65.032\\
0.71 68.2054\\
0.72 71.4465\\
0.73 74.7538\\
0.74 78.1257\\
0.75 81.5608\\
0.76 85.0576\\
0.77 88.6146\\
0.78 92.2301\\
0.79 95.9027\\
0.8 99.6307\\
0.81 103.413\\
0.82 107.247\\
0.83 111.132\\
0.84 115.067\\
0.85 119.049\\
0.86 123.077\\
0.87 127.151\\
0.88 131.267\\
0.89 135.426\\
0.9 139.624\\
0.91 143.862\\
0.92 148.137\\
0.93 152.448\\
0.94 156.793\\
0.95 161.172\\
0.96 165.584\\
0.97 170.025\\
0.98 174.497\\
0.99 178.996\\
1 183.522\\
};
\addlegendentry{$V_{\mathrm{DS}}=\SI{1.0}{\volt}$}
\addplot [color=color2, solid, mark=triangle, mark options={solid, rotate=180}, mark phase=1, ]
  table[row sep=crcr, x expr=\thisrowno{0}*1.000000e+00, y expr=\thisrowno{1}*1.000000e-03]{
0.1 0.00364837\\
0.11 0.00497688\\
0.12 0.00679068\\
0.13 0.00926515\\
0.14 0.01264\\
0.15 0.0172388\\
0.16 0.0235052\\
0.17 0.0320279\\
0.18 0.0435992\\
0.19 0.0592763\\
0.2 0.0804435\\
0.21 0.108899\\
0.22 0.146934\\
0.23 0.1974\\
0.24 0.263744\\
0.25 0.349979\\
0.26 0.460586\\
0.27 0.60032\\
0.28 0.773973\\
0.29 0.986124\\
0.3 1.24096\\
0.31 1.54222\\
0.32 1.89318\\
0.33 2.29682\\
0.34 2.75587\\
0.35 3.27297\\
0.36 3.85066\\
0.37 4.49147\\
0.38 5.19787\\
0.39 5.97226\\
0.4 6.81697\\
0.41 7.73417\\
0.42 8.72595\\
0.43 9.79422\\
0.44 10.9407\\
0.45 12.1671\\
0.46 13.4747\\
0.47 14.8647\\
0.48 16.3383\\
0.49 17.8964\\
0.5 19.5396\\
0.51 21.2685\\
0.52 23.0836\\
0.53 24.985\\
0.54 26.9728\\
0.55 29.047\\
0.56 31.2074\\
0.57 33.4536\\
0.58 35.7853\\
0.59 38.2017\\
0.6 40.7023\\
0.61 43.2862\\
0.62 45.9526\\
0.63 48.7005\\
0.64 51.5287\\
0.65 54.4362\\
0.66 57.4218\\
0.67 60.4842\\
0.68 63.622\\
0.69 66.8339\\
0.7 70.1185\\
0.71 73.4742\\
0.72 76.8997\\
0.73 80.3932\\
0.74 83.9534\\
0.75 87.5787\\
0.76 91.2674\\
0.77 95.0181\\
0.78 98.829\\
0.79 102.699\\
0.8 106.625\\
0.81 110.608\\
0.82 114.644\\
0.83 118.732\\
0.84 122.872\\
0.85 127.06\\
0.86 131.297\\
0.87 135.579\\
0.88 139.907\\
0.89 144.277\\
0.9 148.69\\
0.91 153.143\\
0.92 157.635\\
0.93 162.165\\
0.94 166.731\\
0.95 171.332\\
0.96 175.966\\
0.97 180.634\\
0.98 185.332\\
0.99 190.06\\
1 194.818\\
};
\addlegendentry{$V_{\mathrm{DS}}=\SI{1.5}{\volt}$}
\end{axis}

\end{tikzpicture}
