\begin{tikzpicture}[font=\normalsize,trim axis left, trim axis right,tight background]
\pgfplotsset{every axis/.append style={very thick},compat=1.5},
\definecolor{color0}{rgb}{0.00000, 0.39216, 0.00000}
\definecolor{color1}{rgb}{0.00000, 0.00000, 0.54510}
\definecolor{color2}{rgb}{0.69020, 0.18824, 0.37647}
\definecolor{color3}{rgb}{1.00000, 0.00000, 0.00000}
\definecolor{color4}{rgb}{0.58039, 0.40392, 0.74118}
\definecolor{color5}{rgb}{0.87059, 0.72157, 0.52941}
\definecolor{color6}{rgb}{0.00000, 1.00000, 0.00000}
\definecolor{color7}{rgb}{0.00000, 1.00000, 1.00000}
\definecolor{color8}{rgb}{1.00000, 0.00000, 1.00000}
\definecolor{color9}{rgb}{0.39216, 0.58431, 0.92941}

\begin{axis}[scale only axis,ytick pos=left,
xlabel={$V_{\mathrm{DS}} ( \si{\volt} )$},
ylabel={$J_{\mathrm{D}} ( \si{\milli\ampere\per\micro\meter} )$},
% xmin=0,
% xmax=0,
% restrict x to domain=0:1,
log basis x=10,
% ymin=0,
% ymax=0,
% restrict y to domain=0:1,
log basis y=10,
xlabel shift = -5 pt,
 ylabel shift = -5 pt,
xmajorgrids,
enlargelimits=false,
scaled ticks=true,
ymajorgrids,
x tick style={color=black},
y tick style={color=black},
x grid style={white!69.01960784313725!black},
y grid style={white!69.01960784313725!black},
/tikz/mark repeat=2,
legend style={at={(1.02,1.00)}, anchor=north west,legend cell align=left, align=left},
]
\addplot [color=color0, solid, mark=x, mark options={solid}, mark phase=1, ]
  table[row sep=crcr, x expr=\thisrowno{0}*1.000000e+00, y expr=\thisrowno{1}*1.000000e-03]{
0 -2.96754e-07\\
0.05 13.6239\\
0.1 21.9422\\
0.15 26.6748\\
0.2 29.5161\\
0.25 31.4715\\
0.3 33.0185\\
0.35 34.365\\
0.4 35.6006\\
0.45 36.7652\\
0.5 37.8778\\
0.55 38.9483\\
0.6 39.9825\\
0.65 40.9841\\
0.7 41.9558\\
0.75 42.8998\\
0.8 43.8178\\
0.85 44.7115\\
0.9 45.5821\\
0.95 46.4311\\
1 47.2596\\
1.05 48.0686\\
1.1 48.8592\\
1.15 49.6324\\
1.2 50.3889\\
1.25 51.1296\\
1.3 51.8553\\
1.35 52.5668\\
1.4 53.2647\\
1.45 53.9499\\
1.5 54.6231\\
1.55 55.2849\\
1.6 55.9363\\
1.65 56.5779\\
1.7 57.2107\\
1.75 57.8356\\
1.8 58.4536\\
1.85 59.0657\\
1.9 59.6733\\
1.95 60.2774\\
2 60.8796\\
};
\addlegendentry{$V_{\mathrm{BE}}=\SI{0.70}{\volt}$}
\addplot [color=color1, solid, mark=+, mark options={solid}, mark phase=1, ]
  table[row sep=crcr, x expr=\thisrowno{0}*1.000000e+00, y expr=\thisrowno{1}*1.000000e-03]{
0 -3.84801e-07\\
0.05 16.3186\\
0.1 26.7946\\
0.15 33.0388\\
0.2 36.8597\\
0.25 39.4532\\
0.3 41.4464\\
0.35 43.1358\\
0.4 44.6576\\
0.45 46.0751\\
0.5 47.4195\\
0.55 48.7068\\
0.6 49.9463\\
0.65 51.1438\\
0.7 52.3033\\
0.75 53.4279\\
0.8 54.5199\\
0.85 55.5816\\
0.9 56.6148\\
0.95 57.6211\\
1 58.602\\
1.05 59.559\\
1.1 60.4932\\
1.15 61.4059\\
1.2 62.2981\\
1.25 63.1709\\
1.3 64.0253\\
1.35 64.8623\\
1.4 65.6826\\
1.45 66.4873\\
1.5 67.2773\\
1.55 68.0534\\
1.6 68.8167\\
1.65 69.5681\\
1.7 70.3087\\
1.75 71.0396\\
1.8 71.762\\
1.85 72.4772\\
1.9 73.1868\\
1.95 73.8922\\
2 74.595\\
};
\addlegendentry{$V_{\mathrm{BE}}=\SI{0.73}{\volt}$}
\addplot [color=color2, solid, mark=triangle, mark options={solid, rotate=180}, mark phase=1, ]
  table[row sep=crcr, x expr=\thisrowno{0}*1.000000e+00, y expr=\thisrowno{1}*1.000000e-03]{
0 -4.94653e-07\\
0.05 19.1672\\
0.1 32.0109\\
0.15 39.9978\\
0.2 45.0008\\
0.25 48.384\\
0.3 50.9281\\
0.35 53.0316\\
0.4 54.8895\\
0.45 56.5968\\
0.5 58.2017\\
0.55 59.7294\\
0.6 61.1945\\
0.65 62.6058\\
0.7 63.9693\\
0.75 65.2892\\
0.8 66.5689\\
0.85 67.8114\\
0.9 69.0189\\
0.95 70.1936\\
1 71.3375\\
1.05 72.4522\\
1.1 73.5393\\
1.15 74.6003\\
1.2 75.6366\\
1.25 76.6494\\
1.3 77.64\\
1.35 78.6094\\
1.4 79.5589\\
1.45 80.4895\\
1.5 81.4023\\
1.55 82.2985\\
1.6 83.1792\\
1.65 84.0455\\
1.7 84.8989\\
1.75 85.7405\\
1.8 86.572\\
1.85 87.3948\\
1.9 88.2107\\
1.95 89.0214\\
2 89.8291\\
};
\addlegendentry{$V_{\mathrm{BE}}=\SI{0.76}{\volt}$}
\addplot [color=color3, solid, mark=triangle, mark options={solid, rotate=0}, mark phase=1, ]
  table[row sep=crcr, x expr=\thisrowno{0}*1.000000e+00, y expr=\thisrowno{1}*1.000000e-03]{
0 -6.30791e-07\\
0.05 22.1406\\
0.1 37.533\\
0.15 47.4756\\
0.2 53.8611\\
0.25 58.1944\\
0.3 61.4062\\
0.35 64.0058\\
0.4 66.2574\\
0.45 68.2963\\
0.5 70.1932\\
0.55 71.9862\\
0.6 73.6973\\
0.65 75.3397\\
0.7 76.9221\\
0.75 78.4507\\
0.8 79.9302\\
0.85 81.3644\\
0.9 82.7563\\
0.95 84.1088\\
1 85.4241\\
1.05 86.7045\\
1.1 87.9519\\
1.15 89.1681\\
1.2 90.3549\\
1.25 91.5136\\
1.3 92.6459\\
1.35 93.7531\\
1.4 94.8366\\
1.45 95.8976\\
1.5 96.9376\\
1.55 97.9578\\
1.6 98.9595\\
1.65 99.9444\\
1.7 100.914\\
1.75 101.869\\
1.8 102.813\\
1.85 103.746\\
1.9 104.671\\
1.95 105.589\\
2 106.504\\
};
\addlegendentry{$V_{\mathrm{BE}}=\SI{0.79}{\volt}$}
\addplot [color=color4, solid, mark=asterisk, mark options={solid}, mark phase=1, ]
  table[row sep=crcr, x expr=\thisrowno{0}*1.000000e+00, y expr=\thisrowno{1}*1.000000e-03]{
0 -7.98476e-07\\
0.05 25.2112\\
0.1 43.3042\\
0.15 55.3929\\
0.2 63.3525\\
0.25 68.7986\\
0.3 72.8029\\
0.35 75.9894\\
0.4 78.6997\\
0.45 81.1171\\
0.5 83.3408\\
0.55 85.4258\\
0.6 87.4038\\
0.65 89.2944\\
0.7 91.1102\\
0.75 92.8598\\
0.8 94.5497\\
0.85 96.1849\\
0.9 97.7696\\
0.95 99.3072\\
1 100.801\\
1.05 102.253\\
1.1 103.666\\
1.15 105.043\\
1.2 106.384\\
1.25 107.693\\
1.3 108.971\\
1.35 110.219\\
1.4 111.44\\
1.45 112.634\\
1.5 113.804\\
1.55 114.95\\
1.6 116.075\\
1.65 117.18\\
1.7 118.267\\
1.75 119.338\\
1.8 120.395\\
1.85 121.439\\
1.9 122.474\\
1.95 123.502\\
2 124.525\\
};
\addlegendentry{$V_{\mathrm{BE}}=\SI{0.82}{\volt}$}
\addplot [color=color5, solid, mark=triangle, mark options={solid, rotate=270}, mark phase=1, ]
  table[row sep=crcr, x expr=\thisrowno{0}*1.000000e+00, y expr=\thisrowno{1}*1.000000e-03]{
0 -1.00386e-06\\
0.05 28.3532\\
0.1 49.2704\\
0.15 63.6711\\
0.2 73.382\\
0.25 80.1005\\
0.3 85.0257\\
0.35 88.8961\\
0.4 92.1363\\
0.45 94.9842\\
0.5 97.573\\
0.55 99.9786\\
0.6 102.246\\
0.65 104.402\\
0.7 106.465\\
0.75 108.447\\
0.8 110.357\\
0.85 112.201\\
0.9 113.986\\
0.95 115.714\\
1 117.391\\
1.05 119.02\\
1.1 120.603\\
1.15 122.143\\
1.2 123.642\\
1.25 125.104\\
1.3 126.529\\
1.35 127.92\\
1.4 129.279\\
1.45 130.608\\
1.5 131.908\\
1.55 133.182\\
1.6 134.43\\
1.65 135.656\\
1.7 136.861\\
1.75 138.047\\
1.8 139.217\\
1.85 140.373\\
1.9 141.517\\
1.95 142.654\\
2 143.785\\
};
\addlegendentry{$V_{\mathrm{BE}}=\SI{0.85}{\volt}$}
\addplot [color=color6, solid, mark=triangle, mark options={solid, rotate=90}, mark phase=1, ]
  table[row sep=crcr, x expr=\thisrowno{0}*1.000000e+00, y expr=\thisrowno{1}*1.000000e-03]{
0 -1.2541e-06\\
0.05 31.5429\\
0.1 55.3812\\
0.15 72.2348\\
0.2 83.8568\\
0.25 91.9994\\
0.3 97.9734\\
0.35 102.628\\
0.4 106.473\\
0.45 109.808\\
0.5 112.804\\
0.55 115.561\\
0.6 118.141\\
0.65 120.581\\
0.7 122.905\\
0.75 125.131\\
0.8 127.27\\
0.85 129.33\\
0.9 131.32\\
0.95 133.245\\
1 135.109\\
1.05 136.916\\
1.1 138.671\\
1.15 140.377\\
1.2 142.036\\
1.25 143.651\\
1.3 145.225\\
1.35 146.759\\
1.4 148.257\\
1.45 149.72\\
1.5 151.151\\
1.55 152.551\\
1.6 153.922\\
1.65 155.268\\
1.7 156.59\\
1.75 157.89\\
1.8 159.172\\
1.85 160.438\\
1.9 161.691\\
1.95 162.935\\
2 164.172\\
};
\addlegendentry{$V_{\mathrm{BE}}=\SI{0.88}{\volt}$}
\addplot [color=color7, solid, mark=*, mark options={solid, fill}, mark phase=1, ]
  table[row sep=crcr, x expr=\thisrowno{0}*1.000000e+00, y expr=\thisrowno{1}*1.000000e-03]{
0 -1.55753e-06\\
0.05 34.759\\
0.1 61.5905\\
0.15 81.0132\\
0.2 94.6874\\
0.25 104.395\\
0.3 111.541\\
0.35 117.08\\
0.4 121.609\\
0.45 125.49\\
0.5 128.936\\
0.55 132.079\\
0.6 134.996\\
0.65 137.739\\
0.7 140.339\\
0.75 142.82\\
0.8 145.196\\
0.85 147.48\\
0.9 149.68\\
0.95 151.804\\
1 153.858\\
1.05 155.848\\
1.1 157.776\\
1.15 159.648\\
1.2 161.467\\
1.25 163.236\\
1.3 164.958\\
1.35 166.635\\
1.4 168.271\\
1.45 169.867\\
1.5 171.427\\
1.55 172.952\\
1.6 174.445\\
1.65 175.909\\
1.7 177.346\\
1.75 178.759\\
1.8 180.151\\
1.85 181.525\\
1.9 182.885\\
1.95 184.233\\
2 185.575\\
};
\addlegendentry{$V_{\mathrm{BE}}=\SI{0.91}{\volt}$}
\addplot [color=color8, solid, mark=square, mark options={solid}, mark phase=1, ]
  table[row sep=crcr, x expr=\thisrowno{0}*1.000000e+00, y expr=\thisrowno{1}*1.000000e-03]{
0 -1.92375e-06\\
0.05 37.9824\\
0.1 67.8567\\
0.15 89.9415\\
0.2 105.789\\
0.25 117.189\\
0.3 125.625\\
0.35 132.148\\
0.4 137.439\\
0.45 141.925\\
0.5 145.869\\
0.55 149.432\\
0.6 152.713\\
0.65 155.779\\
0.7 158.67\\
0.75 161.417\\
0.8 164.039\\
0.85 166.553\\
0.9 168.968\\
0.95 171.296\\
1 173.543\\
1.05 175.715\\
1.1 177.818\\
1.15 179.857\\
1.2 181.835\\
1.25 183.757\\
1.3 185.626\\
1.35 187.446\\
1.4 189.218\\
1.45 190.946\\
1.5 192.633\\
1.55 194.281\\
1.6 195.894\\
1.65 197.474\\
1.7 199.023\\
1.75 200.546\\
1.8 202.046\\
1.85 203.526\\
1.9 204.989\\
1.95 206.44\\
2 207.884\\
};
\addlegendentry{$V_{\mathrm{BE}}=\SI{0.94}{\volt}$}
\addplot [color=color9, solid, mark=o, mark options={solid, fill}, mark phase=1, ]
  table[row sep=crcr, x expr=\thisrowno{0}*1.000000e+00, y expr=\thisrowno{1}*1.000000e-03]{
0 -2.36387e-06\\
0.05 41.1965\\
0.1 74.1429\\
0.15 98.9613\\
0.2 117.085\\
0.25 130.291\\
0.3 140.126\\
0.35 147.726\\
0.4 153.856\\
0.45 159.011\\
0.5 163.5\\
0.55 167.519\\
0.6 171.192\\
0.65 174.601\\
0.7 177.799\\
0.75 180.824\\
0.8 183.702\\
0.85 186.451\\
0.9 189.087\\
0.95 191.621\\
1 194.063\\
1.05 196.419\\
1.1 198.697\\
1.15 200.903\\
1.2 203.04\\
1.25 205.115\\
1.3 207.13\\
1.35 209.089\\
1.4 210.996\\
1.45 212.853\\
1.5 214.665\\
1.55 216.435\\
1.6 218.164\\
1.65 219.857\\
1.7 221.517\\
1.75 223.148\\
1.8 224.752\\
1.85 226.334\\
1.9 227.899\\
1.95 229.45\\
2 230.992\\
};
\addlegendentry{$V_{\mathrm{BE}}=\SI{0.97}{\volt}$}
\addplot [color=color0, solid, mark=x, mark options={solid}, mark phase=1, ]
  table[row sep=crcr, x expr=\thisrowno{0}*1.000000e+00, y expr=\thisrowno{1}*1.000000e-03]{
0 -2.89061e-06\\
0.05 44.3864\\
0.1 80.4164\\
0.15 108.02\\
0.2 128.503\\
0.25 143.615\\
0.3 154.948\\
0.35 163.715\\
0.4 170.761\\
0.45 176.644\\
0.5 181.725\\
0.55 186.238\\
0.6 190.332\\
0.65 194.106\\
0.7 197.628\\
0.75 200.944\\
0.8 204.085\\
0.85 207.078\\
0.9 209.939\\
0.95 212.683\\
1 215.321\\
1.05 217.863\\
1.1 220.317\\
1.15 222.689\\
1.2 224.985\\
1.25 227.21\\
1.3 229.37\\
1.35 231.467\\
1.4 233.507\\
1.45 235.492\\
1.5 237.427\\
1.55 239.314\\
1.6 241.158\\
1.65 242.962\\
1.7 244.73\\
1.75 246.464\\
1.8 248.171\\
1.85 249.853\\
1.9 251.515\\
1.95 253.163\\
2 254.801\\
};
\addlegendentry{$V_{\mathrm{BE}}=\SI{1.00}{\volt}$}
\end{axis}

\end{tikzpicture}
