\begin{tikzpicture}[font=\normalsize,trim axis left, trim axis right,tight background]
\pgfplotsset{every axis/.append style={very thick},compat=1.5},
\definecolor{color0}{rgb}{0.00000, 0.39216, 0.00000}
\definecolor{color1}{rgb}{0.00000, 0.00000, 0.54510}
\definecolor{color2}{rgb}{0.69020, 0.18824, 0.37647}
\definecolor{color3}{rgb}{1.00000, 0.00000, 0.00000}
\definecolor{color4}{rgb}{0.58039, 0.40392, 0.74118}

\begin{axis}[scale only axis,ytick pos=left,
xlabel={$V_{\mathrm{GS}} ( \si{\volt} )$},
ylabel={$J_{\mathrm{D}} ( \si{\milli\ampere\per\micro\meter} )$},
ymode=log,
xmin=0.1,
xmax=1.5,
restrict x to domain=0.02:7.5,
log basis x=10,
ymin=1e-06,
ymax=1,
restrict y to domain=-6.69897:0.69897,
log basis y=10,
xlabel shift = -5 pt,
 ylabel shift = -5 pt,
xmajorgrids,
enlargelimits=false,
scaled ticks=true,
ymajorgrids,
x tick style={color=black},
y tick style={color=black},
x grid style={white!69.01960784313725!black},
y grid style={white!69.01960784313725!black},
/tikz/mark repeat=2,
legend style={at={(0.98,0.02)}, anchor=south east,legend cell align=left, align=left},
]
\addplot [color=color0, solid, mark=x, mark options={solid}, mark phase=1, ]
  table[row sep=crcr, x expr=\thisrowno{0}*1.000000e+00, y expr=\thisrowno{1}*1.000000e-03]{
0.1 0\\
0.11 0\\
0.12 0\\
0.13 0\\
0.14 0\\
0.15 0\\
0.16 0\\
0.17 5.05275e-07\\
0.18 5.05275e-07\\
0.19 5.05275e-07\\
0.2 5.05275e-07\\
0.21 5.05275e-07\\
0.22 7.57912e-07\\
0.23 1.01055e-06\\
0.24 1.51582e-06\\
0.25 2.0211e-06\\
0.26 2.52637e-06\\
0.27 3.28429e-06\\
0.28 4.54747e-06\\
0.29 6.0633e-06\\
0.3 8.84231e-06\\
0.31 1.21266e-05\\
0.32 1.69267e-05\\
0.33 2.40006e-05\\
0.34 3.33481e-05\\
0.35 4.64853e-05\\
0.36 6.51805e-05\\
0.37 9.06968e-05\\
0.38 0.000127329\\
0.39 0.000178362\\
0.4 0.000250111\\
0.41 0.000350661\\
0.42 0.000491632\\
0.43 0.000690963\\
0.44 0.000969875\\
0.45 0.00136273\\
0.46 0.00191449\\
0.47 0.00269135\\
0.48 0.00378527\\
0.49 0.00532383\\
0.5 0.00748843\\
0.51 0.0105319\\
0.52 0.0148066\\
0.53 0.0208029\\
0.54 0.0291933\\
0.55 0.0408957\\
0.56 0.0571395\\
0.57 0.0795376\\
0.58 0.110146\\
0.59 0.151489\\
0.6 0.20653\\
0.61 0.27857\\
0.62 0.37108\\
0.63 0.487506\\
0.64 0.631089\\
0.65 0.804726\\
0.66 1.01091\\
0.67 1.25169\\
0.68 1.52876\\
0.69 1.84341\\
0.7 2.19666\\
0.71 2.58927\\
0.72 3.02178\\
0.73 3.49455\\
0.74 4.00777\\
0.75 4.56154\\
0.76 5.15579\\
0.77 5.79038\\
0.78 6.46507\\
0.79 7.17955\\
0.8 7.93344\\
0.81 8.72628\\
0.82 9.55759\\
0.83 10.4268\\
0.84 11.3333\\
0.85 12.2766\\
0.86 13.2559\\
0.87 14.2706\\
0.88 15.32\\
0.89 16.4034\\
0.9 17.5201\\
0.91 18.6693\\
0.92 19.8504\\
0.93 21.0625\\
0.94 22.3051\\
0.95 23.5773\\
0.96 24.8785\\
0.97 26.2079\\
0.98 27.5649\\
0.99 28.9487\\
1 30.3588\\
1.01 31.7943\\
1.02 33.2548\\
1.03 34.7394\\
1.04 36.2477\\
1.05 37.779\\
1.06 39.3327\\
1.07 40.9083\\
1.08 42.5051\\
1.09 44.1227\\
1.1 45.7604\\
1.11 47.4178\\
1.12 49.0943\\
1.13 50.7895\\
1.14 52.5028\\
1.15 54.2338\\
1.16 55.9821\\
1.17 57.7471\\
1.18 59.5285\\
1.19 61.3258\\
1.2 63.1387\\
1.21 64.9666\\
1.22 66.8093\\
1.23 68.6663\\
1.24 70.5373\\
1.25 72.4219\\
1.26 74.3198\\
1.27 76.2305\\
1.28 78.1539\\
1.29 80.0896\\
1.3 82.0371\\
1.31 83.9964\\
1.32 85.9669\\
1.33 87.9485\\
1.34 89.9409\\
1.35 91.9438\\
1.36 93.9568\\
1.37 95.9799\\
1.38 98.0126\\
1.39 100.055\\
1.4 102.106\\
1.41 104.166\\
1.42 106.235\\
1.43 108.313\\
1.44 110.399\\
1.45 112.492\\
1.46 114.594\\
1.47 116.703\\
1.48 118.82\\
1.49 120.944\\
1.5 123.075\\
};
\addlegendentry{$T=\SI{250.0}{\kelvin}$}
\addplot [color=color1, solid, mark=+, mark options={solid}, mark phase=1, ]
  table[row sep=crcr, x expr=\thisrowno{0}*1.000000e+00, y expr=\thisrowno{1}*1.000000e-03]{
0.1 5.05275e-07\\
0.11 5.05275e-07\\
0.12 5.05275e-07\\
0.13 7.57912e-07\\
0.14 7.57912e-07\\
0.15 1.26319e-06\\
0.16 1.26319e-06\\
0.17 1.76846e-06\\
0.18 2.52637e-06\\
0.19 2.77901e-06\\
0.2 4.0422e-06\\
0.21 5.30539e-06\\
0.22 7.07385e-06\\
0.23 9.60022e-06\\
0.24 1.26319e-05\\
0.25 1.69267e-05\\
0.26 2.24847e-05\\
0.27 2.98112e-05\\
0.28 3.94114e-05\\
0.29 5.28012e-05\\
0.3 7.02332e-05\\
0.31 9.39811e-05\\
0.32 0.000125308\\
0.33 0.000166741\\
0.34 0.000223584\\
0.35 0.00029887\\
0.36 0.000400178\\
0.37 0.000535086\\
0.38 0.000716732\\
0.39 0.00096078\\
0.4 0.00128795\\
0.41 0.00172703\\
0.42 0.00231795\\
0.43 0.00311072\\
0.44 0.00417711\\
0.45 0.00560981\\
0.46 0.00753491\\
0.47 0.0101212\\
0.48 0.0135927\\
0.49 0.0182483\\
0.5 0.0244831\\
0.51 0.0328146\\
0.52 0.043915\\
0.53 0.0586478\\
0.54 0.0780986\\
0.55 0.103606\\
0.56 0.136777\\
0.57 0.179475\\
0.58 0.233789\\
0.59 0.301958\\
0.6 0.386295\\
0.61 0.489083\\
0.62 0.612497\\
0.63 0.758536\\
0.64 0.928985\\
0.65 1.1254\\
0.66 1.34912\\
0.67 1.60127\\
0.68 1.88277\\
0.69 2.19441\\
0.7 2.53681\\
0.71 2.91046\\
0.72 3.31575\\
0.73 3.75298\\
0.74 4.22235\\
0.75 4.724\\
0.76 5.25798\\
0.77 5.8243\\
0.78 6.42291\\
0.79 7.0537\\
0.8 7.71654\\
0.81 8.41122\\
0.82 9.13752\\
0.83 9.8952\\
0.84 10.6839\\
0.85 11.5035\\
0.86 12.3534\\
0.87 13.2334\\
0.88 14.1431\\
0.89 15.082\\
0.9 16.0498\\
0.91 17.0461\\
0.92 18.0704\\
0.93 19.1222\\
0.94 20.2012\\
0.95 21.3068\\
0.96 22.4386\\
0.97 23.5961\\
0.98 24.7789\\
0.99 25.9865\\
1 27.2185\\
1.01 28.4743\\
1.02 29.7535\\
1.03 31.0557\\
1.04 32.3804\\
1.05 33.7271\\
1.06 35.0954\\
1.07 36.4849\\
1.08 37.8951\\
1.09 39.3256\\
1.1 40.776\\
1.11 42.2458\\
1.12 43.7346\\
1.13 45.2421\\
1.14 46.7678\\
1.15 48.3114\\
1.16 49.8724\\
1.17 51.4505\\
1.18 53.0453\\
1.19 54.6565\\
1.2 56.2836\\
1.21 57.9264\\
1.22 59.5844\\
1.23 61.2574\\
1.24 62.9451\\
1.25 64.647\\
1.26 66.3629\\
1.27 68.0925\\
1.28 69.8355\\
1.29 71.5915\\
1.3 73.3603\\
1.31 75.1415\\
1.32 76.935\\
1.33 78.7404\\
1.34 80.5574\\
1.35 82.3858\\
1.36 84.2254\\
1.37 86.0758\\
1.38 87.9368\\
1.39 89.8082\\
1.4 91.6897\\
1.41 93.5812\\
1.42 95.4823\\
1.43 97.3928\\
1.44 99.3126\\
1.45 101.241\\
1.46 103.179\\
1.47 105.125\\
1.48 107.08\\
1.49 109.042\\
1.5 111.013\\
};
\addlegendentry{$T=\SI{287.5}{\kelvin}$}
\addplot [color=color2, solid, mark=triangle, mark options={solid, rotate=180}, mark phase=1, ]
  table[row sep=crcr, x expr=\thisrowno{0}*1.000000e+00, y expr=\thisrowno{1}*1.000000e-03]{
0.1 3.03165e-06\\
0.11 3.78956e-06\\
0.12 4.80011e-06\\
0.13 6.0633e-06\\
0.14 7.32649e-06\\
0.15 9.85286e-06\\
0.16 1.23792e-05\\
0.17 1.56635e-05\\
0.18 1.99584e-05\\
0.19 2.55164e-05\\
0.2 3.28429e-05\\
0.21 4.21904e-05\\
0.22 5.33065e-05\\
0.23 6.87174e-05\\
0.24 8.81705e-05\\
0.25 0.000112676\\
0.26 0.000144509\\
0.27 0.000185689\\
0.28 0.000238742\\
0.29 0.000307207\\
0.3 0.000395125\\
0.31 0.000509064\\
0.32 0.000656099\\
0.33 0.000845577\\
0.34 0.00109114\\
0.35 0.00140845\\
0.36 0.00181924\\
0.37 0.0023513\\
0.38 0.00303923\\
0.39 0.00393079\\
0.4 0.00508509\\
0.41 0.0065807\\
0.42 0.00851742\\
0.43 0.0110259\\
0.44 0.0142715\\
0.45 0.0184693\\
0.46 0.0238932\\
0.47 0.0308887\\
0.48 0.0398937\\
0.49 0.0514531\\
0.5 0.0662395\\
0.51 0.0850691\\
0.52 0.108914\\
0.53 0.138908\\
0.54 0.176343\\
0.55 0.222644\\
0.56 0.279339\\
0.57 0.34802\\
0.58 0.430289\\
0.59 0.527715\\
0.6 0.64179\\
0.61 0.773902\\
0.62 0.925319\\
0.63 1.09717\\
0.64 1.29047\\
0.65 1.50609\\
0.66 1.7448\\
0.67 2.00725\\
0.68 2.29401\\
0.69 2.60555\\
0.7 2.94229\\
0.71 3.30455\\
0.72 3.69261\\
0.73 4.1067\\
0.74 4.54698\\
0.75 5.01358\\
0.76 5.5066\\
0.77 6.02606\\
0.78 6.572\\
0.79 7.1444\\
0.8 7.74319\\
0.81 8.36833\\
0.82 9.01969\\
0.83 9.69717\\
0.84 10.4006\\
0.85 11.1299\\
0.86 11.8847\\
0.87 12.6651\\
0.88 13.4706\\
0.89 14.3011\\
0.9 15.1563\\
0.91 16.0361\\
0.92 16.9401\\
0.93 17.868\\
0.94 18.8197\\
0.95 19.7947\\
0.96 20.7928\\
0.97 21.8138\\
0.98 22.8572\\
0.99 23.9228\\
1 25.0104\\
1.01 26.1194\\
1.02 27.2498\\
1.03 28.401\\
1.04 29.5729\\
1.05 30.7651\\
1.06 31.9772\\
1.07 33.209\\
1.08 34.4601\\
1.09 35.7302\\
1.1 37.0191\\
1.11 38.3263\\
1.12 39.6515\\
1.13 40.9945\\
1.14 42.355\\
1.15 43.7326\\
1.16 45.127\\
1.17 46.538\\
1.18 47.9652\\
1.19 49.4084\\
1.2 50.8671\\
1.21 52.3413\\
1.22 53.8305\\
1.23 55.3345\\
1.24 56.853\\
1.25 58.3858\\
1.26 59.9325\\
1.27 61.493\\
1.28 63.0668\\
1.29 64.6539\\
1.3 66.2538\\
1.31 67.8665\\
1.32 69.4915\\
1.33 71.1287\\
1.34 72.7779\\
1.35 74.4387\\
1.36 76.111\\
1.37 77.7945\\
1.38 79.489\\
1.39 81.1942\\
1.4 82.9101\\
1.41 84.6362\\
1.42 86.3725\\
1.43 88.1187\\
1.44 89.8745\\
1.45 91.6399\\
1.46 93.4145\\
1.47 95.1983\\
1.48 96.9909\\
1.49 98.7922\\
1.5 100.602\\
};
\addlegendentry{$T=\SI{325.0}{\kelvin}$}
\addplot [color=color3, solid, mark=triangle, mark options={solid, rotate=0}, mark phase=1, ]
  table[row sep=crcr, x expr=\thisrowno{0}*1.000000e+00, y expr=\thisrowno{1}*1.000000e-03]{
0.1 2.32426e-05\\
0.11 2.82954e-05\\
0.12 3.51166e-05\\
0.13 4.3201e-05\\
0.14 5.33065e-05\\
0.15 6.56857e-05\\
0.16 8.10966e-05\\
0.17 0.000100044\\
0.18 0.00012455\\
0.19 0.000153856\\
0.2 0.000191247\\
0.21 0.000236974\\
0.22 0.000294828\\
0.23 0.00036683\\
0.24 0.000456768\\
0.25 0.000568687\\
0.26 0.000709153\\
0.27 0.000884989\\
0.28 0.00110504\\
0.29 0.00138066\\
0.3 0.00172577\\
0.31 0.00215879\\
0.32 0.00270272\\
0.33 0.00338509\\
0.34 0.00424178\\
0.35 0.00531802\\
0.36 0.00666963\\
0.37 0.0083676\\
0.38 0.0105006\\
0.39 0.0131798\\
0.4 0.0165435\\
0.41 0.0207635\\
0.42 0.0260532\\
0.43 0.0326756\\
0.44 0.0409528\\
0.45 0.0512768\\
0.46 0.0641181\\
0.47 0.0800383\\
0.48 0.099693\\
0.49 0.123843\\
0.5 0.153349\\
0.51 0.189162\\
0.52 0.232322\\
0.53 0.283927\\
0.54 0.345112\\
0.55 0.417027\\
0.56 0.500809\\
0.57 0.597557\\
0.58 0.708314\\
0.59 0.834058\\
0.6 0.975689\\
0.61 1.13403\\
0.62 1.30981\\
0.63 1.50371\\
0.64 1.71632\\
0.65 1.94816\\
0.66 2.1997\\
0.67 2.47136\\
0.68 2.76348\\
0.69 3.07638\\
0.7 3.41034\\
0.71 3.76559\\
0.72 4.14231\\
0.73 4.54068\\
0.74 4.96084\\
0.75 5.40288\\
0.76 5.86689\\
0.77 6.35293\\
0.78 6.86103\\
0.79 7.39121\\
0.8 7.94346\\
0.81 8.51776\\
0.82 9.11407\\
0.83 9.73234\\
0.84 10.3725\\
0.85 11.0344\\
0.86 11.7181\\
0.87 12.4233\\
0.88 13.15\\
0.89 13.8981\\
0.9 14.6673\\
0.91 15.4576\\
0.92 16.2687\\
0.93 17.1006\\
0.94 17.953\\
0.95 18.8258\\
0.96 19.7187\\
0.97 20.6316\\
0.98 21.5643\\
0.99 22.5165\\
1 23.4881\\
1.01 24.4788\\
1.02 25.4885\\
1.03 26.5168\\
1.04 27.5637\\
1.05 28.6288\\
1.06 29.7119\\
1.07 30.8128\\
1.08 31.9313\\
1.09 33.0672\\
1.1 34.2201\\
1.11 35.3899\\
1.12 36.5764\\
1.13 37.7793\\
1.14 38.9983\\
1.15 40.2333\\
1.16 41.484\\
1.17 42.7501\\
1.18 44.0315\\
1.19 45.3279\\
1.2 46.6391\\
1.21 47.9648\\
1.22 49.3049\\
1.23 50.659\\
1.24 52.027\\
1.25 53.4087\\
1.26 54.8038\\
1.27 56.2121\\
1.28 57.6333\\
1.29 59.0674\\
1.3 60.514\\
1.31 61.9729\\
1.32 63.444\\
1.33 64.927\\
1.34 66.4216\\
1.35 67.9278\\
1.36 69.4453\\
1.37 70.9739\\
1.38 72.5134\\
1.39 74.0636\\
1.4 75.6243\\
1.41 77.1954\\
1.42 78.7765\\
1.43 80.3676\\
1.44 81.9684\\
1.45 83.5788\\
1.46 85.1986\\
1.47 86.8276\\
1.48 88.4656\\
1.49 90.1125\\
1.5 91.768\\
};
\addlegendentry{$T=\SI{362.5}{\kelvin}$}
\addplot [color=color4, solid, mark=asterisk, mark options={solid}, mark phase=1, ]
  table[row sep=crcr, x expr=\thisrowno{0}*1.000000e+00, y expr=\thisrowno{1}*1.000000e-03]{
0.1 0.000137435\\
0.11 0.000164467\\
0.12 0.000197562\\
0.13 0.000237732\\
0.14 0.000285733\\
0.15 0.000344345\\
0.16 0.000415083\\
0.17 0.00050098\\
0.18 0.000605067\\
0.19 0.000731385\\
0.2 0.000885494\\
0.21 0.00107245\\
0.22 0.00130007\\
0.23 0.00157797\\
0.24 0.00191676\\
0.25 0.00232957\\
0.26 0.00283358\\
0.27 0.00344926\\
0.28 0.00420187\\
0.29 0.00512147\\
0.3 0.00624646\\
0.31 0.00762207\\
0.32 0.00930565\\
0.33 0.0113649\\
0.34 0.013885\\
0.35 0.0169681\\
0.36 0.020738\\
0.37 0.0253458\\
0.38 0.0309731\\
0.39 0.0378378\\
0.4 0.0461998\\
0.41 0.0563677\\
0.42 0.0687045\\
0.43 0.0836318\\
0.44 0.101635\\
0.45 0.123265\\
0.46 0.14914\\
0.47 0.179941\\
0.48 0.216403\\
0.49 0.25931\\
0.5 0.30948\\
0.51 0.367752\\
0.52 0.434968\\
0.53 0.511964\\
0.54 0.599552\\
0.55 0.698511\\
0.56 0.809581\\
0.57 0.933457\\
0.58 1.07078\\
0.59 1.22215\\
0.6 1.38811\\
0.61 1.56916\\
0.62 1.76575\\
0.63 1.9783\\
0.64 2.20716\\
0.65 2.45269\\
0.66 2.71517\\
0.67 2.99488\\
0.68 3.29206\\
0.69 3.60691\\
0.7 3.93963\\
0.71 4.29039\\
0.72 4.65931\\
0.73 5.04654\\
0.74 5.45216\\
0.75 5.87627\\
0.76 6.31894\\
0.77 6.78022\\
0.78 7.26014\\
0.79 7.75874\\
0.8 8.27603\\
0.81 8.812\\
0.82 9.36664\\
0.83 9.93993\\
0.84 10.5318\\
0.85 11.1423\\
0.86 11.7713\\
0.87 12.4188\\
0.88 13.0846\\
0.89 13.7687\\
0.9 14.4711\\
0.91 15.1915\\
0.92 15.93\\
0.93 16.6864\\
0.94 17.4606\\
0.95 18.2525\\
0.96 19.0619\\
0.97 19.8888\\
0.98 20.7329\\
0.99 21.5942\\
1 22.4725\\
1.01 23.3677\\
1.02 24.2795\\
1.03 25.208\\
1.04 26.1528\\
1.05 27.1139\\
1.06 28.091\\
1.07 29.084\\
1.08 30.0928\\
1.09 31.1172\\
1.1 32.157\\
1.11 33.2119\\
1.12 34.282\\
1.13 35.3669\\
1.14 36.4666\\
1.15 37.5808\\
1.16 38.7093\\
1.17 39.852\\
1.18 41.0087\\
1.19 42.1792\\
1.2 43.3633\\
1.21 44.5609\\
1.22 45.7718\\
1.23 46.9958\\
1.24 48.2327\\
1.25 49.4823\\
1.26 50.7445\\
1.27 52.0191\\
1.28 53.3059\\
1.29 54.6047\\
1.3 55.9153\\
1.31 57.2377\\
1.32 58.5715\\
1.33 59.9166\\
1.34 61.273\\
1.35 62.6402\\
1.36 64.0183\\
1.37 65.4071\\
1.38 66.8063\\
1.39 68.2158\\
1.4 69.6354\\
1.41 71.065\\
1.42 72.5044\\
1.43 73.9535\\
1.44 75.412\\
1.45 76.8798\\
1.46 78.3568\\
1.47 79.8428\\
1.48 81.3376\\
1.49 82.8411\\
1.5 84.3532\\
};
\addlegendentry{$T=\SI{400.0}{\kelvin}$}
\end{axis}

\end{tikzpicture}
