\begin{tikzpicture}[font=\normalsize,trim axis left, trim axis right,tight background]
\pgfplotsset{every axis/.append style={very thick},compat=1.5},
\definecolor{color0}{rgb}{0.00000, 0.39216, 0.00000}
\definecolor{color1}{rgb}{0.00000, 0.00000, 0.54510}
\definecolor{color2}{rgb}{0.69020, 0.18824, 0.37647}

\begin{axis}[scale only axis,ytick pos=left,
xlabel={$J_{\mathrm{D}} ( \si{\milli\ampere\per\micro\meter} )$},
ylabel={$\mathrm{MSG} ( \si{\dB} )$},
xmode=log,
xmin=1e-05,
xmax=1,
restrict x to domain=-5.69897:0.69897,
log basis x=10,
ymin=0,
ymax=60,
restrict y to domain=0:300,
log basis y=10,
xlabel shift = -5 pt,
 ylabel shift = -5 pt,
xmajorgrids,
enlargelimits=false,
scaled ticks=true,
ymajorgrids,
x tick style={color=black},
y tick style={color=black},
x grid style={white!69.01960784313725!black},
y grid style={white!69.01960784313725!black},
/tikz/mark repeat=2,
legend style={at={(0.02,0.98)}, anchor=north west,legend cell align=left, align=left},
]
\addplot [color=color0, solid, mark=x, mark options={solid}, mark phase=1, ]
  table[row sep=crcr, x expr=\thisrowno{0}*1.000000e-03, y expr=\thisrowno{1}*1.000000e+00]{
0.00209622 0.143765\\
0.00285451 0.257278\\
0.00388695 0.458061\\
0.00529293 0.804383\\
0.00720791 1.37699\\
0.00981394 2.26574\\
0.0133592 3.53612\\
0.0181766 5.19317\\
0.0247147 7.17647\\
0.0335703 9.39133\\
0.0455343 11.7451\\
0.0616423 14.1647\\
0.0832295 16.5974\\
0.111988 19.0054\\
0.150014 21.3597\\
0.199835 23.6369\\
0.264401 25.8177\\
0.347038 27.8867\\
0.451358 29.8331\\
0.581153 31.6516\\
0.740276 33.3418\\
0.932556 34.9081\\
1.16173 36.3576\\
1.4314 37.6995\\
1.74504 38.943\\
2.10596 40.0974\\
2.5173 41.171\\
2.98206 42.1713\\
3.50303 43.1052\\
4.08285 43.9785\\
4.72395 44.7964\\
5.42859 45.5636\\
6.19886 46.2841\\
7.03662 46.9615\\
7.94359 47.5992\\
8.92128 48.2\\
9.97106 48.7664\\
11.0941 49.3008\\
12.2914 49.8052\\
13.5637 50.2816\\
14.9119 50.7314\\
16.3363 51.1563\\
17.8375 51.5576\\
19.4155 51.9365\\
21.0705 52.2942\\
22.8025 52.6317\\
24.6113 52.9498\\
26.4965 53.2495\\
28.4577 53.5316\\
30.4944 53.7967\\
32.6058 54.0455\\
34.7913 54.2786\\
37.05 54.4967\\
39.3808 54.7003\\
41.7827 54.8898\\
44.2544 55.0659\\
46.7949 55.2288\\
49.4026 55.3792\\
52.0762 55.5173\\
54.8142 55.6436\\
57.615 55.7585\\
60.4769 55.8624\\
63.3984 55.9556\\
66.3776 56.0385\\
69.4127 56.1114\\
72.5019 56.1746\\
75.6434 56.2285\\
78.8351 56.2735\\
82.0752 56.3097\\
85.3616 56.3376\\
88.6925 56.3574\\
92.0657 56.3695\\
95.4793 56.374\\
98.9312 56.3714\\
102.419 56.3619\\
105.942 56.3457\\
109.497 56.3233\\
113.082 56.2947\\
116.695 56.2603\\
120.335 56.2203\\
124 56.175\\
127.686 56.1246\\
131.394 56.0694\\
135.12 56.0096\\
138.863 55.9454\\
142.621 55.877\\
146.392 55.8047\\
150.175 55.7286\\
153.968 55.6489\\
157.77 55.5659\\
161.578 55.4797\\
165.391 55.3904\\
169.208 55.2983\\
173.027 55.2035\\
176.847 55.1062\\
180.666 55.0064\\
184.484 54.9045\\
188.297 54.8004\\
192.107 54.6943\\
195.911 54.5863\\
199.707 54.4766\\
203.496 54.3653\\
207.275 54.2524\\
211.045 54.1381\\
214.803 54.0224\\
218.549 53.9055\\
222.282 53.7874\\
226.001 53.6682\\
229.705 53.548\\
233.393 53.4269\\
237.065 53.3049\\
240.72 53.1821\\
244.357 53.0585\\
247.975 52.9342\\
251.575 52.8093\\
255.154 52.6838\\
258.713 52.5577\\
262.251 52.4311\\
265.768 52.3041\\
269.263 52.1767\\
272.735 52.0488\\
276.185 51.9206\\
279.611 51.7921\\
283.014 51.6632\\
286.392 51.5342\\
289.747 51.4048\\
293.076 51.2753\\
296.381 51.1455\\
299.661 51.0156\\
302.915 50.8855\\
306.143 50.7553\\
309.345 50.6249\\
312.522 50.4945\\
315.672 50.3639\\
318.795 50.2333\\
321.892 50.1025\\
324.963 49.9718\\
328.006 49.8409\\
331.023 49.7101\\
334.012 49.5792\\
336.975 49.4482\\
};
\addlegendentry{$V_{\mathrm{DS}}=\SI{0.5}{\volt}$}
\addplot [color=color1, solid, mark=+, mark options={solid}, mark phase=1, ]
  table[row sep=crcr, x expr=\thisrowno{0}*1.000000e-03, y expr=\thisrowno{1}*1.000000e+00]{
0.00295228 0.306056\\
0.00402549 0.546964\\
0.0054888 0.959642\\
0.00748417 1.63223\\
0.0102039 2.65315\\
0.0139101 4.07221\\
0.0189548 5.87082\\
0.0258147 7.97154\\
0.0351279 10.2764\\
0.0477439 12.6986\\
0.0647814 15.1735\\
0.0876951 17.6557\\
0.11835 20.1118\\
0.159077 22.5155\\
0.212719 24.8441\\
0.282628 27.0768\\
0.372606 29.1954\\
0.486779 31.1854\\
0.62943 33.0373\\
0.804812 34.748\\
1.017 36.3208\\
1.2698 37.764\\
1.56675 39.0891\\
1.91115 40.3092\\
2.30612 41.4368\\
2.75463 42.4833\\
3.25954 43.4585\\
3.82361 44.3703\\
4.44951 45.2255\\
5.13975 46.0295\\
5.89675 46.7868\\
6.72276 47.5014\\
7.61986 48.1766\\
8.58999 48.8153\\
9.63491 49.4201\\
10.7562 49.9934\\
11.9553 50.5371\\
13.2334 51.0532\\
14.5915 51.5434\\
16.0307 52.0092\\
17.5516 52.4521\\
19.1548 52.8733\\
20.8407 53.2741\\
22.6096 53.6555\\
24.4616 54.0186\\
26.3967 54.3644\\
28.4147 54.6937\\
30.5154 55.0073\\
32.6984 55.306\\
34.9632 55.5905\\
37.3092 55.8615\\
39.7355 56.1195\\
42.2415 56.3653\\
44.8263 56.5993\\
47.4887 56.822\\
50.2279 57.034\\
53.0425 57.2357\\
55.9316 57.4275\\
58.8937 57.6099\\
61.9276 57.7833\\
65.032 57.9479\\
68.2054 58.1043\\
71.4465 58.2527\\
74.7538 58.3934\\
78.1257 58.5268\\
81.5608 58.6532\\
85.0576 58.7728\\
88.6146 58.8858\\
92.2301 58.9927\\
95.9027 59.0935\\
99.6307 59.1885\\
103.413 59.278\\
107.247 59.3622\\
111.132 59.4412\\
115.067 59.5153\\
119.049 59.5846\\
123.077 59.6494\\
127.151 59.7098\\
131.267 59.7659\\
135.426 59.8179\\
139.624 59.8659\\
143.862 59.9102\\
148.137 59.9508\\
152.448 59.9878\\
156.793 60.0214\\
161.172 60.0518\\
165.584 60.0789\\
170.025 60.1029\\
174.497 60.124\\
178.996 60.1422\\
183.522 60.1575\\
188.074 60.1702\\
192.65 60.1803\\
197.25 60.1878\\
201.872 60.1928\\
206.515 60.1954\\
211.178 60.1957\\
215.859 60.1938\\
220.559 60.1896\\
225.275 60.1833\\
230.007 60.1749\\
234.754 60.1645\\
239.514 60.1521\\
244.288 60.1378\\
249.073 60.1215\\
253.869 60.1035\\
258.675 60.0836\\
263.49 60.062\\
268.314 60.0386\\
273.145 60.0136\\
277.983 59.9869\\
282.827 59.9586\\
287.676 59.9287\\
292.529 59.8972\\
297.385 59.8642\\
302.245 59.8298\\
307.106 59.7938\\
311.969 59.7564\\
316.833 59.7175\\
321.697 59.6773\\
326.56 59.6356\\
331.421 59.5927\\
336.281 59.5483\\
341.138 59.5027\\
345.993 59.4557\\
350.843 59.4075\\
355.689 59.358\\
360.53 59.3073\\
365.366 59.2553\\
370.195 59.2021\\
375.018 59.1477\\
379.834 59.0922\\
384.643 59.0355\\
389.443 58.9776\\
394.235 58.9187\\
399.017 58.8586\\
403.79 58.7974\\
408.554 58.7351\\
413.306 58.6718\\
418.048 58.6074\\
422.779 58.542\\
};
\addlegendentry{$V_{\mathrm{DS}}=\SI{1.0}{\volt}$}
\addplot [color=color2, solid, mark=triangle, mark options={solid, rotate=180}, mark phase=1, ]
  table[row sep=crcr, x expr=\thisrowno{0}*1.000000e-03, y expr=\thisrowno{1}*1.000000e+00]{
0.00364837 0.507875\\
0.00497688 0.896508\\
0.00679068 1.53592\\
0.00926515 2.51762\\
0.01264 3.89903\\
0.0172388 5.67002\\
0.0235052 7.75778\\
0.0320279 10.0644\\
0.0435992 12.5012\\
0.0592763 15.0018\\
0.0804435 17.5202\\
0.108899 20.0234\\
0.146934 22.4859\\
0.1974 24.8852\\
0.263744 27.2002\\
0.349979 29.4106\\
0.460586 31.4982\\
0.60032 33.4483\\
0.773973 35.2516\\
0.986124 36.9057\\
1.24096 38.4152\\
1.54222 39.7904\\
1.89318 41.0451\\
2.29682 42.1944\\
2.75587 43.2531\\
3.27297 44.2339\\
3.85066 45.1477\\
4.49147 46.0032\\
5.19787 46.8071\\
5.97226 47.565\\
6.81697 48.281\\
7.73417 48.9589\\
8.72595 49.6014\\
9.79422 50.2112\\
10.9407 50.7905\\
12.1671 51.341\\
13.4747 51.8647\\
14.8647 52.3631\\
16.3383 52.8376\\
17.8964 53.2896\\
19.5396 53.7203\\
21.2685 54.1307\\
23.0836 54.522\\
24.985 54.8952\\
26.9728 55.2511\\
29.047 55.5906\\
31.2074 55.9145\\
33.4536 56.2236\\
35.7853 56.5184\\
38.2017 56.7998\\
40.7023 57.0683\\
43.2862 57.3244\\
45.9526 57.5688\\
48.7005 57.8019\\
51.5287 58.0243\\
54.4362 58.2364\\
57.4218 58.4387\\
60.4842 58.6315\\
63.622 58.8153\\
66.8339 58.9905\\
70.1185 59.1574\\
73.4742 59.3164\\
76.8997 59.4677\\
80.3932 59.6117\\
83.9534 59.7488\\
87.5787 59.8791\\
91.2674 60.0031\\
95.0181 60.1208\\
98.829 60.2326\\
102.699 60.3387\\
106.625 60.4394\\
110.608 60.5348\\
114.644 60.6252\\
118.732 60.7108\\
122.872 60.7917\\
127.06 60.8682\\
131.297 60.9404\\
135.579 61.0085\\
139.907 61.0727\\
144.277 61.133\\
148.69 61.1897\\
153.143 61.2429\\
157.635 61.2927\\
162.165 61.3393\\
166.731 61.3827\\
171.332 61.4232\\
175.966 61.4608\\
180.634 61.4955\\
185.332 61.5277\\
190.06 61.5572\\
194.818 61.5843\\
199.603 61.6089\\
204.414 61.6313\\
209.251 61.6515\\
214.112 61.6695\\
218.997 61.6855\\
223.904 61.6994\\
228.832 61.7115\\
233.781 61.7217\\
238.748 61.7302\\
243.735 61.7369\\
248.739 61.742\\
253.759 61.7454\\
258.796 61.7474\\
263.847 61.7478\\
268.912 61.7468\\
273.991 61.7444\\
279.083 61.7406\\
284.186 61.7355\\
289.301 61.7292\\
294.426 61.7216\\
299.561 61.7129\\
304.704 61.703\\
309.857 61.692\\
315.017 61.68\\
320.184 61.6668\\
325.357 61.6527\\
330.537 61.6376\\
335.722 61.6215\\
340.912 61.6045\\
346.106 61.5866\\
351.305 61.5678\\
356.506 61.5482\\
361.71 61.5278\\
366.916 61.5065\\
372.124 61.4844\\
377.334 61.4616\\
382.544 61.438\\
387.755 61.4137\\
392.966 61.3887\\
398.176 61.3629\\
403.386 61.3365\\
408.594 61.3094\\
413.801 61.2817\\
419.005 61.2533\\
424.208 61.2243\\
429.407 61.1947\\
434.604 61.1645\\
439.797 61.1336\\
444.987 61.1022\\
450.172 61.0703\\
};
\addlegendentry{$V_{\mathrm{DS}}=\SI{1.5}{\volt}$}
\end{axis}

\end{tikzpicture}
