\begin{tikzpicture}[font=\normalsize,trim axis left, trim axis right,tight background]
\pgfplotsset{every axis/.append style={very thick},compat=1.5},
\definecolor{color0}{rgb}{0.00000, 0.39216, 0.00000}
\definecolor{color1}{rgb}{0.00000, 0.00000, 0.54510}
\definecolor{color2}{rgb}{0.69020, 0.18824, 0.37647}

\begin{axis}[scale only axis,ytick pos=left,
xlabel={$J_{\mathrm{D}} ( \si{\milli\ampere\per\micro\meter} )$},
ylabel={$\Re \left\{ \underline{Y}_{21} \right\} ( \si{\milli\siemens\per\micro\meter} )$},
xmode=log,
ymode=log,
xmin=1e-05,
xmax=1,
restrict x to domain=-5.69897:0.69897,
log basis x=10,
ymin=0.0001,
ymax=2,
restrict y to domain=-4.69897:1,
log basis y=10,
xlabel shift = -5 pt,
 ylabel shift = -5 pt,
xmajorgrids,
enlargelimits=false,
scaled ticks=true,
ymajorgrids,
x tick style={color=black},
y tick style={color=black},
x grid style={white!69.01960784313725!black},
y grid style={white!69.01960784313725!black},
/tikz/mark repeat=2,
legend style={at={(0.02,0.98)}, anchor=north west,legend cell align=left, align=left},
]
\addplot [color=color0, solid, mark=x, mark options={solid}, mark phase=1, ]
  table[row sep=crcr, x expr=\thisrowno{0}*1.000000e-03, y expr=\thisrowno{1}*1.000000e-03]{
0.000156888 0.00420651\\
0.000205611 0.00552898\\
0.000269438 0.0072666\\
0.000353404 0.0095503\\
0.000463517 0.0125525\\
0.0006079 0.0165002\\
0.000798082 0.0216925\\
0.00104803 0.028523\\
0.00137642 0.0375104\\
0.00180843 0.0493376\\
0.00237638 0.0649036\\
0.0031233 0.0853917\\
0.00410604 0.112358\\
0.00539948 0.147849\\
0.0071012 0.194548\\
0.00934019 0.255977\\
0.0122856 0.336738\\
0.0161596 0.442836\\
0.0212528 0.582072\\
0.027945 0.76453\\
0.0367312 1.00316\\
0.048251 1.31442\\
0.0633307 1.71906\\
0.0830286 2.24271\\
0.108686 2.91655\\
0.141983 3.77744\\
0.184999 4.86756\\
0.240253 6.23318\\
0.310742 7.92235\\
0.399935 9.98168\\
0.511749 12.4527\\
0.650473 15.3685\\
0.820681 18.7525\\
1.02713 22.6187\\
1.27469 26.9747\\
1.56828 31.8253\\
1.91286 37.1753\\
2.31347 43.031\\
2.77519 49.3996\\
3.30319 56.2877\\
3.90269 63.699\\
4.57892 71.6337\\
5.3371 80.0872\\
6.18236 89.05\\
7.11975 98.5084\\
8.15413 108.445\\
9.29017 118.839\\
10.5324 129.668\\
11.8849 140.906\\
13.3517 152.526\\
14.9366 164.502\\
16.6429 176.805\\
18.4737 189.404\\
20.4319 202.27\\
22.5199 215.374\\
24.74 228.683\\
27.0941 242.167\\
29.5838 255.796\\
32.2104 269.537\\
34.9748 283.359\\
37.8778 297.232\\
40.9195 311.124\\
44.1002 325.003\\
47.4195 338.84\\
50.8768 352.605\\
54.4712 366.267\\
58.2017 379.799\\
62.0667 393.171\\
66.0645 406.359\\
70.1932 419.336\\
74.4504 432.079\\
78.8339 444.565\\
83.3408 456.774\\
87.9684 468.687\\
92.7135 480.286\\
97.573 491.556\\
102.543 502.485\\
107.622 513.061\\
112.804 523.275\\
118.086 533.118\\
123.465 542.585\\
128.936 551.672\\
134.497 560.376\\
140.142 568.696\\
145.869 576.632\\
151.674 584.186\\
157.552 591.359\\
163.5 598.157\\
169.514 604.583\\
175.59 610.643\\
181.725 616.342\\
187.916 621.687\\
194.158 626.685\\
200.448 631.345\\
206.784 635.673\\
213.161 639.677\\
219.576 643.367\\
226.027 646.751\\
232.51 649.836\\
239.023 652.633\\
245.562 655.149\\
252.125 657.394\\
258.709 659.375\\
265.312 661.102\\
271.93 662.584\\
278.562 663.827\\
285.206 664.842\\
291.859 665.635\\
298.518 666.214\\
305.182 666.589\\
311.849 666.765\\
318.517 666.751\\
325.184 666.554\\
331.847 666.181\\
338.507 665.638\\
345.16 664.933\\
351.805 664.071\\
358.44 663.06\\
365.065 661.905\\
371.678 660.612\\
378.277 659.187\\
384.861 657.636\\
391.43 655.964\\
397.98 654.176\\
404.513 652.277\\
411.026 650.272\\
417.518 648.166\\
423.989 645.963\\
430.437 643.668\\
436.862 641.285\\
443.262 638.817\\
449.638 636.27\\
455.987 633.647\\
462.31 630.952\\
468.606 628.187\\
474.874 625.357\\
481.113 622.465\\
487.323 619.514\\
493.503 616.507\\
499.653 613.448\\
505.772 610.338\\
};
\addlegendentry{$V_{\mathrm{DS}}=\SI{0.5}{\volt}$}
\addplot [color=color1, solid, mark=+, mark options={solid}, mark phase=1, ]
  table[row sep=crcr, x expr=\thisrowno{0}*1.000000e-03, y expr=\thisrowno{1}*1.000000e-03]{
0.000243939 0.00659383\\
0.000320272 0.00867675\\
0.000419992 0.0114182\\
0.000551544 0.0150271\\
0.000724997 0.0197794\\
0.000953021 0.0260385\\
0.0012525 0.0342839\\
0.00164813 0.0451481\\
0.00216817 0.0594647\\
0.00285289 0.0783333\\
0.00375524 0.103203\\
0.0049444 0.135982\\
0.00651003 0.179184\\
0.00857394 0.236113\\
0.011293 0.311109\\
0.0148751 0.409858\\
0.0195941 0.539796\\
0.0258076 0.710607\\
0.0339846 0.934848\\
0.0447371 1.2287\\
0.0588596 1.61282\\
0.0773811 2.11335\\
0.101622 2.7628\\
0.133265 3.60093\\
0.174427 4.67504\\
0.227735 6.03961\\
0.296387 7.7545\\
0.3842 9.88165\\
0.495592 12.4798\\
0.635532 15.5979\\
0.809397 19.269\\
1.0228 23.5055\\
1.28137 28.2998\\
1.59058 33.63\\
1.95566 39.4691\\
2.38159 45.7951\\
2.87316 52.5983\\
3.43516 59.8828\\
4.07247 67.6642\\
4.79017 75.9631\\
5.59353 84.8003\\
6.48802 94.1913\\
7.47923 104.144\\
8.57278 114.659\\
9.77426 125.727\\
11.0891 137.333\\
12.5226 149.455\\
14.0799 162.067\\
15.7655 175.138\\
17.5841 188.636\\
19.5396 202.525\\
21.6357 216.769\\
23.876 231.329\\
26.2633 246.168\\
28.8001 261.246\\
31.4889 276.524\\
34.3312 291.965\\
37.3286 307.528\\
40.482 323.178\\
43.7923 338.876\\
47.2596 354.588\\
50.884 370.28\\
54.665 385.917\\
58.602 401.47\\
62.694 416.907\\
66.9397 432.201\\
71.3375 447.325\\
75.8856 462.255\\
80.5819 476.967\\
85.4241 491.441\\
90.4098 505.656\\
95.5363 519.596\\
100.801 533.245\\
106.2 546.587\\
111.731 559.611\\
117.391 572.306\\
123.176 584.661\\
129.083 596.669\\
135.109 608.323\\
141.249 619.618\\
147.5 630.55\\
153.858 641.116\\
160.321 651.316\\
166.884 661.149\\
173.543 670.615\\
180.295 679.717\\
187.136 688.457\\
194.063 696.84\\
201.071 704.868\\
208.159 712.549\\
215.321 719.886\\
222.555 726.887\\
229.858 733.558\\
237.225 739.907\\
244.655 745.939\\
252.143 751.664\\
259.687 757.089\\
267.284 762.222\\
274.931 767.071\\
282.625 771.643\\
290.363 775.949\\
298.143 779.994\\
305.962 783.788\\
313.818 787.338\\
321.708 790.653\\
329.63 793.74\\
337.582 796.606\\
345.561 799.26\\
353.566 801.708\\
361.595 803.957\\
369.645 806.016\\
377.714 807.889\\
385.802 809.585\\
393.906 811.109\\
402.024 812.467\\
410.154 813.666\\
418.296 814.712\\
426.448 815.609\\
434.608 816.364\\
442.775 816.981\\
450.947 817.466\\
459.124 817.824\\
467.303 818.059\\
475.485 818.176\\
483.667 818.179\\
491.848 818.073\\
500.028 817.862\\
508.205 817.548\\
516.378 817.137\\
524.547 816.632\\
532.711 816.036\\
540.868 815.353\\
549.017 814.586\\
557.159 813.737\\
565.292 812.811\\
573.415 811.809\\
581.528 810.735\\
589.629 809.591\\
597.719 808.379\\
605.797 807.103\\
613.861 805.765\\
};
\addlegendentry{$V_{\mathrm{DS}}=\SI{1.0}{\volt}$}
\addplot [color=color2, solid, mark=triangle, mark options={solid, rotate=180}, mark phase=1, ]
  table[row sep=crcr, x expr=\thisrowno{0}*1.000000e-03, y expr=\thisrowno{1}*1.000000e-03]{
0.000322221 0.00869492\\
0.000422265 0.0114501\\
0.000554142 0.0150792\\
0.000727596 0.0198604\\
0.000957568 0.0261609\\
0.001259 0.0344656\\
0.00165658 0.0454138\\
0.00217889 0.0598495\\
0.00286881 0.0788863\\
0.00377765 0.103993\\
0.00497494 0.137107\\
0.00655551 0.18078\\
0.0086389 0.238375\\
0.0113843 0.314312\\
0.015006 0.414399\\
0.0197789 0.546243\\
0.0260694 0.719788\\
0.0343562 0.947975\\
0.0452669 1.24756\\
0.0596174 1.6401\\
0.0784699 2.15305\\
0.103195 2.82098\\
0.135548 3.6867\\
0.177761 4.80212\\
0.232625 6.22836\\
0.303595 8.03462\\
0.394833 10.2952\\
0.511261 13.0842\\
0.658502 16.4674\\
0.842756 20.4932\\
1.07059 25.1838\\
1.34862 30.5308\\
1.68327 36.4973\\
2.08046 43.0289\\
2.54554 50.0685\\
3.08337 57.5726\\
3.69847 65.5204\\
4.39527 73.9163\\
5.17837 82.784\\
6.05264 92.1574\\
7.02332 102.071\\
8.09596 112.554\\
9.27637 123.625\\
10.5704 135.29\\
11.9841 147.544\\
13.5232 160.373\\
15.1934 173.753\\
17 187.654\\
18.9481 202.041\\
21.0423 216.875\\
23.287 232.114\\
25.6858 247.715\\
28.2423 263.631\\
30.9593 279.817\\
33.8394 296.226\\
36.8845 312.812\\
40.0961 329.529\\
43.4753 346.331\\
47.0228 363.175\\
50.7388 380.018\\
54.6231 396.819\\
58.6749 413.54\\
62.8935 430.144\\
67.2773 446.596\\
71.8248 462.864\\
76.5339 478.919\\
81.4023 494.733\\
86.4277 510.283\\
91.6071 525.547\\
96.9376 540.505\\
102.416 555.139\\
108.039 569.436\\
113.804 583.382\\
119.706 596.968\\
125.742 610.183\\
131.908 623.022\\
138.201 635.479\\
144.616 647.55\\
151.151 659.233\\
157.8 670.526\\
164.56 681.431\\
171.427 691.948\\
178.398 702.08\\
185.467 711.829\\
192.633 721.2\\
199.89 730.198\\
207.236 738.828\\
214.665 747.097\\
222.176 755.01\\
229.765 762.576\\
237.427 769.802\\
245.159 776.696\\
252.96 783.266\\
260.824 789.52\\
268.749 795.468\\
276.732 801.117\\
284.77 806.477\\
292.861 811.557\\
301.001 816.365\\
309.187 820.91\\
317.418 825.201\\
325.69 829.246\\
334.002 833.054\\
342.351 836.633\\
350.734 839.991\\
359.15 843.137\\
367.596 846.078\\
376.071 848.822\\
384.572 851.375\\
393.098 853.746\\
401.646 855.942\\
410.216 857.968\\
418.805 859.833\\
427.412 861.541\\
436.035 863.099\\
444.673 864.513\\
453.325 865.788\\
461.989 866.931\\
470.663 867.946\\
479.347 868.839\\
488.04 869.614\\
496.739 870.276\\
505.445 870.83\\
514.155 871.28\\
522.87 871.63\\
531.588 871.884\\
540.307 872.046\\
549.028 872.119\\
557.75 872.108\\
566.47 872.016\\
575.19 871.845\\
583.907 871.599\\
592.621 871.281\\
601.332 870.893\\
610.039 870.44\\
618.741 869.922\\
627.437 869.343\\
636.128 868.705\\
644.811 868.01\\
653.488 867.261\\
662.156 866.46\\
};
\addlegendentry{$V_{\mathrm{DS}}=\SI{1.5}{\volt}$}
\end{axis}

\end{tikzpicture}
