\begin{tikzpicture}[font=\normalsize, trim axis left, trim axis right, tight background]
\pgfplotsset{every axis/.append style={very thick},compat=1.18}
\definecolor{color0}{rgb}{0.00000, 0.39216, 0.00000}
\definecolor{color1}{rgb}{0.00000, 0.00000, 0.54510}
\definecolor{color2}{rgb}{0.69020, 0.18824, 0.37647}
\definecolor{color3}{rgb}{1.00000, 0.00000, 0.00000}

\begin{axis}[
scale only axis,
xlabel={$-J_{\mathrm{D}} ( \si{\milli\ampere \per\micro\meter} )$},
ylabel={$f_{\mathrm{T}} ( \si{\giga\hertz} )$},
xmode=log,
% xmin=0,
% xmax=0,
% restrict x to domain=0:1,
log basis x=10,
% ymin=0,
% ymax=0,
% restrict y to domain=0:1,
log basis y=10,
ytick pos=left,
xlabel shift=-5pt,
 ylabel shift=-5pt,
xmajorgrids,
enlargelimits=false,
scaled ticks=true,
ymajorgrids,
x tick style={color=black},
y tick style={color=black},
x grid style={white!69.01960784313725!black},
y grid style={white!69.01960784313725!black},
/tikz/mark repeat=2,
legend style={at={(0.02,0.98)}, anchor=north west,legend cell align=left, align=left},
]
\addplot [color=color0, solid, mark=x, mark options={solid}, mark phase=0, ]
  table[row sep=crcr, x expr=\thisrowno{0}*1.000000e-03, y expr=\thisrowno{1}*1.000000e-09]{
0.000243939 2.2591e+09\\
0.000320272 1.72247e+09\\
0.000419992 1.31318e+09\\
0.000551544 1.00119e+09\\
0.000724997 7.63557e+08\\
0.000953021 5.82753e+08\\
0.0012525 4.45413e+08\\
0.00164813 3.41365e+08\\
0.00216817 2.62882e+08\\
0.00285289 2.04126e+08\\
0.00375524 1.60719e+08\\
0.0049444 1.2942e+08\\
0.00651003 1.0789e+08\\
0.00857394 9.45173e+07\\
0.011293 8.82999e+07\\
0.0148751 8.87684e+07\\
0.0195941 9.59483e+07\\
0.0258076 1.10354e+08\\
0.0339846 1.33013e+08\\
0.0447371 1.65514e+08\\
0.0588596 2.10085e+08\\
0.0773811 2.6967e+08\\
0.101622 3.4802e+08\\
0.133265 4.49756e+08\\
0.174427 5.80359e+08\\
0.227735 7.46064e+08\\
0.296387 9.53574e+08\\
0.3842 1.20955e+09\\
0.495592 1.51991e+09\\
0.635532 1.88894e+09\\
0.809397 2.31855e+09\\
1.0228 2.80784e+09\\
1.28137 3.35335e+09\\
1.59058 3.94999e+09\\
1.95566 4.59239e+09\\
2.38159 5.27636e+09\\
2.87316 5.99965e+09\\
3.43516 6.76215e+09\\
4.07247 7.56541e+09\\
4.79017 8.4118e+09\\
5.59353 9.3038e+09\\
6.48802 1.02433e+10\\
7.47923 1.12315e+10\\
8.57278 1.22684e+10\\
9.77426 1.33532e+10\\
11.0891 1.44844e+10\\
12.5226 1.56597e+10\\
14.0799 1.68763e+10\\
15.7655 1.81309e+10\\
17.5841 1.942e+10\\
19.5396 2.07399e+10\\
21.6357 2.20867e+10\\
23.876 2.34564e+10\\
26.2633 2.48448e+10\\
28.8001 2.6248e+10\\
31.4889 2.76617e+10\\
34.3312 2.90821e+10\\
37.3286 3.05051e+10\\
40.482 3.1927e+10\\
43.7923 3.3344e+10\\
47.2596 3.47526e+10\\
50.884 3.61495e+10\\
54.665 3.75315e+10\\
58.602 3.88958e+10\\
62.694 4.02395e+10\\
66.9397 4.15602e+10\\
71.3375 4.28557e+10\\
75.8856 4.41239e+10\\
80.5819 4.53631e+10\\
85.4241 4.65718e+10\\
90.4098 4.77485e+10\\
95.5363 4.88923e+10\\
100.801 5.00021e+10\\
106.2 5.10773e+10\\
111.731 5.21173e+10\\
117.391 5.31217e+10\\
123.176 5.40903e+10\\
129.083 5.50229e+10\\
135.109 5.59197e+10\\
141.249 5.67808e+10\\
147.5 5.76064e+10\\
153.858 5.83967e+10\\
160.321 5.91524e+10\\
166.884 5.98738e+10\\
173.543 6.05615e+10\\
180.295 6.12162e+10\\
187.136 6.18384e+10\\
194.063 6.24289e+10\\
201.071 6.29884e+10\\
208.159 6.35178e+10\\
215.321 6.40177e+10\\
222.555 6.4489e+10\\
229.858 6.49325e+10\\
237.225 6.5349e+10\\
244.655 6.57394e+10\\
252.143 6.61044e+10\\
259.687 6.6445e+10\\
267.284 6.67619e+10\\
274.931 6.70559e+10\\
282.625 6.73278e+10\\
290.363 6.75784e+10\\
298.143 6.78085e+10\\
305.962 6.80189e+10\\
313.818 6.82101e+10\\
321.708 6.83831e+10\\
329.63 6.85385e+10\\
337.582 6.86768e+10\\
345.561 6.87989e+10\\
353.566 6.89053e+10\\
361.595 6.89967e+10\\
369.645 6.90736e+10\\
377.714 6.91367e+10\\
385.802 6.91864e+10\\
393.906 6.92234e+10\\
402.024 6.92481e+10\\
410.154 6.9261e+10\\
418.296 6.92626e+10\\
426.448 6.92535e+10\\
434.608 6.92339e+10\\
442.775 6.92043e+10\\
450.947 6.91652e+10\\
459.124 6.9117e+10\\
467.303 6.90599e+10\\
475.485 6.89945e+10\\
483.667 6.89209e+10\\
491.848 6.88396e+10\\
500.028 6.87509e+10\\
508.205 6.86551e+10\\
516.378 6.85524e+10\\
524.547 6.84432e+10\\
532.711 6.83277e+10\\
540.868 6.82062e+10\\
549.017 6.80789e+10\\
557.159 6.79461e+10\\
565.292 6.7808e+10\\
573.415 6.76647e+10\\
581.528 6.75167e+10\\
589.629 6.73639e+10\\
597.719 6.72066e+10\\
605.797 6.7045e+10\\
613.861 6.68794e+10\\
};
\addlegendentry{$\SI{350.0}{\nano\meter}$}
\addplot [color=color1, solid, mark=+, mark options={solid}, mark phase=0, ]
  table[row sep=crcr, x expr=\thisrowno{0}*1.000000e-03, y expr=\thisrowno{1}*1.000000e-09]{
0.000287059 1.91297e+09\\
0.000376682 1.45731e+09\\
0.000495106 1.11023e+09\\
0.000651426 8.45994e+08\\
0.000856441 6.45025e+08\\
0.00112664 4.92381e+08\\
0.00148286 3.76694e+08\\
0.001952 2.89332e+08\\
0.0025697 2.23765e+08\\
0.00338427 1.75084e+08\\
0.00445766 1.39637e+08\\
0.00587287 1.14765e+08\\
0.00773809 9.8597e+07\\
0.0101975 8.99176e+07\\
0.0134389 8.80719e+07\\
0.0177107 9.29149e+07\\
0.0233399 1.04796e+08\\
0.0307532 1.24574e+08\\
0.0405102 1.53663e+08\\
0.0533409 1.941e+08\\
0.0701914 2.4864e+08\\
0.0922849 3.20854e+08\\
0.121188 4.15225e+08\\
0.158889 5.37195e+08\\
0.207881 6.93126e+08\\
0.271237 8.90108e+08\\
0.352675 1.13553e+09\\
0.456574 1.43636e+09\\
0.587935 1.79816e+09\\
0.752259 2.22392e+09\\
0.955335 2.71311e+09\\
1.20296 3.26125e+09\\
1.50063 3.86048e+09\\
1.85336 4.50113e+09\\
2.26551 5.17405e+09\\
2.74095 5.87263e+09\\
3.28319 6.59411e+09\\
3.89573 7.33958e+09\\
4.58226 8.11305e+09\\
5.34688 8.91999e+09\\
6.19415 9.76598e+09\\
7.12905 1.06557e+10\\
8.15687 1.15924e+10\\
9.28314 1.25779e+10\\
10.5134 1.36124e+10\\
11.8533 1.46951e+10\\
13.3082 1.5824e+10\\
14.8833 1.69967e+10\\
16.5835 1.82099e+10\\
18.4134 1.94603e+10\\
20.3774 2.07442e+10\\
22.4793 2.20577e+10\\
24.7227 2.33968e+10\\
27.1108 2.47576e+10\\
29.6464 2.6136e+10\\
32.3319 2.75282e+10\\
35.1693 2.89303e+10\\
38.1602 3.03383e+10\\
41.3061 3.17487e+10\\
44.6076 3.31579e+10\\
48.0656 3.45623e+10\\
51.6801 3.59587e+10\\
55.451 3.73441e+10\\
59.378 3.87154e+10\\
63.4602 4.007e+10\\
67.6968 4.14053e+10\\
72.0863 4.2719e+10\\
76.6272 4.40089e+10\\
81.3177 4.52733e+10\\
86.1558 4.65103e+10\\
91.1393 4.77184e+10\\
96.2656 4.88964e+10\\
101.532 5.00431e+10\\
106.936 5.11576e+10\\
112.475 5.22391e+10\\
118.146 5.3287e+10\\
123.944 5.43009e+10\\
129.868 5.52803e+10\\
135.914 5.62252e+10\\
142.078 5.71355e+10\\
148.357 5.80112e+10\\
154.747 5.88525e+10\\
161.245 5.96596e+10\\
167.847 6.04328e+10\\
174.55 6.11726e+10\\
181.35 6.18793e+10\\
188.243 6.25536e+10\\
195.226 6.31959e+10\\
202.296 6.3807e+10\\
209.448 6.43874e+10\\
216.68 6.49379e+10\\
223.989 6.54591e+10\\
231.369 6.59518e+10\\
238.82 6.64168e+10\\
246.336 6.68548e+10\\
253.916 6.72665e+10\\
261.556 6.76528e+10\\
269.252 6.80144e+10\\
277.003 6.83521e+10\\
284.805 6.86666e+10\\
292.655 6.89588e+10\\
300.552 6.92292e+10\\
308.491 6.94788e+10\\
316.47 6.97081e+10\\
324.488 6.99179e+10\\
332.542 7.0109e+10\\
340.628 7.02818e+10\\
348.746 7.04372e+10\\
356.893 7.05758e+10\\
365.066 7.06981e+10\\
373.264 7.08048e+10\\
381.485 7.08965e+10\\
389.726 7.09737e+10\\
397.987 7.1037e+10\\
406.265 7.10869e+10\\
414.558 7.1124e+10\\
422.865 7.11486e+10\\
431.184 7.11613e+10\\
439.514 7.11626e+10\\
447.852 7.11529e+10\\
456.199 7.11326e+10\\
464.552 7.11022e+10\\
472.91 7.10619e+10\\
481.271 7.10123e+10\\
489.635 7.09537e+10\\
498 7.08864e+10\\
506.365 7.08108e+10\\
514.729 7.07272e+10\\
523.09 7.06358e+10\\
531.449 7.05372e+10\\
539.803 7.04314e+10\\
548.152 7.03187e+10\\
556.495 7.01996e+10\\
564.83 7.00741e+10\\
573.158 6.99426e+10\\
581.477 6.98053e+10\\
589.787 6.96623e+10\\
598.086 6.95141e+10\\
606.374 6.93606e+10\\
614.65 6.92023e+10\\
622.913 6.90391e+10\\
};
\addlegendentry{$\SI{600.0}{\nano\meter}$}
\addplot [color=color2, solid, mark=triangle, mark options={solid, rotate=180}, mark phase=0, ]
  table[row sep=crcr, x expr=\thisrowno{0}*1.000000e-03, y expr=\thisrowno{1}*1.000000e-09]{
0.000326029 1.67714e+09\\
0.000428726 1.2765e+09\\
0.000564139 9.71682e+08\\
0.000742628 7.3994e+08\\
0.00097758 5.63958e+08\\
0.00128757 4.30543e+08\\
0.00169621 3.29682e+08\\
0.0022347 2.53791e+08\\
0.00294525 1.97155e+08\\
0.00388241 1.55502e+08\\
0.00511856 1.25687e+08\\
0.00674946 1.05455e+08\\
0.0089013 9.32759e+07\\
0.0117398 8.82276e+07\\
0.015485 8.99253e+07\\
0.0204241 9.84896e+07\\
0.0269365 1.14548e+08\\
0.0355187 1.39271e+08\\
0.0468204 1.74431e+08\\
0.0616894 2.22496e+08\\
0.0812251 2.86735e+08\\
0.106845 3.71337e+08\\
0.140365 4.81503e+08\\
0.184082 6.23489e+08\\
0.240868 8.04523e+08\\
0.314251 1.03253e+09\\
0.408468 1.31555e+09\\
0.528473 1.66085e+09\\
0.67986 2.07368e+09\\
0.868686 2.55588e+09\\
1.10119 3.10485e+09\\
1.38346 3.71325e+09\\
1.72103 4.36994e+09\\
2.1187 5.06221e+09\\
2.58041 5.77865e+09\\
3.10943 6.51175e+09\\
3.70864 7.25914e+09\\
4.38094 8.02339e+09\\
5.12957 8.81059e+09\\
5.95832 9.62838e+09\\
6.87161 1.04843e+10\\
7.87442 1.13845e+10\\
8.97217 1.23334e+10\\
10.1705 1.33332e+10\\
11.4754 1.43845e+10\\
12.8924 1.54865e+10\\
14.4274 1.66371e+10\\
16.0856 1.78335e+10\\
17.8723 1.90724e+10\\
19.7921 2.035e+10\\
21.8496 2.16622e+10\\
24.0488 2.3005e+10\\
26.3932 2.43742e+10\\
28.8861 2.57656e+10\\
31.5304 2.71749e+10\\
34.3285 2.85982e+10\\
37.2823 3.00312e+10\\
40.3935 3.14702e+10\\
43.6634 3.29112e+10\\
47.0929 3.43506e+10\\
50.6824 3.5785e+10\\
54.432 3.72109e+10\\
58.3417 3.86253e+10\\
62.4108 4.00251e+10\\
66.6386 4.14076e+10\\
71.0239 4.27703e+10\\
75.5654 4.41108e+10\\
80.2613 4.54269e+10\\
85.1099 4.67168e+10\\
90.1088 4.79787e+10\\
95.2558 4.92112e+10\\
100.548 5.04128e+10\\
105.984 5.15826e+10\\
111.559 5.27195e+10\\
117.271 5.38228e+10\\
123.117 5.48918e+10\\
129.094 5.59262e+10\\
135.197 5.69255e+10\\
141.425 5.78897e+10\\
147.772 5.88186e+10\\
154.236 5.97123e+10\\
160.813 6.0571e+10\\
167.499 6.13949e+10\\
174.291 6.21843e+10\\
181.185 6.29397e+10\\
188.178 6.36615e+10\\
195.265 6.43502e+10\\
202.443 6.50065e+10\\
209.709 6.56309e+10\\
217.059 6.62242e+10\\
224.489 6.67869e+10\\
231.996 6.73199e+10\\
239.577 6.78239e+10\\
247.229 6.82997e+10\\
254.947 6.87479e+10\\
262.729 6.91694e+10\\
270.572 6.9565e+10\\
278.473 6.99355e+10\\
286.429 7.02815e+10\\
294.436 7.06039e+10\\
302.492 7.09035e+10\\
310.595 7.11811e+10\\
318.741 7.14372e+10\\
326.928 7.16727e+10\\
335.154 7.18884e+10\\
343.415 7.20847e+10\\
351.711 7.22626e+10\\
360.037 7.24226e+10\\
368.393 7.25654e+10\\
376.776 7.26915e+10\\
385.184 7.28017e+10\\
393.615 7.28965e+10\\
402.067 7.29764e+10\\
410.538 7.30421e+10\\
419.026 7.3094e+10\\
427.53 7.31328e+10\\
436.048 7.31588e+10\\
444.578 7.31726e+10\\
453.118 7.31746e+10\\
461.668 7.31653e+10\\
470.226 7.31451e+10\\
478.789 7.31145e+10\\
487.358 7.30738e+10\\
495.93 7.30234e+10\\
504.504 7.29637e+10\\
513.08 7.28951e+10\\
521.655 7.28179e+10\\
530.229 7.27324e+10\\
538.8 7.2639e+10\\
547.368 7.2538e+10\\
555.932 7.24296e+10\\
564.49 7.23141e+10\\
573.041 7.21918e+10\\
581.586 7.20631e+10\\
590.121 7.1928e+10\\
598.648 7.17869e+10\\
607.165 7.164e+10\\
615.671 7.14876e+10\\
624.165 7.13298e+10\\
632.648 7.11668e+10\\
641.117 7.09989e+10\\
};
\addlegendentry{$\SI{900.0}{\nano\meter}$}
\addplot [color=color3, solid, mark=triangle, mark options={solid, rotate=0}, mark phase=0, ]
  table[row sep=crcr, x expr=\thisrowno{0}*1.000000e-03, y expr=\thisrowno{1}*1.000000e-09]{
0.000357261 1.52705e+09\\
0.000470285 1.16153e+09\\
0.000619214 8.83676e+08\\
0.000815514 6.72657e+08\\
0.00107472 5.12596e+08\\
0.00141616 3.91435e+08\\
0.00186693 3.00027e+08\\
0.00246179 2.31463e+08\\
0.00324652 1.80552e+08\\
0.00428249 1.43432e+08\\
0.00564995 1.17287e+08\\
0.00745501 1.00131e+08\\
0.00983817 9.06591e+07\\
0.012984 8.81508e+07\\
0.0171362 9.24121e+07\\
0.0226159 1.03757e+08\\
0.0298443 1.23023e+08\\
0.0393747 1.51617e+08\\
0.0519303 1.91594e+08\\
0.0684543 2.45758e+08\\
0.0901695 3.17784e+08\\
0.118651 4.12341e+08\\
0.155914 5.35187e+08\\
0.204503 6.93191e+08\\
0.26759 8.94211e+08\\
0.349053 1.14673e+09\\
0.453532 1.45918e+09\\
0.586407 1.83886e+09\\
0.753699 2.29051e+09\\
0.961849 2.81488e+09\\
1.21738 3.4076e+09\\
1.52652 4.05917e+09\\
1.89479 4.75624e+09\\
2.32679 5.48438e+09\\
2.82617 6.23131e+09\\
3.39582 6.98959e+09\\
4.0383 7.75781e+09\\
4.75624 8.53996e+09\\
5.55274 9.34364e+09\\
6.43156 1.01778e+10\\
7.39716 1.10511e+10\\
8.45465 1.19702e+10\\
9.60963 1.29397e+10\\
10.868 1.39622e+10\\
12.2357 1.5038e+10\\
13.7187 1.61661e+10\\
15.3228 1.73443e+10\\
17.0536 1.85694e+10\\
18.9164 1.98377e+10\\
20.9158 2.11454e+10\\
23.0565 2.2488e+10\\
25.3425 2.38614e+10\\
27.7775 2.5261e+10\\
30.3646 2.66825e+10\\
33.1066 2.81215e+10\\
36.0059 2.95739e+10\\
39.0646 3.10354e+10\\
42.284 3.25019e+10\\
45.6655 3.39697e+10\\
49.2097 3.54349e+10\\
52.9171 3.6894e+10\\
56.7877 3.83437e+10\\
60.8211 3.97806e+10\\
65.0168 4.12019e+10\\
69.3738 4.26048e+10\\
73.8908 4.39867e+10\\
78.5664 4.53453e+10\\
83.3986 4.66784e+10\\
88.3855 4.79842e+10\\
93.5248 4.9261e+10\\
98.8139 5.05073e+10\\
104.25 5.17219e+10\\
109.831 5.29035e+10\\
115.553 5.40514e+10\\
121.414 5.51647e+10\\
127.409 5.6243e+10\\
133.536 5.72857e+10\\
139.79 5.82927e+10\\
146.17 5.92638e+10\\
152.67 6.01989e+10\\
159.288 6.10982e+10\\
166.019 6.19618e+10\\
172.86 6.27901e+10\\
179.807 6.35833e+10\\
186.856 6.4342e+10\\
194.004 6.50666e+10\\
201.247 6.57577e+10\\
208.581 6.64159e+10\\
216.003 6.70419e+10\\
223.509 6.76363e+10\\
231.095 6.82e+10\\
238.758 6.87335e+10\\
246.495 6.92378e+10\\
254.302 6.97135e+10\\
262.176 7.01614e+10\\
270.113 7.05824e+10\\
278.112 7.09773e+10\\
286.167 7.13468e+10\\
294.277 7.16917e+10\\
302.439 7.20129e+10\\
310.649 7.2311e+10\\
318.906 7.25868e+10\\
327.205 7.28412e+10\\
335.546 7.30748e+10\\
343.924 7.32883e+10\\
352.338 7.34825e+10\\
360.786 7.36581e+10\\
369.264 7.38156e+10\\
377.772 7.39558e+10\\
386.305 7.40793e+10\\
394.864 7.41868e+10\\
403.445 7.42787e+10\\
412.047 7.43557e+10\\
420.667 7.44183e+10\\
429.304 7.44671e+10\\
437.957 7.45027e+10\\
446.622 7.45254e+10\\
455.3 7.45358e+10\\
463.988 7.45344e+10\\
472.684 7.45216e+10\\
481.388 7.44978e+10\\
490.098 7.44635e+10\\
498.812 7.4419e+10\\
507.529 7.43648e+10\\
516.248 7.43013e+10\\
524.967 7.42287e+10\\
533.686 7.41475e+10\\
542.403 7.40579e+10\\
551.117 7.39603e+10\\
559.827 7.38551e+10\\
568.532 7.37424e+10\\
577.232 7.36226e+10\\
585.924 7.34959e+10\\
594.608 7.33627e+10\\
603.284 7.32231e+10\\
611.95 7.30775e+10\\
620.605 7.2926e+10\\
629.249 7.27688e+10\\
637.882 7.26063e+10\\
646.501 7.24386e+10\\
655.107 7.22658e+10\\
};
\addlegendentry{$\SI{1200.0}{\nano\meter}$}
\end{axis}

\end{tikzpicture}
