\begin{tikzpicture}[font=\normalsize,trim axis left, trim axis right,tight background]
\pgfplotsset{every axis/.append style={very thick},compat=1.5},
\definecolor{color0}{rgb}{0.00000, 0.39216, 0.00000}
\definecolor{color1}{rgb}{0.00000, 0.00000, 0.54510}
\definecolor{color2}{rgb}{0.69020, 0.18824, 0.37647}
\definecolor{color3}{rgb}{1.00000, 0.00000, 0.00000}
\definecolor{color4}{rgb}{0.58039, 0.40392, 0.74118}

\begin{axis}[scale only axis,ytick pos=left,
xlabel={$J_{\mathrm{D}} ( \si{\milli\ampere\per\micro\meter} )$},
ylabel={$f_{\mathrm{T}} ( \si{\giga\hertz} )$},
xmode=log,
xmin=0.0001,
xmax=1,
restrict x to domain=-4.69897:0.69897,
log basis x=10,
% ymin=0,
% ymax=0,
% restrict y to domain=0:1,
log basis y=10,
xlabel shift = -5 pt,
 ylabel shift = -5 pt,
xmajorgrids,
enlargelimits=false,
scaled ticks=true,
ymajorgrids,
x tick style={color=black},
y tick style={color=black},
x grid style={white!69.01960784313725!black},
y grid style={white!69.01960784313725!black},
/tikz/mark repeat=2,
legend style={at={(0.02,0.98)}, anchor=north west,legend cell align=left, align=left},
]
\addplot [color=color0, solid, mark=x, mark options={solid}, mark phase=1, ]
  table[row sep=crcr, x expr=\thisrowno{0}*1.000000e-03, y expr=\thisrowno{1}*1.000000e-09]{
2.72848e-05 1.65573e+10\\
3.70294e-05 1.20421e+10\\
5.13215e-05 8.7599e+09\\
6.75625e-05 6.37255e+09\\
9.48473e-05 4.63582e+09\\
0.000128629 3.37165e+09\\
0.000176702 2.45222e+09\\
0.000243615 1.78333e+09\\
0.000334564 1.29692e+09\\
0.000459944 9.43396e+08\\
0.000633398 6.86676e+08\\
0.000871816 5.00505e+08\\
0.00120118 3.65843e+08\\
0.00165593 2.68879e+08\\
0.00228413 1.99662e+08\\
0.0031488 1.51079e+08\\
0.00434349 1.18129e+08\\
0.00599162 9.74197e+07\\
0.00826731 8.68132e+07\\
0.0114077 8.52101e+07\\
0.0157382 9.24291e+07\\
0.021709 1.09176e+08\\
0.0299373 1.37088e+08\\
0.0412625 1.78852e+08\\
0.0568239 2.38371e+08\\
0.07816 3.20981e+08\\
0.107326 4.33649e+08\\
0.14703 5.85083e+08\\
0.200778 7.85616e+08\\
0.273006 1.04668e+09\\
0.369164 1.37967e+09\\
0.495686 1.79416e+09\\
0.659822 2.29566e+09\\
0.86929 2.88369e+09\\
1.13181 3.55118e+09\\
1.45464 4.28607e+09\\
1.84424 5.07485e+09\\
2.30627 5.9066e+09\\
2.84585 6.77575e+09\\
3.46788 7.68246e+09\\
4.17749 8.63114e+09\\
4.98019 9.62806e+09\\
5.88199 1.06793e+10\\
6.88932 1.17897e+10\\
8.0089 1.29619e+10\\
9.24757 1.41968e+10\\
10.6121 1.54938e+10\\
12.1093 1.68508e+10\\
13.7456 1.82648e+10\\
15.527 1.97323e+10\\
17.4595 2.1249e+10\\
19.5485 2.28105e+10\\
21.7988 2.44121e+10\\
24.2152 2.60487e+10\\
26.8017 2.77155e+10\\
29.5619 2.94071e+10\\
32.4992 3.11186e+10\\
35.6161 3.28447e+10\\
38.915 3.45803e+10\\
42.3976 3.63205e+10\\
46.0653 3.80603e+10\\
49.9189 3.9795e+10\\
53.9589 4.15201e+10\\
58.1853 4.3231e+10\\
62.5976 4.49239e+10\\
67.1952 4.65947e+10\\
71.9767 4.82401e+10\\
76.9407 4.98566e+10\\
82.0853 5.14414e+10\\
87.4084 5.29919e+10\\
92.9073 5.45057e+10\\
98.5795 5.59808e+10\\
104.422 5.74156e+10\\
110.431 5.88086e+10\\
116.604 6.01587e+10\\
122.938 6.14651e+10\\
129.427 6.27271e+10\\
136.069 6.39443e+10\\
142.859 6.51165e+10\\
149.794 6.62437e+10\\
156.869 6.73261e+10\\
164.08 6.8364e+10\\
171.423 6.93577e+10\\
178.893 7.03079e+10\\
186.486 7.12151e+10\\
194.197 7.20801e+10\\
202.024 7.29037e+10\\
209.96 7.36868e+10\\
218.001 7.44302e+10\\
226.145 7.5135e+10\\
234.385 7.58022e+10\\
242.719 7.64326e+10\\
251.142 7.70275e+10\\
259.65 7.75879e+10\\
268.239 7.81148e+10\\
276.905 7.86094e+10\\
285.645 7.90726e+10\\
294.455 7.95056e+10\\
303.332 7.99094e+10\\
312.271 8.02851e+10\\
321.269 8.06337e+10\\
330.324 8.09563e+10\\
339.432 8.12537e+10\\
348.59 8.15271e+10\\
357.795 8.17774e+10\\
367.045 8.20054e+10\\
376.335 8.22122e+10\\
385.665 8.23985e+10\\
395.03 8.25653e+10\\
404.429 8.27134e+10\\
413.86 8.28435e+10\\
423.319 8.29565e+10\\
432.806 8.30532e+10\\
442.317 8.31341e+10\\
451.85 8.32001e+10\\
461.404 8.32517e+10\\
470.977 8.32897e+10\\
480.567 8.33147e+10\\
490.172 8.33272e+10\\
499.79 8.33279e+10\\
509.42 8.33172e+10\\
519.061 8.32957e+10\\
528.711 8.32639e+10\\
538.368 8.32223e+10\\
548.031 8.31714e+10\\
557.699 8.31116e+10\\
567.37 8.30432e+10\\
577.044 8.29668e+10\\
586.72 8.28827e+10\\
596.395 8.27913e+10\\
606.069 8.26929e+10\\
615.742 8.25879e+10\\
625.412 8.24766e+10\\
635.078 8.23592e+10\\
644.739 8.22362e+10\\
654.395 8.21077e+10\\
664.044 8.19741e+10\\
673.687 8.18356e+10\\
683.321 8.16924e+10\\
692.947 8.15448e+10\\
702.564 8.13929e+10\\
};
\addlegendentry{$T=\SI{250.0}{\kelvin}$}
\addplot [color=color1, solid, mark=+, mark options={solid}, mark phase=1, ]
  table[row sep=crcr, x expr=\thisrowno{0}*1.000000e-03, y expr=\thisrowno{1}*1.000000e-09]{
0.000181899 2.67455e+09\\
0.000241666 2.01624e+09\\
0.000319622 1.51982e+09\\
0.000424214 1.14566e+09\\
0.000561938 8.63801e+08\\
0.000746435 6.51652e+08\\
0.000991999 4.9217e+08\\
0.00131812 3.72547e+08\\
0.00175338 2.83145e+08\\
0.0023322 2.16751e+08\\
0.00310203 1.68003e+08\\
0.00412846 1.32956e+08\\
0.00549595 1.08772e+08\\
0.00731559 9.34908e+07\\
0.00974134 8.58725e+07\\
0.0129733 8.52985e+07\\
0.0172765 9.1718e+07\\
0.023007 1.05639e+08\\
0.0306337 1.28154e+08\\
0.0407798 1.61013e+08\\
0.0542605 2.06713e+08\\
0.0721515 2.68631e+08\\
0.0958536 3.51164e+08\\
0.127179 4.59854e+08\\
0.168448 6.01473e+08\\
0.222594 7.83972e+08\\
0.293258 1.01623e+09\\
0.384871 1.30749e+09\\
0.502662 1.66639e+09\\
0.652615 2.0997e+09\\
0.841296 2.6109e+09\\
1.07559 3.19906e+09\\
1.36238 3.85867e+09\\
1.70818 4.58065e+09\\
2.11896 5.35452e+09\\
2.60005 6.17109e+09\\
3.1563 7.02444e+09\\
3.79228 7.91284e+09\\
4.51264 8.83816e+09\\
5.32225 9.80463e+09\\
6.22633 1.08172e+10\\
7.23052 1.18805e+10\\
8.34074 1.29979e+10\\
9.56312 1.4171e+10\\
10.9039 1.54003e+10\\
12.3691 1.66847e+10\\
13.9648 1.8022e+10\\
15.6968 1.94091e+10\\
17.5704 2.08423e+10\\
19.5908 2.23175e+10\\
21.7626 2.38299e+10\\
24.0902 2.53749e+10\\
26.5772 2.69473e+10\\
29.2271 2.85421e+10\\
32.0428 3.01542e+10\\
35.0266 3.17783e+10\\
38.1805 3.34093e+10\\
41.506 3.50424e+10\\
45.0041 3.66727e+10\\
48.6754 3.82953e+10\\
52.5199 3.99061e+10\\
56.5375 4.15005e+10\\
60.7273 4.30749e+10\\
65.0884 4.46255e+10\\
69.6193 4.61489e+10\\
74.3182 4.76422e+10\\
79.1831 4.91026e+10\\
84.2117 5.0528e+10\\
89.4012 5.19161e+10\\
94.7489 5.32654e+10\\
100.252 5.45745e+10\\
105.906 5.58422e+10\\
111.709 5.70679e+10\\
117.657 5.82509e+10\\
123.747 5.9391e+10\\
129.973 6.0488e+10\\
136.334 6.1542e+10\\
142.824 6.25533e+10\\
149.439 6.35222e+10\\
156.177 6.44494e+10\\
163.032 6.53354e+10\\
170.001 6.61809e+10\\
177.079 6.69868e+10\\
184.264 6.77539e+10\\
191.55 6.84831e+10\\
198.934 6.91755e+10\\
206.411 6.98318e+10\\
213.979 7.04533e+10\\
221.633 7.10408e+10\\
229.369 7.15955e+10\\
237.185 7.21184e+10\\
245.076 7.26105e+10\\
253.039 7.30728e+10\\
261.07 7.35064e+10\\
269.166 7.39124e+10\\
277.324 7.42917e+10\\
285.542 7.46452e+10\\
293.815 7.49741e+10\\
302.14 7.52791e+10\\
310.516 7.55614e+10\\
318.939 7.58217e+10\\
327.406 7.60609e+10\\
335.916 7.62799e+10\\
344.464 7.64796e+10\\
353.05 7.66607e+10\\
361.671 7.68241e+10\\
370.324 7.69704e+10\\
379.007 7.71005e+10\\
387.719 7.72149e+10\\
396.457 7.73145e+10\\
405.219 7.73998e+10\\
414.004 7.74715e+10\\
422.809 7.75301e+10\\
431.633 7.75763e+10\\
440.475 7.76107e+10\\
449.333 7.76337e+10\\
458.205 7.76458e+10\\
467.089 7.76476e+10\\
475.985 7.76396e+10\\
484.891 7.76221e+10\\
493.806 7.75957e+10\\
502.729 7.75607e+10\\
511.658 7.75174e+10\\
520.592 7.74664e+10\\
529.531 7.74079e+10\\
538.472 7.73424e+10\\
547.416 7.727e+10\\
556.361 7.71912e+10\\
565.306 7.71063e+10\\
574.251 7.70155e+10\\
583.194 7.69191e+10\\
592.135 7.68173e+10\\
601.073 7.67105e+10\\
610.007 7.65989e+10\\
618.936 7.64826e+10\\
627.86 7.63619e+10\\
636.779 7.62371e+10\\
645.691 7.61082e+10\\
654.595 7.59756e+10\\
663.493 7.58393e+10\\
672.381 7.56995e+10\\
};
\addlegendentry{$T=\SI{287.5}{\kelvin}$}
\addplot [color=color2, solid, mark=triangle, mark options={solid, rotate=180}, mark phase=1, ]
  table[row sep=crcr, x expr=\thisrowno{0}*1.000000e-03, y expr=\thisrowno{1}*1.000000e-09]{
0.000923137 5.85019e+08\\
0.00118949 4.55174e+08\\
0.00153445 3.54863e+08\\
0.0019814 2.77628e+08\\
0.00255763 2.18488e+08\\
0.00330277 1.7362e+08\\
0.00426748 1.40121e+08\\
0.00551544 1.15819e+08\\
0.00713044 9.91365e+07\\
0.00921838 8.89919e+07\\
0.0119228 8.47283e+07\\
0.0154205 8.60721e+07\\
0.0199472 9.31133e+07\\
0.0258037 1.06309e+08\\
0.0333798 1.26507e+08\\
0.0431744 1.54986e+08\\
0.0558287 1.93522e+08\\
0.0721652 2.44462e+08\\
0.093233 3.10819e+08\\
0.120357 3.9636e+08\\
0.155208 5.05687e+08\\
0.199872 6.44279e+08\\
0.256921 8.18456e+08\\
0.329489 1.03521e+09\\
0.42132 1.30188e+09\\
0.536797 1.62557e+09\\
0.680926 2.01241e+09\\
0.859243 2.46662e+09\\
1.07767 2.98966e+09\\
1.34229 3.57976e+09\\
1.65913 4.23197e+09\\
2.0339 4.93904e+09\\
2.47188 5.69289e+09\\
2.97788 6.48628e+09\\
3.5563 7.31417e+09\\
4.21134 8.1744e+09\\
4.94715 9.06751e+09\\
5.76801 9.99605e+09\\
6.67846 1.09636e+10\\
7.68334 1.19737e+10\\
8.78773 1.30294e+10\\
9.99691 1.41326e+10\\
11.3163 1.52841e+10\\
12.7511 1.64835e+10\\
14.3069 1.77292e+10\\
15.9885 1.9019e+10\\
17.8009 2.03497e+10\\
19.7487 2.17176e+10\\
21.8359 2.31188e+10\\
24.0665 2.45488e+10\\
26.4438 2.6003e+10\\
28.9709 2.74767e+10\\
31.6501 2.89652e+10\\
34.4838 3.04636e+10\\
37.4734 3.19671e+10\\
40.6203 3.34712e+10\\
43.9252 3.49713e+10\\
47.3885 3.6463e+10\\
51.0102 3.79424e+10\\
54.7898 3.94053e+10\\
58.7266 4.08484e+10\\
62.8194 4.22682e+10\\
67.0667 4.36617e+10\\
71.4668 4.50262e+10\\
76.0177 4.63594e+10\\
80.717 4.76591e+10\\
85.5623 4.89236e+10\\
90.5507 5.01516e+10\\
95.6795 5.13417e+10\\
100.945 5.24933e+10\\
106.346 5.36056e+10\\
111.876 5.46783e+10\\
117.534 5.57113e+10\\
123.317 5.67046e+10\\
129.219 5.76583e+10\\
135.238 5.8573e+10\\
141.371 5.9449e+10\\
147.613 6.0287e+10\\
153.961 6.10877e+10\\
160.411 6.18518e+10\\
166.96 6.25802e+10\\
173.604 6.32737e+10\\
180.341 6.39333e+10\\
187.165 6.45598e+10\\
194.074 6.51542e+10\\
201.065 6.57176e+10\\
208.133 6.62508e+10\\
215.277 6.67548e+10\\
222.492 6.72307e+10\\
229.775 6.76793e+10\\
237.124 6.81016e+10\\
244.536 6.84986e+10\\
252.007 6.88711e+10\\
259.535 6.92201e+10\\
267.117 6.95464e+10\\
274.75 6.98508e+10\\
282.433 7.01344e+10\\
290.161 7.03977e+10\\
297.934 7.06418e+10\\
305.748 7.08672e+10\\
313.601 7.10748e+10\\
321.492 7.12653e+10\\
329.417 7.14394e+10\\
337.376 7.15977e+10\\
345.365 7.1741e+10\\
353.384 7.18698e+10\\
361.43 7.19848e+10\\
369.501 7.20865e+10\\
377.596 7.21756e+10\\
385.714 7.22524e+10\\
393.852 7.23177e+10\\
402.01 7.23718e+10\\
410.185 7.24153e+10\\
418.376 7.24486e+10\\
426.582 7.24721e+10\\
434.802 7.24863e+10\\
443.034 7.24916e+10\\
451.278 7.24884e+10\\
459.531 7.24769e+10\\
467.794 7.24577e+10\\
476.064 7.24311e+10\\
484.341 7.23972e+10\\
492.625 7.23566e+10\\
500.913 7.23094e+10\\
509.205 7.2256e+10\\
517.5 7.21966e+10\\
525.797 7.21316e+10\\
534.096 7.2061e+10\\
542.396 7.19853e+10\\
550.695 7.19045e+10\\
558.994 7.1819e+10\\
567.292 7.17289e+10\\
575.587 7.16344e+10\\
583.88 7.15358e+10\\
592.169 7.14331e+10\\
600.454 7.13266e+10\\
608.735 7.12165e+10\\
617.01 7.11029e+10\\
625.28 7.09859e+10\\
633.544 7.08658e+10\\
641.801 7.07425e+10\\
};
\addlegendentry{$T=\SI{325.0}{\kelvin}$}
\addplot [color=color3, solid, mark=triangle, mark options={solid, rotate=0}, mark phase=1, ]
  table[row sep=crcr, x expr=\thisrowno{0}*1.000000e-03, y expr=\thisrowno{1}*1.000000e-09]{
0.00372763 1.69494e+08\\
0.00469689 1.39764e+08\\
0.00592016 1.17502e+08\\
0.00746435 1.01539e+08\\
0.00941457 9.10376e+07\\
0.0118754 8.54476e+07\\
0.0149846 8.44806e+07\\
0.018911 8.80938e+07\\
0.0238697 9.64865e+07\\
0.0301322 1.1011e+08\\
0.0380383 1.29686e+08\\
0.0480187 1.56241e+08\\
0.06061 1.91141e+08\\
0.0764885 2.36152e+08\\
0.0964915 2.9349e+08\\
0.121668 3.65888e+08\\
0.153305 4.56653e+08\\
0.192994 5.69708e+08\\
0.242666 7.09601e+08\\
0.304659 8.81466e+08\\
0.381753 1.09089e+09\\
0.47722 1.34368e+09\\
0.594837 1.64549e+09\\
0.738871 2.00133e+09\\
0.914033 2.415e+09\\
1.12538 2.88847e+09\\
1.37816 3.42154e+09\\
1.67768 4.0116e+09\\
2.0291 4.65406e+09\\
2.43733 5.34297e+09\\
2.9069 6.07214e+09\\
3.44201 6.83612e+09\\
4.04654 7.63107e+09\\
4.72423 8.45513e+09\\
5.47873 9.30833e+09\\
6.31382 1.01922e+10\\
7.23339 1.11091e+10\\
8.24158 1.20615e+10\\
9.34268 1.30518e+10\\
10.5411 1.40815e+10\\
11.8415 1.51513e+10\\
13.2483 1.62612e+10\\
14.7661 1.74099e+10\\
16.3991 1.85958e+10\\
18.1516 1.98163e+10\\
20.0274 2.10685e+10\\
22.0302 2.23489e+10\\
24.1631 2.36538e+10\\
26.4293 2.49793e+10\\
28.8311 2.63211e+10\\
31.3709 2.76752e+10\\
34.0503 2.90374e+10\\
36.8709 3.04033e+10\\
39.8335 3.1769e+10\\
42.9389 3.31305e+10\\
46.1873 3.44839e+10\\
49.5785 3.58257e+10\\
53.1123 3.71523e+10\\
56.7877 3.84606e+10\\
60.6038 3.97477e+10\\
64.5591 4.1011e+10\\
68.6521 4.2248e+10\\
72.8809 4.34567e+10\\
77.2434 4.46353e+10\\
81.7373 4.57822e+10\\
86.3602 4.68962e+10\\
91.1094 4.79763e+10\\
95.9823 4.90218e+10\\
100.976 5.00321e+10\\
106.088 5.10069e+10\\
111.314 5.19462e+10\\
116.652 5.285e+10\\
122.099 5.37186e+10\\
127.651 5.45522e+10\\
133.306 5.53514e+10\\
139.06 5.61168e+10\\
144.909 5.68489e+10\\
150.852 5.75485e+10\\
156.885 5.82164e+10\\
163.004 5.88534e+10\\
169.206 5.94603e+10\\
175.49 6.00379e+10\\
181.85 6.05872e+10\\
188.286 6.1109e+10\\
194.793 6.16041e+10\\
201.369 6.20735e+10\\
208.011 6.2518e+10\\
214.717 6.29384e+10\\
221.483 6.33356e+10\\
228.308 6.37103e+10\\
235.189 6.40635e+10\\
242.122 6.43958e+10\\
249.107 6.47081e+10\\
256.14 6.5001e+10\\
263.22 6.52753e+10\\
270.343 6.55318e+10\\
277.509 6.57711e+10\\
284.715 6.59938e+10\\
291.958 6.62006e+10\\
299.238 6.63921e+10\\
306.552 6.65689e+10\\
313.899 6.67316e+10\\
321.276 6.68808e+10\\
328.682 6.70169e+10\\
336.115 6.71406e+10\\
343.575 6.72522e+10\\
351.058 6.73524e+10\\
358.565 6.74415e+10\\
366.093 6.75201e+10\\
373.641 6.75884e+10\\
381.208 6.7647e+10\\
388.792 6.76963e+10\\
396.393 6.77366e+10\\
404.008 6.77682e+10\\
411.638 6.77916e+10\\
419.281 6.78071e+10\\
426.935 6.78149e+10\\
434.6 6.78155e+10\\
442.275 6.78091e+10\\
449.959 6.77959e+10\\
457.651 6.77763e+10\\
465.35 6.77505e+10\\
473.055 6.77188e+10\\
480.766 6.76814e+10\\
488.481 6.76386e+10\\
496.201 6.75904e+10\\
503.923 6.75373e+10\\
511.648 6.74793e+10\\
519.374 6.74167e+10\\
527.102 6.73497e+10\\
534.83 6.72783e+10\\
542.558 6.72029e+10\\
550.285 6.71235e+10\\
558.011 6.70403e+10\\
565.735 6.69535e+10\\
573.457 6.68632e+10\\
581.175 6.67696e+10\\
588.89 6.66727e+10\\
596.602 6.65727e+10\\
604.309 6.64698e+10\\
612.011 6.63639e+10\\
};
\addlegendentry{$T=\SI{362.5}{\kelvin}$}
\addplot [color=color4, solid, mark=asterisk, mark options={solid}, mark phase=1, ]
  table[row sep=crcr, x expr=\thisrowno{0}*1.000000e-03, y expr=\thisrowno{1}*1.000000e-09]{
0.0125985 8.55682e+07\\
0.0155569 8.39378e+07\\
0.019217 8.60687e+07\\
0.0237424 9.20661e+07\\
0.0293403 1.02205e+08\\
0.0362635 1.16939e+08\\
0.0448244 1.36919e+08\\
0.0554116 1.63017e+08\\
0.0684966 1.96354e+08\\
0.0846629 2.38334e+08\\
0.104622 2.90687e+08\\
0.129247 3.55507e+08\\
0.159592 4.35293e+08\\
0.196935 5.32977e+08\\
0.242816 6.51945e+08\\
0.299063 7.96022e+08\\
0.367841 9.69418e+08\\
0.45168 1.17661e+09\\
0.553502 1.42219e+09\\
0.676622 1.71054e+09\\
0.824741 2.04557e+09\\
1.00191 2.43029e+09\\
1.21245 2.86644e+09\\
1.46086 3.35422e+09\\
1.75172 3.89215e+09\\
2.08954 4.47721e+09\\
2.47868 5.10521e+09\\
2.92323 5.77138e+09\\
3.42702 6.47108e+09\\
3.99362 7.2004e+09\\
4.6264 7.95665e+09\\
5.32858 8.73848e+09\\
6.10338 9.54585e+09\\
6.95405 1.03797e+10\\
7.88394 1.12415e+10\\
8.89655 1.21329e+10\\
9.99548 1.30554e+10\\
11.1844 1.40101e+10\\
12.4672 1.49975e+10\\
13.8475 1.60174e+10\\
15.3291 1.70689e+10\\
16.9155 1.81506e+10\\
18.6102 1.92606e+10\\
20.4165 2.03964e+10\\
22.3373 2.15554e+10\\
24.3754 2.27343e+10\\
26.5332 2.39299e+10\\
28.8128 2.51388e+10\\
31.2162 2.63576e+10\\
33.7446 2.75827e+10\\
36.3995 2.88105e+10\\
39.1814 3.00377e+10\\
42.0911 3.12609e+10\\
45.1286 3.24768e+10\\
48.2939 3.36824e+10\\
51.5866 3.48748e+10\\
55.006 3.60513e+10\\
58.5511 3.72094e+10\\
62.2209 3.83469e+10\\
66.0139 3.94616e+10\\
69.9285 4.05518e+10\\
73.963 4.1616e+10\\
78.1152 4.26528e+10\\
82.3833 4.36611e+10\\
86.7648 4.464e+10\\
91.2575 4.55889e+10\\
95.859 4.65072e+10\\
100.567 4.73947e+10\\
105.378 4.82512e+10\\
110.29 4.90769e+10\\
115.3 4.98717e+10\\
120.406 5.0636e+10\\
125.605 5.13703e+10\\
130.894 5.20748e+10\\
136.271 5.27503e+10\\
141.732 5.33973e+10\\
147.275 5.40164e+10\\
152.898 5.46083e+10\\
158.597 5.51738e+10\\
164.37 5.57136e+10\\
170.215 5.62284e+10\\
176.13 5.6719e+10\\
182.11 5.71861e+10\\
188.155 5.76305e+10\\
194.262 5.80529e+10\\
200.428 5.84541e+10\\
206.651 5.88347e+10\\
212.929 5.91955e+10\\
219.26 5.95371e+10\\
225.642 5.98603e+10\\
232.072 6.01656e+10\\
238.548 6.04537e+10\\
245.07 6.07252e+10\\
251.634 6.09808e+10\\
258.239 6.1221e+10\\
264.882 6.14463e+10\\
271.564 6.16573e+10\\
278.281 6.18546e+10\\
285.031 6.20386e+10\\
291.814 6.22099e+10\\
298.628 6.23688e+10\\
305.472 6.25159e+10\\
312.343 6.26517e+10\\
319.241 6.27764e+10\\
326.164 6.28906e+10\\
333.11 6.29947e+10\\
340.079 6.3089e+10\\
347.07 6.31738e+10\\
354.081 6.32497e+10\\
361.11 6.33168e+10\\
368.157 6.33755e+10\\
375.222 6.34262e+10\\
382.302 6.3469e+10\\
389.396 6.35044e+10\\
396.504 6.35327e+10\\
403.626 6.3554e+10\\
410.758 6.35686e+10\\
417.902 6.35768e+10\\
425.057 6.35788e+10\\
432.22 6.35749e+10\\
439.392 6.35652e+10\\
446.571 6.355e+10\\
453.758 6.35296e+10\\
460.951 6.3504e+10\\
468.149 6.34734e+10\\
475.353 6.34381e+10\\
482.56 6.33983e+10\\
489.771 6.3354e+10\\
496.985 6.33055e+10\\
504.202 6.32529e+10\\
511.42 6.31963e+10\\
518.639 6.31359e+10\\
525.86 6.30719e+10\\
533.08 6.30043e+10\\
540.3 6.29333e+10\\
547.519 6.2859e+10\\
554.737 6.27815e+10\\
561.953 6.2701e+10\\
569.166 6.26175e+10\\
576.377 6.25312e+10\\
583.585 6.24421e+10\\
};
\addlegendentry{$T=\SI{400.0}{\kelvin}$}
\end{axis}

\end{tikzpicture}
