\begin{tikzpicture}[font=\normalsize, trim axis left, trim axis right, tight background]
\pgfplotsset{every axis/.append style={very thick},compat=1.18}
\definecolor{color0}{rgb}{0.00000, 0.39216, 0.00000}
\definecolor{color1}{rgb}{0.00000, 0.00000, 0.54510}
\definecolor{color2}{rgb}{0.69020, 0.18824, 0.37647}

\begin{axis}[
scale only axis,
xlabel={$-J_{\mathrm{D}} ( \si{\milli\ampere\per\micro\meter} )$},
ylabel={$f_{\mathrm{T}} ( \si{\giga\hertz} )$},
xmode=log,
xmin=1e-05,
xmax=1,
restrict x to domain=-5.69897:0.69897,
log basis x=10,
% ymin=0,
% ymax=0,
% restrict y to domain=0:1,
log basis y=10,
ytick pos=left,
xlabel shift=-5pt,
 ylabel shift=-5pt,
xmajorgrids,
enlargelimits=false,
scaled ticks=true,
ymajorgrids,
x tick style={color=black},
y tick style={color=black},
x grid style={white!69.01960784313725!black},
y grid style={white!69.01960784313725!black},
/tikz/mark repeat=2,
legend style={at={(0.02,0.98)}, anchor=north west,legend cell align=left, align=left},
]
\addplot [color=color0, solid, mark=x, mark options={solid}, mark phase=0, ]
  table[row sep=crcr, x expr=\thisrowno{0}*1.000000e-03, y expr=\thisrowno{1}*1.000000e-09]{
0.000135125 1.50299e+09\\
0.0001793 1.12724e+09\\
0.000239067 8.45744e+08\\
0.000318323 6.34823e+08\\
0.000425514 4.76797e+08\\
0.000567785 3.58495e+08\\
0.000758778 2.70051e+08\\
0.00101539 2.04095e+08\\
0.00135969 1.55132e+08\\
0.00181899 1.19074e+08\\
0.00243615 9.291e+07\\
0.00326249 7.44472e+07\\
0.00436882 6.21309e+07\\
0.0058513 5.49096e+07\\
0.00783595 5.21398e+07\\
0.0104917 5.35183e+07\\
0.0140406 5.90318e+07\\
0.0187759 6.89158e+07\\
0.0250819 8.36125e+07\\
0.0334512 1.03717e+08\\
0.0445211 1.29905e+08\\
0.0590801 1.62841e+08\\
0.0781022 2.03075e+08\\
0.102739 2.50939e+08\\
0.134327 3.06487e+08\\
0.174343 3.69469e+08\\
0.224366 4.39383e+08\\
0.286012 5.15551e+08\\
0.360878 5.97223e+08\\
0.450489 6.83664e+08\\
0.556263 7.74215e+08\\
0.679487 8.68323e+08\\
0.821323 9.65544e+08\\
0.982802 1.06553e+09\\
1.16484 1.16801e+09\\
1.36825 1.27276e+09\\
1.59376 1.37961e+09\\
1.84202 1.4884e+09\\
2.1136 1.59899e+09\\
2.40904 1.71125e+09\\
2.72878 1.82505e+09\\
3.07327 1.94026e+09\\
3.44287 2.05675e+09\\
3.83791 2.1744e+09\\
4.2587 2.29309e+09\\
4.7055 2.41268e+09\\
5.17853 2.53306e+09\\
5.67798 2.65411e+09\\
6.20404 2.77571e+09\\
6.75682 2.89775e+09\\
7.33645 3.02011e+09\\
7.943 3.1427e+09\\
8.57653 3.26542e+09\\
9.23709 3.38816e+09\\
9.92468 3.51083e+09\\
10.6393 3.63335e+09\\
11.3809 3.75564e+09\\
12.1495 3.87761e+09\\
12.9449 3.9992e+09\\
13.7672 4.12033e+09\\
14.6162 4.24095e+09\\
15.4918 4.36098e+09\\
16.3939 4.48037e+09\\
17.3224 4.59907e+09\\
18.2771 4.71704e+09\\
19.2578 4.83421e+09\\
20.2644 4.95056e+09\\
21.2967 5.06604e+09\\
22.3546 5.18062e+09\\
23.4378 5.29425e+09\\
24.5461 5.40692e+09\\
25.6794 5.51859e+09\\
26.8374 5.62923e+09\\
28.0198 5.73882e+09\\
29.2266 5.84734e+09\\
30.4574 5.95477e+09\\
31.712 6.06109e+09\\
32.9902 6.16628e+09\\
34.2917 6.27033e+09\\
35.6163 6.37323e+09\\
36.9638 6.47495e+09\\
38.3339 6.5755e+09\\
39.7263 6.67485e+09\\
41.1408 6.77301e+09\\
42.5772 6.86996e+09\\
44.0351 6.9657e+09\\
45.5144 7.06021e+09\\
47.0147 7.1535e+09\\
48.5359 7.24556e+09\\
50.0776 7.33639e+09\\
51.6396 7.42598e+09\\
53.2217 7.51432e+09\\
54.8235 7.60142e+09\\
56.4448 7.68727e+09\\
58.0854 7.77188e+09\\
59.7449 7.85524e+09\\
61.4232 7.93734e+09\\
63.1199 8.01819e+09\\
64.8348 8.09779e+09\\
66.5677 8.17614e+09\\
68.3182 8.25323e+09\\
70.0861 8.32906e+09\\
71.8712 8.40365e+09\\
73.6732 8.47698e+09\\
75.4918 8.54905e+09\\
77.3268 8.61987e+09\\
79.1779 8.68944e+09\\
81.0448 8.75775e+09\\
82.9273 8.82481e+09\\
84.8252 8.89062e+09\\
86.7381 8.95518e+09\\
88.6659 9.01848e+09\\
90.6082 9.08054e+09\\
92.5648 9.14134e+09\\
94.5355 9.20089e+09\\
96.52 9.25919e+09\\
98.518 9.31625e+09\\
100.529 9.37205e+09\\
102.554 9.4266e+09\\
104.591 9.47991e+09\\
106.64 9.53197e+09\\
108.702 9.58279e+09\\
110.776 9.63235e+09\\
112.862 9.68067e+09\\
114.959 9.72775e+09\\
117.067 9.77358e+09\\
119.187 9.81817e+09\\
121.317 9.86152e+09\\
123.458 9.90362e+09\\
125.609 9.94448e+09\\
127.769 9.98411e+09\\
129.94 1.00225e+10\\
132.12 1.00596e+10\\
134.31 1.00956e+10\\
136.508 1.01302e+10\\
138.716 1.01637e+10\\
140.931 1.01959e+10\\
143.155 1.02269e+10\\
145.387 1.02566e+10\\
147.627 1.02852e+10\\
149.875 1.03125e+10\\
};
\addlegendentry{$V_{\mathrm{DS}}=\SI{-1.5}{\volt}$}
\addplot [color=color1, solid, mark=+, mark options={solid}, mark phase=0, ]
  table[row sep=crcr, x expr=\thisrowno{0}*1.000000e-03, y expr=\thisrowno{1}*1.000000e-09]{
0.000128953 1.79147e+09\\
0.00017183 1.34592e+09\\
0.000229647 1.01113e+09\\
0.00030663 7.5966e+08\\
0.000410897 5.7091e+08\\
0.00054862 4.29357e+08\\
0.000734742 3.23348e+08\\
0.000982254 2.44132e+08\\
0.00131584 1.85157e+08\\
0.00176085 1.41531e+08\\
0.00235884 1.09629e+08\\
0.00315887 8.67918e+07\\
0.0042298 7.11066e+07\\
0.00566518 6.12458e+07\\
0.00758551 5.63496e+07\\
0.0101535 5.59415e+07\\
0.0135843 5.98654e+07\\
0.0181587 6.82351e+07\\
0.0242462 8.13847e+07\\
0.0323202 9.98122e+07\\
0.042985 1.24106e+08\\
0.0569967 1.54855e+08\\
0.0752795 1.92551e+08\\
0.0989339 2.37492e+08\\
0.129227 2.89727e+08\\
0.167569 3.4904e+08\\
0.215468 4.14989e+08\\
0.274481 4.86982e+08\\
0.346153 5.64361e+08\\
0.431975 6.46484e+08\\
0.533346 7.32766e+08\\
0.651551 8.22711e+08\\
0.787758 9.15911e+08\\
0.943017 1.01204e+09\\
1.11827 1.11081e+09\\
1.31436 1.21203e+09\\
1.53205 1.31548e+09\\
1.77201 1.421e+09\\
2.03485 1.52844e+09\\
2.32112 1.63764e+09\\
2.63132 1.74846e+09\\
2.96588 1.86076e+09\\
3.32521 1.97439e+09\\
3.70965 2.08922e+09\\
4.11951 2.20511e+09\\
4.55509 2.32193e+09\\
5.0166 2.43955e+09\\
5.50427 2.55784e+09\\
6.01826 2.67668e+09\\
6.55871 2.79595e+09\\
7.12575 2.91554e+09\\
7.71946 3.03533e+09\\
8.3399 3.15521e+09\\
8.9871 3.27509e+09\\
9.6611 3.39486e+09\\
10.3619 3.51444e+09\\
11.0894 3.63374e+09\\
11.8436 3.75267e+09\\
12.6245 3.87115e+09\\
13.4319 3.9891e+09\\
14.2657 4.10647e+09\\
15.1259 4.22317e+09\\
16.0123 4.33914e+09\\
16.9248 4.45433e+09\\
17.8631 4.56867e+09\\
18.8272 4.6821e+09\\
19.8169 4.79459e+09\\
20.8318 4.90607e+09\\
21.872 5.0165e+09\\
22.9371 5.12583e+09\\
24.0269 5.23403e+09\\
25.1412 5.34105e+09\\
26.2798 5.44685e+09\\
27.4423 5.5514e+09\\
28.6286 5.65465e+09\\
29.8384 5.75658e+09\\
31.0714 5.85716e+09\\
32.3274 5.95634e+09\\
33.606 6.0541e+09\\
34.907 6.15042e+09\\
36.2301 6.24525e+09\\
37.575 6.33858e+09\\
38.9414 6.43037e+09\\
40.329 6.5206e+09\\
41.7374 6.60924e+09\\
43.1664 6.69627e+09\\
44.6156 6.78166e+09\\
46.0847 6.86539e+09\\
47.5734 6.94744e+09\\
49.0813 7.02777e+09\\
50.6081 7.10637e+09\\
52.1535 7.18323e+09\\
53.7171 7.2583e+09\\
55.2985 7.33158e+09\\
56.8975 7.40304e+09\\
58.5135 7.47266e+09\\
60.1464 7.54043e+09\\
61.7957 7.60632e+09\\
63.461 7.67032e+09\\
65.142 7.73241e+09\\
66.8383 7.79257e+09\\
68.5495 7.8508e+09\\
70.2752 7.90706e+09\\
72.0151 7.96136e+09\\
73.7688 8.01367e+09\\
75.5358 8.06398e+09\\
77.3158 8.11229e+09\\
79.1084 8.15859e+09\\
80.9132 8.20287e+09\\
82.7297 8.24511e+09\\
84.5577 8.28533e+09\\
86.3966 8.3235e+09\\
88.2461 8.35963e+09\\
90.1058 8.39372e+09\\
91.9752 8.42577e+09\\
93.854 8.45578e+09\\
95.7418 8.48376e+09\\
97.638 8.5097e+09\\
99.5424 8.53362e+09\\
101.455 8.55553e+09\\
103.374 8.57543e+09\\
105.3 8.59333e+09\\
107.233 8.60926e+09\\
109.172 8.62322e+09\\
111.117 8.63523e+09\\
113.067 8.64531e+09\\
115.021 8.65348e+09\\
116.981 8.65976e+09\\
118.944 8.66417e+09\\
120.911 8.66674e+09\\
122.881 8.66749e+09\\
124.854 8.66645e+09\\
126.83 8.66365e+09\\
128.808 8.65911e+09\\
130.788 8.65287e+09\\
132.769 8.64496e+09\\
134.751 8.63542e+09\\
136.733 8.62426e+09\\
138.716 8.61154e+09\\
140.699 8.59728e+09\\
142.682 8.58153e+09\\
};
\addlegendentry{$V_{\mathrm{DS}}=\SI{-1.0}{\volt}$}
\addplot [color=color2, solid, mark=triangle, mark options={solid, rotate=180}, mark phase=0, ]
  table[row sep=crcr, x expr=\thisrowno{0}*1.000000e-03, y expr=\thisrowno{1}*1.000000e-09]{
0.000124568 2.186e+09\\
0.000165983 1.64249e+09\\
0.000222014 1.23394e+09\\
0.000296885 9.26987e+08\\
0.000396767 6.96513e+08\\
0.000530593 5.23597e+08\\
0.000709893 3.94021e+08\\
0.000950422 2.9709e+08\\
0.00127167 2.24792e+08\\
0.00170238 1.71136e+08\\
0.00227926 1.31664e+08\\
0.00305233 1.03088e+08\\
0.00408753 8.30165e+07\\
0.00547272 6.97539e+07\\
0.00732533 6.21555e+07\\
0.00980175 5.95186e+07\\
0.0131066 6.1502e+07\\
0.0175086 6.80615e+07\\
0.0233573 7.93903e+07\\
0.0311018 9.58554e+07\\
0.041311 1.17921e+08\\
0.054693 1.46061e+08\\
0.0721099 1.80664e+08\\
0.0945832 2.21955e+08\\
0.123287 2.6995e+08\\
0.159527 3.24445e+08\\
0.204705 3.85065e+08\\
0.260271 4.51327e+08\\
0.327683 5.22705e+08\\
0.408357 5.98689e+08\\
0.503643 6.78814e+08\\
0.614801 7.62677e+08\\
0.74299 8.4993e+08\\
0.889269 9.40277e+08\\
1.0546 1.03346e+09\\
1.23985 1.12925e+09\\
1.44581 1.22744e+09\\
1.67318 1.32783e+09\\
1.9226 1.43022e+09\\
2.19464 1.53445e+09\\
2.48983 1.64032e+09\\
2.80862 1.74766e+09\\
3.15142 1.85629e+09\\
3.51859 1.96605e+09\\
3.91045 2.07675e+09\\
4.32726 2.18823e+09\\
4.76927 2.30032e+09\\
5.23666 2.41286e+09\\
5.72959 2.52566e+09\\
6.24819 2.63858e+09\\
6.79252 2.75144e+09\\
7.36265 2.86408e+09\\
7.95858 2.97634e+09\\
8.58031 3.08806e+09\\
9.22777 3.19908e+09\\
9.90091 3.30922e+09\\
10.5996 3.41834e+09\\
11.3237 3.52626e+09\\
12.073 3.63283e+09\\
12.8473 3.73788e+09\\
13.6465 3.84124e+09\\
14.4702 3.94276e+09\\
15.3181 4.04227e+09\\
16.1899 4.1396e+09\\
17.0852 4.23461e+09\\
18.0037 4.32713e+09\\
18.9449 4.41701e+09\\
19.9085 4.5041e+09\\
20.8938 4.58826e+09\\
21.9004 4.66935e+09\\
22.9277 4.74724e+09\\
23.9753 4.82181e+09\\
25.0424 4.89296e+09\\
26.1285 4.96058e+09\\
27.2329 5.02458e+09\\
28.355 5.08489e+09\\
29.494 5.14144e+09\\
30.6493 5.1942e+09\\
31.8202 5.24311e+09\\
33.0058 5.28817e+09\\
34.2054 5.32936e+09\\
35.4183 5.3667e+09\\
36.6436 5.4002e+09\\
37.8807 5.42989e+09\\
39.1287 5.45582e+09\\
40.3867 5.47806e+09\\
41.6541 5.49667e+09\\
42.9301 5.51172e+09\\
44.2137 5.52331e+09\\
45.5044 5.53153e+09\\
46.8013 5.53649e+09\\
48.1036 5.5383e+09\\
49.4106 5.53707e+09\\
50.7216 5.53292e+09\\
52.0359 5.52598e+09\\
53.3528 5.51637e+09\\
54.6715 5.50422e+09\\
55.9915 5.48965e+09\\
57.3121 5.47279e+09\\
58.6327 5.45378e+09\\
59.9526 5.43273e+09\\
61.2714 5.40977e+09\\
62.5885 5.38502e+09\\
63.9033 5.35861e+09\\
65.2153 5.33064e+09\\
66.5241 5.30124e+09\\
67.8293 5.2705e+09\\
69.1303 5.23855e+09\\
70.4268 5.20547e+09\\
71.7184 5.17136e+09\\
73.0047 5.13633e+09\\
74.2854 5.10046e+09\\
75.5601 5.06383e+09\\
76.8286 5.02653e+09\\
78.0906 4.98863e+09\\
79.3458 4.95021e+09\\
80.594 4.91133e+09\\
81.8349 4.87207e+09\\
83.0684 4.83248e+09\\
84.2942 4.79261e+09\\
85.5122 4.75254e+09\\
86.7223 4.71229e+09\\
87.9242 4.67194e+09\\
89.1179 4.6315e+09\\
90.3032 4.59104e+09\\
91.4801 4.55059e+09\\
92.6484 4.51018e+09\\
93.8081 4.46984e+09\\
94.9591 4.42962e+09\\
96.1013 4.38953e+09\\
97.2348 4.3496e+09\\
98.3594 4.30986e+09\\
99.4751 4.27032e+09\\
100.582 4.23102e+09\\
101.68 4.19196e+09\\
102.769 4.15317e+09\\
103.849 4.11465e+09\\
104.92 4.07643e+09\\
105.983 4.03851e+09\\
107.036 4.0009e+09\\
108.081 3.96363e+09\\
};
\addlegendentry{$V_{\mathrm{DS}}=\SI{-0.5}{\volt}$}
\end{axis}

\end{tikzpicture}
