\begin{tikzpicture}[font=\normalsize, trim axis left, trim axis right, tight background]
\pgfplotsset{every axis/.append style={very thick},compat=1.18}
\definecolor{color0}{rgb}{0.00000, 0.39216, 0.00000}
\definecolor{color1}{rgb}{0.00000, 0.00000, 0.54510}
\definecolor{color2}{rgb}{0.69020, 0.18824, 0.37647}

\begin{axis}[
scale only axis,
xlabel={$-J_{\mathrm{D}} ( \si{\milli\ampere\per\micro\meter} )$},
ylabel={$f_{\mathrm{T}} ( \si{\giga\hertz} )$},
xmode=log,
xmin=1e-05,
xmax=1,
restrict x to domain=-5.69897:0.69897,
log basis x=10,
% ymin=0,
% ymax=0,
% restrict y to domain=0:1,
log basis y=10,
ytick pos=left,
xlabel shift=-5pt,
 ylabel shift=-5pt,
xmajorgrids,
enlargelimits=false,
scaled ticks=true,
ymajorgrids,
x tick style={color=black},
y tick style={color=black},
x grid style={white!69.01960784313725!black},
y grid style={white!69.01960784313725!black},
/tikz/mark repeat=2,
legend style={at={(0.02,0.98)}, anchor=north west,legend cell align=left, align=left},
]
\addplot [color=color0, solid, mark=x, mark options={solid}, mark phase=0, ]
  table[row sep=crcr, x expr=\thisrowno{0}*1.000000e-03, y expr=\thisrowno{1}*1.000000e-09]{
0.000745136 4.84999e+08\\
0.000952371 3.81034e+08\\
0.00121807 3.00042e+08\\
0.00155783 2.3717e+08\\
0.00199244 1.88646e+08\\
0.00255178 1.51555e+08\\
0.00326768 1.2367e+08\\
0.00418627 1.03313e+08\\
0.00536407 8.9259e+07\\
0.00687513 8.06647e+07\\
0.00881365 7.70147e+07\\
0.0113024 7.80927e+07\\
0.0144947 8.39668e+07\\
0.018594 9.49905e+07\\
0.0238528 1.11819e+08\\
0.0306006 1.35437e+08\\
0.039257 1.67201e+08\\
0.0503535 2.08886e+08\\
0.0645702 2.62737e+08\\
0.0827614 3.31518e+08\\
0.106004 4.18527e+08\\
0.135635 5.27579e+08\\
0.173294 6.6291e+08\\
0.220972 8.28995e+08\\
0.281027 1.03026e+09\\
0.356193 1.27071e+09\\
0.449562 1.55352e+09\\
0.564528 1.88072e+09\\
0.704701 2.25294e+09\\
0.873805 2.66945e+09\\
1.07558 3.1283e+09\\
1.31367 3.62669e+09\\
1.59155 4.16129e+09\\
1.91249 4.72864e+09\\
2.27949 5.32539e+09\\
2.69532 5.94846e+09\\
3.16251 6.59518e+09\\
3.68337 7.26323e+09\\
4.25999 7.95065e+09\\
4.89431 8.65579e+09\\
5.5881 9.37723e+09\\
6.34301 1.01137e+10\\
7.16056 1.08642e+10\\
8.04215 1.16276e+10\\
8.98908 1.24031e+10\\
10.0026 1.31896e+10\\
11.0837 1.39864e+10\\
12.2336 1.47925e+10\\
13.4531 1.5607e+10\\
14.7431 1.64293e+10\\
16.1045 1.72582e+10\\
17.5378 1.80931e+10\\
19.0438 1.89331e+10\\
20.6229 1.97773e+10\\
22.2757 2.06249e+10\\
24.0025 2.14752e+10\\
25.8037 2.23272e+10\\
27.6795 2.31802e+10\\
29.6302 2.40335e+10\\
31.6557 2.48863e+10\\
33.7563 2.57379e+10\\
35.9318 2.65876e+10\\
38.1822 2.74346e+10\\
40.5074 2.82785e+10\\
42.9072 2.91185e+10\\
45.3813 2.9954e+10\\
47.9295 3.07845e+10\\
50.5514 3.16094e+10\\
53.2466 3.24283e+10\\
56.0147 3.32405e+10\\
58.8552 3.40457e+10\\
61.7676 3.48434e+10\\
64.7513 3.56331e+10\\
67.8058 3.64146e+10\\
70.9303 3.71873e+10\\
74.1243 3.7951e+10\\
77.387 3.87054e+10\\
80.7177 3.94501e+10\\
84.1157 4.01848e+10\\
87.5801 4.09093e+10\\
91.1102 4.16234e+10\\
94.7052 4.23268e+10\\
98.3642 4.30193e+10\\
102.086 4.37008e+10\\
105.871 4.43711e+10\\
109.717 4.50299e+10\\
113.623 4.56773e+10\\
117.589 4.6313e+10\\
121.613 4.6937e+10\\
125.695 4.75491e+10\\
129.834 4.81494e+10\\
134.028 4.87377e+10\\
138.278 4.93139e+10\\
142.581 4.98781e+10\\
146.937 5.04302e+10\\
151.344 5.09702e+10\\
155.803 5.14981e+10\\
160.311 5.20139e+10\\
164.869 5.25176e+10\\
169.474 5.30092e+10\\
174.126 5.34888e+10\\
178.823 5.39564e+10\\
183.566 5.4412e+10\\
188.352 5.48557e+10\\
193.182 5.52876e+10\\
198.053 5.57078e+10\\
202.965 5.61162e+10\\
207.917 5.6513e+10\\
212.908 5.68982e+10\\
217.937 5.72721e+10\\
223.004 5.76346e+10\\
228.106 5.79858e+10\\
233.243 5.8326e+10\\
238.414 5.86551e+10\\
243.619 5.89732e+10\\
248.856 5.92806e+10\\
254.125 5.95773e+10\\
259.423 5.98635e+10\\
264.752 6.01392e+10\\
270.109 6.04046e+10\\
275.494 6.06599e+10\\
280.906 6.09052e+10\\
286.343 6.11405e+10\\
291.807 6.13661e+10\\
297.294 6.1582e+10\\
302.805 6.17885e+10\\
308.338 6.19856e+10\\
313.894 6.21736e+10\\
319.47 6.23524e+10\\
325.067 6.25224e+10\\
330.683 6.26836e+10\\
336.317 6.28362e+10\\
341.97 6.29803e+10\\
347.64 6.31161e+10\\
353.326 6.32437e+10\\
359.028 6.33632e+10\\
364.745 6.34748e+10\\
370.476 6.35788e+10\\
376.22 6.3675e+10\\
381.978 6.37639e+10\\
387.747 6.38454e+10\\
};
\addlegendentry{$V_{\mathrm{DS}}=\SI{-1.5}{\volt}$}
\addplot [color=color1, solid, mark=+, mark options={solid}, mark phase=0, ]
  table[row sep=crcr, x expr=\thisrowno{0}*1.000000e-03, y expr=\thisrowno{1}*1.000000e-09]{
0.000483007 8.53006e+08\\
0.000617807 6.69273e+08\\
0.000789311 5.2544e+08\\
0.00100921 4.13006e+08\\
0.00129213 3.25312e+08\\
0.00165301 2.57149e+08\\
0.00211587 2.04461e+08\\
0.00270932 1.64105e+08\\
0.00347005 1.33671e+08\\
0.00444581 1.11339e+08\\
0.00569733 9.57703e+07\\
0.00730194 8.60339e+07\\
0.00936097 8.15469e+07\\
0.0120021 8.20414e+07\\
0.0153912 8.75458e+07\\
0.019737 9.83828e+07\\
0.0253116 1.15181e+08\\
0.0324582 1.38899e+08\\
0.0416156 1.70859e+08\\
0.0533419 2.12788e+08\\
0.0683388 2.66853e+08\\
0.0874924 3.35691e+08\\
0.111904 4.22411e+08\\
0.142934 5.30548e+08\\
0.182237 6.63948e+08\\
0.231796 8.26582e+08\\
0.29394 1.02227e+09\\
0.371338 1.25435e+09\\
0.466978 1.52538e+09\\
0.584104 1.83685e+09\\
0.726141 2.18909e+09\\
0.896604 2.58133e+09\\
1.09901 3.01183e+09\\
1.33678 3.47823e+09\\
1.61321 3.97779e+09\\
1.93138 4.5077e+09\\
2.2942 5.06522e+09\\
2.70432 5.64786e+09\\
3.16423 6.25337e+09\\
3.6762 6.8798e+09\\
4.24234 7.52544e+09\\
4.8646 8.18879e+09\\
5.54478 8.86852e+09\\
6.28455 9.56343e+09\\
7.08548 1.02724e+10\\
7.94901 1.09944e+10\\
8.87647 1.17285e+10\\
9.86912 1.24736e+10\\
10.9281 1.32289e+10\\
12.0544 1.39933e+10\\
13.2492 1.4766e+10\\
14.5131 1.5546e+10\\
15.847 1.63325e+10\\
17.2517 1.71244e+10\\
18.7276 1.79209e+10\\
20.2755 1.87211e+10\\
21.8956 1.95242e+10\\
23.5884 2.03291e+10\\
25.3542 2.11351e+10\\
27.1932 2.19414e+10\\
29.1055 2.2747e+10\\
31.0912 2.35511e+10\\
33.1503 2.43531e+10\\
35.2826 2.5152e+10\\
37.4881 2.59472e+10\\
39.7664 2.67379e+10\\
42.1174 2.75234e+10\\
44.5407 2.8303e+10\\
47.0358 2.90761e+10\\
49.6023 2.9842e+10\\
52.2396 3.06e+10\\
54.9472 3.13497e+10\\
57.7244 3.20905e+10\\
60.5705 3.28217e+10\\
63.4848 3.3543e+10\\
66.4665 3.42537e+10\\
69.5147 3.49535e+10\\
72.6286 3.5642e+10\\
75.8072 3.63186e+10\\
79.0496 3.69831e+10\\
82.3548 3.76351e+10\\
85.7218 3.82742e+10\\
89.1494 3.89001e+10\\
92.6367 3.95126e+10\\
96.1824 4.01114e+10\\
99.7855 4.06962e+10\\
103.445 4.12669e+10\\
107.159 4.18233e+10\\
110.927 4.23652e+10\\
114.748 4.28924e+10\\
118.619 4.34049e+10\\
122.541 4.39025e+10\\
126.512 4.43852e+10\\
130.53 4.4853e+10\\
134.594 4.53057e+10\\
138.703 4.57433e+10\\
142.856 4.6166e+10\\
147.051 4.65736e+10\\
151.286 4.69663e+10\\
155.562 4.73441e+10\\
159.876 4.7707e+10\\
164.226 4.80551e+10\\
168.613 4.83885e+10\\
173.034 4.87074e+10\\
177.488 4.90119e+10\\
181.974 4.93021e+10\\
186.49 4.95782e+10\\
191.035 4.98402e+10\\
195.609 5.00885e+10\\
200.21 5.03231e+10\\
204.835 5.05442e+10\\
209.486 5.07521e+10\\
214.159 5.0947e+10\\
218.854 5.1129e+10\\
223.57 5.12984e+10\\
228.306 5.14554e+10\\
233.06 5.16002e+10\\
237.831 5.17331e+10\\
242.618 5.18543e+10\\
247.421 5.1964e+10\\
252.237 5.20626e+10\\
257.067 5.21501e+10\\
261.908 5.22269e+10\\
266.76 5.22932e+10\\
271.623 5.23493e+10\\
276.494 5.23954e+10\\
281.373 5.24318e+10\\
286.26 5.24586e+10\\
291.152 5.24763e+10\\
296.05 5.24849e+10\\
300.952 5.24848e+10\\
305.858 5.24762e+10\\
310.766 5.24593e+10\\
315.676 5.24345e+10\\
320.588 5.24018e+10\\
325.499 5.23616e+10\\
330.411 5.23142e+10\\
335.321 5.22596e+10\\
340.23 5.21982e+10\\
345.135 5.21302e+10\\
350.038 5.20558e+10\\
};
\addlegendentry{$V_{\mathrm{DS}}=\SI{-1.0}{\volt}$}
\addplot [color=color2, solid, mark=triangle, mark options={solid, rotate=180}, mark phase=0, ]
  table[row sep=crcr, x expr=\thisrowno{0}*1.000000e-03, y expr=\thisrowno{1}*1.000000e-09]{
0.000313613 1.53088e+09\\
0.000400665 1.20082e+09\\
0.000511753 9.41949e+08\\
0.000654187 7.39029e+08\\
0.00083641 5.80131e+08\\
0.00107012 4.55886e+08\\
0.00136895 3.58935e+08\\
0.00175191 2.83522e+08\\
0.00224288 2.25162e+08\\
0.00287173 1.80378e+08\\
0.00367809 1.46493e+08\\
0.00471183 1.2148e+08\\
0.0060371 1.03839e+08\\
0.00773704 9.25113e+07\\
0.00991642 8.68142e+07\\
0.0127112 8.64001e+07\\
0.0162939 9.12325e+07\\
0.0208857 1.01577e+08\\
0.0267681 1.18008e+08\\
0.0342993 1.4142e+08\\
0.0439323 1.73057e+08\\
0.0562396 2.14531e+08\\
0.0719383 2.67847e+08\\
0.0919212 3.35403e+08\\
0.117289 4.19967e+08\\
0.149383 5.24611e+08\\
0.189814 6.52581e+08\\
0.240485 8.07124e+08\\
0.303596 9.91253e+08\\
0.381639 1.20751e+09\\
0.477362 1.45774e+09\\
0.593719 1.74298e+09\\
0.733811 2.0634e+09\\
0.900809 2.41836e+09\\
1.09788 2.80662e+09\\
1.32815 3.22649e+09\\
1.59461 3.67604e+09\\
1.90014 4.15326e+09\\
2.24745 4.65616e+09\\
2.6391 5.18287e+09\\
3.07748 5.73161e+09\\
3.56481 6.30077e+09\\
4.1032 6.88884e+09\\
4.69457 7.4944e+09\\
5.34074 8.11612e+09\\
6.0434 8.7527e+09\\
6.80409 9.40289e+09\\
7.62425 1.00655e+10\\
8.5052 1.07392e+10\\
9.44814 1.14228e+10\\
10.4542 1.2115e+10\\
11.5242 1.28146e+10\\
12.6592 1.35203e+10\\
13.8597 1.42308e+10\\
15.1265 1.49448e+10\\
16.4601 1.56609e+10\\
17.8607 1.63778e+10\\
19.3287 1.70942e+10\\
20.8641 1.78086e+10\\
22.4671 1.85198e+10\\
24.1374 1.92264e+10\\
25.8748 1.99271e+10\\
27.6789 2.06205e+10\\
29.5494 2.13055e+10\\
31.4854 2.19807e+10\\
33.4865 2.2645e+10\\
35.5516 2.32972e+10\\
37.6799 2.39362e+10\\
39.8703 2.45611e+10\\
42.1216 2.51707e+10\\
44.4327 2.57642e+10\\
46.8021 2.63408e+10\\
49.2286 2.68997e+10\\
51.7104 2.74402e+10\\
54.2462 2.79617e+10\\
56.8342 2.84636e+10\\
59.4727 2.89455e+10\\
62.16 2.9407e+10\\
64.8943 2.98477e+10\\
67.6738 3.02675e+10\\
70.4965 3.06661e+10\\
73.3606 3.10434e+10\\
76.2642 3.13994e+10\\
79.2052 3.17341e+10\\
82.1818 3.20476e+10\\
85.192 3.23401e+10\\
88.2339 3.26117e+10\\
91.3055 3.28626e+10\\
94.4049 3.30932e+10\\
97.5301 3.33038e+10\\
100.679 3.34947e+10\\
103.851 3.36663e+10\\
107.042 3.38191e+10\\
110.253 3.39535e+10\\
113.479 3.407e+10\\
116.721 3.41691e+10\\
119.976 3.42513e+10\\
123.243 3.43172e+10\\
126.52 3.43672e+10\\
129.805 3.4402e+10\\
133.097 3.4422e+10\\
136.395 3.44279e+10\\
139.696 3.44202e+10\\
143 3.43995e+10\\
146.306 3.43663e+10\\
149.612 3.43213e+10\\
152.917 3.42648e+10\\
156.219 3.41975e+10\\
159.518 3.41199e+10\\
162.812 3.40325e+10\\
166.101 3.39359e+10\\
169.384 3.38305e+10\\
172.659 3.37168e+10\\
175.926 3.35953e+10\\
179.183 3.34665e+10\\
182.431 3.33308e+10\\
185.668 3.31887e+10\\
188.893 3.30405e+10\\
192.107 3.28867e+10\\
195.308 3.27276e+10\\
198.496 3.25637e+10\\
201.669 3.23954e+10\\
204.829 3.22228e+10\\
207.973 3.20465e+10\\
211.103 3.18667e+10\\
214.217 3.16837e+10\\
217.314 3.14978e+10\\
220.395 3.13093e+10\\
223.46 3.11185e+10\\
226.507 3.09257e+10\\
229.537 3.07309e+10\\
232.55 3.05346e+10\\
235.545 3.03369e+10\\
238.521 3.01381e+10\\
241.48 2.99382e+10\\
244.42 2.97376e+10\\
247.342 2.95363e+10\\
250.246 2.93347e+10\\
253.13 2.91327e+10\\
255.996 2.89306e+10\\
258.843 2.87285e+10\\
};
\addlegendentry{$V_{\mathrm{DS}}=\SI{-0.5}{\volt}$}
\end{axis}

\end{tikzpicture}
