\begin{tikzpicture}[font=\normalsize,trim axis left, trim axis right,tight background]
\pgfplotsset{every axis/.append style={very thick},compat=1.5},
\definecolor{color0}{rgb}{0.00000, 0.39216, 0.00000}
\definecolor{color1}{rgb}{0.00000, 0.00000, 0.54510}
\definecolor{color2}{rgb}{0.69020, 0.18824, 0.37647}

\begin{axis}[scale only axis,ytick pos=left,
xlabel={$J_{\mathrm{D}} ( \si{\milli\ampere\per\micro\meter} )$},
ylabel={$f_{\mathrm{T}} ( \si{\giga\hertz} )$},
xmode=log,
xmin=1e-05,
xmax=1,
restrict x to domain=-5.69897:0.69897,
log basis x=10,
ymin=0,
ymax=30,
restrict y to domain=0:150,
log basis y=10,
xlabel shift = -5 pt,
 ylabel shift = -5 pt,
xmajorgrids,
enlargelimits=false,
scaled ticks=true,
ymajorgrids,
x tick style={color=black},
y tick style={color=black},
x grid style={white!69.01960784313725!black},
y grid style={white!69.01960784313725!black},
/tikz/mark repeat=2,
legend style={at={(0.02,0.98)}, anchor=north west,legend cell align=left, align=left},
]
\addplot [color=color0, solid, mark=x, mark options={solid}, mark phase=1, ]
  table[row sep=crcr, x expr=\thisrowno{0}*1.000000e-03, y expr=\thisrowno{1}*1.000000e-09]{
0.00209622 2.08412e+08\\
0.00285451 1.57439e+08\\
0.00388695 1.21332e+08\\
0.00529293 9.66843e+07\\
0.00720791 8.1164e+07\\
0.00981394 7.32864e+07\\
0.0133592 7.22673e+07\\
0.0181766 7.79288e+07\\
0.0247147 9.06462e+07\\
0.0335703 1.11318e+08\\
0.0455343 1.41338e+08\\
0.0616423 1.82543e+08\\
0.0832295 2.371e+08\\
0.111988 3.07302e+08\\
0.150014 3.95254e+08\\
0.199835 5.02483e+08\\
0.264401 6.29566e+08\\
0.347038 7.75926e+08\\
0.451358 9.39934e+08\\
0.581153 1.11931e+09\\
0.740276 1.31171e+09\\
0.932556 1.51516e+09\\
1.16173 1.72836e+09\\
1.4314 1.95063e+09\\
1.74504 2.18172e+09\\
2.10596 2.42158e+09\\
2.5173 2.67021e+09\\
2.98206 2.92752e+09\\
3.50303 3.19328e+09\\
4.08285 3.46711e+09\\
4.72395 3.74852e+09\\
5.42859 4.03693e+09\\
6.19886 4.33164e+09\\
7.03662 4.63194e+09\\
7.94359 4.93704e+09\\
8.92128 5.24618e+09\\
9.97106 5.55854e+09\\
11.0941 5.87333e+09\\
12.2914 6.18976e+09\\
13.5637 6.50705e+09\\
14.9119 6.82445e+09\\
16.3363 7.14121e+09\\
17.8375 7.45663e+09\\
19.4155 7.77003e+09\\
21.0705 8.08074e+09\\
22.8025 8.38816e+09\\
24.6113 8.6917e+09\\
26.4965 8.9908e+09\\
28.4577 9.28494e+09\\
30.4944 9.57365e+09\\
32.6058 9.85648e+09\\
34.7913 1.0133e+10\\
37.05 1.04029e+10\\
39.3808 1.06657e+10\\
41.7827 1.09212e+10\\
44.2544 1.11691e+10\\
46.7949 1.14091e+10\\
49.4026 1.1641e+10\\
52.0762 1.18647e+10\\
54.8142 1.20798e+10\\
57.615 1.22864e+10\\
60.4769 1.24843e+10\\
63.3984 1.26735e+10\\
66.3776 1.28537e+10\\
69.4127 1.30251e+10\\
72.5019 1.31875e+10\\
75.6434 1.33411e+10\\
78.8351 1.34857e+10\\
82.0752 1.36215e+10\\
85.3616 1.37485e+10\\
88.6925 1.38668e+10\\
92.0657 1.39765e+10\\
95.4793 1.40776e+10\\
98.9312 1.41704e+10\\
102.419 1.42549e+10\\
105.942 1.43313e+10\\
109.497 1.43997e+10\\
113.082 1.44603e+10\\
116.695 1.45133e+10\\
120.335 1.45588e+10\\
124 1.45971e+10\\
127.686 1.46284e+10\\
131.394 1.46527e+10\\
135.12 1.46704e+10\\
138.863 1.46817e+10\\
142.621 1.46867e+10\\
146.392 1.46856e+10\\
150.175 1.46787e+10\\
153.968 1.46662e+10\\
157.77 1.46482e+10\\
161.578 1.4625e+10\\
165.391 1.45968e+10\\
169.208 1.45638e+10\\
173.027 1.45261e+10\\
176.847 1.4484e+10\\
180.666 1.44377e+10\\
184.484 1.43873e+10\\
188.297 1.4333e+10\\
192.107 1.42751e+10\\
195.911 1.42136e+10\\
199.707 1.41488e+10\\
203.496 1.40808e+10\\
207.275 1.40098e+10\\
211.045 1.3936e+10\\
214.803 1.38594e+10\\
218.549 1.37803e+10\\
222.282 1.36987e+10\\
226.001 1.36149e+10\\
229.705 1.3529e+10\\
233.393 1.34411e+10\\
237.065 1.33512e+10\\
240.72 1.32597e+10\\
244.357 1.31664e+10\\
247.975 1.30717e+10\\
251.575 1.29755e+10\\
255.154 1.2878e+10\\
258.713 1.27793e+10\\
262.251 1.26795e+10\\
265.768 1.25786e+10\\
269.263 1.24769e+10\\
272.735 1.23742e+10\\
276.185 1.22708e+10\\
279.611 1.21668e+10\\
283.014 1.20621e+10\\
286.392 1.19568e+10\\
289.747 1.18511e+10\\
293.076 1.1745e+10\\
296.381 1.16385e+10\\
299.661 1.15318e+10\\
302.915 1.14248e+10\\
306.143 1.13177e+10\\
309.345 1.12105e+10\\
312.522 1.11031e+10\\
315.672 1.09958e+10\\
318.795 1.08885e+10\\
321.892 1.07813e+10\\
324.963 1.06742e+10\\
328.006 1.05673e+10\\
331.023 1.04605e+10\\
334.012 1.0354e+10\\
336.975 1.02477e+10\\
};
\addlegendentry{$V_{\mathrm{DS}}=\SI{0.5}{\volt}$}
\addplot [color=color1, solid, mark=+, mark options={solid}, mark phase=1, ]
  table[row sep=crcr, x expr=\thisrowno{0}*1.000000e-03, y expr=\thisrowno{1}*1.000000e-09]{
0.00295228 1.37983e+08\\
0.00402549 1.07212e+08\\
0.0054888 8.66582e+07\\
0.00748417 7.43652e+07\\
0.0102039 6.91523e+07\\
0.0139101 7.04949e+07\\
0.0189548 7.8458e+07\\
0.0258147 9.36699e+07\\
0.0351279 1.17323e+08\\
0.0477439 1.51179e+08\\
0.0647814 1.97559e+08\\
0.0876951 2.59268e+08\\
0.11835 3.3941e+08\\
0.159077 4.41049e+08\\
0.212719 5.66691e+08\\
0.282628 7.17669e+08\\
0.372606 8.93599e+08\\
0.486779 1.09218e+09\\
0.62943 1.30955e+09\\
0.804812 1.54109e+09\\
1.017 1.78255e+09\\
1.2698 2.03085e+09\\
1.56675 2.28436e+09\\
1.91115 2.54278e+09\\
2.30612 2.80666e+09\\
2.75463 3.07689e+09\\
3.25954 3.35439e+09\\
3.82361 3.63982e+09\\
4.44951 3.93356e+09\\
5.13975 4.23568e+09\\
5.89675 4.54598e+09\\
6.72276 4.86407e+09\\
7.61986 5.18937e+09\\
8.58999 5.5212e+09\\
9.63491 5.85883e+09\\
10.7562 6.20144e+09\\
11.9553 6.54821e+09\\
13.2334 6.8983e+09\\
14.5915 7.25089e+09\\
16.0307 7.60514e+09\\
17.5516 7.96025e+09\\
19.1548 8.31545e+09\\
20.8407 8.66997e+09\\
22.6096 9.02311e+09\\
24.4616 9.37417e+09\\
26.3967 9.72251e+09\\
28.4147 1.00675e+10\\
30.5154 1.04086e+10\\
32.6984 1.07453e+10\\
34.9632 1.10771e+10\\
37.3092 1.14034e+10\\
39.7355 1.17241e+10\\
42.2415 1.20385e+10\\
44.8263 1.23466e+10\\
47.4887 1.26478e+10\\
50.2279 1.29421e+10\\
53.0425 1.32292e+10\\
55.9316 1.35089e+10\\
58.8937 1.37811e+10\\
61.9276 1.40456e+10\\
65.032 1.43025e+10\\
68.2054 1.45515e+10\\
71.4465 1.47928e+10\\
74.7538 1.50262e+10\\
78.1257 1.52519e+10\\
81.5608 1.54698e+10\\
85.0576 1.568e+10\\
88.6146 1.58826e+10\\
92.2301 1.60776e+10\\
95.9027 1.62652e+10\\
99.6307 1.64454e+10\\
103.413 1.66184e+10\\
107.247 1.67843e+10\\
111.132 1.69432e+10\\
115.067 1.70952e+10\\
119.049 1.72405e+10\\
123.077 1.73793e+10\\
127.151 1.75116e+10\\
131.267 1.76376e+10\\
135.426 1.77575e+10\\
139.624 1.78715e+10\\
143.862 1.79795e+10\\
148.137 1.80819e+10\\
152.448 1.81787e+10\\
156.793 1.82701e+10\\
161.172 1.83563e+10\\
165.584 1.84373e+10\\
170.025 1.85132e+10\\
174.497 1.85844e+10\\
178.996 1.86507e+10\\
183.522 1.87125e+10\\
188.074 1.87698e+10\\
192.65 1.88227e+10\\
197.25 1.88713e+10\\
201.872 1.89158e+10\\
206.515 1.89563e+10\\
211.178 1.89929e+10\\
215.859 1.90256e+10\\
220.559 1.90547e+10\\
225.275 1.90801e+10\\
230.007 1.9102e+10\\
234.754 1.91205e+10\\
239.514 1.91356e+10\\
244.288 1.91475e+10\\
249.073 1.91562e+10\\
253.869 1.91618e+10\\
258.675 1.91645e+10\\
263.49 1.91642e+10\\
268.314 1.9161e+10\\
273.145 1.91551e+10\\
277.983 1.91464e+10\\
282.827 1.91351e+10\\
287.676 1.91212e+10\\
292.529 1.91049e+10\\
297.385 1.9086e+10\\
302.245 1.90647e+10\\
307.106 1.90412e+10\\
311.969 1.90153e+10\\
316.833 1.89872e+10\\
321.697 1.89569e+10\\
326.56 1.89245e+10\\
331.421 1.88901e+10\\
336.281 1.88536e+10\\
341.138 1.88151e+10\\
345.993 1.87747e+10\\
350.843 1.87324e+10\\
355.689 1.86883e+10\\
360.53 1.86424e+10\\
365.366 1.85947e+10\\
370.195 1.85453e+10\\
375.018 1.84943e+10\\
379.834 1.84416e+10\\
384.643 1.83873e+10\\
389.443 1.83315e+10\\
394.235 1.82741e+10\\
399.017 1.82153e+10\\
403.79 1.8155e+10\\
408.554 1.80933e+10\\
413.306 1.80303e+10\\
418.048 1.79659e+10\\
422.779 1.79001e+10\\
};
\addlegendentry{$V_{\mathrm{DS}}=\SI{1.0}{\volt}$}
\addplot [color=color2, solid, mark=triangle, mark options={solid, rotate=180}, mark phase=1, ]
  table[row sep=crcr, x expr=\thisrowno{0}*1.000000e-03, y expr=\thisrowno{1}*1.000000e-09]{
0.00364837 1.05867e+08\\
0.00497688 8.50316e+07\\
0.00679068 7.23544e+07\\
0.00926515 6.66193e+07\\
0.01264 6.72624e+07\\
0.0172388 7.43075e+07\\
0.0235052 8.83447e+07\\
0.0320279 1.10544e+08\\
0.0435992 1.42686e+08\\
0.0592763 1.87194e+08\\
0.0804435 2.47119e+08\\
0.108899 3.26051e+08\\
0.146934 4.27858e+08\\
0.1974 5.56225e+08\\
0.263744 7.13958e+08\\
0.349979 9.02167e+08\\
0.460586 1.11958e+09\\
0.60032 1.36232e+09\\
0.773973 1.62451e+09\\
0.986124 1.89946e+09\\
1.24096 2.18122e+09\\
1.54222 2.46568e+09\\
1.89318 2.75098e+09\\
2.29682 3.03714e+09\\
2.75587 3.32545e+09\\
3.27297 3.61766e+09\\
3.85066 3.91548e+09\\
4.49147 4.22028e+09\\
5.19787 4.53298e+09\\
5.97226 4.85403e+09\\
6.81697 5.18347e+09\\
7.73417 5.52106e+09\\
8.72595 5.86632e+09\\
9.79422 6.21858e+09\\
10.9407 6.57708e+09\\
12.1671 6.94099e+09\\
13.4747 7.30942e+09\\
14.8647 7.68147e+09\\
16.3383 8.05623e+09\\
17.8964 8.43282e+09\\
19.5396 8.81035e+09\\
21.2685 9.18798e+09\\
23.0836 9.56489e+09\\
24.985 9.94029e+09\\
26.9728 1.03134e+10\\
29.047 1.06836e+10\\
31.2074 1.10502e+10\\
33.4536 1.14126e+10\\
35.7853 1.17701e+10\\
38.2017 1.21223e+10\\
40.7023 1.24688e+10\\
43.2862 1.28089e+10\\
45.9526 1.31425e+10\\
48.7005 1.3469e+10\\
51.5287 1.37883e+10\\
54.4362 1.41001e+10\\
57.4218 1.44041e+10\\
60.4842 1.47002e+10\\
63.622 1.49883e+10\\
66.8339 1.52681e+10\\
70.1185 1.55397e+10\\
73.4742 1.5803e+10\\
76.8997 1.6058e+10\\
80.3932 1.63047e+10\\
83.9534 1.65432e+10\\
87.5787 1.67734e+10\\
91.2674 1.69954e+10\\
95.0181 1.72095e+10\\
98.829 1.74155e+10\\
102.699 1.76138e+10\\
106.625 1.78043e+10\\
110.608 1.79874e+10\\
114.644 1.8163e+10\\
118.732 1.83313e+10\\
122.872 1.84926e+10\\
127.06 1.8647e+10\\
131.297 1.87946e+10\\
135.579 1.89356e+10\\
139.907 1.90702e+10\\
144.277 1.91986e+10\\
148.69 1.93209e+10\\
153.143 1.94374e+10\\
157.635 1.95481e+10\\
162.165 1.96532e+10\\
166.731 1.9753e+10\\
171.332 1.98476e+10\\
175.966 1.99371e+10\\
180.634 2.00217e+10\\
185.332 2.01016e+10\\
190.06 2.01768e+10\\
194.818 2.02476e+10\\
199.603 2.03141e+10\\
204.414 2.03765e+10\\
209.251 2.04348e+10\\
214.112 2.04892e+10\\
218.997 2.05398e+10\\
223.904 2.05868e+10\\
228.832 2.06303e+10\\
233.781 2.06704e+10\\
238.748 2.07071e+10\\
243.735 2.07407e+10\\
248.739 2.07712e+10\\
253.759 2.07988e+10\\
258.796 2.08234e+10\\
263.847 2.08453e+10\\
268.912 2.08644e+10\\
273.991 2.0881e+10\\
279.083 2.08951e+10\\
284.186 2.09067e+10\\
289.301 2.09159e+10\\
294.426 2.09229e+10\\
299.561 2.09277e+10\\
304.704 2.09303e+10\\
309.857 2.09309e+10\\
315.017 2.09295e+10\\
320.184 2.09262e+10\\
325.357 2.09209e+10\\
330.537 2.09139e+10\\
335.722 2.09051e+10\\
340.912 2.08946e+10\\
346.106 2.08824e+10\\
351.305 2.08687e+10\\
356.506 2.08534e+10\\
361.71 2.08365e+10\\
366.916 2.08183e+10\\
372.124 2.07986e+10\\
377.334 2.07775e+10\\
382.544 2.07551e+10\\
387.755 2.07314e+10\\
392.966 2.07065e+10\\
398.176 2.06803e+10\\
403.386 2.06529e+10\\
408.594 2.06244e+10\\
413.801 2.05947e+10\\
419.005 2.05639e+10\\
424.208 2.05321e+10\\
429.407 2.04993e+10\\
434.604 2.04654e+10\\
439.797 2.04305e+10\\
444.987 2.03947e+10\\
450.172 2.03579e+10\\
};
\addlegendentry{$V_{\mathrm{DS}}=\SI{1.5}{\volt}$}
\end{axis}

\end{tikzpicture}
