\begin{tikzpicture}[font=\normalsize,trim axis left, trim axis right,tight background]
\pgfplotsset{every axis/.append style={very thick},compat=1.5},
\definecolor{color0}{rgb}{0.00000, 0.39216, 0.00000}
\definecolor{color1}{rgb}{0.00000, 0.00000, 0.54510}
\definecolor{color2}{rgb}{0.69020, 0.18824, 0.37647}

\begin{axis}[scale only axis,ytick pos=left,
xlabel={$J_{\mathrm{D}} ( \si{\milli\ampere\per\micro\meter} )$},
ylabel={$f_{\mathrm{T}} ( \si{\giga\hertz} )$},
xmode=log,
xmin=1e-05,
xmax=1,
restrict x to domain=-5.69897:0.69897,
log basis x=10,
% ymin=0,
% ymax=0,
% restrict y to domain=0:1,
log basis y=10,
xlabel shift = -5 pt,
 ylabel shift = -5 pt,
xmajorgrids,
enlargelimits=false,
scaled ticks=true,
ymajorgrids,
x tick style={color=black},
y tick style={color=black},
x grid style={white!69.01960784313725!black},
y grid style={white!69.01960784313725!black},
/tikz/mark repeat=2,
legend style={at={(0.02,0.98)}, anchor=north west,legend cell align=left, align=left},
]
\addplot [color=color0, solid, mark=x, mark options={solid}, mark phase=1, ]
  table[row sep=crcr, x expr=\thisrowno{0}*1.000000e-03, y expr=\thisrowno{1}*1.000000e-09]{
0.000197626 3.06438e+09\\
0.000259459 2.3361e+09\\
0.000340682 1.78058e+09\\
0.000447547 1.35709e+09\\
0.00058814 1.03439e+09\\
0.00077307 7.887e+08\\
0.00101642 6.01833e+08\\
0.0013367 4.59941e+08\\
0.00175842 3.52482e+08\\
0.00231359 2.71462e+08\\
0.00304466 2.10837e+08\\
0.00400771 1.66078e+08\\
0.00527627 1.33837e+08\\
0.0069469 1.11698e+08\\
0.00914787 9.79989e+07\\
0.0120467 9.17057e+07\\
0.0158638 9.23352e+07\\
0.0208884 9.9912e+07\\
0.0274991 1.14959e+08\\
0.0361899 1.38519e+08\\
0.0476038 1.72191e+08\\
0.0625722 2.18196e+08\\
0.0821649 2.79438e+08\\
0.107746 3.59549e+08\\
0.141038 4.62905e+08\\
0.184184 5.94543e+08\\
0.239809 7.59957e+08\\
0.311057 9.64728e+08\\
0.401602 1.21395e+09\\
0.51561 1.51158e+09\\
0.657651 1.85975e+09\\
0.832552 2.25841e+09\\
1.04525 2.70541e+09\\
1.30063 3.19724e+09\\
1.60346 3.73007e+09\\
1.95837 4.30093e+09\\
2.36994 4.90839e+09\\
2.84276 5.55275e+09\\
3.3816 6.23556e+09\\
3.99139 6.95904e+09\\
4.67729 7.7253e+09\\
5.44461 8.53595e+09\\
6.29878 9.39178e+09\\
7.24524 1.02927e+10\\
8.28936 1.12378e+10\\
9.43639 1.22256e+10\\
10.6914 1.32538e+10\\
12.0592 1.432e+10\\
13.5444 1.54212e+10\\
15.1512 1.65546e+10\\
16.8835 1.77167e+10\\
18.7451 1.89043e+10\\
20.7393 2.0114e+10\\
22.8689 2.13425e+10\\
25.1366 2.25862e+10\\
27.5448 2.38418e+10\\
30.0953 2.5106e+10\\
32.7897 2.63753e+10\\
35.6293 2.76466e+10\\
38.6151 2.89166e+10\\
41.7475 3.01821e+10\\
45.0268 3.14402e+10\\
48.4528 3.2688e+10\\
52.0253 3.39225e+10\\
55.7433 3.5141e+10\\
59.6058 3.63411e+10\\
63.6114 3.75202e+10\\
67.7584 3.86762e+10\\
72.0448 3.98067e+10\\
76.4684 4.09101e+10\\
81.0267 4.19843e+10\\
85.7169 4.3028e+10\\
90.536 4.40396e+10\\
95.481 4.5018e+10\\
100.548 4.59622e+10\\
105.735 4.68712e+10\\
111.036 4.77444e+10\\
116.45 4.85814e+10\\
121.97 4.93818e+10\\
127.595 5.01453e+10\\
133.319 5.0872e+10\\
139.139 5.15619e+10\\
145.05 5.22153e+10\\
151.049 5.28324e+10\\
157.131 5.34136e+10\\
163.292 5.39595e+10\\
169.528 5.44706e+10\\
175.835 5.49476e+10\\
182.21 5.53911e+10\\
188.647 5.58019e+10\\
195.144 5.61808e+10\\
201.697 5.65285e+10\\
208.301 5.68459e+10\\
214.953 5.71339e+10\\
221.65 5.73933e+10\\
228.388 5.7625e+10\\
235.164 5.78298e+10\\
241.974 5.80087e+10\\
248.816 5.81624e+10\\
255.686 5.8292e+10\\
262.58 5.83982e+10\\
269.497 5.84818e+10\\
276.433 5.85438e+10\\
283.386 5.85848e+10\\
290.353 5.86058e+10\\
297.332 5.86076e+10\\
304.319 5.85908e+10\\
311.313 5.85562e+10\\
318.311 5.85045e+10\\
325.312 5.84366e+10\\
332.312 5.8353e+10\\
339.31 5.82544e+10\\
346.304 5.81415e+10\\
353.293 5.80149e+10\\
360.273 5.78752e+10\\
367.244 5.7723e+10\\
374.204 5.7559e+10\\
381.152 5.73835e+10\\
388.085 5.71973e+10\\
395.002 5.70007e+10\\
401.902 5.67943e+10\\
408.784 5.65786e+10\\
415.645 5.6354e+10\\
422.486 5.6121e+10\\
429.305 5.58801e+10\\
436.1 5.56315e+10\\
442.871 5.53758e+10\\
449.617 5.51134e+10\\
456.336 5.48445e+10\\
463.028 5.45696e+10\\
469.692 5.4289e+10\\
476.327 5.4003e+10\\
482.932 5.3712e+10\\
489.507 5.34163e+10\\
496.05 5.31161e+10\\
502.562 5.28117e+10\\
509.041 5.25035e+10\\
515.487 5.21916e+10\\
521.899 5.18763e+10\\
528.277 5.1558e+10\\
534.62 5.12367e+10\\
};
\addlegendentry{$V_{\mathrm{DS}}=\SI{0.5}{\volt}$}
\addplot [color=color1, solid, mark=+, mark options={solid}, mark phase=1, ]
  table[row sep=crcr, x expr=\thisrowno{0}*1.000000e-03, y expr=\thisrowno{1}*1.000000e-09]{
0.000326029 1.67714e+09\\
0.000428726 1.2765e+09\\
0.000564139 9.71682e+08\\
0.000742628 7.3994e+08\\
0.00097758 5.63958e+08\\
0.00128757 4.30543e+08\\
0.00169621 3.29682e+08\\
0.0022347 2.53791e+08\\
0.00294525 1.97155e+08\\
0.00388241 1.55502e+08\\
0.00511856 1.25687e+08\\
0.00674946 1.05455e+08\\
0.0089013 9.32759e+07\\
0.0117398 8.82276e+07\\
0.015485 8.99253e+07\\
0.0204241 9.84896e+07\\
0.0269365 1.14548e+08\\
0.0355187 1.39271e+08\\
0.0468204 1.74431e+08\\
0.0616894 2.22496e+08\\
0.0812251 2.86735e+08\\
0.106845 3.71337e+08\\
0.140365 4.81503e+08\\
0.184082 6.23489e+08\\
0.240868 8.04523e+08\\
0.314251 1.03253e+09\\
0.408468 1.31555e+09\\
0.528473 1.66085e+09\\
0.67986 2.07368e+09\\
0.868686 2.55588e+09\\
1.10119 3.10485e+09\\
1.38346 3.71325e+09\\
1.72103 4.36994e+09\\
2.1187 5.06221e+09\\
2.58041 5.77865e+09\\
3.10943 6.51175e+09\\
3.70864 7.25914e+09\\
4.38094 8.02339e+09\\
5.12957 8.81059e+09\\
5.95832 9.62838e+09\\
6.87161 1.04843e+10\\
7.87442 1.13845e+10\\
8.97217 1.23334e+10\\
10.1705 1.33332e+10\\
11.4754 1.43845e+10\\
12.8924 1.54865e+10\\
14.4274 1.66371e+10\\
16.0856 1.78335e+10\\
17.8723 1.90724e+10\\
19.7921 2.035e+10\\
21.8496 2.16622e+10\\
24.0488 2.3005e+10\\
26.3932 2.43742e+10\\
28.8861 2.57656e+10\\
31.5304 2.71749e+10\\
34.3285 2.85982e+10\\
37.2823 3.00312e+10\\
40.3935 3.14702e+10\\
43.6634 3.29112e+10\\
47.0929 3.43506e+10\\
50.6824 3.5785e+10\\
54.432 3.72109e+10\\
58.3417 3.86253e+10\\
62.4108 4.00251e+10\\
66.6386 4.14076e+10\\
71.0239 4.27703e+10\\
75.5654 4.41108e+10\\
80.2613 4.54269e+10\\
85.1099 4.67168e+10\\
90.1088 4.79787e+10\\
95.2558 4.92112e+10\\
100.548 5.04128e+10\\
105.984 5.15826e+10\\
111.559 5.27195e+10\\
117.271 5.38228e+10\\
123.117 5.48918e+10\\
129.094 5.59262e+10\\
135.197 5.69255e+10\\
141.425 5.78897e+10\\
147.772 5.88186e+10\\
154.236 5.97123e+10\\
160.813 6.0571e+10\\
167.499 6.13949e+10\\
174.291 6.21843e+10\\
181.185 6.29397e+10\\
188.178 6.36615e+10\\
195.265 6.43502e+10\\
202.443 6.50065e+10\\
209.709 6.56309e+10\\
217.059 6.62242e+10\\
224.489 6.67869e+10\\
231.996 6.73199e+10\\
239.577 6.78239e+10\\
247.229 6.82997e+10\\
254.947 6.87479e+10\\
262.729 6.91694e+10\\
270.572 6.9565e+10\\
278.473 6.99355e+10\\
286.429 7.02815e+10\\
294.436 7.06039e+10\\
302.492 7.09035e+10\\
310.595 7.11811e+10\\
318.741 7.14372e+10\\
326.928 7.16727e+10\\
335.154 7.18884e+10\\
343.415 7.20847e+10\\
351.711 7.22626e+10\\
360.037 7.24226e+10\\
368.393 7.25654e+10\\
376.776 7.26915e+10\\
385.184 7.28017e+10\\
393.615 7.28965e+10\\
402.067 7.29764e+10\\
410.538 7.30421e+10\\
419.026 7.3094e+10\\
427.53 7.31328e+10\\
436.048 7.31588e+10\\
444.578 7.31726e+10\\
453.118 7.31746e+10\\
461.668 7.31653e+10\\
470.226 7.31451e+10\\
478.789 7.31145e+10\\
487.358 7.30738e+10\\
495.93 7.30234e+10\\
504.504 7.29637e+10\\
513.08 7.28951e+10\\
521.655 7.28179e+10\\
530.229 7.27324e+10\\
538.8 7.2639e+10\\
547.368 7.2538e+10\\
555.932 7.24296e+10\\
564.49 7.23141e+10\\
573.041 7.21918e+10\\
581.586 7.20631e+10\\
590.121 7.1928e+10\\
598.648 7.17869e+10\\
607.165 7.164e+10\\
615.671 7.14876e+10\\
624.165 7.13298e+10\\
632.648 7.11668e+10\\
641.117 7.09989e+10\\
};
\addlegendentry{$V_{\mathrm{DS}}=\SI{1.0}{\volt}$}
\addplot [color=color2, solid, mark=triangle, mark options={solid, rotate=180}, mark phase=1, ]
  table[row sep=crcr, x expr=\thisrowno{0}*1.000000e-03, y expr=\thisrowno{1}*1.000000e-09]{
0.000444642 1.12397e+09\\
0.000584603 8.54915e+08\\
0.000770039 6.50637e+08\\
0.00101333 4.95725e+08\\
0.00133468 3.78483e+08\\
0.00175886 2.90047e+08\\
0.00231871 2.2372e+08\\
0.00305742 1.74473e+08\\
0.0040326 1.38568e+08\\
0.00531953 1.13278e+08\\
0.00701827 9.66801e+07\\
0.00926144 8.75127e+07\\
0.0122236 8.50797e+07\\
0.0161329 8.9197e+07\\
0.0212946 1.00176e+08\\
0.0281059 1.18839e+08\\
0.037091 1.46576e+08\\
0.0489374 1.85419e+08\\
0.0645433 2.38165e+08\\
0.0850782 3.08514e+08\\
0.112059 4.01225e+08\\
0.147437 5.22279e+08\\
0.193702 6.78983e+08\\
0.253994 8.79982e+08\\
0.332214 1.13507e+09\\
0.433115 1.45468e+09\\
0.562347 1.84893e+09\\
0.726419 2.32617e+09\\
0.932531 2.89112e+09\\
1.18826 3.54291e+09\\
1.50113 4.27369e+09\\
1.87802 5.06867e+09\\
2.32471 5.90805e+09\\
2.84556 6.77081e+09\\
3.4435 7.63922e+09\\
4.12033 8.50254e+09\\
4.87729 9.35859e+09\\
5.7157 1.02129e+10\\
6.63744 1.10763e+10\\
7.6453 1.19616e+10\\
8.74306 1.28813e+10\\
9.93542 1.38454e+10\\
11.2278 1.48613e+10\\
12.626 1.59331e+10\\
14.1363 1.70624e+10\\
15.7647 1.82487e+10\\
17.5174 1.94898e+10\\
19.4001 2.07825e+10\\
21.4183 2.21228e+10\\
23.5771 2.35061e+10\\
25.8812 2.49277e+10\\
28.3348 2.63826e+10\\
30.9417 2.78657e+10\\
33.7051 2.9372e+10\\
36.628 3.08967e+10\\
39.7126 3.24348e+10\\
42.961 3.39817e+10\\
46.3745 3.55328e+10\\
49.9542 3.70836e+10\\
53.7009 3.86301e+10\\
57.6146 4.01681e+10\\
61.6954 4.1694e+10\\
65.9425 4.32043e+10\\
70.3553 4.46956e+10\\
74.9324 4.6165e+10\\
79.6724 4.76098e+10\\
84.5736 4.90274e+10\\
89.6338 5.04157e+10\\
94.8507 5.17728e+10\\
100.222 5.3097e+10\\
105.745 5.43869e+10\\
111.416 5.56412e+10\\
117.233 5.68591e+10\\
123.193 5.80398e+10\\
129.291 5.91827e+10\\
135.525 6.02876e+10\\
141.892 6.13542e+10\\
148.386 6.23825e+10\\
155.006 6.33725e+10\\
161.747 6.43246e+10\\
168.606 6.5239e+10\\
175.579 6.61162e+10\\
182.661 6.69566e+10\\
189.85 6.7761e+10\\
197.142 6.85298e+10\\
204.533 6.92639e+10\\
212.019 6.99639e+10\\
219.597 7.06307e+10\\
227.264 7.1265e+10\\
235.015 7.18677e+10\\
242.847 7.24396e+10\\
250.757 7.29817e+10\\
258.742 7.34947e+10\\
266.798 7.39795e+10\\
274.923 7.44371e+10\\
283.113 7.48683e+10\\
291.364 7.5274e+10\\
299.675 7.5655e+10\\
308.043 7.60122e+10\\
316.464 7.63464e+10\\
324.935 7.66583e+10\\
333.456 7.6949e+10\\
342.021 7.72191e+10\\
350.631 7.74693e+10\\
359.281 7.77005e+10\\
367.97 7.79133e+10\\
376.695 7.81085e+10\\
385.454 7.82868e+10\\
394.246 7.84488e+10\\
403.068 7.85952e+10\\
411.918 7.87265e+10\\
420.795 7.88435e+10\\
429.696 7.89466e+10\\
438.621 7.90365e+10\\
447.566 7.91136e+10\\
456.531 7.91785e+10\\
465.515 7.92318e+10\\
474.515 7.92738e+10\\
483.53 7.93051e+10\\
492.558 7.93261e+10\\
501.6 7.93372e+10\\
510.652 7.93388e+10\\
519.714 7.93314e+10\\
528.785 7.93153e+10\\
537.864 7.92908e+10\\
546.949 7.92584e+10\\
556.04 7.92184e+10\\
565.135 7.9171e+10\\
574.233 7.91166e+10\\
583.334 7.90555e+10\\
592.436 7.8988e+10\\
601.539 7.89142e+10\\
610.642 7.88346e+10\\
619.744 7.87493e+10\\
628.845 7.86586e+10\\
637.942 7.85627e+10\\
647.037 7.84619e+10\\
656.127 7.83562e+10\\
665.213 7.8246e+10\\
674.294 7.81314e+10\\
683.369 7.80126e+10\\
};
\addlegendentry{$V_{\mathrm{DS}}=\SI{1.5}{\volt}$}
\end{axis}

\end{tikzpicture}
