\begin{tikzpicture}[font=\normalsize, trim axis left, trim axis right, tight background]
\pgfplotsset{every axis/.append style={very thick},compat=1.18}
\definecolor{color0}{rgb}{0.00000, 0.39216, 0.00000}
\definecolor{color1}{rgb}{0.00000, 0.00000, 0.54510}
\definecolor{color2}{rgb}{0.69020, 0.18824, 0.37647}
\definecolor{color3}{rgb}{1.00000, 0.00000, 0.00000}

\begin{axis}[
scale only axis,
xlabel={$V_{\mathrm{GS}} ( \si{\volt} )$},
ylabel={$J_{\mathrm{D}} ( \si{\milli\ampere \per\micro\meter} )$},
ymode=log,
% xmin=0,
% xmax=0,
% restrict x to domain=0:1,
log basis x=10,
% ymin=0,
% ymax=0,
% restrict y to domain=0:1,
log basis y=10,
ytick pos=left,
xlabel shift=-5pt,
 ylabel shift=-5pt,
xmajorgrids,
enlargelimits=false,
scaled ticks=true,
ymajorgrids,
x tick style={color=black},
y tick style={color=black},
x grid style={white!69.01960784313725!black},
y grid style={white!69.01960784313725!black},
/tikz/mark repeat=2,
legend style={at={(0.02,0.98)}, anchor=north west,legend cell align=left, align=left},
]
\addplot [color=color0, solid, mark=x, mark options={solid}, mark phase=0, ]
  table[row sep=crcr, x expr=\thisrowno{0}*1.000000e+00, y expr=\thisrowno{1}*1.000000e-03]{
0.1 0.000243939\\
0.11 0.000320272\\
0.12 0.000419992\\
0.13 0.000551544\\
0.14 0.000724997\\
0.15 0.000953021\\
0.16 0.0012525\\
0.17 0.00164813\\
0.18 0.00216817\\
0.19 0.00285289\\
0.2 0.00375524\\
0.21 0.0049444\\
0.22 0.00651003\\
0.23 0.00857394\\
0.24 0.011293\\
0.25 0.0148751\\
0.26 0.0195941\\
0.27 0.0258076\\
0.28 0.0339846\\
0.29 0.0447371\\
0.3 0.0588596\\
0.31 0.0773811\\
0.32 0.101622\\
0.33 0.133265\\
0.34 0.174427\\
0.35 0.227735\\
0.36 0.296387\\
0.37 0.3842\\
0.38 0.495592\\
0.39 0.635532\\
0.4 0.809397\\
0.41 1.0228\\
0.42 1.28137\\
0.43 1.59058\\
0.44 1.95566\\
0.45 2.38159\\
0.46 2.87316\\
0.47 3.43516\\
0.48 4.07247\\
0.49 4.79017\\
0.5 5.59353\\
0.51 6.48802\\
0.52 7.47923\\
0.53 8.57278\\
0.54 9.77426\\
0.55 11.0891\\
0.56 12.5226\\
0.57 14.0799\\
0.58 15.7655\\
0.59 17.5841\\
0.6 19.5396\\
0.61 21.6357\\
0.62 23.876\\
0.63 26.2633\\
0.64 28.8001\\
0.65 31.4889\\
0.66 34.3312\\
0.67 37.3286\\
0.68 40.482\\
0.69 43.7923\\
0.7 47.2596\\
0.71 50.884\\
0.72 54.665\\
0.73 58.602\\
0.74 62.694\\
0.75 66.9397\\
0.76 71.3375\\
0.77 75.8856\\
0.78 80.5819\\
0.79 85.4241\\
0.8 90.4098\\
0.81 95.5363\\
0.82 100.801\\
0.83 106.2\\
0.84 111.731\\
0.85 117.391\\
0.86 123.176\\
0.87 129.083\\
0.88 135.109\\
0.89 141.249\\
0.9 147.5\\
0.91 153.858\\
0.92 160.321\\
0.93 166.884\\
0.94 173.543\\
0.95 180.295\\
0.96 187.136\\
0.97 194.063\\
0.98 201.071\\
0.99 208.159\\
1 215.321\\
1.01 222.555\\
1.02 229.858\\
1.03 237.225\\
1.04 244.655\\
1.05 252.143\\
1.06 259.687\\
1.07 267.284\\
1.08 274.931\\
1.09 282.625\\
1.1 290.363\\
1.11 298.143\\
1.12 305.962\\
1.13 313.818\\
1.14 321.708\\
1.15 329.63\\
1.16 337.582\\
1.17 345.561\\
1.18 353.566\\
1.19 361.595\\
1.2 369.645\\
1.21 377.714\\
1.22 385.802\\
1.23 393.906\\
1.24 402.024\\
1.25 410.154\\
1.26 418.296\\
1.27 426.448\\
1.28 434.608\\
1.29 442.775\\
1.3 450.947\\
1.31 459.124\\
1.32 467.303\\
1.33 475.485\\
1.34 483.667\\
1.35 491.848\\
1.36 500.028\\
1.37 508.205\\
1.38 516.378\\
1.39 524.547\\
1.4 532.711\\
1.41 540.868\\
1.42 549.017\\
1.43 557.159\\
1.44 565.292\\
1.45 573.415\\
1.46 581.528\\
1.47 589.629\\
1.48 597.719\\
1.49 605.797\\
1.5 613.861\\
};
\addlegendentry{$\SI{350.0}{\nano\meter}$}
\addplot [color=color1, solid, mark=+, mark options={solid}, mark phase=0, ]
  table[row sep=crcr, x expr=\thisrowno{0}*1.000000e+00, y expr=\thisrowno{1}*1.000000e-03]{
0.1 0.000287059\\
0.11 0.000376682\\
0.12 0.000495106\\
0.13 0.000651426\\
0.14 0.000856441\\
0.15 0.00112664\\
0.16 0.00148286\\
0.17 0.001952\\
0.18 0.0025697\\
0.19 0.00338427\\
0.2 0.00445766\\
0.21 0.00587287\\
0.22 0.00773809\\
0.23 0.0101975\\
0.24 0.0134389\\
0.25 0.0177107\\
0.26 0.0233399\\
0.27 0.0307532\\
0.28 0.0405102\\
0.29 0.0533409\\
0.3 0.0701914\\
0.31 0.0922849\\
0.32 0.121188\\
0.33 0.158889\\
0.34 0.207881\\
0.35 0.271237\\
0.36 0.352675\\
0.37 0.456574\\
0.38 0.587935\\
0.39 0.752259\\
0.4 0.955335\\
0.41 1.20296\\
0.42 1.50063\\
0.43 1.85336\\
0.44 2.26551\\
0.45 2.74095\\
0.46 3.28319\\
0.47 3.89573\\
0.48 4.58226\\
0.49 5.34688\\
0.5 6.19415\\
0.51 7.12905\\
0.52 8.15687\\
0.53 9.28314\\
0.54 10.5134\\
0.55 11.8533\\
0.56 13.3082\\
0.57 14.8833\\
0.58 16.5835\\
0.59 18.4134\\
0.6 20.3774\\
0.61 22.4793\\
0.62 24.7227\\
0.63 27.1108\\
0.64 29.6464\\
0.65 32.3319\\
0.66 35.1693\\
0.67 38.1602\\
0.68 41.3061\\
0.69 44.6076\\
0.7 48.0656\\
0.71 51.6801\\
0.72 55.451\\
0.73 59.378\\
0.74 63.4602\\
0.75 67.6968\\
0.76 72.0863\\
0.77 76.6272\\
0.78 81.3177\\
0.79 86.1558\\
0.8 91.1393\\
0.81 96.2656\\
0.82 101.532\\
0.83 106.936\\
0.84 112.475\\
0.85 118.146\\
0.86 123.944\\
0.87 129.868\\
0.88 135.914\\
0.89 142.078\\
0.9 148.357\\
0.91 154.747\\
0.92 161.245\\
0.93 167.847\\
0.94 174.55\\
0.95 181.35\\
0.96 188.243\\
0.97 195.226\\
0.98 202.296\\
0.99 209.448\\
1 216.68\\
1.01 223.989\\
1.02 231.369\\
1.03 238.82\\
1.04 246.336\\
1.05 253.916\\
1.06 261.556\\
1.07 269.252\\
1.08 277.003\\
1.09 284.805\\
1.1 292.655\\
1.11 300.552\\
1.12 308.491\\
1.13 316.47\\
1.14 324.488\\
1.15 332.542\\
1.16 340.628\\
1.17 348.746\\
1.18 356.893\\
1.19 365.066\\
1.2 373.264\\
1.21 381.485\\
1.22 389.726\\
1.23 397.987\\
1.24 406.265\\
1.25 414.558\\
1.26 422.865\\
1.27 431.184\\
1.28 439.514\\
1.29 447.852\\
1.3 456.199\\
1.31 464.552\\
1.32 472.91\\
1.33 481.271\\
1.34 489.635\\
1.35 498\\
1.36 506.365\\
1.37 514.729\\
1.38 523.09\\
1.39 531.449\\
1.4 539.803\\
1.41 548.152\\
1.42 556.495\\
1.43 564.83\\
1.44 573.158\\
1.45 581.477\\
1.46 589.787\\
1.47 598.086\\
1.48 606.374\\
1.49 614.65\\
1.5 622.913\\
};
\addlegendentry{$\SI{600.0}{\nano\meter}$}
\addplot [color=color2, solid, mark=triangle, mark options={solid, rotate=180}, mark phase=0, ]
  table[row sep=crcr, x expr=\thisrowno{0}*1.000000e+00, y expr=\thisrowno{1}*1.000000e-03]{
0.1 0.000326029\\
0.11 0.000428726\\
0.12 0.000564139\\
0.13 0.000742628\\
0.14 0.00097758\\
0.15 0.00128757\\
0.16 0.00169621\\
0.17 0.0022347\\
0.18 0.00294525\\
0.19 0.00388241\\
0.2 0.00511856\\
0.21 0.00674946\\
0.22 0.0089013\\
0.23 0.0117398\\
0.24 0.015485\\
0.25 0.0204241\\
0.26 0.0269365\\
0.27 0.0355187\\
0.28 0.0468204\\
0.29 0.0616894\\
0.3 0.0812251\\
0.31 0.106845\\
0.32 0.140365\\
0.33 0.184082\\
0.34 0.240868\\
0.35 0.314251\\
0.36 0.408468\\
0.37 0.528473\\
0.38 0.67986\\
0.39 0.868686\\
0.4 1.10119\\
0.41 1.38346\\
0.42 1.72103\\
0.43 2.1187\\
0.44 2.58041\\
0.45 3.10943\\
0.46 3.70864\\
0.47 4.38094\\
0.48 5.12957\\
0.49 5.95832\\
0.5 6.87161\\
0.51 7.87442\\
0.52 8.97217\\
0.53 10.1705\\
0.54 11.4754\\
0.55 12.8924\\
0.56 14.4274\\
0.57 16.0856\\
0.58 17.8723\\
0.59 19.7921\\
0.6 21.8496\\
0.61 24.0488\\
0.62 26.3932\\
0.63 28.8861\\
0.64 31.5304\\
0.65 34.3285\\
0.66 37.2823\\
0.67 40.3935\\
0.68 43.6634\\
0.69 47.0929\\
0.7 50.6824\\
0.71 54.432\\
0.72 58.3417\\
0.73 62.4108\\
0.74 66.6386\\
0.75 71.0239\\
0.76 75.5654\\
0.77 80.2613\\
0.78 85.1099\\
0.79 90.1088\\
0.8 95.2558\\
0.81 100.548\\
0.82 105.984\\
0.83 111.559\\
0.84 117.271\\
0.85 123.117\\
0.86 129.094\\
0.87 135.197\\
0.88 141.425\\
0.89 147.772\\
0.9 154.236\\
0.91 160.813\\
0.92 167.499\\
0.93 174.291\\
0.94 181.185\\
0.95 188.178\\
0.96 195.265\\
0.97 202.443\\
0.98 209.709\\
0.99 217.059\\
1 224.489\\
1.01 231.996\\
1.02 239.577\\
1.03 247.229\\
1.04 254.947\\
1.05 262.729\\
1.06 270.572\\
1.07 278.473\\
1.08 286.429\\
1.09 294.436\\
1.1 302.492\\
1.11 310.595\\
1.12 318.741\\
1.13 326.928\\
1.14 335.154\\
1.15 343.415\\
1.16 351.711\\
1.17 360.037\\
1.18 368.393\\
1.19 376.776\\
1.2 385.184\\
1.21 393.615\\
1.22 402.067\\
1.23 410.538\\
1.24 419.026\\
1.25 427.53\\
1.26 436.048\\
1.27 444.578\\
1.28 453.118\\
1.29 461.668\\
1.3 470.226\\
1.31 478.789\\
1.32 487.358\\
1.33 495.93\\
1.34 504.504\\
1.35 513.08\\
1.36 521.655\\
1.37 530.229\\
1.38 538.8\\
1.39 547.368\\
1.4 555.932\\
1.41 564.49\\
1.42 573.041\\
1.43 581.586\\
1.44 590.121\\
1.45 598.648\\
1.46 607.165\\
1.47 615.671\\
1.48 624.165\\
1.49 632.648\\
1.5 641.117\\
};
\addlegendentry{$\SI{900.0}{\nano\meter}$}
\addplot [color=color3, solid, mark=triangle, mark options={solid, rotate=0}, mark phase=0, ]
  table[row sep=crcr, x expr=\thisrowno{0}*1.000000e+00, y expr=\thisrowno{1}*1.000000e-03]{
0.1 0.000357261\\
0.11 0.000470285\\
0.12 0.000619214\\
0.13 0.000815514\\
0.14 0.00107472\\
0.15 0.00141616\\
0.16 0.00186693\\
0.17 0.00246179\\
0.18 0.00324652\\
0.19 0.00428249\\
0.2 0.00564995\\
0.21 0.00745501\\
0.22 0.00983817\\
0.23 0.012984\\
0.24 0.0171362\\
0.25 0.0226159\\
0.26 0.0298443\\
0.27 0.0393747\\
0.28 0.0519303\\
0.29 0.0684543\\
0.3 0.0901695\\
0.31 0.118651\\
0.32 0.155914\\
0.33 0.204503\\
0.34 0.26759\\
0.35 0.349053\\
0.36 0.453532\\
0.37 0.586407\\
0.38 0.753699\\
0.39 0.961849\\
0.4 1.21738\\
0.41 1.52652\\
0.42 1.89479\\
0.43 2.32679\\
0.44 2.82617\\
0.45 3.39582\\
0.46 4.0383\\
0.47 4.75624\\
0.48 5.55274\\
0.49 6.43156\\
0.5 7.39716\\
0.51 8.45465\\
0.52 9.60963\\
0.53 10.868\\
0.54 12.2357\\
0.55 13.7187\\
0.56 15.3228\\
0.57 17.0536\\
0.58 18.9164\\
0.59 20.9158\\
0.6 23.0565\\
0.61 25.3425\\
0.62 27.7775\\
0.63 30.3646\\
0.64 33.1066\\
0.65 36.0059\\
0.66 39.0646\\
0.67 42.284\\
0.68 45.6655\\
0.69 49.2097\\
0.7 52.9171\\
0.71 56.7877\\
0.72 60.8211\\
0.73 65.0168\\
0.74 69.3738\\
0.75 73.8908\\
0.76 78.5664\\
0.77 83.3986\\
0.78 88.3855\\
0.79 93.5248\\
0.8 98.8139\\
0.81 104.25\\
0.82 109.831\\
0.83 115.553\\
0.84 121.414\\
0.85 127.409\\
0.86 133.536\\
0.87 139.79\\
0.88 146.17\\
0.89 152.67\\
0.9 159.288\\
0.91 166.019\\
0.92 172.86\\
0.93 179.807\\
0.94 186.856\\
0.95 194.004\\
0.96 201.247\\
0.97 208.581\\
0.98 216.003\\
0.99 223.509\\
1 231.095\\
1.01 238.758\\
1.02 246.495\\
1.03 254.302\\
1.04 262.176\\
1.05 270.113\\
1.06 278.112\\
1.07 286.167\\
1.08 294.277\\
1.09 302.439\\
1.1 310.649\\
1.11 318.906\\
1.12 327.205\\
1.13 335.546\\
1.14 343.924\\
1.15 352.338\\
1.16 360.786\\
1.17 369.264\\
1.18 377.772\\
1.19 386.305\\
1.2 394.864\\
1.21 403.445\\
1.22 412.047\\
1.23 420.667\\
1.24 429.304\\
1.25 437.957\\
1.26 446.622\\
1.27 455.3\\
1.28 463.988\\
1.29 472.684\\
1.3 481.388\\
1.31 490.098\\
1.32 498.812\\
1.33 507.529\\
1.34 516.248\\
1.35 524.967\\
1.36 533.686\\
1.37 542.403\\
1.38 551.117\\
1.39 559.827\\
1.4 568.532\\
1.41 577.232\\
1.42 585.924\\
1.43 594.608\\
1.44 603.284\\
1.45 611.95\\
1.46 620.605\\
1.47 629.249\\
1.48 637.882\\
1.49 646.501\\
1.5 655.107\\
};
\addlegendentry{$\SI{1200.0}{\nano\meter}$}
\end{axis}

\end{tikzpicture}
