\begin{tikzpicture}[font=\normalsize,trim axis left, trim axis right,tight background]
\pgfplotsset{every axis/.append style={very thick},compat=1.5},
\definecolor{color0}{rgb}{0.00000, 0.39216, 0.00000}
\definecolor{color1}{rgb}{0.00000, 0.00000, 0.54510}
\definecolor{color2}{rgb}{0.69020, 0.18824, 0.37647}
\definecolor{color3}{rgb}{1.00000, 0.00000, 0.00000}
\definecolor{color4}{rgb}{0.58039, 0.40392, 0.74118}

\begin{axis}[scale only axis,ytick pos=left,
xlabel={$-V_{\mathrm{GS}} ( \si{\volt} )$},
ylabel={$-V_{\mathrm{GS}} ( \si{\volt} )$},
ymode=log,
xmin=0.1,
xmax=1.5,
restrict x to domain=0.02:7.5,
log basis x=10,
ymin=1e-06,
ymax=1,
restrict y to domain=-6.69897:0.69897,
log basis y=10,
xlabel shift = -5 pt,
 ylabel shift = -5 pt,
xmajorgrids,
enlargelimits=false,
scaled ticks=true,
ymajorgrids,
x tick style={color=black},
y tick style={color=black},
x grid style={white!69.01960784313725!black},
y grid style={white!69.01960784313725!black},
/tikz/mark repeat=2,
legend style={at={(0.98,0.02)}, anchor=south east,legend cell align=left, align=left},
]
\addplot [color=color0, solid, mark=x, mark options={solid}, mark phase=1, ]
  table[row sep=crcr, x expr=\thisrowno{0}*1.000000e+00, y expr=\thisrowno{1}*1.000000e-03]{
0.1 1.88395e-05\\
0.11 2.72848e-05\\
0.12 3.70294e-05\\
0.13 5.19711e-05\\
0.14 7.14603e-05\\
0.15 9.87451e-05\\
0.16 0.000139023\\
0.17 0.000193592\\
0.18 0.00027025\\
0.19 0.00037744\\
0.2 0.000526857\\
0.21 0.000736691\\
0.22 0.00103033\\
0.23 0.0014422\\
0.24 0.00201843\\
0.25 0.00282788\\
0.26 0.00395955\\
0.27 0.00554597\\
0.28 0.00776708\\
0.29 0.0108769\\
0.3 0.0152262\\
0.31 0.0212952\\
0.32 0.0297483\\
0.33 0.0414762\\
0.34 0.0576613\\
0.35 0.0798251\\
0.36 0.109863\\
0.37 0.15003\\
0.38 0.202871\\
0.39 0.271103\\
0.4 0.357457\\
0.41 0.464543\\
0.42 0.594734\\
0.43 0.750131\\
0.44 0.932539\\
0.45 1.1435\\
0.46 1.38434\\
0.47 1.65619\\
0.48 1.96004\\
0.49 2.29677\\
0.5 2.66716\\
0.51 3.07191\\
0.52 3.51166\\
0.53 3.98697\\
0.54 4.49837\\
0.55 5.04633\\
0.56 5.63125\\
0.57 6.25351\\
0.58 6.91343\\
0.59 7.6113\\
0.6 8.34735\\
0.61 9.12178\\
0.62 9.93475\\
0.63 10.7864\\
0.64 11.6768\\
0.65 12.6059\\
0.66 13.5739\\
0.67 14.5807\\
0.68 15.6262\\
0.69 16.7104\\
0.7 17.8332\\
0.71 18.9944\\
0.72 20.194\\
0.73 21.4317\\
0.74 22.7073\\
0.75 24.0207\\
0.76 25.3716\\
0.77 26.7598\\
0.78 28.185\\
0.79 29.6469\\
0.8 31.1453\\
0.81 32.6798\\
0.82 34.2501\\
0.83 35.8559\\
0.84 37.4969\\
0.85 39.1728\\
0.86 40.8831\\
0.87 42.6276\\
0.88 44.4058\\
0.89 46.2174\\
0.9 48.062\\
0.91 49.9393\\
0.92 51.8488\\
0.93 53.7901\\
0.94 55.763\\
0.95 57.7669\\
0.96 59.8014\\
0.97 61.8663\\
0.98 63.961\\
0.99 66.0851\\
1 68.2383\\
1.01 70.4201\\
1.02 72.6302\\
1.03 74.8681\\
1.04 77.1334\\
1.05 79.4257\\
1.06 81.7446\\
1.07 84.0897\\
1.08 86.4606\\
1.09 88.8568\\
1.1 91.2779\\
1.11 93.7236\\
1.12 96.1934\\
1.13 98.6869\\
1.14 101.204\\
1.15 103.744\\
1.16 106.306\\
1.17 108.89\\
1.18 111.496\\
1.19 114.123\\
1.2 116.772\\
1.21 119.44\\
1.22 122.129\\
1.23 124.837\\
1.24 127.565\\
1.25 130.311\\
1.26 133.076\\
1.27 135.86\\
1.28 138.66\\
1.29 141.479\\
1.3 144.314\\
1.31 147.165\\
1.32 150.033\\
1.33 152.916\\
1.34 155.815\\
1.35 158.729\\
1.36 161.657\\
1.37 164.6\\
1.38 167.556\\
1.39 170.526\\
1.4 173.509\\
1.41 176.505\\
1.42 179.513\\
1.43 182.533\\
1.44 185.565\\
1.45 188.608\\
1.46 191.661\\
1.47 194.726\\
1.48 197.8\\
1.49 200.884\\
1.5 203.978\\
};
\addlegendentry{$T=\SI{250.0}{\kelvin}$}
\addplot [color=color1, solid, mark=+, mark options={solid}, mark phase=1, ]
  table[row sep=crcr, x expr=\thisrowno{0}*1.000000e+00, y expr=\thisrowno{1}*1.000000e-03]{
0.1 0.000132526\\
0.11 0.000176052\\
0.12 0.000236469\\
0.13 0.000315075\\
0.14 0.000421616\\
0.15 0.000565836\\
0.16 0.000758778\\
0.17 0.00101798\\
0.18 0.00136684\\
0.19 0.00183523\\
0.2 0.00246538\\
0.21 0.00331381\\
0.22 0.00445263\\
0.23 0.00598512\\
0.24 0.00804383\\
0.25 0.0108106\\
0.26 0.014522\\
0.27 0.0194996\\
0.28 0.0261629\\
0.29 0.0350623\\
0.3 0.0469059\\
0.31 0.0626012\\
0.32 0.0832759\\
0.33 0.1103\\
0.34 0.145284\\
0.35 0.190055\\
0.36 0.246597\\
0.37 0.316984\\
0.38 0.403288\\
0.39 0.507506\\
0.4 0.631508\\
0.41 0.776994\\
0.42 0.945492\\
0.43 1.13836\\
0.44 1.3568\\
0.45 1.60188\\
0.46 1.87454\\
0.47 2.17565\\
0.48 2.50595\\
0.49 2.86614\\
0.5 3.25684\\
0.51 3.67862\\
0.52 4.13199\\
0.53 4.61741\\
0.54 5.13529\\
0.55 5.68601\\
0.56 6.26988\\
0.57 6.88721\\
0.58 7.53824\\
0.59 8.22318\\
0.6 8.94221\\
0.61 9.69548\\
0.62 10.4831\\
0.63 11.3051\\
0.64 12.1616\\
0.65 13.0526\\
0.66 13.9781\\
0.67 14.9381\\
0.68 15.9325\\
0.69 16.9612\\
0.7 18.0241\\
0.71 19.1212\\
0.72 20.2522\\
0.73 21.4171\\
0.74 22.6156\\
0.75 23.8476\\
0.76 25.1129\\
0.77 26.4112\\
0.78 27.7423\\
0.79 29.106\\
0.8 30.502\\
0.81 31.9301\\
0.82 33.39\\
0.83 34.8814\\
0.84 36.404\\
0.85 37.9576\\
0.86 39.5418\\
0.87 41.1563\\
0.88 42.8008\\
0.89 44.475\\
0.9 46.1785\\
0.91 47.9111\\
0.92 49.6724\\
0.93 51.4621\\
0.94 53.2798\\
0.95 55.1252\\
0.96 56.9979\\
0.97 58.8976\\
0.98 60.8239\\
0.99 62.7766\\
1 64.7552\\
1.01 66.7594\\
1.02 68.7888\\
1.03 70.8431\\
1.04 72.9219\\
1.05 75.0249\\
1.06 77.1517\\
1.07 79.302\\
1.08 81.4753\\
1.09 83.6714\\
1.1 85.8899\\
1.11 88.1304\\
1.12 90.3926\\
1.13 92.676\\
1.14 94.9805\\
1.15 97.3055\\
1.16 99.6508\\
1.17 102.016\\
1.18 104.401\\
1.19 106.805\\
1.2 109.227\\
1.21 111.668\\
1.22 114.128\\
1.23 116.605\\
1.24 119.099\\
1.25 121.611\\
1.26 124.139\\
1.27 126.684\\
1.28 129.244\\
1.29 131.821\\
1.3 134.413\\
1.31 137.019\\
1.32 139.641\\
1.33 142.276\\
1.34 144.926\\
1.35 147.589\\
1.36 150.266\\
1.37 152.955\\
1.38 155.657\\
1.39 158.371\\
1.4 161.098\\
1.41 163.836\\
1.42 166.585\\
1.43 169.345\\
1.44 172.116\\
1.45 174.897\\
1.46 177.688\\
1.47 180.488\\
1.48 183.298\\
1.49 186.117\\
1.5 188.945\\
};
\addlegendentry{$T=\SI{287.5}{\kelvin}$}
\addplot [color=color2, solid, mark=triangle, mark options={solid, rotate=180}, mark phase=1, ]
  table[row sep=crcr, x expr=\thisrowno{0}*1.000000e+00, y expr=\thisrowno{1}*1.000000e-03]{
0.1 0.000664581\\
0.11 0.000861421\\
0.12 0.00111738\\
0.13 0.0014487\\
0.14 0.001882\\
0.15 0.00244329\\
0.16 0.00317479\\
0.17 0.00412781\\
0.18 0.00536407\\
0.19 0.00697453\\
0.2 0.00906831\\
0.21 0.0117877\\
0.22 0.0153224\\
0.23 0.0199088\\
0.24 0.025853\\
0.25 0.0335448\\
0.26 0.0434732\\
0.27 0.0562522\\
0.28 0.0726316\\
0.29 0.0935227\\
0.3 0.119999\\
0.31 0.153304\\
0.32 0.194832\\
0.33 0.246096\\
0.34 0.308695\\
0.35 0.38426\\
0.36 0.474407\\
0.37 0.580702\\
0.38 0.704619\\
0.39 0.847533\\
0.4 1.0107\\
0.41 1.19528\\
0.42 1.4023\\
0.43 1.63272\\
0.44 1.88738\\
0.45 2.16706\\
0.46 2.47248\\
0.47 2.80427\\
0.48 3.16302\\
0.49 3.54926\\
0.5 3.96347\\
0.51 4.4061\\
0.52 4.87753\\
0.53 5.37813\\
0.54 5.90821\\
0.55 6.46806\\
0.56 7.05791\\
0.57 7.67799\\
0.58 8.32847\\
0.59 9.00951\\
0.6 9.72123\\
0.61 10.4637\\
0.62 11.2371\\
0.63 12.0413\\
0.64 12.8764\\
0.65 13.7424\\
0.66 14.6394\\
0.67 15.5671\\
0.68 16.5256\\
0.69 17.5148\\
0.7 18.5346\\
0.71 19.5849\\
0.72 20.6655\\
0.73 21.7763\\
0.74 22.9171\\
0.75 24.0878\\
0.76 25.2882\\
0.77 26.518\\
0.78 27.7772\\
0.79 29.0654\\
0.8 30.3824\\
0.81 31.7281\\
0.82 33.1021\\
0.83 34.5043\\
0.84 35.9343\\
0.85 37.392\\
0.86 38.877\\
0.87 40.3891\\
0.88 41.928\\
0.89 43.4934\\
0.9 45.0851\\
0.91 46.7027\\
0.92 48.346\\
0.93 50.0146\\
0.94 51.7084\\
0.95 53.4269\\
0.96 55.1699\\
0.97 56.9371\\
0.98 58.7281\\
0.99 60.5428\\
1 62.3807\\
1.01 64.2415\\
1.02 66.125\\
1.03 68.0308\\
1.04 69.9587\\
1.05 71.9082\\
1.06 73.8792\\
1.07 75.8713\\
1.08 77.8841\\
1.09 79.9174\\
1.1 81.9708\\
1.11 84.0441\\
1.12 86.1368\\
1.13 88.2488\\
1.14 90.3797\\
1.15 92.5292\\
1.16 94.6969\\
1.17 96.8826\\
1.18 99.0859\\
1.19 101.307\\
1.2 103.544\\
1.21 105.799\\
1.22 108.069\\
1.23 110.356\\
1.24 112.659\\
1.25 114.977\\
1.26 117.31\\
1.27 119.658\\
1.28 122.021\\
1.29 124.397\\
1.3 126.788\\
1.31 129.192\\
1.32 131.61\\
1.33 134.041\\
1.34 136.484\\
1.35 138.94\\
1.36 141.408\\
1.37 143.887\\
1.38 146.378\\
1.39 148.88\\
1.4 151.394\\
1.41 153.917\\
1.42 156.451\\
1.43 158.995\\
1.44 161.549\\
1.45 164.112\\
1.46 166.684\\
1.47 169.265\\
1.48 171.855\\
1.49 174.452\\
1.5 177.058\\
};
\addlegendentry{$T=\SI{325.0}{\kelvin}$}
\addplot [color=color3, solid, mark=triangle, mark options={solid, rotate=0}, mark phase=1, ]
  table[row sep=crcr, x expr=\thisrowno{0}*1.000000e+00, y expr=\thisrowno{1}*1.000000e-03]{
0.1 0.00267002\\
0.11 0.00337033\\
0.12 0.00425708\\
0.13 0.00537901\\
0.14 0.00679977\\
0.15 0.00859797\\
0.16 0.0108724\\
0.17 0.0137503\\
0.18 0.0173882\\
0.19 0.0219825\\
0.2 0.0277805\\
0.21 0.0350864\\
0.22 0.0442755\\
0.23 0.0558059\\
0.24 0.0702318\\
0.25 0.0882151\\
0.26 0.11053\\
0.27 0.138074\\
0.28 0.171857\\
0.29 0.213002\\
0.3 0.262712\\
0.31 0.322259\\
0.32 0.392948\\
0.33 0.47609\\
0.34 0.572969\\
0.35 0.684829\\
0.36 0.812853\\
0.37 0.95815\\
0.38 1.12175\\
0.39 1.30462\\
0.4 1.50763\\
0.41 1.73161\\
0.42 1.97728\\
0.43 2.24535\\
0.44 2.53644\\
0.45 2.85113\\
0.46 3.18995\\
0.47 3.55337\\
0.48 3.94185\\
0.49 4.35578\\
0.5 4.79554\\
0.51 5.26144\\
0.52 5.75379\\
0.53 6.27285\\
0.54 6.81885\\
0.55 7.392\\
0.56 7.99247\\
0.57 8.62041\\
0.58 9.27594\\
0.59 9.95917\\
0.6 10.6702\\
0.61 11.409\\
0.62 12.1757\\
0.63 12.9702\\
0.64 13.7926\\
0.65 14.6428\\
0.66 15.5209\\
0.67 16.4266\\
0.68 17.36\\
0.69 18.321\\
0.7 19.3095\\
0.71 20.3253\\
0.72 21.3684\\
0.73 22.4385\\
0.74 23.5356\\
0.75 24.6594\\
0.76 25.8099\\
0.77 26.9868\\
0.78 28.1899\\
0.79 29.4191\\
0.8 30.6741\\
0.81 31.9548\\
0.82 33.261\\
0.83 34.5923\\
0.84 35.9486\\
0.85 37.3297\\
0.86 38.7353\\
0.87 40.1652\\
0.88 41.6191\\
0.89 43.0968\\
0.9 44.5981\\
0.91 46.1227\\
0.92 47.6703\\
0.93 49.2406\\
0.94 50.8335\\
0.95 52.4487\\
0.96 54.0859\\
0.97 55.7448\\
0.98 57.4251\\
0.99 59.1267\\
1 60.8491\\
1.01 62.5923\\
1.02 64.3558\\
1.03 66.1394\\
1.04 67.9428\\
1.05 69.7658\\
1.06 71.6081\\
1.07 73.4693\\
1.08 75.3494\\
1.09 77.2478\\
1.1 79.1645\\
1.11 81.099\\
1.12 83.0511\\
1.13 85.0206\\
1.14 87.0072\\
1.15 89.0105\\
1.16 91.0304\\
1.17 93.0665\\
1.18 95.1185\\
1.19 97.1862\\
1.2 99.2693\\
1.21 101.367\\
1.22 103.481\\
1.23 105.608\\
1.24 107.75\\
1.25 109.906\\
1.26 112.076\\
1.27 114.259\\
1.28 116.455\\
1.29 118.664\\
1.3 120.886\\
1.31 123.12\\
1.32 125.366\\
1.33 127.624\\
1.34 129.894\\
1.35 132.175\\
1.36 134.467\\
1.37 136.769\\
1.38 139.082\\
1.39 141.405\\
1.4 143.738\\
1.41 146.081\\
1.42 148.433\\
1.43 150.794\\
1.44 153.164\\
1.45 155.543\\
1.46 157.929\\
1.47 160.324\\
1.48 162.727\\
1.49 165.137\\
1.5 167.555\\
};
\addlegendentry{$T=\SI{362.5}{\kelvin}$}
\addplot [color=color4, solid, mark=asterisk, mark options={solid}, mark phase=1, ]
  table[row sep=crcr, x expr=\thisrowno{0}*1.000000e+00, y expr=\thisrowno{1}*1.000000e-03]{
0.1 0.00907936\\
0.11 0.0111803\\
0.12 0.0137775\\
0.13 0.0169881\\
0.14 0.0209561\\
0.15 0.025853\\
0.16 0.0318927\\
0.17 0.0393343\\
0.18 0.0484858\\
0.19 0.0597207\\
0.2 0.0734794\\
0.21 0.0902803\\
0.22 0.110724\\
0.23 0.1355\\
0.24 0.165384\\
0.25 0.201232\\
0.26 0.243978\\
0.27 0.294617\\
0.28 0.354186\\
0.29 0.423753\\
0.3 0.504391\\
0.31 0.597164\\
0.32 0.703109\\
0.33 0.823226\\
0.34 0.958469\\
0.35 1.10974\\
0.36 1.27789\\
0.37 1.46371\\
0.38 1.66794\\
0.39 1.89127\\
0.4 2.13434\\
0.41 2.39773\\
0.42 2.68201\\
0.43 2.98766\\
0.44 3.31516\\
0.45 3.66493\\
0.46 4.03737\\
0.47 4.43284\\
0.48 4.85166\\
0.49 5.29413\\
0.5 5.76051\\
0.51 6.25106\\
0.52 6.76596\\
0.53 7.30542\\
0.54 7.8696\\
0.55 8.45864\\
0.56 9.07264\\
0.57 9.71172\\
0.58 10.3759\\
0.59 11.0653\\
0.6 11.78\\
0.61 12.5199\\
0.62 13.285\\
0.63 14.0754\\
0.64 14.8911\\
0.65 15.7318\\
0.66 16.5977\\
0.67 17.4887\\
0.68 18.4046\\
0.69 19.3453\\
0.7 20.3109\\
0.71 21.301\\
0.72 22.3157\\
0.73 23.3548\\
0.74 24.4182\\
0.75 25.5056\\
0.76 26.617\\
0.77 27.7522\\
0.78 28.911\\
0.79 30.0932\\
0.8 31.2987\\
0.81 32.5273\\
0.82 33.7787\\
0.83 35.0528\\
0.84 36.3493\\
0.85 37.6681\\
0.86 39.009\\
0.87 40.3718\\
0.88 41.7561\\
0.89 43.1619\\
0.9 44.5889\\
0.91 46.0368\\
0.92 47.5055\\
0.93 48.9946\\
0.94 50.5041\\
0.95 52.0336\\
0.96 53.5829\\
0.97 55.1518\\
0.98 56.74\\
0.99 58.3474\\
1 59.9735\\
1.01 61.6184\\
1.02 63.2816\\
1.03 64.9629\\
1.04 66.6621\\
1.05 68.379\\
1.06 70.1133\\
1.07 71.8647\\
1.08 73.633\\
1.09 75.4181\\
1.1 77.2195\\
1.11 79.0371\\
1.12 80.8706\\
1.13 82.7198\\
1.14 84.5845\\
1.15 86.4643\\
1.16 88.359\\
1.17 90.2685\\
1.18 92.1923\\
1.19 94.1304\\
1.2 96.0824\\
1.21 98.0481\\
1.22 100.027\\
1.23 102.019\\
1.24 104.025\\
1.25 106.043\\
1.26 108.073\\
1.27 110.116\\
1.28 112.17\\
1.29 114.236\\
1.3 116.314\\
1.31 118.403\\
1.32 120.503\\
1.33 122.613\\
1.34 124.734\\
1.35 126.866\\
1.36 129.007\\
1.37 131.158\\
1.38 133.318\\
1.39 135.488\\
1.4 137.667\\
1.41 139.854\\
1.42 142.05\\
1.43 144.254\\
1.44 146.466\\
1.45 148.686\\
1.46 150.914\\
1.47 153.149\\
1.48 155.39\\
1.49 157.639\\
1.5 159.895\\
};
\addlegendentry{$T=\SI{400.0}{\kelvin}$}
\end{axis}

\end{tikzpicture}
