\begin{tikzpicture}[font=\normalsize, trim axis left, trim axis right, tight background]
\pgfplotsset{every axis/.append style={very thick},compat=1.18}
\definecolor{color0}{rgb}{0.00000, 0.39216, 0.00000}
\definecolor{color1}{rgb}{0.00000, 0.00000, 0.54510}
\definecolor{color2}{rgb}{0.69020, 0.18824, 0.37647}

\begin{axis}[
scale only axis,
xlabel={$V_{\mathrm{DS}} ( \si{\volt} )$},
ylabel={$J_{\mathrm{D}} ( \si{\milli\ampere \per\micro\meter} )$},
% xmin=0,
% xmax=0,
% restrict x to domain=0:1,
log basis x=10,
% ymin=0,
% ymax=0,
% restrict y to domain=0:1,
log basis y=10,
ytick pos=left,
xlabel shift=-5pt,
 ylabel shift=-5pt,
xmajorgrids,
enlargelimits=false,
scaled ticks=true,
ymajorgrids,
x tick style={color=black},
y tick style={color=black},
x grid style={white!69.01960784313725!black},
y grid style={white!69.01960784313725!black},
/tikz/mark repeat=2,
legend style={at={(0.02,0.98)}, anchor=north west,legend cell align=left, align=left},
]
\addplot [color=color0, solid, mark=x, mark options={solid}, mark phase=0, ]
  table[row sep=crcr, x expr=\thisrowno{0}*1.000000e+00, y expr=\thisrowno{1}*1.000000e-03]{
0 -1.44991e-06\\
0.00999999 7.32578\\
0.02 14.3719\\
0.03 21.1215\\
0.04 27.5621\\
0.05 33.6853\\
0.06 39.4867\\
0.07 44.9658\\
0.08 50.1254\\
0.09 54.9715\\
0.1 59.5125\\
0.11 63.7591\\
0.12 67.7238\\
0.13 71.4202\\
0.14 74.863\\
0.15 78.0673\\
0.16 81.0484\\
0.17 83.8217\\
0.18 86.4023\\
0.19 88.8047\\
0.2 91.043\\
0.21 93.1306\\
0.22 95.0801\\
0.23 96.9032\\
0.24 98.6111\\
0.25 100.214\\
0.26 101.721\\
0.27 103.141\\
0.28 104.483\\
0.29 105.752\\
0.3 106.956\\
0.31 108.101\\
0.32 109.192\\
0.33 110.234\\
0.34 111.232\\
0.35 112.189\\
0.36 113.11\\
0.37 113.996\\
0.38 114.852\\
0.39 115.68\\
0.4 116.482\\
0.41 117.26\\
0.42 118.017\\
0.43 118.754\\
0.44 119.472\\
0.45 120.173\\
0.46 120.859\\
0.47 121.53\\
0.48 122.187\\
0.49 122.832\\
0.5 123.465\\
0.51 124.086\\
0.52 124.698\\
0.53 125.299\\
0.54 125.891\\
0.55 126.475\\
0.56 127.05\\
0.57 127.618\\
0.58 128.178\\
0.59 128.731\\
0.6 129.277\\
0.61 129.817\\
0.62 130.35\\
0.63 130.878\\
0.64 131.4\\
0.65 131.916\\
0.66 132.428\\
0.67 132.934\\
0.68 133.435\\
0.69 133.931\\
0.7 134.423\\
0.71 134.911\\
0.72 135.394\\
0.73 135.872\\
0.74 136.347\\
0.75 136.818\\
0.76 137.284\\
0.77 137.747\\
0.78 138.206\\
0.79 138.662\\
0.8 139.114\\
0.81 139.562\\
0.82 140.007\\
0.83 140.449\\
0.84 140.887\\
0.85 141.322\\
0.86 141.754\\
0.87 142.183\\
0.88 142.609\\
0.89 143.032\\
0.9 143.452\\
0.91 143.869\\
0.92 144.283\\
0.93 144.695\\
0.94 145.103\\
0.95 145.509\\
0.96 145.913\\
0.97 146.313\\
0.98 146.711\\
0.99 147.107\\
1 147.5\\
1.01 147.89\\
1.02 148.278\\
1.03 148.664\\
1.04 149.047\\
1.05 149.428\\
1.06 149.807\\
1.07 150.183\\
1.08 150.557\\
1.09 150.929\\
1.1 151.299\\
1.11 151.666\\
1.12 152.032\\
1.13 152.395\\
1.14 152.756\\
1.15 153.115\\
1.16 153.472\\
1.17 153.828\\
1.18 154.181\\
1.19 154.532\\
1.2 154.881\\
1.21 155.228\\
1.22 155.574\\
1.23 155.917\\
1.24 156.259\\
1.25 156.599\\
1.26 156.937\\
1.27 157.273\\
1.28 157.607\\
1.29 157.94\\
1.3 158.271\\
1.31 158.6\\
1.32 158.928\\
1.33 159.254\\
1.34 159.578\\
1.35 159.901\\
1.36 160.222\\
1.37 160.542\\
1.38 160.86\\
1.39 161.176\\
1.4 161.491\\
1.41 161.804\\
1.42 162.116\\
1.43 162.427\\
1.44 162.736\\
1.45 163.043\\
1.46 163.349\\
1.47 163.654\\
1.48 163.957\\
1.49 164.259\\
1.5 164.56\\
1.51 164.859\\
1.52 165.157\\
1.53 165.454\\
1.54 165.749\\
1.55 166.044\\
1.56 166.336\\
1.57 166.628\\
1.58 166.919\\
1.59 167.208\\
1.6 167.496\\
1.61 167.784\\
1.62 168.07\\
1.63 168.354\\
1.64 168.638\\
1.65 168.921\\
1.66 169.203\\
1.67 169.484\\
1.68 169.763\\
1.69 170.042\\
1.7 170.32\\
1.71 170.597\\
1.72 170.873\\
1.73 171.148\\
1.74 171.422\\
1.75 171.696\\
1.76 171.968\\
1.77 172.24\\
1.78 172.511\\
1.79 172.781\\
1.8 173.051\\
1.81 173.32\\
1.82 173.588\\
1.83 173.856\\
1.84 174.123\\
1.85 174.389\\
1.86 174.655\\
1.87 174.921\\
1.88 175.185\\
1.89 175.45\\
1.9 175.714\\
1.91 175.977\\
1.92 176.24\\
1.93 176.503\\
1.94 176.765\\
1.95 177.028\\
1.96 177.289\\
1.97 177.551\\
1.98 177.812\\
1.99 178.074\\
2 178.335\\
};
\addlegendentry{mos\_tt}
\addplot [color=color1, solid, mark=+, mark options={solid}, mark phase=0, ]
  table[row sep=crcr, x expr=\thisrowno{0}*1.000000e+00, y expr=\thisrowno{1}*1.000000e-03]{
0 -5.61363e-06\\
0.00999999 8.69329\\
0.02 17.1214\\
0.03 25.2674\\
0.04 33.1177\\
0.05 40.6619\\
0.06 47.8925\\
0.07 54.8052\\
0.08 61.3986\\
0.09 67.6739\\
0.0999999 73.6346\\
0.11 79.2865\\
0.12 84.6373\\
0.13 89.696\\
0.14 94.4732\\
0.15 98.9803\\
0.16 103.23\\
0.17 107.234\\
0.18 111.006\\
0.19 114.558\\
0.2 117.905\\
0.21 121.059\\
0.22 124.031\\
0.23 126.835\\
0.24 129.482\\
0.25 131.983\\
0.26 134.349\\
0.27 136.589\\
0.28 138.713\\
0.29 140.729\\
0.3 142.646\\
0.31 144.471\\
0.32 146.212\\
0.33 147.875\\
0.34 149.465\\
0.35 150.989\\
0.36 152.452\\
0.37 153.857\\
0.38 155.211\\
0.39 156.516\\
0.4 157.776\\
0.41 158.995\\
0.42 160.175\\
0.43 161.32\\
0.44 162.431\\
0.45 163.512\\
0.46 164.565\\
0.47 165.59\\
0.48 166.591\\
0.49 167.568\\
0.5 168.524\\
0.51 169.46\\
0.52 170.376\\
0.53 171.274\\
0.54 172.156\\
0.55 173.021\\
0.56 173.872\\
0.57 174.708\\
0.58 175.531\\
0.59 176.341\\
0.6 177.139\\
0.61 177.925\\
0.62 178.701\\
0.63 179.466\\
0.64 180.221\\
0.65 180.966\\
0.66 181.702\\
0.67 182.429\\
0.68 183.148\\
0.69 183.859\\
0.7 184.562\\
0.71 185.257\\
0.72 185.945\\
0.73 186.626\\
0.74 187.3\\
0.75 187.967\\
0.76 188.628\\
0.77 189.283\\
0.78 189.932\\
0.79 190.575\\
0.8 191.212\\
0.81 191.843\\
0.82 192.469\\
0.83 193.09\\
0.84 193.706\\
0.85 194.317\\
0.86 194.922\\
0.87 195.523\\
0.88 196.12\\
0.89 196.711\\
0.9 197.298\\
0.91 197.881\\
0.92 198.459\\
0.93 199.034\\
0.94 199.603\\
0.95 200.169\\
0.96 200.731\\
0.97 201.289\\
0.98 201.843\\
0.99 202.393\\
1 202.94\\
1.01 203.483\\
1.02 204.022\\
1.03 204.557\\
1.04 205.09\\
1.05 205.618\\
1.06 206.143\\
1.07 206.665\\
1.08 207.184\\
1.09 207.699\\
1.1 208.212\\
1.11 208.721\\
1.12 209.226\\
1.13 209.729\\
1.14 210.229\\
1.15 210.726\\
1.16 211.22\\
1.17 211.711\\
1.18 212.199\\
1.19 212.684\\
1.2 213.167\\
1.21 213.646\\
1.22 214.124\\
1.23 214.598\\
1.24 215.07\\
1.25 215.539\\
1.26 216.005\\
1.27 216.469\\
1.28 216.931\\
1.29 217.39\\
1.3 217.846\\
1.31 218.3\\
1.32 218.752\\
1.33 219.201\\
1.34 219.648\\
1.35 220.093\\
1.36 220.535\\
1.37 220.975\\
1.38 221.413\\
1.39 221.849\\
1.4 222.283\\
1.41 222.714\\
1.42 223.143\\
1.43 223.571\\
1.44 223.996\\
1.45 224.419\\
1.46 224.84\\
1.47 225.259\\
1.48 225.676\\
1.49 226.092\\
1.5 226.505\\
1.51 226.917\\
1.52 227.326\\
1.53 227.734\\
1.54 228.14\\
1.55 228.544\\
1.56 228.947\\
1.57 229.348\\
1.58 229.747\\
1.59 230.144\\
1.6 230.54\\
1.61 230.935\\
1.62 231.327\\
1.63 231.718\\
1.64 232.108\\
1.65 232.496\\
1.66 232.883\\
1.67 233.268\\
1.68 233.652\\
1.69 234.034\\
1.7 234.415\\
1.71 234.795\\
1.72 235.174\\
1.73 235.551\\
1.74 235.927\\
1.75 236.302\\
1.76 236.676\\
1.77 237.048\\
1.78 237.42\\
1.79 237.79\\
1.8 238.159\\
1.81 238.528\\
1.82 238.895\\
1.83 239.262\\
1.84 239.627\\
1.85 239.992\\
1.86 240.356\\
1.87 240.719\\
1.88 241.082\\
1.89 241.444\\
1.9 241.805\\
1.91 242.165\\
1.92 242.525\\
1.93 242.885\\
1.94 243.243\\
1.95 243.602\\
1.96 243.96\\
1.97 244.317\\
1.98 244.675\\
1.99 245.032\\
2 245.389\\
};
\addlegendentry{mos\_ff}
\addplot [color=color2, solid, mark=triangle, mark options={solid, rotate=180}, mark phase=0, ]
  table[row sep=crcr, x expr=\thisrowno{0}*1.000000e+00, y expr=\thisrowno{1}*1.000000e-03]{
0 -7.14883e-07\\
0.01 6.64647\\
0.02 13.0132\\
0.03 19.083\\
0.04 24.8434\\
0.05 30.287\\
0.06 35.4109\\
0.07 40.2163\\
0.08 44.7083\\
0.09 48.8952\\
0.1 52.7879\\
0.11 56.3994\\
0.12 59.7445\\
0.13 62.8387\\
0.14 65.6985\\
0.15 68.3402\\
0.16 70.7804\\
0.17 73.035\\
0.18 75.1196\\
0.19 77.0489\\
0.2 78.8368\\
0.21 80.4963\\
0.22 82.0396\\
0.23 83.4776\\
0.24 84.8207\\
0.25 86.0781\\
0.26 87.2585\\
0.27 88.3693\\
0.28 89.4176\\
0.29 90.4096\\
0.3 91.3509\\
0.31 92.2466\\
0.32 93.101\\
0.33 93.9183\\
0.34 94.7021\\
0.35 95.4554\\
0.36 96.1813\\
0.37 96.8822\\
0.38 97.5604\\
0.39 98.2179\\
0.4 98.8566\\
0.41 99.478\\
0.42 100.084\\
0.43 100.675\\
0.44 101.252\\
0.45 101.818\\
0.46 102.372\\
0.47 102.915\\
0.48 103.448\\
0.49 103.972\\
0.5 104.488\\
0.51 104.995\\
0.52 105.495\\
0.53 105.987\\
0.54 106.473\\
0.55 106.952\\
0.56 107.425\\
0.57 107.893\\
0.58 108.354\\
0.59 108.811\\
0.6 109.262\\
0.61 109.709\\
0.62 110.151\\
0.63 110.588\\
0.64 111.021\\
0.65 111.45\\
0.66 111.874\\
0.67 112.295\\
0.68 112.712\\
0.69 113.125\\
0.7 113.534\\
0.71 113.94\\
0.72 114.343\\
0.73 114.742\\
0.74 115.138\\
0.75 115.531\\
0.76 115.921\\
0.77 116.307\\
0.78 116.691\\
0.79 117.071\\
0.8 117.449\\
0.81 117.824\\
0.82 118.197\\
0.83 118.566\\
0.84 118.933\\
0.85 119.297\\
0.86 119.659\\
0.87 120.018\\
0.88 120.375\\
0.89 120.729\\
0.9 121.081\\
0.91 121.43\\
0.92 121.777\\
0.93 122.122\\
0.94 122.464\\
0.95 122.805\\
0.96 123.143\\
0.97 123.479\\
0.98 123.812\\
0.99 124.144\\
1 124.474\\
1.01 124.801\\
1.02 125.127\\
1.03 125.45\\
1.04 125.772\\
1.05 126.091\\
1.06 126.409\\
1.07 126.725\\
1.08 127.039\\
1.09 127.351\\
1.1 127.661\\
1.11 127.969\\
1.12 128.276\\
1.13 128.581\\
1.14 128.884\\
1.15 129.185\\
1.16 129.485\\
1.17 129.783\\
1.18 130.079\\
1.19 130.374\\
1.2 130.667\\
1.21 130.959\\
1.22 131.249\\
1.23 131.537\\
1.24 131.824\\
1.25 132.109\\
1.26 132.393\\
1.27 132.675\\
1.28 132.956\\
1.29 133.235\\
1.3 133.513\\
1.31 133.79\\
1.32 134.065\\
1.33 134.339\\
1.34 134.611\\
1.35 134.882\\
1.36 135.151\\
1.37 135.42\\
1.38 135.687\\
1.39 135.952\\
1.4 136.217\\
1.41 136.48\\
1.42 136.742\\
1.43 137.003\\
1.44 137.262\\
1.45 137.52\\
1.46 137.777\\
1.47 138.033\\
1.48 138.288\\
1.49 138.542\\
1.5 138.794\\
1.51 139.045\\
1.52 139.296\\
1.53 139.545\\
1.54 139.793\\
1.55 140.04\\
1.56 140.286\\
1.57 140.531\\
1.58 140.775\\
1.59 141.018\\
1.6 141.261\\
1.61 141.502\\
1.62 141.742\\
1.63 141.981\\
1.64 142.22\\
1.65 142.457\\
1.66 142.694\\
1.67 142.93\\
1.68 143.165\\
1.69 143.399\\
1.7 143.632\\
1.71 143.865\\
1.72 144.097\\
1.73 144.328\\
1.74 144.559\\
1.75 144.788\\
1.76 145.017\\
1.77 145.246\\
1.78 145.474\\
1.79 145.701\\
1.8 145.927\\
1.81 146.153\\
1.82 146.379\\
1.83 146.604\\
1.84 146.828\\
1.85 147.052\\
1.86 147.276\\
1.87 147.499\\
1.88 147.721\\
1.89 147.944\\
1.9 148.165\\
1.91 148.387\\
1.92 148.608\\
1.93 148.829\\
1.94 149.05\\
1.95 149.27\\
1.96 149.49\\
1.97 149.71\\
1.98 149.93\\
1.99 150.15\\
2 150.37\\
};
\addlegendentry{mos\_sf}
\end{axis}

\end{tikzpicture}
