\begin{tikzpicture}[font=\normalsize,trim axis left, trim axis right,tight background]
\pgfplotsset{every axis/.append style={very thick},compat=1.5},
\definecolor{color0}{rgb}{0.00000, 0.39216, 0.00000}
\definecolor{color1}{rgb}{0.00000, 0.00000, 0.54510}
\definecolor{color2}{rgb}{0.69020, 0.18824, 0.37647}

\begin{axis}[scale only axis,ytick pos=left,
xlabel={$-V_{\mathrm{GS}} ( \si{\volt} )$},
ylabel={$-V_{\mathrm{GS}} ( \si{\volt} )$},
ymode=log,
xmin=0.1,
xmax=1,
restrict x to domain=0.02:5,
log basis x=10,
ymin=1e-06,
ymax=0.5,
restrict y to domain=-6.69897:0.39794,
log basis y=10,
xlabel shift = -5 pt,
 ylabel shift = -5 pt,
xmajorgrids,
enlargelimits=false,
scaled ticks=true,
ymajorgrids,
x tick style={color=black},
y tick style={color=black},
x grid style={white!69.01960784313725!black},
y grid style={white!69.01960784313725!black},
/tikz/mark repeat=2,
legend style={at={(0.02,0.98)}, anchor=north west,legend cell align=left, align=left},
]
\addplot [color=color0, solid, mark=x, mark options={solid}, mark phase=1, ]
  table[row sep=crcr, x expr=\thisrowno{0}*1.000000e+00, y expr=\thisrowno{1}*1.000000e-03]{
0.1 7.23745\\
0.11 7.06377\\
0.12 6.89402\\
0.13 6.72803\\
0.14 6.56566\\
0.15 6.40679\\
0.16 6.25127\\
0.17 6.09896\\
0.18 5.94972\\
0.19 5.80343\\
0.2 5.65993\\
0.21 5.51907\\
0.22 5.38071\\
0.23 5.24466\\
0.24 5.11077\\
0.25 4.97881\\
0.26 4.84858\\
0.27 4.71982\\
0.28 4.59222\\
0.29 4.46544\\
0.3 4.33906\\
0.31 4.21258\\
0.32 4.0854\\
0.33 3.95677\\
0.34 3.82578\\
0.35 3.69136\\
0.36 3.55218\\
0.37 3.40668\\
0.38 3.25304\\
0.39 3.08919\\
0.4 2.91285\\
0.41 2.72157\\
0.42 2.51289\\
0.43 2.28443\\
0.44 2.03401\\
0.45 1.75985\\
0.46 1.46058\\
0.47 1.1353\\
0.48 0.783538\\
0.49 0.405114\\
0.5 4.36608e-07\\
0.51 0.43234\\
0.52 0.892366\\
0.53 1.37988\\
0.54 1.89463\\
0.55 2.43641\\
0.56 3.0051\\
0.57 3.60073\\
0.58 4.22342\\
0.59 4.87344\\
0.6 5.55108\\
0.61 6.25674\\
0.62 6.99079\\
0.63 7.75362\\
0.64 8.54561\\
0.65 9.36709\\
0.66 10.2184\\
0.67 11.0997\\
0.68 12.0114\\
0.69 12.9535\\
0.7 13.9262\\
0.71 14.9296\\
0.72 15.9637\\
0.73 17.0286\\
0.74 18.1242\\
0.75 19.2506\\
0.76 20.4076\\
0.77 21.595\\
0.78 22.8129\\
0.79 24.0611\\
0.8 25.3394\\
0.81 26.6475\\
0.82 27.9854\\
0.83 29.3528\\
0.84 30.7495\\
0.85 32.1753\\
0.86 33.6299\\
0.87 35.1131\\
0.88 36.6246\\
0.89 38.1641\\
0.9 39.7315\\
0.91 41.3264\\
0.92 42.9485\\
0.93 44.5976\\
0.94 46.2733\\
0.95 47.9755\\
0.96 49.7038\\
0.97 51.458\\
0.98 53.2376\\
0.99 55.0426\\
1 56.8725\\
};
\addlegendentry{$V_{\mathrm{GD}}=\SI{-0.5}{\volt}$}
\addplot [color=color1, solid, mark=+, mark options={solid}, mark phase=1, ]
  table[row sep=crcr, x expr=\thisrowno{0}*1.000000e+00, y expr=\thisrowno{1}*1.000000e-03]{
0.1 0.000188436\\
0.11 0.000252141\\
0.12 0.000336716\\
0.13 0.000449063\\
0.14 0.000598318\\
0.15 0.000796864\\
0.16 0.0010607\\
0.17 0.00141183\\
0.18 0.00187876\\
0.19 0.00249981\\
0.2 0.00332575\\
0.21 0.00442412\\
0.22 0.00588394\\
0.23 0.0078232\\
0.24 0.0103973\\
0.25 0.0138099\\
0.26 0.0183268\\
0.27 0.0242929\\
0.28 0.0321511\\
0.29 0.0424638\\
0.3 0.0559351\\
0.31 0.0734318\\
0.32 0.0959965\\
0.33 0.124855\\
0.34 0.161407\\
0.35 0.207203\\
0.36 0.263907\\
0.37 0.333252\\
0.38 0.416988\\
0.39 0.51684\\
0.4 0.634471\\
0.41 0.771457\\
0.42 0.929271\\
0.43 1.10928\\
0.44 1.31273\\
0.45 1.54079\\
0.46 1.7945\\
0.47 2.07482\\
0.48 2.38264\\
0.49 2.71876\\
0.5 3.08389\\
0.51 3.4787\\
0.52 3.90379\\
0.53 4.35968\\
0.54 4.84687\\
0.55 5.36578\\
0.56 5.9168\\
0.57 6.50025\\
0.58 7.11643\\
0.59 7.76559\\
0.6 8.44793\\
0.61 9.16363\\
0.62 9.91282\\
0.63 10.6956\\
0.64 11.5121\\
0.65 12.3622\\
0.66 13.2461\\
0.67 14.1636\\
0.68 15.1148\\
0.69 16.0997\\
0.7 17.118\\
0.71 18.1697\\
0.72 19.2547\\
0.73 20.3728\\
0.74 21.5238\\
0.75 22.7077\\
0.76 23.9241\\
0.77 25.1729\\
0.78 26.4539\\
0.79 27.7668\\
0.8 29.1114\\
0.81 30.4874\\
0.82 31.8946\\
0.83 33.3327\\
0.84 34.8014\\
0.85 36.3004\\
0.86 37.8295\\
0.87 39.3884\\
0.88 40.9767\\
0.89 42.5942\\
0.9 44.2406\\
0.91 45.9155\\
0.92 47.6187\\
0.93 49.3497\\
0.94 51.1084\\
0.95 52.8944\\
0.96 54.7074\\
0.97 56.5471\\
0.98 58.4131\\
0.99 60.3052\\
1 62.223\\
};
\addlegendentry{$V_{\mathrm{GD}}=\SI{0.0}{\volt}$}
\addplot [color=color2, solid, mark=triangle, mark options={solid, rotate=180}, mark phase=1, ]
  table[row sep=crcr, x expr=\thisrowno{0}*1.000000e+00, y expr=\thisrowno{1}*1.000000e-03]{
0.1 0.000208859\\
0.11 0.000276746\\
0.12 0.000367046\\
0.13 0.00048658\\
0.14 0.000646066\\
0.15 0.000858498\\
0.16 0.00114044\\
0.17 0.00151463\\
0.18 0.00201291\\
0.19 0.00267586\\
0.2 0.0035571\\
0.21 0.00472905\\
0.22 0.00628688\\
0.23 0.00835793\\
0.24 0.0111069\\
0.25 0.0147566\\
0.26 0.0195915\\
0.27 0.0259882\\
0.28 0.0344289\\
0.29 0.0455293\\
0.3 0.060066\\
0.31 0.0789977\\
0.32 0.103481\\
0.33 0.134877\\
0.34 0.174736\\
0.35 0.224765\\
0.36 0.286781\\
0.37 0.362644\\
0.38 0.454205\\
0.39 0.563248\\
0.4 0.69146\\
0.41 0.840399\\
0.42 1.0115\\
0.43 1.20605\\
0.44 1.42523\\
0.45 1.67011\\
0.46 1.94165\\
0.47 2.24072\\
0.48 2.56811\\
0.49 2.92454\\
0.5 3.31066\\
0.51 3.72706\\
0.52 4.17428\\
0.53 4.65279\\
0.54 5.16304\\
0.55 5.7054\\
0.56 6.28022\\
0.57 6.88779\\
0.58 7.52839\\
0.59 8.20222\\
0.6 8.90949\\
0.61 9.65033\\
0.62 10.4249\\
0.63 11.2332\\
0.64 12.0754\\
0.65 12.9514\\
0.66 13.8614\\
0.67 14.8052\\
0.68 15.7828\\
0.69 16.7942\\
0.7 17.8392\\
0.71 18.9178\\
0.72 20.0298\\
0.73 21.1751\\
0.74 22.3536\\
0.75 23.565\\
0.76 24.8092\\
0.77 26.086\\
0.78 27.3951\\
0.79 28.7364\\
0.8 30.1095\\
0.81 31.5144\\
0.82 32.9506\\
0.83 34.418\\
0.84 35.9163\\
0.85 37.4453\\
0.86 39.0045\\
0.87 40.5938\\
0.88 42.2129\\
0.89 43.8615\\
0.9 45.5392\\
0.91 47.2459\\
0.92 48.9811\\
0.93 50.7446\\
0.94 52.5361\\
0.95 54.3553\\
0.96 56.2018\\
0.97 58.0754\\
0.98 59.9758\\
0.99 61.9027\\
1 63.8556\\
};
\addlegendentry{$V_{\mathrm{GD}}=\SI{0.5}{\volt}$}
\end{axis}

\end{tikzpicture}
