\begin{tikzpicture}[font=\normalsize,trim axis left, trim axis right,tight background]
\pgfplotsset{every axis/.append style={very thick},compat=1.5},
\definecolor{color0}{rgb}{0.00000, 0.39216, 0.00000}
\definecolor{color1}{rgb}{0.00000, 0.00000, 0.54510}
\definecolor{color2}{rgb}{0.69020, 0.18824, 0.37647}

\begin{axis}[scale only axis,ytick pos=left,
xlabel={$V_{\mathrm{GS}} ( \si{\volt} )$},
ylabel={$J_{\mathrm{D}} ( \si{\milli\ampere\per\micro\meter} )$},
ymode=log,
xmin=0.1,
xmax=1,
restrict x to domain=0.02:5,
log basis x=10,
ymin=1e-06,
ymax=0.5,
restrict y to domain=-6.69897:0.39794,
log basis y=10,
xlabel shift = -5 pt,
 ylabel shift = -5 pt,
xmajorgrids,
enlargelimits=false,
scaled ticks=true,
ymajorgrids,
x tick style={color=black},
y tick style={color=black},
x grid style={white!69.01960784313725!black},
y grid style={white!69.01960784313725!black},
/tikz/mark repeat=2,
legend style={at={(0.02,0.98)}, anchor=north west,legend cell align=left, align=left},
]
\addplot [color=color0, solid, mark=x, mark options={solid}, mark phase=1, ]
  table[row sep=crcr, x expr=\thisrowno{0}*1.000000e+00, y expr=\thisrowno{1}*1.000000e-03]{
0.1 0.000224216\\
0.11 0.000297986\\
0.12 0.000396388\\
0.13 0.000526875\\
0.14 0.000700943\\
0.15 0.000932611\\
0.16 0.00124083\\
0.17 0.00165162\\
0.18 0.00219858\\
0.19 0.00292718\\
0.2 0.00389756\\
0.21 0.00519044\\
0.22 0.00691267\\
0.23 0.00920687\\
0.24 0.0122624\\
0.25 0.0163312\\
0.26 0.0217478\\
0.27 0.0289543\\
0.28 0.0385358\\
0.29 0.0512622\\
0.3 0.0681438\\
0.31 0.0904971\\
0.32 0.120027\\
0.33 0.158917\\
0.34 0.209933\\
0.35 0.276518\\
0.36 0.362873\\
0.37 0.473994\\
0.38 0.615632\\
0.39 0.794157\\
0.4 1.01631\\
0.41 1.28886\\
0.42 1.61823\\
0.43 2.01022\\
0.44 2.46982\\
0.45 3.00132\\
0.46 3.60851\\
0.47 4.29505\\
0.48 5.06482\\
0.49 5.92207\\
0.5 6.87161\\
0.51 7.91877\\
0.52 9.06926\\
0.53 10.3291\\
0.54 11.7045\\
0.55 13.2015\\
0.56 14.8263\\
0.57 16.5846\\
0.58 18.4821\\
0.59 20.524\\
0.6 22.7152\\
0.61 25.0602\\
0.62 27.5632\\
0.63 30.2278\\
0.64 33.0573\\
0.65 36.0546\\
0.66 39.2221\\
0.67 42.5618\\
0.68 46.0753\\
0.69 49.7638\\
0.7 53.6279\\
0.71 57.6681\\
0.72 61.8843\\
0.73 66.2762\\
0.74 70.843\\
0.75 75.5837\\
0.76 80.4968\\
0.77 85.5806\\
0.78 90.8332\\
0.79 96.2524\\
0.8 101.836\\
0.81 107.58\\
0.82 113.483\\
0.83 119.542\\
0.84 125.752\\
0.85 132.111\\
0.86 138.616\\
0.87 145.263\\
0.88 152.047\\
0.89 158.966\\
0.9 166.015\\
0.91 173.191\\
0.92 180.49\\
0.93 187.908\\
0.94 195.441\\
0.95 203.086\\
0.96 210.838\\
0.97 218.694\\
0.98 226.649\\
0.99 234.702\\
1 242.847\\
};
\addlegendentry{$V_{\mathrm{GD}}=\SI{-0.5}{\volt}$}
\addplot [color=color1, solid, mark=+, mark options={solid}, mark phase=1, ]
  table[row sep=crcr, x expr=\thisrowno{0}*1.000000e+00, y expr=\thisrowno{1}*1.000000e-03]{
0.1 9.08389e-05\\
0.11 0.000122498\\
0.12 0.000164909\\
0.13 0.000221752\\
0.14 0.000298112\\
0.15 0.000400651\\
0.16 0.000538276\\
0.17 0.000723206\\
0.18 0.000971738\\
0.19 0.00130569\\
0.2 0.00175444\\
0.21 0.00235774\\
0.22 0.00316861\\
0.23 0.00425846\\
0.24 0.00572309\\
0.25 0.00769104\\
0.26 0.0103345\\
0.27 0.0138839\\
0.28 0.018647\\
0.29 0.0250334\\
0.3 0.0335877\\
0.31 0.0450293\\
0.32 0.0603045\\
0.33 0.0806479\\
0.34 0.107656\\
0.35 0.143368\\
0.36 0.190348\\
0.37 0.25176\\
0.38 0.331421\\
0.39 0.433803\\
0.4 0.563989\\
0.41 0.727555\\
0.42 0.930401\\
0.43 1.17857\\
0.44 1.47808\\
0.45 1.83483\\
0.46 2.25459\\
0.47 2.74303\\
0.48 3.3058\\
0.49 3.94861\\
0.5 4.67729\\
0.51 5.49773\\
0.52 6.41591\\
0.53 7.43785\\
0.54 8.56951\\
0.55 9.81677\\
0.56 11.1854\\
0.57 12.6808\\
0.58 14.3085\\
0.59 16.0733\\
0.6 17.9802\\
0.61 20.0334\\
0.62 22.2373\\
0.63 24.5954\\
0.64 27.1113\\
0.65 29.788\\
0.66 32.6283\\
0.67 35.6345\\
0.68 38.8085\\
0.69 42.152\\
0.7 45.6661\\
0.71 49.3518\\
0.72 53.2096\\
0.73 57.2396\\
0.74 61.4416\\
0.75 65.8152\\
0.76 70.3595\\
0.77 75.0734\\
0.78 79.9554\\
0.79 85.0039\\
0.8 90.2168\\
0.81 95.5921\\
0.82 101.127\\
0.83 106.82\\
0.84 112.667\\
0.85 118.665\\
0.86 124.812\\
0.87 131.104\\
0.88 137.537\\
0.89 144.109\\
0.9 150.816\\
0.91 157.654\\
0.92 164.619\\
0.93 171.708\\
0.94 178.917\\
0.95 186.243\\
0.96 193.681\\
0.97 201.229\\
0.98 208.882\\
0.99 216.636\\
1 224.489\\
};
\addlegendentry{$V_{\mathrm{GD}}=\SI{0.0}{\volt}$}
\addplot [color=color2, solid, mark=triangle, mark options={solid, rotate=180}, mark phase=1, ]
  table[row sep=crcr, x expr=\thisrowno{0}*1.000000e+00, y expr=\thisrowno{1}*1.000000e-03]{
0.1 9.70357\\
0.11 9.41211\\
0.12 9.12782\\
0.13 8.85045\\
0.14 8.57979\\
0.15 8.31562\\
0.16 8.05773\\
0.17 7.80592\\
0.18 7.56001\\
0.19 7.31981\\
0.2 7.08515\\
0.21 6.85586\\
0.22 6.63177\\
0.23 6.41272\\
0.24 6.19854\\
0.25 5.98908\\
0.26 5.78416\\
0.27 5.5836\\
0.28 5.38724\\
0.29 5.19485\\
0.3 5.00622\\
0.31 4.82108\\
0.32 4.63914\\
0.33 4.46002\\
0.34 4.28328\\
0.35 4.10833\\
0.36 3.93447\\
0.37 3.76074\\
0.38 3.58593\\
0.39 3.40843\\
0.4 3.2261\\
0.41 3.03615\\
0.42 2.83491\\
0.43 2.61761\\
0.44 2.37822\\
0.45 2.1093\\
0.46 1.80206\\
0.47 1.44676\\
0.48 1.03344\\
0.49 0.553253\\
0.5 6.14279e-08\\
0.51 0.628559\\
0.52 1.33326\\
0.53 2.11683\\
0.54 2.98384\\
0.55 3.94013\\
0.56 4.99226\\
0.57 6.14706\\
0.58 7.41131\\
0.59 8.79154\\
0.6 10.2939\\
0.61 11.9242\\
0.62 13.6877\\
0.63 15.5894\\
0.64 17.6337\\
0.65 19.8246\\
0.66 22.1658\\
0.67 24.6606\\
0.68 27.3118\\
0.69 30.1218\\
0.7 33.0929\\
0.71 36.2268\\
0.72 39.5247\\
0.73 42.9878\\
0.74 46.6168\\
0.75 50.4121\\
0.76 54.3735\\
0.77 58.501\\
0.78 62.794\\
0.79 67.2515\\
0.8 71.8724\\
0.81 76.6555\\
0.82 81.599\\
0.83 86.7011\\
0.84 91.9598\\
0.85 97.3728\\
0.86 102.938\\
0.87 108.652\\
0.88 114.512\\
0.89 120.517\\
0.9 126.662\\
0.91 132.945\\
0.92 139.362\\
0.93 145.91\\
0.94 152.587\\
0.95 159.388\\
0.96 166.31\\
0.97 173.35\\
0.98 180.505\\
0.99 187.771\\
1 195.144\\
};
\addlegendentry{$V_{\mathrm{GD}}=\SI{0.5}{\volt}$}
\end{axis}

\end{tikzpicture}
