\begin{tikzpicture}[font=\normalsize, trim axis left, trim axis right, tight background]
\pgfplotsset{every axis/.append style={very thick},compat=1.18}
\definecolor{color0}{rgb}{0.00000, 0.39216, 0.00000}
\definecolor{color1}{rgb}{0.00000, 0.00000, 0.54510}
\definecolor{color2}{rgb}{0.69020, 0.18824, 0.37647}
\definecolor{color3}{rgb}{1.00000, 0.00000, 0.00000}

\begin{axis}[
scale only axis,
xlabel={$V_{\mathrm{DS}} ( \si{\volt} )$},
ylabel={$J_{\mathrm{D}} ( \si{\milli\ampere \per\micro\meter} )$},
% xmin=0,
% xmax=0,
% restrict x to domain=0:1,
log basis x=10,
% ymin=0,
% ymax=0,
% restrict y to domain=0:1,
log basis y=10,
ytick pos=left,
xlabel shift=-5pt,
 ylabel shift=-5pt,
xmajorgrids,
enlargelimits=false,
scaled ticks=true,
ymajorgrids,
x tick style={color=black},
y tick style={color=black},
x grid style={white!69.01960784313725!black},
y grid style={white!69.01960784313725!black},
/tikz/mark repeat=2,
legend style={at={(0.02,0.98)}, anchor=north west,legend cell align=left, align=left},
]
\addplot [color=color0, solid, mark=x, mark options={solid}, mark phase=0, ]
  table[row sep=crcr, x expr=\thisrowno{0}*1.000000e+00, y expr=\thisrowno{1}*1.000000e-03]{
0 -1.44991e-06\\
0.00999999 7.32578\\
0.02 14.3719\\
0.03 21.1215\\
0.04 27.5621\\
0.05 33.6853\\
0.06 39.4867\\
0.07 44.9658\\
0.08 50.1254\\
0.09 54.9715\\
0.1 59.5125\\
0.11 63.7591\\
0.12 67.7238\\
0.13 71.4202\\
0.14 74.863\\
0.15 78.0673\\
0.16 81.0484\\
0.17 83.8217\\
0.18 86.4023\\
0.19 88.8047\\
0.2 91.043\\
0.21 93.1306\\
0.22 95.0801\\
0.23 96.9032\\
0.24 98.6111\\
0.25 100.214\\
0.26 101.721\\
0.27 103.141\\
0.28 104.483\\
0.29 105.752\\
0.3 106.956\\
0.31 108.101\\
0.32 109.192\\
0.33 110.234\\
0.34 111.232\\
0.35 112.189\\
0.36 113.11\\
0.37 113.996\\
0.38 114.852\\
0.39 115.68\\
0.4 116.482\\
0.41 117.26\\
0.42 118.017\\
0.43 118.754\\
0.44 119.472\\
0.45 120.173\\
0.46 120.859\\
0.47 121.53\\
0.48 122.187\\
0.49 122.832\\
0.5 123.465\\
0.51 124.086\\
0.52 124.698\\
0.53 125.299\\
0.54 125.891\\
0.55 126.475\\
0.56 127.05\\
0.57 127.618\\
0.58 128.178\\
0.59 128.731\\
0.6 129.277\\
0.61 129.817\\
0.62 130.35\\
0.63 130.878\\
0.64 131.4\\
0.65 131.916\\
0.66 132.428\\
0.67 132.934\\
0.68 133.435\\
0.69 133.931\\
0.7 134.423\\
0.71 134.911\\
0.72 135.394\\
0.73 135.872\\
0.74 136.347\\
0.75 136.818\\
0.76 137.284\\
0.77 137.747\\
0.78 138.206\\
0.79 138.662\\
0.8 139.114\\
0.81 139.562\\
0.82 140.007\\
0.83 140.449\\
0.84 140.887\\
0.85 141.322\\
0.86 141.754\\
0.87 142.183\\
0.88 142.609\\
0.89 143.032\\
0.9 143.452\\
0.91 143.869\\
0.92 144.283\\
0.93 144.695\\
0.94 145.103\\
0.95 145.509\\
0.96 145.913\\
0.97 146.313\\
0.98 146.711\\
0.99 147.107\\
1 147.5\\
1.01 147.89\\
1.02 148.278\\
1.03 148.664\\
1.04 149.047\\
1.05 149.428\\
1.06 149.807\\
1.07 150.183\\
1.08 150.557\\
1.09 150.929\\
1.1 151.299\\
1.11 151.666\\
1.12 152.032\\
1.13 152.395\\
1.14 152.756\\
1.15 153.115\\
1.16 153.472\\
1.17 153.828\\
1.18 154.181\\
1.19 154.532\\
1.2 154.881\\
1.21 155.228\\
1.22 155.574\\
1.23 155.917\\
1.24 156.259\\
1.25 156.599\\
1.26 156.937\\
1.27 157.273\\
1.28 157.607\\
1.29 157.94\\
1.3 158.271\\
1.31 158.6\\
1.32 158.928\\
1.33 159.254\\
1.34 159.578\\
1.35 159.901\\
1.36 160.222\\
1.37 160.542\\
1.38 160.86\\
1.39 161.176\\
1.4 161.491\\
1.41 161.804\\
1.42 162.116\\
1.43 162.427\\
1.44 162.736\\
1.45 163.043\\
1.46 163.349\\
1.47 163.654\\
1.48 163.957\\
1.49 164.259\\
1.5 164.56\\
1.51 164.859\\
1.52 165.157\\
1.53 165.454\\
1.54 165.749\\
1.55 166.044\\
1.56 166.336\\
1.57 166.628\\
1.58 166.919\\
1.59 167.208\\
1.6 167.496\\
1.61 167.784\\
1.62 168.07\\
1.63 168.354\\
1.64 168.638\\
1.65 168.921\\
1.66 169.203\\
1.67 169.484\\
1.68 169.763\\
1.69 170.042\\
1.7 170.32\\
1.71 170.597\\
1.72 170.873\\
1.73 171.148\\
1.74 171.422\\
1.75 171.696\\
1.76 171.968\\
1.77 172.24\\
1.78 172.511\\
1.79 172.781\\
1.8 173.051\\
1.81 173.32\\
1.82 173.588\\
1.83 173.856\\
1.84 174.123\\
1.85 174.389\\
1.86 174.655\\
1.87 174.921\\
1.88 175.185\\
1.89 175.45\\
1.9 175.714\\
1.91 175.977\\
1.92 176.24\\
1.93 176.503\\
1.94 176.765\\
1.95 177.028\\
1.96 177.289\\
1.97 177.551\\
1.98 177.812\\
1.99 178.074\\
2 178.335\\
};
\addlegendentry{$\SI{350.0}{\nano\meter}$}
\addplot [color=color1, solid, mark=+, mark options={solid}, mark phase=0, ]
  table[row sep=crcr, x expr=\thisrowno{0}*1.000000e+00, y expr=\thisrowno{1}*1.000000e-03]{
0 -2.00114e-06\\
0.00999999 7.53705\\
0.02 14.7944\\
0.03 21.7548\\
0.04 28.405\\
0.05 34.7358\\
0.06 40.7421\\
0.0699999 46.4222\\
0.0799999 51.778\\
0.0899999 56.8145\\
0.0999999 61.5392\\
0.11 65.9621\\
0.12 70.0947\\
0.13 73.9502\\
0.14 77.5427\\
0.15 80.887\\
0.16 83.9984\\
0.17 86.8919\\
0.18 89.5828\\
0.19 92.0857\\
0.2 94.4148\\
0.21 96.5839\\
0.22 98.6057\\
0.23 100.492\\
0.24 102.256\\
0.25 103.906\\
0.26 105.453\\
0.27 106.906\\
0.28 108.273\\
0.29 109.562\\
0.3 110.78\\
0.31 111.933\\
0.32 113.027\\
0.33 114.068\\
0.34 115.059\\
0.35 116.006\\
0.36 116.913\\
0.37 117.782\\
0.38 118.617\\
0.39 119.422\\
0.4 120.197\\
0.41 120.947\\
0.42 121.672\\
0.43 122.376\\
0.44 123.059\\
0.45 123.723\\
0.46 124.37\\
0.47 125.001\\
0.48 125.617\\
0.49 126.219\\
0.5 126.808\\
0.51 127.385\\
0.52 127.95\\
0.53 128.505\\
0.54 129.05\\
0.55 129.586\\
0.56 130.112\\
0.57 130.631\\
0.58 131.141\\
0.59 131.644\\
0.6 132.14\\
0.61 132.629\\
0.62 133.112\\
0.63 133.588\\
0.64 134.059\\
0.65 134.524\\
0.66 134.983\\
0.67 135.438\\
0.68 135.887\\
0.69 136.332\\
0.7 136.771\\
0.71 137.207\\
0.72 137.638\\
0.73 138.065\\
0.74 138.488\\
0.75 138.907\\
0.76 139.322\\
0.77 139.734\\
0.78 140.141\\
0.79 140.546\\
0.8 140.947\\
0.81 141.344\\
0.82 141.739\\
0.83 142.13\\
0.84 142.518\\
0.85 142.903\\
0.86 143.285\\
0.87 143.665\\
0.88 144.041\\
0.89 144.415\\
0.9 144.786\\
0.91 145.154\\
0.92 145.52\\
0.93 145.883\\
0.94 146.243\\
0.95 146.601\\
0.96 146.957\\
0.97 147.31\\
0.98 147.661\\
0.99 148.01\\
1 148.357\\
1.01 148.701\\
1.02 149.043\\
1.03 149.383\\
1.04 149.72\\
1.05 150.056\\
1.06 150.39\\
1.07 150.721\\
1.08 151.051\\
1.09 151.379\\
1.1 151.704\\
1.11 152.028\\
1.12 152.35\\
1.13 152.67\\
1.14 152.988\\
1.15 153.305\\
1.16 153.619\\
1.17 153.932\\
1.18 154.244\\
1.19 154.553\\
1.2 154.861\\
1.21 155.167\\
1.22 155.471\\
1.23 155.774\\
1.24 156.076\\
1.25 156.375\\
1.26 156.673\\
1.27 156.97\\
1.28 157.265\\
1.29 157.559\\
1.3 157.851\\
1.31 158.141\\
1.32 158.431\\
1.33 158.718\\
1.34 159.005\\
1.35 159.29\\
1.36 159.574\\
1.37 159.856\\
1.38 160.137\\
1.39 160.416\\
1.4 160.695\\
1.41 160.972\\
1.42 161.248\\
1.43 161.522\\
1.44 161.796\\
1.45 162.068\\
1.46 162.339\\
1.47 162.608\\
1.48 162.877\\
1.49 163.144\\
1.5 163.411\\
1.51 163.676\\
1.52 163.94\\
1.53 164.203\\
1.54 164.465\\
1.55 164.726\\
1.56 164.986\\
1.57 165.245\\
1.58 165.503\\
1.59 165.76\\
1.6 166.016\\
1.61 166.271\\
1.62 166.526\\
1.63 166.779\\
1.64 167.031\\
1.65 167.283\\
1.66 167.534\\
1.67 167.784\\
1.68 168.033\\
1.69 168.281\\
1.7 168.529\\
1.71 168.776\\
1.72 169.022\\
1.73 169.268\\
1.74 169.512\\
1.75 169.757\\
1.76 170\\
1.77 170.243\\
1.78 170.486\\
1.79 170.728\\
1.8 170.969\\
1.81 171.21\\
1.82 171.45\\
1.83 171.69\\
1.84 171.93\\
1.85 172.169\\
1.86 172.407\\
1.87 172.646\\
1.88 172.884\\
1.89 173.121\\
1.9 173.359\\
1.91 173.596\\
1.92 173.833\\
1.93 174.07\\
1.94 174.307\\
1.95 174.543\\
1.96 174.78\\
1.97 175.016\\
1.98 175.253\\
1.99 175.489\\
2 175.726\\
};
\addlegendentry{$\SI{600.0}{\nano\meter}$}
\addplot [color=color2, solid, mark=triangle, mark options={solid, rotate=180}, mark phase=0, ]
  table[row sep=crcr, x expr=\thisrowno{0}*1.000000e+00, y expr=\thisrowno{1}*1.000000e-03]{
0 -2.30834e-06\\
0.00999999 7.91063\\
0.02 15.5345\\
0.03 22.8532\\
0.0399999 29.8524\\
0.0499999 36.5218\\
0.0599999 42.8552\\
0.0699999 48.8502\\
0.0799999 54.508\\
0.0899999 59.8329\\
0.0999999 64.832\\
0.11 69.515\\
0.12 73.8934\\
0.13 77.9803\\
0.14 81.79\\
0.15 85.3375\\
0.16 88.6384\\
0.17 91.7082\\
0.18 94.5625\\
0.19 97.2167\\
0.2 99.6855\\
0.21 101.983\\
0.22 104.123\\
0.23 106.118\\
0.24 107.98\\
0.25 109.721\\
0.26 111.35\\
0.27 112.878\\
0.28 114.313\\
0.29 115.663\\
0.3 116.936\\
0.31 118.139\\
0.32 119.278\\
0.33 120.359\\
0.34 121.386\\
0.35 122.364\\
0.36 123.298\\
0.37 124.192\\
0.38 125.048\\
0.39 125.871\\
0.4 126.662\\
0.41 127.425\\
0.42 128.161\\
0.43 128.873\\
0.44 129.563\\
0.45 130.232\\
0.46 130.882\\
0.47 131.515\\
0.48 132.131\\
0.49 132.732\\
0.5 133.319\\
0.51 133.893\\
0.52 134.454\\
0.53 135.004\\
0.54 135.543\\
0.55 136.072\\
0.56 136.591\\
0.57 137.101\\
0.58 137.603\\
0.59 138.096\\
0.6 138.582\\
0.61 139.061\\
0.62 139.533\\
0.63 139.998\\
0.64 140.457\\
0.65 140.91\\
0.66 141.357\\
0.67 141.799\\
0.68 142.236\\
0.69 142.667\\
0.7 143.094\\
0.71 143.516\\
0.72 143.933\\
0.73 144.346\\
0.74 144.755\\
0.75 145.16\\
0.76 145.56\\
0.77 145.958\\
0.78 146.351\\
0.79 146.741\\
0.8 147.127\\
0.81 147.51\\
0.82 147.889\\
0.83 148.265\\
0.84 148.639\\
0.85 149.009\\
0.86 149.376\\
0.87 149.74\\
0.88 150.101\\
0.89 150.46\\
0.9 150.816\\
0.91 151.169\\
0.92 151.519\\
0.93 151.867\\
0.94 152.213\\
0.95 152.556\\
0.96 152.897\\
0.97 153.235\\
0.98 153.571\\
0.99 153.905\\
1 154.236\\
1.01 154.565\\
1.02 154.892\\
1.03 155.217\\
1.04 155.54\\
1.05 155.861\\
1.06 156.18\\
1.07 156.497\\
1.08 156.812\\
1.09 157.125\\
1.1 157.436\\
1.11 157.745\\
1.12 158.053\\
1.13 158.358\\
1.14 158.662\\
1.15 158.964\\
1.16 159.265\\
1.17 159.563\\
1.18 159.86\\
1.19 160.156\\
1.2 160.45\\
1.21 160.742\\
1.22 161.032\\
1.23 161.321\\
1.24 161.609\\
1.25 161.895\\
1.26 162.179\\
1.27 162.462\\
1.28 162.744\\
1.29 163.024\\
1.3 163.302\\
1.31 163.58\\
1.32 163.855\\
1.33 164.13\\
1.34 164.403\\
1.35 164.675\\
1.36 164.946\\
1.37 165.215\\
1.38 165.483\\
1.39 165.75\\
1.4 166.015\\
1.41 166.279\\
1.42 166.542\\
1.43 166.804\\
1.44 167.065\\
1.45 167.325\\
1.46 167.583\\
1.47 167.841\\
1.48 168.097\\
1.49 168.352\\
1.5 168.606\\
1.51 168.859\\
1.52 169.111\\
1.53 169.362\\
1.54 169.612\\
1.55 169.862\\
1.56 170.11\\
1.57 170.357\\
1.58 170.603\\
1.59 170.849\\
1.6 171.093\\
1.61 171.337\\
1.62 171.579\\
1.63 171.821\\
1.64 172.063\\
1.65 172.303\\
1.66 172.543\\
1.67 172.781\\
1.68 173.02\\
1.69 173.257\\
1.7 173.494\\
1.71 173.73\\
1.72 173.965\\
1.73 174.2\\
1.74 174.434\\
1.75 174.668\\
1.76 174.901\\
1.77 175.134\\
1.78 175.366\\
1.79 175.597\\
1.8 175.828\\
1.81 176.059\\
1.82 176.289\\
1.83 176.519\\
1.84 176.749\\
1.85 176.978\\
1.86 177.207\\
1.87 177.436\\
1.88 177.664\\
1.89 177.892\\
1.9 178.12\\
1.91 178.348\\
1.92 178.576\\
1.93 178.803\\
1.94 179.031\\
1.95 179.258\\
1.96 179.486\\
1.97 179.713\\
1.98 179.941\\
1.99 180.169\\
2 180.396\\
};
\addlegendentry{$\SI{900.0}{\nano\meter}$}
\addplot [color=color3, solid, mark=triangle, mark options={solid, rotate=0}, mark phase=0, ]
  table[row sep=crcr, x expr=\thisrowno{0}*1.000000e+00, y expr=\thisrowno{1}*1.000000e-03]{
0 -2.47665e-06\\
0.00999998 8.19736\\
0.02 16.1025\\
0.0299999 23.6962\\
0.0399999 30.963\\
0.0499999 37.8921\\
0.0599999 44.4765\\
0.0699999 50.713\\
0.0799999 56.6025\\
0.0899999 62.1488\\
0.0999998 67.3587\\
0.11 72.2418\\
0.12 76.8094\\
0.13 81.0748\\
0.14 85.0523\\
0.15 88.7572\\
0.16 92.2053\\
0.17 95.4124\\
0.18 98.3947\\
0.19 101.168\\
0.2 103.747\\
0.21 106.146\\
0.22 108.38\\
0.23 110.463\\
0.24 112.405\\
0.25 114.219\\
0.26 115.917\\
0.27 117.507\\
0.28 118.999\\
0.29 120.402\\
0.3 121.723\\
0.31 122.97\\
0.32 124.149\\
0.33 125.266\\
0.34 126.327\\
0.35 127.336\\
0.36 128.298\\
0.37 129.216\\
0.38 130.096\\
0.39 130.939\\
0.4 131.749\\
0.41 132.528\\
0.42 133.28\\
0.43 134.006\\
0.44 134.708\\
0.45 135.388\\
0.46 136.048\\
0.47 136.689\\
0.48 137.313\\
0.49 137.92\\
0.5 138.513\\
0.51 139.091\\
0.52 139.657\\
0.53 140.21\\
0.54 140.752\\
0.55 141.282\\
0.56 141.803\\
0.57 142.314\\
0.58 142.817\\
0.59 143.31\\
0.6 143.796\\
0.61 144.274\\
0.62 144.745\\
0.63 145.209\\
0.64 145.666\\
0.65 146.117\\
0.66 146.562\\
0.67 147.001\\
0.68 147.435\\
0.69 147.864\\
0.7 148.287\\
0.71 148.706\\
0.72 149.12\\
0.73 149.529\\
0.74 149.934\\
0.75 150.335\\
0.76 150.732\\
0.77 151.124\\
0.78 151.514\\
0.79 151.899\\
0.8 152.281\\
0.81 152.659\\
0.82 153.034\\
0.83 153.405\\
0.84 153.773\\
0.85 154.139\\
0.86 154.501\\
0.87 154.86\\
0.88 155.216\\
0.89 155.57\\
0.9 155.92\\
0.91 156.268\\
0.92 156.614\\
0.93 156.957\\
0.94 157.297\\
0.95 157.635\\
0.96 157.97\\
0.97 158.303\\
0.98 158.633\\
0.99 158.962\\
1 159.288\\
1.01 159.612\\
1.02 159.933\\
1.03 160.253\\
1.04 160.57\\
1.05 160.886\\
1.06 161.199\\
1.07 161.511\\
1.08 161.82\\
1.09 162.128\\
1.1 162.433\\
1.11 162.737\\
1.12 163.039\\
1.13 163.339\\
1.14 163.638\\
1.15 163.934\\
1.16 164.229\\
1.17 164.523\\
1.18 164.814\\
1.19 165.104\\
1.2 165.393\\
1.21 165.679\\
1.22 165.965\\
1.23 166.248\\
1.24 166.53\\
1.25 166.811\\
1.26 167.09\\
1.27 167.368\\
1.28 167.644\\
1.29 167.919\\
1.3 168.192\\
1.31 168.464\\
1.32 168.735\\
1.33 169.004\\
1.34 169.272\\
1.35 169.539\\
1.36 169.804\\
1.37 170.068\\
1.38 170.331\\
1.39 170.593\\
1.4 170.853\\
1.41 171.113\\
1.42 171.371\\
1.43 171.628\\
1.44 171.883\\
1.45 172.138\\
1.46 172.391\\
1.47 172.644\\
1.48 172.895\\
1.49 173.146\\
1.5 173.395\\
1.51 173.643\\
1.52 173.89\\
1.53 174.137\\
1.54 174.382\\
1.55 174.626\\
1.56 174.87\\
1.57 175.112\\
1.58 175.354\\
1.59 175.594\\
1.6 175.834\\
1.61 176.073\\
1.62 176.312\\
1.63 176.549\\
1.64 176.786\\
1.65 177.021\\
1.66 177.257\\
1.67 177.491\\
1.68 177.725\\
1.69 177.958\\
1.7 178.19\\
1.71 178.422\\
1.72 178.653\\
1.73 178.883\\
1.74 179.113\\
1.75 179.343\\
1.76 179.572\\
1.77 179.8\\
1.78 180.028\\
1.79 180.256\\
1.8 180.483\\
1.81 180.709\\
1.82 180.936\\
1.83 181.161\\
1.84 181.387\\
1.85 181.612\\
1.86 181.837\\
1.87 182.062\\
1.88 182.287\\
1.89 182.511\\
1.9 182.736\\
1.91 182.96\\
1.92 183.184\\
1.93 183.408\\
1.94 183.632\\
1.95 183.856\\
1.96 184.08\\
1.97 184.304\\
1.98 184.528\\
1.99 184.753\\
2 184.977\\
};
\addlegendentry{$\SI{1200.0}{\nano\meter}$}
\end{axis}

\end{tikzpicture}
