\begin{tikzpicture}[font=\normalsize,trim axis left, trim axis right,tight background]
\pgfplotsset{every axis/.append style={very thick},compat=1.5},
\definecolor{color0}{rgb}{0.00000, 0.39216, 0.00000}
\definecolor{color1}{rgb}{0.00000, 0.00000, 0.54510}
\definecolor{color2}{rgb}{0.69020, 0.18824, 0.37647}

\begin{axis}[scale only axis,ytick pos=left,
xlabel={$J_{\mathrm{D}} ( \si{\milli\ampere\per\micro\meter} )$},
ylabel={$\mathrm{MSG} ( \si{\dB} )$},
xmode=log,
xmin=1e-05,
xmax=1,
restrict x to domain=-5.69897:0.69897,
log basis x=10,
ymin=0,
ymax=70,
restrict y to domain=0:350,
log basis y=10,
xlabel shift = -5 pt,
 ylabel shift = -5 pt,
xmajorgrids,
enlargelimits=false,
scaled ticks=true,
ymajorgrids,
x tick style={color=black},
y tick style={color=black},
x grid style={white!69.01960784313725!black},
y grid style={white!69.01960784313725!black},
/tikz/mark repeat=2,
legend style={at={(0.02,0.98)}, anchor=north west,legend cell align=left, align=left},
]
\addplot [color=color0, solid, mark=x, mark options={solid}, mark phase=1, ]
  table[row sep=crcr, x expr=\thisrowno{0}*1.000000e-03, y expr=\thisrowno{1}*1.000000e+00]{
0.00222283 0.156942\\
0.00301668 0.280015\\
0.00409462 0.496163\\
0.00555796 0.865594\\
0.00754445 1.46954\\
0.01024 2.39482\\
0.0138954 3.69987\\
0.0188484 5.38208\\
0.0255516 7.37764\\
0.0346076 9.59364\\
0.0468139 11.9417\\
0.0632139 14.3529\\
0.0851562 16.7778\\
0.114353 19.1806\\
0.152932 21.5334\\
0.203469 23.8131\\
0.268978 25.9996\\
0.352866 28.0761\\
0.458826 30.0298\\
0.59071 31.8533\\
0.752392 33.5452\\
0.947664 35.1093\\
1.18018 36.554\\
1.45346 37.8898\\
1.77086 39.1278\\
2.13565 40.2787\\
2.55099 41.3517\\
3.01993 42.3549\\
3.54541 43.2949\\
4.13021 44.1774\\
4.77699 45.0071\\
5.48821 45.7882\\
6.26616 46.5244\\
7.11297 47.219\\
8.03055 47.8748\\
9.02065 48.4944\\
10.0848 49.0803\\
11.2245 49.6346\\
12.4407 50.1593\\
13.7347 50.656\\
15.1072 51.1264\\
16.5589 51.572\\
18.0904 51.9941\\
19.702 52.3937\\
21.394 52.7722\\
23.1665 53.1303\\
25.0195 53.469\\
26.9527 53.7891\\
28.9658 54.0913\\
31.0585 54.3764\\
33.2301 54.645\\
35.48 54.8976\\
37.8074 55.1348\\
40.2114 55.357\\
42.691 55.5647\\
45.245 55.7584\\
47.8724 55.9385\\
50.5718 56.1053\\
53.3418 56.2593\\
56.181 56.4007\\
59.0877 56.53\\
62.0605 56.6475\\
65.0975 56.7534\\
68.1971 56.8482\\
71.3574 56.9321\\
74.5765 57.0055\\
77.8525 57.0686\\
81.1834 57.1218\\
84.5672 57.1654\\
88.0019 57.1997\\
91.4853 57.225\\
95.0153 57.2416\\
98.5899 57.2498\\
102.207 57.25\\
105.864 57.2423\\
109.559 57.2273\\
113.29 57.2051\\
117.055 57.176\\
120.851 57.1403\\
124.677 57.0984\\
128.53 57.0504\\
132.409 56.9968\\
136.31 56.9377\\
140.233 56.8734\\
144.175 56.8043\\
148.134 56.7305\\
152.108 56.6523\\
156.095 56.5699\\
160.093 56.4836\\
164.102 56.3936\\
168.118 56.3001\\
172.139 56.2033\\
176.166 56.1034\\
180.195 56.0006\\
184.225 55.8951\\
188.254 55.7871\\
192.282 55.6766\\
196.306 55.564\\
200.325 55.4493\\
204.338 55.3327\\
208.344 55.2143\\
212.34 55.0942\\
216.327 54.9726\\
220.303 54.8496\\
224.266 54.7252\\
228.216 54.5996\\
232.151 54.4729\\
236.071 54.3452\\
239.975 54.2165\\
243.861 54.087\\
247.729 53.9567\\
251.579 53.8256\\
255.408 53.6939\\
259.218 53.5616\\
263.006 53.4288\\
266.772 53.2954\\
270.516 53.1617\\
274.236 53.0275\\
277.933 52.893\\
281.606 52.7582\\
285.254 52.6231\\
288.878 52.4878\\
292.475 52.3523\\
296.047 52.2166\\
299.592 52.0808\\
303.111 51.9448\\
306.602 51.8088\\
310.066 51.6726\\
313.503 51.5364\\
316.912 51.4002\\
320.292 51.2639\\
323.645 51.1276\\
326.968 50.9914\\
330.264 50.8551\\
333.53 50.7189\\
336.767 50.5827\\
339.975 50.4465\\
343.154 50.3104\\
346.304 50.1744\\
349.425 50.0384\\
352.516 49.9025\\
};
\addlegendentry{$V_{\mathrm{DS}}=\SI{0.5}{\volt}$}
\addplot [color=color1, solid, mark=+, mark options={solid}, mark phase=1, ]
  table[row sep=crcr, x expr=\thisrowno{0}*1.000000e-03, y expr=\thisrowno{1}*1.000000e+00]{
0.0033141 0.374823\\
0.00450478 0.663839\\
0.0061238 1.14972\\
0.00832516 1.92204\\
0.0113171 3.05945\\
0.0153816 4.59117\\
0.0208994 6.4786\\
0.0283823 8.63636\\
0.0385148 10.9705\\
0.0522075 13.403\\
0.0706589 15.8777\\
0.0954286 18.355\\
0.128515 20.8055\\
0.172425 23.2051\\
0.230222 25.5319\\
0.305521 27.7649\\
0.402425 29.8844\\
0.525362 31.8729\\
0.678858 33.7178\\
0.867282 35.4128\\
1.09463 36.959\\
1.36441 38.3647\\
1.67966 39.6434\\
2.04307 40.8115\\
2.45712 41.8856\\
2.92424 42.8806\\
3.44686 43.8088\\
4.02749 44.6801\\
4.66866 45.5017\\
5.3729 46.279\\
6.14271 47.0161\\
6.9805 47.7162\\
7.88857 48.3818\\
8.86908 49.0151\\
9.92402 49.618\\
11.0552 50.1922\\
12.2643 50.7392\\
13.5528 51.2606\\
14.922 51.7576\\
16.373 52.2317\\
17.9069 52.6839\\
19.5243 53.1154\\
21.2259 53.5273\\
23.0123 53.9206\\
24.8837 54.2962\\
26.8404 54.655\\
28.8825 54.9977\\
31.0099 55.3252\\
33.2224 55.6382\\
35.5197 55.9373\\
37.9014 56.2232\\
40.367 56.4965\\
42.9159 56.7577\\
45.5474 57.0074\\
48.2608 57.246\\
51.0551 57.4741\\
53.9294 57.692\\
56.8827 57.9002\\
59.914 58.099\\
63.0221 58.2889\\
66.2058 58.4702\\
69.4639 58.6433\\
72.7951 58.8083\\
76.1981 58.9658\\
79.6716 59.1159\\
83.2141 59.2589\\
86.8243 59.3951\\
90.5007 59.5248\\
94.2419 59.6481\\
98.0463 59.7654\\
101.913 59.8767\\
105.839 59.9824\\
109.825 60.0826\\
113.867 60.1776\\
117.966 60.2674\\
122.119 60.3523\\
126.324 60.4325\\
130.581 60.508\\
134.888 60.5791\\
139.243 60.6459\\
143.644 60.7085\\
148.092 60.7671\\
152.583 60.8218\\
157.116 60.8727\\
161.691 60.92\\
166.305 60.9637\\
170.957 61.0039\\
175.646 61.0407\\
180.371 61.0744\\
185.13 61.1048\\
189.921 61.1322\\
194.744 61.1566\\
199.597 61.178\\
204.479 61.1966\\
209.389 61.2125\\
214.325 61.2257\\
219.286 61.2362\\
224.272 61.2441\\
229.28 61.2496\\
234.309 61.2526\\
239.359 61.2532\\
244.429 61.2514\\
249.517 61.2474\\
254.621 61.2411\\
259.742 61.2326\\
264.879 61.2219\\
270.029 61.2091\\
275.192 61.1942\\
280.367 61.1773\\
285.553 61.1584\\
290.749 61.1375\\
295.955 61.1147\\
301.168 61.0899\\
306.389 61.0633\\
311.616 61.0348\\
316.849 61.0045\\
322.086 60.9724\\
327.328 60.9386\\
332.572 60.903\\
337.818 60.8657\\
343.066 60.8267\\
348.314 60.786\\
353.562 60.7437\\
358.81 60.6997\\
364.055 60.6542\\
369.298 60.6071\\
374.538 60.5585\\
379.774 60.5083\\
385.006 60.4566\\
390.232 60.4034\\
395.453 60.3487\\
400.667 60.2926\\
405.874 60.2351\\
411.073 60.1761\\
416.264 60.1158\\
421.445 60.0541\\
426.618 59.9911\\
431.78 59.9268\\
436.931 59.8611\\
442.071 59.7942\\
447.2 59.726\\
};
\addlegendentry{$V_{\mathrm{DS}}=\SI{1.0}{\volt}$}
\addplot [color=color2, solid, mark=triangle, mark options={solid, rotate=180}, mark phase=1, ]
  table[row sep=crcr, x expr=\thisrowno{0}*1.000000e-03, y expr=\thisrowno{1}*1.000000e+00]{
0.00421172 0.653739\\
0.00572906 1.13614\\
0.00779386 1.9056\\
0.0106019 3.04256\\
0.0144218 4.57808\\
0.0196143 6.47451\\
0.0266671 8.64644\\
0.0362348 10.9997\\
0.0491956 13.4566\\
0.0667109 15.9616\\
0.0903116 18.4765\\
0.121983 20.9734\\
0.164259 23.4299\\
0.220297 25.8253\\
0.293927 28.1391\\
0.389613 30.3502\\
0.512333 32.4383\\
0.66733 34.3854\\
0.859771 36.1781\\
1.09439 37.8098\\
1.3752 39.2825\\
1.70539 40.6059\\
2.08737 41.7959\\
2.52305 42.8716\\
3.01407 43.8528\\
3.56208 44.7569\\
4.16884 45.5985\\
4.83634 46.3889\\
5.56672 47.1362\\
6.36226 47.8462\\
7.22531 48.5228\\
8.15818 49.1688\\
9.16314 49.7865\\
10.2424 50.3772\\
11.3978 50.9423\\
12.6315 51.4831\\
13.9449 52.0005\\
15.3397 52.4956\\
16.8172 52.9692\\
18.3786 53.4225\\
20.0248 53.8562\\
21.7567 54.2712\\
23.575 54.6684\\
25.48 55.0486\\
27.4723 55.4125\\
29.552 55.7608\\
31.7191 56.0943\\
33.9737 56.4137\\
36.3155 56.7194\\
38.7441 57.0122\\
41.2593 57.2926\\
43.8604 57.5611\\
46.5469 57.8183\\
49.3179 58.0646\\
52.1728 58.3005\\
55.1106 58.5264\\
58.1304 58.7428\\
61.231 58.9499\\
64.4116 59.1483\\
67.6708 59.3382\\
71.0075 59.52\\
74.4204 59.694\\
77.9083 59.8605\\
81.4698 60.0198\\
85.1035 60.1722\\
88.8081 60.318\\
92.5822 60.4574\\
96.4242 60.5906\\
100.333 60.718\\
104.306 60.8396\\
108.344 60.9558\\
112.443 61.0667\\
116.603 61.1726\\
120.822 61.2735\\
125.099 61.3698\\
129.433 61.4615\\
133.82 61.5489\\
138.261 61.632\\
142.754 61.7112\\
147.298 61.7864\\
151.89 61.8578\\
156.529 61.9257\\
161.215 61.99\\
165.946 62.0509\\
170.72 62.1086\\
175.536 62.1632\\
180.392 62.2148\\
185.288 62.2634\\
190.223 62.3092\\
195.194 62.3522\\
200.2 62.3927\\
205.241 62.4306\\
210.316 62.466\\
215.422 62.4991\\
220.559 62.5299\\
225.726 62.5585\\
230.922 62.5849\\
236.145 62.6093\\
241.394 62.6316\\
246.669 62.652\\
251.969 62.6706\\
257.292 62.6873\\
262.637 62.7023\\
268.004 62.7155\\
273.391 62.7271\\
278.799 62.7371\\
284.224 62.7456\\
289.668 62.7525\\
295.129 62.758\\
300.606 62.7621\\
306.098 62.7648\\
311.605 62.7661\\
317.126 62.7662\\
322.66 62.765\\
328.206 62.7626\\
333.764 62.7589\\
339.333 62.7541\\
344.911 62.7482\\
350.5 62.7412\\
356.097 62.733\\
361.702 62.7239\\
367.315 62.7137\\
372.934 62.7025\\
378.561 62.6903\\
384.192 62.6772\\
389.829 62.6631\\
395.471 62.6482\\
401.116 62.6323\\
406.765 62.6155\\
412.417 62.5979\\
418.072 62.5795\\
423.728 62.5602\\
429.386 62.5401\\
435.044 62.5192\\
440.704 62.4975\\
446.363 62.4751\\
452.021 62.4518\\
457.679 62.4279\\
463.336 62.4032\\
468.99 62.3777\\
474.643 62.3516\\
};
\addlegendentry{$V_{\mathrm{DS}}=\SI{1.5}{\volt}$}
\end{axis}

\end{tikzpicture}
