\begin{tikzpicture}[font=\normalsize, trim axis left, trim axis right, tight background]
\pgfplotsset{every axis/.append style={very thick},compat=1.18}
\definecolor{color0}{rgb}{0.00000, 0.39216, 0.00000}
\definecolor{color1}{rgb}{0.00000, 0.00000, 0.54510}
\definecolor{color2}{rgb}{0.69020, 0.18824, 0.37647}

\begin{axis}[
scale only axis,
xlabel={$-J_{\mathrm{D}} ( \si{\milli\ampere\per\micro\meter} )$},
ylabel={$\Re \left\{ \underline{-Y}_{21} \right\} ( \si{\milli\siemens\per\micro\meter} )$},
xmode=log,
ymode=log,
xmin=1e-05,
xmax=1,
restrict x to domain=-5.69897:0.69897,
log basis x=10,
ymin=0.0001,
ymax=2,
restrict y to domain=-4.69897:1,
log basis y=10,
ytick pos=left,
xlabel shift=-5pt,
 ylabel shift=-5pt,
xmajorgrids,
enlargelimits=false,
scaled ticks=true,
ymajorgrids,
x tick style={color=black},
y tick style={color=black},
x grid style={white!69.01960784313725!black},
y grid style={white!69.01960784313725!black},
/tikz/mark repeat=2,
legend style={at={(0.02,0.98)}, anchor=north west,legend cell align=left, align=left},
]
\addplot [color=color0, solid, mark=x, mark options={solid}, mark phase=0, ]
  table[row sep=crcr, x expr=\thisrowno{0}*1.000000e-03, y expr=\thisrowno{1}*1.000000e-03]{
0.000745136 0.0182478\\
0.000952371 0.0233752\\
0.00121807 0.0299491\\
0.00155783 0.03838\\
0.00199244 0.0491948\\
0.00255178 0.0630704\\
0.00326768 0.0808766\\
0.00418627 0.10373\\
0.00536407 0.133067\\
0.00687513 0.170727\\
0.00881365 0.219076\\
0.0113024 0.281145\\
0.0144947 0.360816\\
0.018594 0.463057\\
0.0238528 0.594207\\
0.0306006 0.76233\\
0.039257 0.977641\\
0.0503535 1.253\\
0.0645702 1.60445\\
0.0827614 2.05178\\
0.106004 2.61895\\
0.135635 3.33438\\
0.173294 4.23074\\
0.220972 5.3441\\
0.281027 6.71232\\
0.356193 8.37254\\
0.449562 10.3581\\
0.564528 12.6954\\
0.704701 15.4014\\
0.873805 18.4822\\
1.07558 21.9336\\
1.31367 25.7423\\
1.59155 29.8885\\
1.91249 34.3487\\
2.27949 39.0978\\
2.69532 44.1111\\
3.16251 49.3656\\
3.68337 54.8401\\
4.25999 60.5162\\
4.89431 66.3773\\
5.5881 72.409\\
6.34301 78.5984\\
7.16056 84.9339\\
8.04215 91.4049\\
8.98908 98.0016\\
10.0026 104.715\\
11.0837 111.535\\
12.2336 118.454\\
13.4531 125.464\\
14.7431 132.556\\
16.1045 139.722\\
17.5378 146.955\\
19.0438 154.246\\
20.6229 161.589\\
22.2757 168.974\\
24.0025 176.396\\
25.8037 183.847\\
27.6795 191.32\\
29.6302 198.808\\
31.6557 206.305\\
33.7563 213.804\\
35.9318 221.299\\
38.1822 228.784\\
40.5074 236.253\\
42.9072 243.7\\
45.3813 251.121\\
47.9295 258.51\\
50.5514 265.862\\
53.2466 273.173\\
56.0147 280.439\\
58.8552 287.654\\
61.7676 294.815\\
64.7513 301.918\\
67.8058 308.959\\
70.9303 315.936\\
74.1243 322.845\\
77.387 329.683\\
80.7177 336.447\\
84.1157 343.134\\
87.5801 349.743\\
91.1102 356.27\\
94.7052 362.714\\
98.3642 369.072\\
102.086 375.344\\
105.871 381.526\\
109.717 387.619\\
113.623 393.619\\
117.589 399.527\\
121.613 405.34\\
125.695 411.059\\
129.834 416.681\\
134.028 422.206\\
138.278 427.635\\
142.581 432.965\\
146.937 438.196\\
151.344 443.329\\
155.803 448.362\\
160.311 453.296\\
164.869 458.13\\
169.474 462.865\\
174.126 467.501\\
178.823 472.036\\
183.566 476.473\\
188.352 480.81\\
193.182 485.049\\
198.053 489.189\\
202.965 493.231\\
207.917 497.175\\
212.908 501.023\\
217.937 504.773\\
223.004 508.428\\
228.106 511.987\\
233.243 515.452\\
238.414 518.823\\
243.619 522.1\\
248.856 525.285\\
254.125 528.378\\
259.423 531.38\\
264.752 534.292\\
270.109 537.115\\
275.494 539.85\\
280.906 542.497\\
286.343 545.058\\
291.807 547.534\\
297.294 549.925\\
302.805 552.233\\
308.338 554.458\\
313.894 556.602\\
319.47 558.665\\
325.067 560.649\\
330.683 562.554\\
336.317 564.383\\
341.97 566.135\\
347.64 567.812\\
353.326 569.415\\
359.028 570.945\\
364.745 572.403\\
370.476 573.79\\
376.22 575.108\\
381.978 576.357\\
387.747 577.538\\
};
\addlegendentry{$V_{\mathrm{DS}}=\SI{-1.5}{\volt}$}
\addplot [color=color1, solid, mark=+, mark options={solid}, mark phase=0, ]
  table[row sep=crcr, x expr=\thisrowno{0}*1.000000e-03, y expr=\thisrowno{1}*1.000000e-03]{
0.000483007 0.0118414\\
0.000617807 0.0151568\\
0.000789311 0.0194057\\
0.00100921 0.0248524\\
0.00129213 0.0318361\\
0.00165301 0.0407924\\
0.00211587 0.0522807\\
0.00270932 0.0670194\\
0.00347005 0.0859306\\
0.00444581 0.110198\\
0.00569733 0.141341\\
0.00730194 0.181308\\
0.00936097 0.232594\\
0.0120021 0.298393\\
0.0153912 0.38279\\
0.019737 0.490987\\
0.0253116 0.629603\\
0.0324582 0.807014\\
0.0416156 1.03377\\
0.0533419 1.32304\\
0.0683388 1.69112\\
0.0874924 2.15787\\
0.111904 2.74705\\
0.142934 3.48639\\
0.182237 4.40721\\
0.231796 5.54343\\
0.29394 6.92985\\
0.371338 8.5998\\
0.466978 10.5824\\
0.584104 12.8999\\
0.726141 15.5661\\
0.896604 18.5852\\
1.09901 21.9527\\
1.33678 25.6567\\
1.61321 29.6802\\
1.93138 34.003\\
2.2942 38.604\\
2.70432 43.4621\\
3.16423 48.5576\\
3.6762 53.8719\\
4.24234 59.3887\\
4.8646 65.0929\\
5.54478 70.9708\\
6.28455 77.0102\\
7.08548 83.1995\\
7.94901 89.528\\
8.87647 95.9857\\
9.86912 102.563\\
10.9281 109.25\\
12.0544 116.038\\
13.2492 122.917\\
14.5131 129.88\\
15.847 136.918\\
17.2517 144.021\\
18.7276 151.182\\
20.2755 158.392\\
21.8956 165.643\\
23.5884 172.927\\
25.3542 180.236\\
27.1932 187.563\\
29.1055 194.899\\
31.0912 202.238\\
33.1503 209.572\\
35.2826 216.894\\
37.4881 224.197\\
39.7664 231.474\\
42.1174 238.719\\
44.5407 245.926\\
47.0358 253.088\\
49.6023 260.2\\
52.2396 267.256\\
54.9472 274.25\\
57.7244 281.177\\
60.5705 288.033\\
63.4848 294.811\\
66.4665 301.508\\
69.5147 308.12\\
72.6286 314.641\\
75.8072 321.068\\
79.0496 327.398\\
82.3548 333.626\\
85.7218 339.749\\
89.1494 345.765\\
92.6367 351.67\\
96.1824 357.461\\
99.7855 363.137\\
103.445 368.694\\
107.159 374.131\\
110.927 379.446\\
114.748 384.637\\
118.619 389.702\\
122.541 394.641\\
126.512 399.451\\
130.53 404.133\\
134.594 408.685\\
138.703 413.107\\
142.856 417.398\\
147.051 421.557\\
151.286 425.586\\
155.562 429.483\\
159.876 433.25\\
164.226 436.885\\
168.613 440.39\\
173.034 443.765\\
177.488 447.011\\
181.974 450.129\\
186.49 453.119\\
191.035 455.983\\
195.609 458.721\\
200.21 461.335\\
204.835 463.827\\
209.486 466.197\\
214.159 468.446\\
218.854 470.578\\
223.57 472.592\\
228.306 474.491\\
233.06 476.276\\
237.831 477.95\\
242.618 479.514\\
247.421 480.969\\
252.237 482.318\\
257.067 483.563\\
261.908 484.706\\
266.76 485.748\\
271.623 486.692\\
276.494 487.539\\
281.373 488.293\\
286.26 488.954\\
291.152 489.525\\
296.05 490.007\\
300.952 490.404\\
305.858 490.717\\
310.766 490.948\\
315.676 491.099\\
320.588 491.172\\
325.499 491.17\\
330.411 491.094\\
335.321 490.946\\
340.23 490.729\\
345.135 490.444\\
350.038 490.093\\
};
\addlegendentry{$V_{\mathrm{DS}}=\SI{-1.0}{\volt}$}
\addplot [color=color2, solid, mark=triangle, mark options={solid, rotate=180}, mark phase=0, ]
  table[row sep=crcr, x expr=\thisrowno{0}*1.000000e-03, y expr=\thisrowno{1}*1.000000e-03]{
0.000313613 0.0076691\\
0.000400665 0.00981076\\
0.000511753 0.0125541\\
0.000654187 0.0160689\\
0.00083641 0.0205734\\
0.00107012 0.0263473\\
0.00136895 0.0337499\\
0.00175191 0.0432424\\
0.00224288 0.0554166\\
0.00287173 0.0710317\\
0.00367809 0.0910617\\
0.00471183 0.116755\\
0.0060371 0.149712\\
0.00773704 0.191978\\
0.00991642 0.24617\\
0.0127112 0.315624\\
0.0162939 0.404586\\
0.0208857 0.518439\\
0.0267681 0.663982\\
0.0342993 0.849749\\
0.0439323 1.08638\\
0.0562396 1.38699\\
0.0719383 1.76757\\
0.0919212 2.24727\\
0.117289 2.84855\\
0.149383 3.59702\\
0.189814 4.52091\\
0.240485 5.64998\\
0.303596 7.01395\\
0.381639 8.64052\\
0.477362 10.5533\\
0.593719 12.77\\
0.733811 15.3014\\
0.900809 18.1511\\
1.09788 21.3159\\
1.32815 24.7873\\
1.59461 28.5531\\
1.90014 32.5982\\
2.24745 36.9068\\
2.6391 41.4626\\
3.07748 46.2495\\
3.56481 51.2524\\
4.1032 56.4566\\
4.69457 61.8483\\
5.34074 67.4144\\
6.0434 73.1422\\
6.80409 79.0196\\
7.62425 85.0347\\
8.5052 91.1756\\
9.44814 97.4307\\
10.4542 103.788\\
11.5242 110.237\\
12.6592 116.765\\
13.8597 123.36\\
15.1265 130.01\\
16.4601 136.703\\
17.8607 143.428\\
19.3287 150.171\\
20.8641 156.921\\
22.4671 163.665\\
24.1374 170.39\\
25.8748 177.086\\
27.6789 183.738\\
29.5494 190.336\\
31.4854 196.868\\
33.4865 203.322\\
35.5516 209.687\\
37.6799 215.952\\
39.8703 222.108\\
42.1216 228.143\\
44.4327 234.049\\
46.8021 239.817\\
49.2286 245.439\\
51.7104 250.908\\
54.2462 256.215\\
56.8342 261.355\\
59.4727 266.323\\
62.16 271.112\\
64.8943 275.719\\
67.6738 280.141\\
70.4965 284.373\\
73.3606 288.414\\
76.2642 292.262\\
79.2052 295.915\\
82.1818 299.374\\
85.192 302.637\\
88.2339 305.706\\
91.3055 308.581\\
94.4049 311.264\\
97.5301 313.757\\
100.679 316.062\\
103.851 318.181\\
107.042 320.118\\
110.253 321.877\\
113.479 323.46\\
116.721 324.871\\
119.976 326.116\\
123.243 327.197\\
126.52 328.12\\
129.805 328.889\\
133.097 329.509\\
136.395 329.984\\
139.696 330.32\\
143 330.522\\
146.306 330.594\\
149.612 330.542\\
152.917 330.37\\
156.219 330.084\\
159.518 329.688\\
162.812 329.187\\
166.101 328.586\\
169.384 327.89\\
172.659 327.104\\
175.926 326.232\\
179.183 325.278\\
182.431 324.247\\
185.668 323.143\\
188.893 321.97\\
192.107 320.733\\
195.308 319.435\\
198.496 318.079\\
201.669 316.671\\
204.829 315.212\\
207.973 313.708\\
211.103 312.16\\
214.217 310.572\\
217.314 308.948\\
220.395 307.289\\
223.46 305.599\\
226.507 303.881\\
229.537 302.137\\
232.55 300.369\\
235.545 298.581\\
238.521 296.774\\
241.48 294.949\\
244.42 293.111\\
247.342 291.259\\
250.246 289.397\\
253.13 287.525\\
255.996 285.647\\
258.843 283.762\\
};
\addlegendentry{$V_{\mathrm{DS}}=\SI{-0.5}{\volt}$}
\end{axis}

\end{tikzpicture}
