\begin{tikzpicture}[font=\normalsize,trim axis left, trim axis right,tight background]
\pgfplotsset{every axis/.append style={very thick},compat=1.5},
\definecolor{color0}{rgb}{0.00000, 0.39216, 0.00000}
\definecolor{color1}{rgb}{0.00000, 0.00000, 0.54510}
\definecolor{color2}{rgb}{0.69020, 0.18824, 0.37647}

\begin{axis}[scale only axis,ytick pos=left,
xlabel={$J_{\mathrm{D}} ( \si{\milli\ampere\per\micro\meter} )$},
ylabel={$\Re \left\{ \underline{Y}_{21} \right\} ( \si{\milli\siemens\per\micro\meter} )$},
xmode=log,
ymode=log,
xmin=1e-05,
xmax=1,
restrict x to domain=-5.69897:0.69897,
log basis x=10,
ymin=1e-06,
ymax=0.5,
restrict y to domain=-6.69897:0.39794,
log basis y=10,
xlabel shift = -5 pt,
 ylabel shift = -5 pt,
xmajorgrids,
enlargelimits=false,
scaled ticks=true,
ymajorgrids,
x tick style={color=black},
y tick style={color=black},
x grid style={white!69.01960784313725!black},
y grid style={white!69.01960784313725!black},
/tikz/mark repeat=2,
legend style={at={(0.02,0.98)}, anchor=north west,legend cell align=left, align=left},
]
\addplot [color=color0, solid, mark=x, mark options={solid}, mark phase=1, ]
  table[row sep=crcr, x expr=\thisrowno{0}*1.000000e-03, y expr=\thisrowno{1}*1.000000e-03]{
0.00209622 0.0646719\\
0.00285451 0.0880983\\
0.00388695 0.120002\\
0.00529293 0.163432\\
0.00720791 0.222509\\
0.00981394 0.302786\\
0.0133592 0.411705\\
0.0181766 0.559175\\
0.0247147 0.758259\\
0.0335703 1.02596\\
0.0455343 1.38404\\
0.0616423 1.85967\\
0.0832295 2.4858\\
0.111988 3.30071\\
0.150014 4.3466\\
0.199835 5.66681\\
0.264401 7.30197\\
0.347038 9.28578\\
0.451358 11.6417\\
0.581153 14.3816\\
0.740276 17.5069\\
0.932556 21.0112\\
1.16173 24.8832\\
1.4314 29.1091\\
1.74504 33.674\\
2.10596 38.5621\\
2.5173 43.7568\\
2.98206 49.241\\
3.50303 54.9971\\
4.08285 61.0066\\
4.72395 67.2513\\
5.42859 73.7123\\
6.19886 80.3712\\
7.03662 87.2096\\
7.94359 94.2093\\
8.92128 101.352\\
9.97106 108.622\\
11.0941 116\\
12.2914 123.47\\
13.5637 131.016\\
14.9119 138.623\\
16.3363 146.274\\
17.8375 153.956\\
19.4155 161.653\\
21.0705 169.353\\
22.8025 177.04\\
24.6113 184.703\\
26.4965 192.328\\
28.4577 199.905\\
30.4944 207.42\\
32.6058 214.863\\
34.7913 222.223\\
37.05 229.489\\
39.3808 236.653\\
41.7827 243.703\\
44.2544 250.632\\
46.7949 257.431\\
49.4026 264.091\\
52.0762 270.605\\
54.8142 276.965\\
57.615 283.166\\
60.4769 289.2\\
63.3984 295.062\\
66.3776 300.746\\
69.4127 306.249\\
72.5019 311.565\\
75.6434 316.69\\
78.8351 321.623\\
82.0752 326.36\\
85.3616 330.898\\
88.6925 335.236\\
92.0657 339.374\\
95.4793 343.309\\
98.9312 347.042\\
102.419 350.574\\
105.942 353.904\\
109.497 357.033\\
113.082 359.963\\
116.695 362.696\\
120.335 365.234\\
124 367.579\\
127.686 369.733\\
131.394 371.7\\
135.12 373.482\\
138.863 375.084\\
142.621 376.507\\
146.392 377.757\\
150.175 378.837\\
153.968 379.751\\
157.77 380.502\\
161.578 381.096\\
165.391 381.536\\
169.208 381.826\\
173.027 381.972\\
176.847 381.976\\
180.666 381.844\\
184.484 381.58\\
188.297 381.188\\
192.107 380.672\\
195.911 380.038\\
199.707 379.288\\
203.496 378.427\\
207.275 377.46\\
211.045 376.39\\
214.803 375.221\\
218.549 373.958\\
222.282 372.604\\
226.001 371.163\\
229.705 369.639\\
233.393 368.035\\
237.065 366.355\\
240.72 364.603\\
244.357 362.781\\
247.975 360.894\\
251.575 358.944\\
255.154 356.935\\
258.713 354.87\\
262.251 352.751\\
265.768 350.581\\
269.263 348.364\\
272.735 346.102\\
276.185 343.797\\
279.611 341.453\\
283.014 339.071\\
286.392 336.654\\
289.747 334.205\\
293.076 331.725\\
296.381 329.217\\
299.661 326.682\\
302.915 324.124\\
306.143 321.543\\
309.345 318.942\\
312.522 316.323\\
315.672 313.687\\
318.795 311.035\\
321.892 308.37\\
324.963 305.694\\
328.006 303.006\\
331.023 300.31\\
334.012 297.606\\
336.975 294.896\\
};
\addlegendentry{$V_{\mathrm{DS}}=\SI{0.5}{\volt}$}
\addplot [color=color1, solid, mark=+, mark options={solid}, mark phase=1, ]
  table[row sep=crcr, x expr=\thisrowno{0}*1.000000e-03, y expr=\thisrowno{1}*1.000000e-03]{
0.00295228 0.0914902\\
0.00402549 0.124787\\
0.0054888 0.170181\\
0.00748417 0.232033\\
0.0102039 0.316235\\
0.0139101 0.430719\\
0.0189548 0.586096\\
0.0258147 0.796448\\
0.0351279 1.08026\\
0.0477439 1.46141\\
0.0647814 1.97013\\
0.0876951 2.64364\\
0.11835 3.526\\
0.159077 4.66672\\
0.212719 6.11764\\
0.282628 7.92776\\
0.372606 10.1369\\
0.486779 12.7695\\
0.62943 15.8318\\
0.804812 19.3124\\
1.017 23.1881\\
1.2698 27.4309\\
1.56675 32.0146\\
1.91115 36.9179\\
2.30612 42.1251\\
2.75463 47.6239\\
3.25954 53.404\\
3.82361 59.4551\\
4.44951 65.7658\\
5.13975 72.3235\\
5.89675 79.1139\\
6.72276 86.1219\\
7.61986 93.331\\
8.58999 100.725\\
9.63491 108.285\\
10.7562 115.996\\
11.9553 123.839\\
13.2334 131.797\\
14.5915 139.853\\
16.0307 147.991\\
17.5516 156.195\\
19.1548 164.448\\
20.8407 172.736\\
22.6096 181.043\\
24.4616 189.356\\
26.3967 197.661\\
28.4147 205.945\\
30.5154 214.194\\
32.6984 222.399\\
34.9632 230.547\\
37.3092 238.629\\
39.7355 246.633\\
42.2415 254.552\\
44.8263 262.376\\
47.4887 270.098\\
50.2279 277.71\\
53.0425 285.206\\
55.9316 292.579\\
58.8937 299.825\\
61.9276 306.938\\
65.032 313.914\\
68.2054 320.749\\
71.4465 327.44\\
74.7538 333.984\\
78.1257 340.379\\
81.5608 346.622\\
85.0576 352.713\\
88.6146 358.649\\
92.2301 364.43\\
95.9027 370.057\\
99.6307 375.527\\
103.413 380.843\\
107.247 386.003\\
111.132 391.01\\
115.067 395.863\\
119.049 400.563\\
123.077 405.112\\
127.151 409.512\\
131.267 413.764\\
135.426 417.869\\
139.624 421.829\\
143.862 425.646\\
148.137 429.323\\
152.448 432.861\\
156.793 436.263\\
161.172 439.53\\
165.584 442.665\\
170.025 445.67\\
174.497 448.547\\
178.996 451.299\\
183.522 453.928\\
188.074 456.436\\
192.65 458.825\\
197.25 461.099\\
201.872 463.259\\
206.515 465.307\\
211.178 467.245\\
215.859 469.077\\
220.559 470.803\\
225.275 472.427\\
230.007 473.95\\
234.754 475.375\\
239.514 476.703\\
244.288 477.937\\
249.073 479.078\\
253.869 480.129\\
258.675 481.091\\
263.49 481.966\\
268.314 482.757\\
273.145 483.465\\
277.983 484.091\\
282.827 484.638\\
287.676 485.107\\
292.529 485.5\\
297.385 485.818\\
302.245 486.063\\
307.106 486.237\\
311.969 486.341\\
316.833 486.377\\
321.697 486.345\\
326.56 486.248\\
331.421 486.087\\
336.281 485.863\\
341.138 485.577\\
345.993 485.232\\
350.843 484.827\\
355.689 484.364\\
360.53 483.845\\
365.366 483.271\\
370.195 482.642\\
375.018 481.961\\
379.834 481.228\\
384.643 480.443\\
389.443 479.61\\
394.235 478.727\\
399.017 477.797\\
403.79 476.82\\
408.554 475.798\\
413.306 474.73\\
418.048 473.62\\
422.779 472.466\\
};
\addlegendentry{$V_{\mathrm{DS}}=\SI{1.0}{\volt}$}
\addplot [color=color2, solid, mark=triangle, mark options={solid, rotate=180}, mark phase=1, ]
  table[row sep=crcr, x expr=\thisrowno{0}*1.000000e-03, y expr=\thisrowno{1}*1.000000e-03]{
0.00364837 0.113265\\
0.00497688 0.154589\\
0.00679068 0.210958\\
0.00926515 0.287799\\
0.01264 0.392451\\
0.0172388 0.534783\\
0.0235052 0.727988\\
0.0320279 0.989552\\
0.0435992 1.34236\\
0.0592763 1.81591\\
0.0804435 2.4473\\
0.108899 3.28187\\
0.146934 4.37264\\
0.1974 5.77813\\
0.263744 7.55767\\
0.349979 9.76437\\
0.460586 12.4366\\
0.60032 15.5904\\
0.773973 19.2166\\
0.986124 23.2835\\
1.24096 27.7465\\
1.54222 32.5593\\
1.89318 37.6829\\
2.29682 43.09\\
2.75587 48.7642\\
3.27297 54.6969\\
3.85066 60.8836\\
4.49147 67.3198\\
5.19787 74.0003\\
5.97226 80.917\\
6.81697 88.0598\\
7.73417 95.4162\\
8.72595 102.972\\
9.79422 110.711\\
10.9407 118.618\\
12.1671 126.674\\
13.4747 134.863\\
14.8647 143.168\\
16.3383 151.57\\
17.8964 160.053\\
19.5396 168.599\\
21.2685 177.194\\
23.0836 185.819\\
24.985 194.461\\
26.9728 203.104\\
29.047 211.734\\
31.2074 220.338\\
33.4536 228.902\\
35.7853 237.415\\
38.2017 245.864\\
40.7023 254.239\\
43.2862 262.531\\
45.9526 270.728\\
48.7005 278.824\\
51.5287 286.809\\
54.4362 294.676\\
57.4218 302.42\\
60.4842 310.033\\
63.622 317.51\\
66.8339 324.847\\
70.1185 332.039\\
73.4742 339.083\\
76.8997 345.976\\
80.3932 352.716\\
83.9534 359.3\\
87.5787 365.726\\
91.2674 371.994\\
95.0181 378.103\\
98.829 384.053\\
102.699 389.844\\
106.625 395.475\\
110.608 400.948\\
114.644 406.263\\
118.732 411.422\\
122.872 416.427\\
127.06 421.277\\
131.297 425.977\\
135.579 430.526\\
139.907 434.929\\
144.277 439.185\\
148.69 443.299\\
153.143 447.272\\
157.635 451.107\\
162.165 454.807\\
166.731 458.373\\
171.332 461.809\\
175.966 465.118\\
180.634 468.301\\
185.332 471.362\\
190.06 474.304\\
194.818 477.128\\
199.603 479.839\\
204.414 482.438\\
209.251 484.928\\
214.112 487.311\\
218.997 489.591\\
223.904 491.77\\
228.832 493.851\\
233.781 495.835\\
238.748 497.726\\
243.735 499.526\\
248.739 501.236\\
253.759 502.86\\
258.796 504.4\\
263.847 505.858\\
268.912 507.235\\
273.991 508.535\\
279.083 509.759\\
284.186 510.91\\
289.301 511.988\\
294.426 512.997\\
299.561 513.937\\
304.704 514.812\\
309.857 515.621\\
315.017 516.369\\
320.184 517.054\\
325.357 517.681\\
330.537 518.249\\
335.722 518.762\\
340.912 519.219\\
346.106 519.622\\
351.305 519.974\\
356.506 520.275\\
361.71 520.526\\
366.916 520.729\\
372.124 520.886\\
377.334 520.996\\
382.544 521.062\\
387.755 521.084\\
392.966 521.065\\
398.176 521.003\\
403.386 520.902\\
408.594 520.761\\
413.801 520.581\\
419.005 520.365\\
424.208 520.111\\
429.407 519.822\\
434.604 519.498\\
439.797 519.141\\
444.987 518.749\\
450.172 518.326\\
};
\addlegendentry{$V_{\mathrm{DS}}=\SI{1.5}{\volt}$}
\end{axis}

\end{tikzpicture}
